# Blender v2.78 (sub 0) OBJ File: ''
# www.blender.org
mtllib Oak_Tree_m_09.mtl
o Oak_Tree_m_09
v 0.120375 3.651079 0.481892
v -0.311894 4.088407 1.258245
v -1.077056 4.489946 0.848725
v -1.195140 4.277292 -0.164779
v -0.471358 3.676578 -0.313883
v 0.907110 3.881463 -0.241864
v 1.038067 4.229309 0.460410
v 0.212482 3.859960 -0.974822
v 0.550797 4.405729 1.211291
v -0.479451 4.092986 -1.094462
v -1.159041 5.101642 -0.799497
v -0.547691 5.425064 -1.558470
v 0.358626 6.287405 -1.369167
v 0.481874 4.844497 -1.500428
v -0.311093 6.980678 -0.229247
v -1.051105 6.131809 -0.701102
v -1.156260 6.465917 0.160318
v -0.808294 6.694312 0.717152
v -1.265809 5.775193 0.857679
v -0.290284 6.678325 1.035397
v 0.703259 6.883066 -0.407303
v 1.262113 6.384039 -0.166448
v 1.083804 6.284816 -0.935376
v 0.608569 6.590556 0.699927
v -0.467703 6.498795 -1.090261
v -0.248271 5.559329 1.523494
v -1.042210 5.352284 1.307842
v 0.581229 5.575119 1.377640
v 1.055841 5.720106 0.804056
v 1.407182 5.223916 0.383512
v 1.380702 4.887906 -0.681318
v -1.458675 5.438421 0.133131
v -3.334709 3.622481 -0.964293
v -3.240733 3.121035 -1.507986
v -3.354434 2.569650 -0.879306
v -3.145993 2.754204 -0.005369
v -3.273398 3.432058 -0.114437
v -2.427292 4.154092 -0.668023
v -2.251136 3.923165 -1.261609
v -2.535936 3.852871 0.066245
v -2.583662 3.428162 -1.591739
v -2.596175 3.381053 0.361942
v -2.357996 2.541884 0.267815
v -1.616484 2.840809 0.496185
v -0.954414 2.839034 -0.070205
v -1.569350 3.624120 0.216872
v -1.102468 2.124156 -0.597484
v -1.745339 2.142855 0.076061
v -1.898863 1.797021 -0.473318
v -1.784507 1.860131 -0.927136
v -2.587992 1.941883 -0.909420
v -1.698116 2.146162 -1.417052
v -0.670086 2.681905 -0.828129
v -0.744856 3.181235 -1.123012
v -0.749217 3.144838 -0.497248
v -1.221679 2.648063 -1.501963
v -1.171826 2.364993 0.067366
v -2.430949 2.484968 -1.697421
v -2.934050 2.157424 -1.271080
v -2.025038 2.905163 -1.900017
v -1.504089 3.213103 -1.652227
v -1.496157 3.649252 -1.421547
v -1.395310 3.945652 -0.639192
v -2.589038 2.097235 -0.267356
v 0.055769 1.188053 0.008618
v -0.140512 1.196184 0.052404
v -0.107383 0.394649 0.089073
v 0.153321 0.384432 0.063559
v -0.212041 0.401952 -0.151177
v -0.251226 0.041974 -0.182000
v -0.132442 0.040863 0.117242
v -0.109625 1.195324 -0.271698
v 0.074859 1.187523 -0.191687
v 0.209787 0.385421 -0.192461
v -0.016019 0.396249 -0.325175
v -0.003355 0.041118 -0.387475
v 0.188841 0.039320 0.096709
v 0.268621 0.039478 -0.215223
v -0.242922 1.192913 -0.120037
v -0.035904 2.101404 -0.054692
v -0.212919 2.114438 -0.069269
v -0.274792 1.955577 -0.192452
v -0.150395 2.100763 -0.275632
v 0.002916 2.092585 -0.189593
v 0.051528 3.195952 -0.040395
v -0.051028 3.233675 -0.029031
v -0.021642 4.244108 0.026845
v -0.077553 4.248524 0.036967
v 0.070087 3.181876 -0.148502
v -0.238650 2.295675 -0.194686
v -0.623646 2.260743 -0.381148
v -0.622529 2.329963 -0.310534
v -0.094195 3.255192 -0.129465
v -0.020999 3.210898 -0.203951
v -0.104974 4.260888 -0.012595
v -0.014507 4.253743 -0.028971
v -0.066009 4.264113 -0.053347
v -0.679792 2.220144 -0.322890
v -0.662972 2.270124 -0.249381
v -1.164863 2.635949 -0.521664
v -1.150472 2.672328 -0.476236
v -1.199488 2.615766 -0.486241
v -1.184969 2.642058 -0.441742
v -0.155146 0.041546 -0.318538
v -1.671101 2.453292 0.347763
v 0.038026 2.622413 -0.175082
v -2.257667 1.814000 -0.640914
v -2.993267 3.455870 0.176841
v -2.080336 3.151788 0.483802
v 1.061023 4.785669 0.830423
v -0.377012 2.157033 -0.324537
v 0.142373 0.762508 -0.190789
v -2.584206 2.977613 -1.741565
v 1.241594 5.485518 0.602769
v 0.271134 0.039399 -0.048285
v -2.156828 2.068795 -0.063902
v -1.805916 3.061364 -1.795684
v 0.019749 3.784927 -0.004441
v -1.143329 5.439388 1.157657
v -0.875679 5.806168 -1.189864
v 0.155045 4.883239 1.498753
v -0.505342 4.713084 -1.408301
v -1.193914 3.231715 0.127951
v -2.483168 4.036443 -0.349546
v -0.237595 0.180444 -0.170999
v 0.922240 6.193909 0.751725
v -0.676725 2.240016 -0.280048
v 1.198537 6.126234 0.360474
v -1.315548 5.831773 -0.296282
v -0.149638 2.721735 -0.163631
v -1.082348 5.082510 1.186610
v -1.980085 4.126213 -0.622844
v 1.278491 5.662838 -0.885770
v 0.447665 5.609151 -1.542864
v -0.106006 2.106390 -0.039784
v -1.936401 3.992550 -0.187057
v -0.831751 2.438931 -0.735049
v 0.933410 6.680365 -0.716172
v -0.752078 2.709438 -0.468297
v -1.680899 2.779512 -1.787684
v -1.062301 2.557898 0.028670
v -2.865721 3.963643 -0.775627
v -0.484207 3.775663 -0.737780
v 0.629388 3.863350 -0.575904
v -0.037488 1.191841 0.048926
v -1.089524 3.425889 -0.151199
v -0.889651 2.911581 -1.329052
v -0.039694 3.804329 -0.124165
v -1.105142 2.247909 -0.175583
v 1.324124 4.518655 -0.068091
v 0.572826 3.712166 0.046122
v -0.094906 3.819258 -0.066711
v -2.485328 2.135126 -1.363230
v -3.380172 3.321590 -1.297195
v -1.299046 6.142481 0.498497
v -0.129970 0.400132 -0.256520
v -1.184428 2.621738 -0.510133
v -0.641427 2.306139 -0.272345
v -0.644256 2.889593 -1.003427
v -1.339951 5.146699 0.858540
v 0.772771 6.277702 -1.193864
v -0.166745 1.635666 -0.001298
v -1.458150 2.357046 -1.478672
v -2.006051 3.347964 -1.675091
v 0.805089 5.610761 1.135249
v -0.173334 3.831632 0.985599
v -1.740758 1.972614 -1.131489
v -0.736893 6.369975 -0.945575
v -0.967467 2.432643 -0.412973
v -0.010517 1.191194 -0.249467
v -0.511118 6.064665 -1.363459
v -1.455218 3.817508 -0.150906
v -2.772567 2.642539 0.151789
v -1.363982 6.008491 0.141025
v -2.492039 2.937962 0.358674
v -0.011577 4.248610 -0.000377
v -1.825396 1.806078 -0.710494
v -2.160846 2.749913 -1.850424
v -0.253365 6.242027 1.295412
v -0.048301 4.244476 0.038048
v -0.122954 0.176223 0.110937
v -0.224739 0.778641 -0.130212
v -1.443838 5.574416 0.515420
v 0.233545 6.194220 1.256874
v 0.180534 0.170364 0.088901
v -1.500002 1.892971 -0.490585
v -0.059755 5.812019 -1.592017
v 0.031166 3.783112 -0.085679
v -0.047166 2.093277 -0.239465
v -3.044502 2.272405 -0.533308
v -3.058903 3.578965 -1.351950
v -2.355818 4.068793 -0.965248
v -1.484757 3.428103 -1.543280
v 1.420210 5.785979 0.067295
v 0.071911 6.760488 -0.881201
v -2.475901 3.719471 -1.428267
v 0.662762 6.861226 0.077701
v -0.617745 2.300472 -0.351929
v -1.394350 4.938142 0.512212
v -2.923537 2.845942 -1.610218
v -3.437887 3.058777 -0.473772
v -1.117012 6.360721 -0.240158
v -3.367992 3.502186 -0.487725
v -0.305591 4.673813 1.431896
v -1.344440 2.124027 -1.109084
v 0.056603 4.165707 1.283597
v -3.331245 2.886857 -1.287981
v 0.643098 3.867916 0.559186
v 0.027907 1.629292 -0.192263
v 0.253460 0.170963 -0.206653
v -0.942291 3.563125 -0.905631
v -0.762850 6.260194 1.067553
v -0.653042 2.234347 -0.359631
v -0.673582 3.168011 -0.801168
v -0.229033 6.935965 0.523584
v -0.000108 1.633545 -0.026296
v -1.067854 2.356028 -1.100193
v -0.863758 3.918624 -0.217035
v -0.004958 0.177193 -0.367281
v 0.205228 0.383733 -0.058997
v -1.609839 3.272206 0.418346
v -0.515924 3.888550 0.683120
v 0.156171 0.040298 -0.338286
v -0.952539 2.469164 -0.355271
v -2.482051 2.294567 0.038641
v 0.196562 6.933992 0.265086
v 0.070623 3.184851 -0.092321
v -2.283926 3.107294 -1.800467
v -1.165468 2.661313 -0.452809
v -2.103348 3.558160 0.388051
v -2.124035 1.857574 -0.926734
v -1.152797 2.657405 -0.503715
v -2.055608 2.325937 0.215912
v -2.582985 3.670031 0.287355
v -2.015130 2.695426 0.431892
v -0.034491 4.365190 -1.414087
v -1.356199 5.277823 -0.352852
v -0.036812 5.062281 -1.623198
v -0.121417 1.628784 -0.269838
v 0.546958 5.069065 1.381381
v -2.778203 2.243646 -1.413313
v -1.160088 5.605349 -0.794679
v -0.096960 4.253885 0.015296
v -3.084895 2.266199 -1.157123
v -0.901905 5.216376 -1.221499
v -0.876143 4.104095 -0.629841
v -1.356394 3.808460 -1.104177
v -2.040147 3.810917 0.192645
v -0.037539 4.260572 -0.046877
v -0.124633 3.898741 -1.125867
v -1.389647 2.053693 -0.209088
v 0.025086 0.389065 0.100542
v -2.228586 1.891348 -0.357159
v -2.947882 3.079824 0.207355
v -2.998358 3.673246 0.005937
v 0.107718 0.761773 0.036734
v 1.438830 5.753814 -0.460834
v -1.784859 2.530167 -1.723982
v -3.030439 3.803249 -0.382246
v 1.226028 6.396003 -0.591370
v -1.793108 4.015833 -1.013072
v -0.762479 6.653234 -0.509637
v -0.004331 2.096889 -0.117909
v -0.227397 1.975177 -0.247419
v -2.655763 1.979473 -0.578075
v 0.382158 4.263676 -1.306090
v -0.159787 3.659746 -0.663468
v -0.063096 0.772933 -0.293967
v -0.191042 1.194797 -0.207889
v 0.160913 3.632223 -0.307948
v -0.430256 2.168347 -0.161159
v -3.303917 2.654103 -0.360862
v -3.034196 2.154263 -0.846183
v -0.832720 3.020678 -0.271475
v 1.137434 4.234290 -0.474156
v -0.090309 4.263834 -0.037191
v 0.837597 4.288975 -0.974688
v 0.281026 6.954844 -0.353324
v -0.062905 2.645489 -0.244361
v 0.551986 6.700833 -0.886893
v -1.993224 2.274797 -1.584681
v -0.836827 2.635157 -1.129343
v -0.126300 6.427518 -1.254713
v -1.036203 6.347196 0.798960
v -1.389826 2.258369 0.092766
v -1.205757 4.331540 0.290706
v -0.207711 1.195197 -0.023472
v -1.077579 3.475086 -1.275108
v -1.330652 2.556342 0.292703
v 0.894226 5.592954 -1.265838
v -0.400885 6.745906 -0.799124
v -0.809197 5.427013 1.397752
v 0.030868 0.040091 0.150693
v -2.148969 2.026487 -1.245542
v 1.489742 5.138701 -0.110888
v -1.251150 2.899500 0.285410
v -0.239782 2.261306 -0.131982
v 0.109398 0.390573 -0.279673
v 0.888377 5.070928 1.051986
v -0.202294 2.252692 -0.246058
v -0.058168 3.807266 0.007282
v 0.084326 1.186968 -0.090498
v -0.232587 0.041418 -0.016332
v -0.912919 2.461631 -0.320082
v -0.910358 2.512319 -0.400676
v 0.001777 3.215189 -0.023994
v -0.242471 1.602082 -0.148643
v -2.936989 2.405157 -0.150998
v -0.793035 5.795450 1.275662
v 0.970514 4.854042 -1.181560
v -1.211610 4.662371 -0.481035
v -0.112898 2.667362 -0.048599
v -0.880161 4.582968 -0.984084
v -0.182077 0.399200 -0.021533
v -1.802075 1.930582 -0.219017
v 0.607256 6.042114 1.156435
v -1.464662 1.928892 -0.822466
v -0.409619 2.250231 -0.246443
v -1.863007 3.816465 -1.354481
v -3.013772 3.269318 -1.560786
v -2.859291 2.091438 -1.143773
v -2.828043 3.832552 -1.177821
v 0.992960 6.582717 0.245238
v -0.820664 6.778420 -0.040839
v 0.029083 3.193501 -0.185631
v -1.388361 4.809285 0.036322
v -0.723933 4.946583 1.334046
v -0.264425 1.982311 -0.126158
v -3.004639 2.504992 -1.387142
v 0.007129 2.635931 -0.054094
v 1.004151 6.748553 -0.262403
v 0.341976 3.880077 0.945731
v 0.998502 4.024848 0.093063
v -1.304533 2.959520 -1.618737
v -3.265536 3.096039 -0.056112
v -0.119169 0.771744 0.074173
v -1.074778 3.188747 -1.438493
v 0.819090 4.227581 0.843283
v -3.505712 3.145962 -0.927309
v 0.122023 6.686529 0.903498
v -0.450113 2.101575 -0.252954
v -0.975722 3.546084 -0.532897
v -0.608803 6.903492 0.368091
v -0.603781 6.711081 0.840433
v -0.773616 3.931989 0.263868
v -0.633915 2.889280 -0.662829
v 1.259017 4.682954 0.438540
v -0.243402 3.641914 0.041764
v -0.064607 3.235325 -0.174647
v -0.983493 6.616280 0.449262
v -0.924090 2.461474 -0.459458
v -0.627100 4.249294 1.131461
v -0.081483 3.248728 -0.074751
v -2.011109 3.593796 -1.543373
v -1.197100 2.625645 -0.459226
v 0.295245 5.583081 1.475860
v -0.929942 2.495334 -0.371849
v -0.964501 2.447119 -0.379291
v -0.947285 2.442466 -0.442339
v -0.912726 2.490681 -0.434898
v -0.445113 2.127740 -0.198810
v -0.420608 2.217699 -0.194870
v -0.141449 2.700051 -0.101849
v -0.412893 2.120894 -0.297677
v 0.030849 0.173055 0.128427
v -0.000975 3.792894 -0.111768
v -0.072611 3.813433 -0.100990
v 0.032802 3.781869 -0.043739
v -0.083109 3.815101 -0.026299
v -0.006699 2.629030 -0.219705
v -0.113042 2.687623 -0.213084
v -0.388388 2.210852 -0.293737
v 0.033567 2.627087 -0.111408
v -0.017960 3.795594 0.009084
v 0.029487 1.630955 -0.106645
v -0.218812 1.617542 -0.067742
v -0.052662 2.649139 -0.039722
v -0.039389 1.630457 -0.245258
v -0.193056 1.613632 -0.220332
v -0.191134 0.775967 -0.018087
v 0.146389 0.761134 -0.073782
v -0.081064 1.636783 0.001637
v -0.159272 0.776642 -0.227272
v 0.139335 0.173947 -0.311246
v 0.244734 0.170067 -0.052034
v -0.139692 0.179334 -0.290987
v 0.049328 0.767475 -0.261693
v -0.206740 0.178783 -0.019254
v -0.002225 0.766382 0.076775
vt 0.7120 0.5574
vt 0.7162 0.5559
vt 0.7203 0.5597
vt 0.7285 0.5619
vt 0.7237 0.5669
vt 0.7194 0.5644
vt 0.7068 0.5569
vt 0.7088 0.5535
vt 0.7104 0.5669
vt 0.7053 0.5668
vt 0.7112 0.5622
vt 0.7061 0.5620
vt 0.7134 0.5522
vt 0.7068 0.5746
vt 0.7129 0.5732
vt 0.7128 0.5806
vt 0.6643 0.5324
vt 0.6714 0.5353
vt 0.6640 0.5375
vt 0.6637 0.5427
vt 0.6604 0.5477
vt 0.6550 0.5423
vt 0.7035 0.5706
vt 0.7086 0.5707
vt 0.6669 0.5607
vt 0.6702 0.5561
vt 0.6711 0.5604
vt 0.6739 0.5673
vt 0.6801 0.5681
vt 0.6709 0.5701
vt 0.6590 0.5629
vt 0.6557 0.5652
vt 0.6560 0.5616
vt 0.6635 0.5669
vt 0.6629 0.5618
vt 0.6595 0.5681
vt 0.6620 0.5567
vt 0.6660 0.5572
vt 0.6652 0.5537
vt 0.6611 0.5532
vt 0.6644 0.5482
vt 0.6581 0.5579
vt 0.6710 0.5853
vt 0.6786 0.5771
vt 0.6780 0.5833
vt 0.7301 0.5446
vt 0.7293 0.5533
vt 0.7253 0.5495
vt 0.7225 0.5458
vt 0.7246 0.5385
vt 0.7191 0.5324
vt 0.7169 0.5397
vt 0.7148 0.5345
vt 0.6655 0.5792
vt 0.6695 0.5791
vt 0.6557 0.5879
vt 0.6529 0.5837
vt 0.6579 0.5805
vt 0.7010 0.5354
vt 0.7079 0.5412
vt 0.7033 0.5425
vt 0.6899 0.5536
vt 0.6951 0.5601
vt 0.6896 0.5630
vt 0.6342 0.5567
vt 0.6403 0.5493
vt 0.6436 0.5584
vt 0.6433 0.5621
vt 0.6372 0.5667
vt 0.6524 0.5675
vt 0.6562 0.5703
vt 0.6512 0.5735
vt 0.6879 0.5567
vt 0.6808 0.5540
vt 0.6831 0.5475
vt 0.7380 0.5784
vt 0.7333 0.5702
vt 0.7404 0.5735
vt 0.6710 0.5405
vt 0.6687 0.5470
vt 0.6553 0.5372
vt 0.6981 0.5735
vt 0.6694 0.5525
vt 0.6754 0.5601
vt 0.6808 0.5645
vt 0.6747 0.5637
vt 0.6674 0.5667
vt 0.7350 0.5512
vt 0.6633 0.5866
vt 0.6954 0.5445
vt 0.6977 0.5516
vt 0.7057 0.5360
vt 0.6957 0.5550
vt 0.6531 0.5602
vt 0.6497 0.5510
vt 0.6551 0.5565
vt 0.6403 0.5766
vt 0.6464 0.5720
vt 0.6451 0.5781
vt 0.6870 0.5628
vt 0.6817 0.5584
vt 0.7284 0.5825
vt 0.7285 0.5751
vt 0.7428 0.5686
vt 0.7357 0.5653
vt 0.7413 0.5632
vt 0.6704 0.5640
vt 0.5873 0.5574
vt 0.5915 0.5559
vt 0.5955 0.5597
vt 0.6037 0.5619
vt 0.5990 0.5669
vt 0.5947 0.5644
vt 0.5821 0.5569
vt 0.5840 0.5535
vt 0.5857 0.5669
vt 0.5806 0.5668
vt 0.5865 0.5622
vt 0.5814 0.5620
vt 0.5886 0.5522
vt 0.5821 0.5746
vt 0.5882 0.5732
vt 0.5881 0.5806
vt 0.5395 0.5324
vt 0.5466 0.5353
vt 0.5393 0.5375
vt 0.5390 0.5427
vt 0.5357 0.5477
vt 0.5303 0.5423
vt 0.5788 0.5706
vt 0.5839 0.5707
vt 0.5421 0.5607
vt 0.5454 0.5561
vt 0.5464 0.5604
vt 0.5492 0.5673
vt 0.5553 0.5681
vt 0.5461 0.5701
vt 0.5343 0.5629
vt 0.5310 0.5652
vt 0.5313 0.5616
vt 0.5387 0.5669
vt 0.5382 0.5618
vt 0.5347 0.5681
vt 0.5372 0.5567
vt 0.5413 0.5572
vt 0.5405 0.5537
vt 0.5364 0.5532
vt 0.5397 0.5482
vt 0.5333 0.5579
vt 0.5462 0.5853
vt 0.5538 0.5771
vt 0.5531 0.5833
vt 0.6053 0.5446
vt 0.6045 0.5533
vt 0.6005 0.5495
vt 0.5976 0.5458
vt 0.5998 0.5385
vt 0.5944 0.5324
vt 0.5922 0.5397
vt 0.5900 0.5345
vt 0.5407 0.5792
vt 0.5446 0.5791
vt 0.5309 0.5879
vt 0.5281 0.5837
vt 0.5331 0.5805
vt 0.5762 0.5354
vt 0.5831 0.5412
vt 0.5785 0.5425
vt 0.5651 0.5536
vt 0.5703 0.5601
vt 0.5648 0.5630
vt 0.5094 0.5567
vt 0.5156 0.5493
vt 0.5188 0.5584
vt 0.5186 0.5621
vt 0.5124 0.5667
vt 0.5277 0.5675
vt 0.5315 0.5703
vt 0.5265 0.5735
vt 0.5631 0.5567
vt 0.5559 0.5540
vt 0.5584 0.5475
vt 0.6133 0.5784
vt 0.6085 0.5702
vt 0.6156 0.5735
vt 0.5464 0.5405
vt 0.5439 0.5470
vt 0.5306 0.5372
vt 0.5733 0.5735
vt 0.5446 0.5525
vt 0.5506 0.5601
vt 0.5560 0.5645
vt 0.5499 0.5637
vt 0.5426 0.5667
vt 0.6102 0.5512
vt 0.5386 0.5866
vt 0.5706 0.5445
vt 0.5730 0.5516
vt 0.5810 0.5360
vt 0.5710 0.5550
vt 0.5283 0.5602
vt 0.5250 0.5510
vt 0.5303 0.5565
vt 0.5155 0.5766
vt 0.5216 0.5720
vt 0.5203 0.5781
vt 0.5623 0.5628
vt 0.5568 0.5584
vt 0.6036 0.5825
vt 0.6038 0.5751
vt 0.6180 0.5686
vt 0.6108 0.5653
vt 0.6165 0.5632
vt 0.5457 0.5640
vt 0.9253 0.6580
vt 0.9219 0.6586
vt 0.9205 0.6478
vt 0.9244 0.6470
vt 0.9151 0.6447
vt 0.9110 0.6461
vt 0.9087 0.6421
vt 0.9133 0.6405
vt 0.9388 0.6585
vt 0.9354 0.6576
vt 0.9360 0.6464
vt 0.9398 0.6473
vt 0.9489 0.6457
vt 0.9451 0.6439
vt 0.9465 0.6395
vt 0.9507 0.6416
vt 0.9322 0.6418
vt 0.9279 0.6417
vt 0.9275 0.6373
vt 0.9324 0.6373
vt 0.9408 0.6429
vt 0.9366 0.6418
vt 0.9372 0.6373
vt 0.9419 0.6384
vt 0.9452 0.6605
vt 0.9420 0.6594
vt 0.9436 0.6483
vt 0.9470 0.6498
vt 0.9262 0.6806
vt 0.9287 0.6804
vt 0.9282 0.6924
vt 0.9261 0.6924
vt 0.9320 0.6575
vt 0.9287 0.6574
vt 0.9282 0.6462
vt 0.9321 0.6463
vt 0.9187 0.6594
vt 0.9155 0.6603
vt 0.9133 0.6501
vt 0.9169 0.6489
vt 0.9410 0.6815
vt 0.9435 0.6816
vt 0.9408 0.6913
vt 0.9386 0.6919
vt 0.9360 0.6811
vt 0.9384 0.6815
vt 0.9364 0.6926
vt 0.9344 0.6925
vt 0.9261 0.7072
vt 0.9280 0.7070
vt 0.9277 0.7216
vt 0.9260 0.7221
vt 0.9213 0.6808
vt 0.9237 0.6809
vt 0.9241 0.6924
vt 0.9220 0.6916
vt 0.9311 0.6805
vt 0.9291 0.6685
vt 0.9320 0.6687
vt 0.9609 0.6543
vt 0.9620 0.6538
vt 0.9628 0.6693
vt 0.9621 0.6693
vt 0.9298 0.7069
vt 0.9316 0.7068
vt 0.9309 0.7212
vt 0.9293 0.7214
vt 0.9588 0.7335
vt 0.9595 0.7354
vt 0.9528 0.7348
vt 0.9528 0.7332
vt 0.9370 0.7087
vt 0.9387 0.7100
vt 0.9373 0.7234
vt 0.9358 0.7228
vt 0.9335 0.7071
vt 0.9353 0.7074
vt 0.9342 0.7221
vt 0.9325 0.7217
vt 0.9586 0.6550
vt 0.9599 0.6547
vt 0.9613 0.6693
vt 0.9606 0.6696
vt 0.9631 0.6536
vt 0.9643 0.6534
vt 0.9643 0.6695
vt 0.9635 0.6694
vt 0.9677 0.6545
vt 0.9688 0.6549
vt 0.9674 0.6696
vt 0.9667 0.6697
vt 0.9655 0.6537
vt 0.9667 0.6540
vt 0.9659 0.6697
vt 0.9651 0.6696
vt 0.9236 0.6425
vt 0.9193 0.6434
vt 0.9180 0.6389
vt 0.9227 0.6381
vt 0.9587 0.7370
vt 0.9579 0.7386
vt 0.9520 0.7374
vt 0.9524 0.7361
vt 0.9224 0.7083
vt 0.9243 0.7075
vt 0.9244 0.7226
vt 0.9227 0.7226
vt 0.9587 0.7298
vt 0.9581 0.7316
vt 0.9529 0.7316
vt 0.9528 0.7300
vt 0.9586 0.7263
vt 0.9592 0.7279
vt 0.9527 0.7285
vt 0.9524 0.7271
vt 0.9428 0.7328
vt 0.9426 0.7340
vt 0.9325 0.7333
vt 0.9327 0.7325
vt 0.9423 0.7351
vt 0.9420 0.7361
vt 0.9319 0.7348
vt 0.9322 0.7340
vt 0.9424 0.7282
vt 0.9427 0.7292
vt 0.9327 0.7299
vt 0.9323 0.7292
vt 0.9428 0.7304
vt 0.9429 0.7316
vt 0.9329 0.7316
vt 0.9328 0.7307
vt 0.9420 0.7271
vt 0.9320 0.7285
vt 0.9521 0.7258
vt 0.9581 0.7246
vt 0.9640 0.7234
vt 0.9649 0.7254
vt 0.9658 0.7274
vt 0.9646 0.7295
vt 0.9633 0.7316
vt 0.9206 0.7091
vt 0.9210 0.7226
vt 0.9202 0.6957
vt 0.9222 0.6940
vt 0.9661 0.7360
vt 0.9649 0.7379
vt 0.9638 0.7399
vt 0.9643 0.6373
vt 0.9658 0.6379
vt 0.9674 0.6384
vt 0.9688 0.6393
vt 0.9702 0.6402
vt 0.9612 0.6383
vt 0.9627 0.6378
vt 0.9574 0.6552
vt 0.9598 0.6698
vt 0.9550 0.6406
vt 0.9567 0.6403
vt 0.9584 0.6401
vt 0.9324 0.6924
vt 0.9383 0.6946
vt 0.9401 0.6966
vt 0.9647 0.7338
vt 0.9303 0.6924
vt 0.9598 0.6392
vt 0.9337 0.6806
vt 0.9349 0.6689
vt 0.9188 0.6806
vt 0.9199 0.6907
vt 0.9177 0.6706
vt 0.9205 0.6700
vt 0.9234 0.6693
vt 0.9377 0.6697
vt 0.9405 0.6704
vt 0.9434 0.6711
vt 0.9463 0.6719
vt 0.9262 0.6689
vt 0.9484 0.6616
vt 0.9505 0.6513
vt 0.9527 0.6474
vt 0.9550 0.6436
vt 0.5431 0.5728
vt 0.6094 0.5598
vt 0.6151 0.5578
vt 0.5943 0.5718
vt 0.5941 0.5792
vt 0.5940 0.5866
vt 0.5497 0.5558
vt 0.5488 0.5514
vt 0.5614 0.5689
vt 0.5252 0.5795
vt 0.5280 0.5638
vt 0.5270 0.5473
vt 0.5323 0.5528
vt 0.5217 0.5419
vt 0.5762 0.5615
vt 0.5755 0.5666
vt 0.5769 0.5564
vt 0.5789 0.5530
vt 0.5808 0.5496
vt 0.5878 0.5418
vt 0.5900 0.5470
vt 0.5857 0.5366
vt 0.5352 0.5732
vt 0.5928 0.5507
vt 0.5957 0.5543
vt 0.5523 0.5709
vt 0.5391 0.5730
vt 0.5701 0.5695
vt 0.5646 0.5724
vt 0.5512 0.5448
vt 0.5537 0.5383
vt 0.5900 0.5694
vt 0.5302 0.5763
vt 0.5854 0.5483
vt 0.5997 0.5581
vt 0.5608 0.5750
vt 0.5601 0.5812
vt 0.6679 0.5728
vt 0.7342 0.5598
vt 0.7399 0.5578
vt 0.7190 0.5718
vt 0.7189 0.5792
vt 0.7188 0.5866
vt 0.6745 0.5558
vt 0.6736 0.5514
vt 0.6862 0.5689
vt 0.6500 0.5795
vt 0.6528 0.5638
vt 0.6517 0.5473
vt 0.6571 0.5528
vt 0.6464 0.5419
vt 0.7010 0.5615
vt 0.7003 0.5666
vt 0.7016 0.5564
vt 0.7036 0.5530
vt 0.7056 0.5496
vt 0.7127 0.5418
vt 0.7148 0.5470
vt 0.7105 0.5366
vt 0.6600 0.5732
vt 0.7176 0.5507
vt 0.7204 0.5543
vt 0.6770 0.5709
vt 0.6640 0.5730
vt 0.6948 0.5695
vt 0.6893 0.5724
vt 0.6760 0.5448
vt 0.6784 0.5383
vt 0.7147 0.5694
vt 0.6550 0.5763
vt 0.7102 0.5483
vt 0.7244 0.5581
vt 0.6855 0.5750
vt 0.6849 0.5812
vn 0.0513 -0.9748 0.2169
vn -0.1740 -0.8585 0.4824
vn -0.4841 -0.8207 0.3034
vn -0.7226 -0.4869 0.4907
vn -0.8160 -0.5463 0.1891
vn -0.5646 -0.7977 0.2120
vn 0.3786 -0.9244 0.0458
vn 0.5265 -0.7883 0.3186
vn -0.3590 -0.9326 -0.0380
vn -0.0361 -0.9591 -0.2809
vn -0.2107 -0.9722 0.1018
vn 0.1572 -0.9801 -0.1209
vn 0.3404 -0.7585 0.5557
vn -0.5100 -0.5145 -0.6893
vn -0.7291 -0.5366 -0.4248
vn -0.7391 -0.3316 -0.5863
vn -0.4618 -0.3080 -0.8318
vn -0.4352 0.0312 -0.8998
vn -0.0474 0.2555 -0.9656
vn -0.0258 -0.1372 -0.9902
vn -0.1021 -0.7129 -0.6938
vn -0.4588 -0.7943 -0.3983
vn -0.1847 0.9703 -0.1563
vn -0.6080 0.7130 -0.3493
vn -0.5847 0.7989 -0.1410
vn -0.5375 0.7100 0.4550
vn -0.6900 0.4722 0.5485
vn -0.3491 0.7386 0.5768
vn 0.2766 0.9463 -0.1672
vn 0.6333 0.7736 0.0216
vn 0.5126 0.7379 -0.4390
vn 0.1832 0.9596 0.2133
vn 0.0876 0.9827 -0.1629
vn 0.3505 0.9084 0.2282
vn -0.0019 0.8542 -0.5200
vn -0.3165 0.8287 -0.4616
vn -0.3959 0.6541 -0.6445
vn -0.1121 0.6309 -0.7677
vn -0.4229 0.4128 -0.8067
vn 0.1999 0.8028 -0.5617
vn -0.1022 0.1390 0.9850
vn -0.4605 0.3432 0.8186
vn -0.3623 0.0746 0.9291
vn -0.3992 -0.2424 0.8843
vn -0.2112 -0.2228 0.9517
vn 0.1466 -0.1610 0.9760
vn 0.2147 0.1830 0.9594
vn 0.5270 0.1535 0.8359
vn 0.5180 -0.1009 0.8494
vn 0.7360 0.1354 0.6633
vn 0.2584 0.4799 0.8384
vn -0.0919 0.4375 0.8945
vn 0.5308 0.4150 0.7389
vn 0.9276 -0.0273 0.3725
vn 0.7766 -0.1837 0.6026
vn 0.8864 -0.2968 0.3552
vn 0.8986 -0.2180 -0.3807
vn 0.6072 -0.5438 -0.5793
vn 0.6581 -0.2124 -0.7223
vn 0.8280 0.0924 -0.5530
vn 0.9715 0.1518 -0.1820
vn 0.9949 -0.0966 0.0293
vn 0.8883 0.4472 0.1050
vn 0.6734 0.6411 0.3682
vn 0.8431 0.3511 0.4074
vn -0.9962 0.0253 -0.0829
vn -0.9321 0.2265 -0.2827
vn -0.9554 -0.0272 -0.2940
vn -0.9539 -0.2360 0.1854
vn -0.9767 0.1013 0.1894
vn -0.7512 -0.1003 -0.6524
vn -0.7264 0.2504 -0.6400
vn -0.0791 -0.4112 -0.9081
vn -0.6511 0.5418 -0.5315
vn -0.8162 0.5763 -0.0426
vn -0.8889 0.3938 0.2340
vn -0.7078 0.6839 0.1768
vn -0.0044 0.9582 0.2862
vn 0.9197 -0.3881 0.0594
vn 0.8334 0.1238 0.5387
vn 0.7860 -0.5513 -0.2798
vn 0.7073 0.3633 -0.6064
vn 0.6101 0.0725 -0.7890
vn 0.4700 0.4271 -0.7725
vn 0.9565 0.2081 0.2044
vn -0.9505 0.2982 -0.0879
vn -0.9720 -0.2165 -0.0909
vn -0.8085 0.2664 0.5247
vn -0.8956 -0.1332 0.4244
vn -0.7539 0.1777 0.6325
vn -0.3582 0.9227 0.1427
vn -0.7541 0.6335 -0.1734
vn -0.8089 0.2942 -0.5091
vn -0.9962 0.0151 -0.0859
vn -0.8901 -0.4464 -0.0918
vn -0.8404 -0.4356 0.3225
vn -0.9683 -0.0672 0.2404
vn -0.4501 0.8896 -0.0772
vn -0.3425 0.8037 -0.4866
vn -0.8207 0.3356 0.4624
vn -0.5462 0.6832 0.4847
vn -0.8679 0.4571 0.1946
vn -0.5517 0.8026 0.2266
vn -0.4251 0.6225 -0.6571
vn -0.2855 0.1088 0.9522
vn -0.4909 -0.1161 0.8635
vn -0.3049 -0.1864 0.9340
vn -0.0901 0.0594 0.9942
vn 0.2176 -0.0926 0.9716
vn 0.6402 0.0577 0.7661
vn 0.3324 0.2948 0.8959
vn -0.2549 0.5460 0.7981
vn -0.5629 0.2589 0.7849
vn 0.6553 -0.7554 0.0032
vn 0.3900 -0.8234 0.4123
vn 0.3726 -0.9133 0.1644
vn 0.1497 -0.9271 -0.3436
vn -0.0815 -0.9376 -0.3380
vn 0.1819 -0.8652 -0.4673
vn 0.9005 -0.4276 -0.0791
vn 0.9379 -0.0888 -0.3353
vn 0.9762 -0.0358 0.2141
vn 0.6336 -0.6366 -0.4397
vn 0.7951 -0.6045 -0.0488
vn 0.7188 -0.4757 -0.5070
vn 0.8415 -0.4267 0.3314
vn 0.6654 -0.6486 0.3696
vn 0.6103 -0.5218 0.5961
vn 0.7922 -0.2296 0.5654
vn 0.4830 -0.3368 0.8082
vn 0.8892 -0.2733 0.3669
vn -0.2293 -0.4491 -0.8636
vn -0.1349 -0.8024 -0.5814
vn -0.3525 -0.5897 -0.7266
vn -0.6153 -0.3884 -0.6860
vn -0.4439 -0.2162 -0.8696
vn -0.2935 0.0533 -0.9545
vn -0.1266 -0.2621 -0.9567
vn 0.0316 0.0429 -0.9986
vn -0.1489 0.3096 -0.9391
vn 0.2303 0.3155 -0.9206
vn 0.2109 -0.4561 -0.8646
vn 0.0310 -0.6523 -0.7573
vn 0.3368 -0.1568 -0.9284
vn 0.3165 0.6264 -0.7123
vn 0.0361 0.5457 -0.8372
vn 0.1340 0.7379 -0.6615
vn 0.4778 0.8769 0.0525
vn 0.1477 0.9178 0.3685
vn 0.4823 0.7754 0.4076
vn 0.7439 0.6209 0.2471
vn 0.7239 0.6743 -0.1461
vn 0.4526 0.8029 -0.3879
vn 0.8266 0.3323 -0.4542
vn 0.6918 -0.0976 -0.7155
vn 0.5636 0.2711 -0.7803
vn -0.4159 -0.7660 0.4902
vn -0.1900 -0.7651 0.6153
vn -0.3433 -0.6433 0.6843
vn -0.6563 -0.6901 0.3051
vn -0.4456 -0.8653 0.2296
vn -0.1580 -0.3116 0.9370
vn 0.0937 -0.5215 0.8481
vn 0.0254 0.4221 0.9062
vn 0.3200 -0.6999 0.6386
vn 0.0465 -0.9715 0.2323
vn -0.2101 -0.9770 0.0364
vn 0.1280 -0.9858 -0.1084
vn 0.5046 -0.7458 -0.4350
vn 0.2171 0.9133 -0.3447
vn 0.3083 0.4445 -0.8411
vn 0.1462 0.9879 0.0526
vn 0.8707 0.3355 0.3597
vn 0.7241 0.4927 0.4827
vn 0.8488 0.1484 0.5075
vn 0.5853 0.5597 -0.5867
vn -0.2329 -0.8756 0.4232
vn -0.5366 -0.6481 0.5404
vn -0.2947 -0.9354 -0.1953
vn -0.6432 -0.7642 0.0476
vn -0.3565 -0.8918 -0.2786
vn 0.4207 -0.8781 -0.2278
vn 0.1610 0.0761 0.9840
vn -0.4488 0.0224 0.8933
vn -0.4898 0.0728 0.8688
vn 0.1110 0.1016 0.9886
vn -0.9172 0.1198 0.3800
vn -0.9608 0.1487 -0.2342
vn -0.9536 0.1640 -0.2524
vn -0.9217 0.1336 0.3643
vn 0.4537 0.1027 -0.8852
vn 0.8816 0.1497 -0.4477
vn 0.9013 0.1871 -0.3907
vn 0.5013 0.1566 -0.8510
vn -0.6373 0.1604 -0.7537
vn -0.0659 0.1910 -0.9794
vn -0.0586 0.1952 -0.9790
vn -0.6259 0.1753 -0.7599
vn 0.9578 0.1664 0.2345
vn 0.6411 0.1535 0.7520
vn 0.6378 0.1379 0.7577
vn 0.9594 0.1504 0.2386
vn 0.5207 0.1888 -0.8326
vn 0.9102 0.1940 -0.3658
vn 0.9120 0.1808 -0.3682
vn 0.5248 0.1856 -0.8307
vn -0.7100 -0.0104 -0.7041
vn -0.1596 0.0452 -0.9862
vn -0.0935 0.1295 -0.9872
vn -0.6657 0.0749 -0.7424
vn 0.1222 0.1097 0.9864
vn 0.6920 0.1210 0.7117
vn 0.6327 0.0236 0.7741
vn 0.0179 0.0477 0.9987
vn 0.9760 0.1536 0.1542
vn 0.7023 0.1330 0.6994
vn 0.6646 0.1532 0.7313
vn 0.9634 0.1713 0.2060
vn -0.8891 -0.0266 0.4569
vn -0.9882 -0.0322 -0.1499
vn -0.9769 0.0551 -0.2063
vn -0.9114 0.0406 0.4096
vn -0.6746 -0.0652 -0.7353
vn -0.9857 -0.0555 -0.1590
vn -0.8653 -0.4623 -0.1936
vn -0.4107 -0.2995 -0.8612
vn 0.4593 0.0289 -0.8878
vn -0.1124 -0.0162 -0.9935
vn 0.1416 -0.0112 -0.9899
vn 0.5138 0.0048 -0.8579
vn 0.0299 -0.0183 0.9994
vn 0.6360 -0.0599 0.7693
vn 0.6889 -0.0334 0.7240
vn 0.0980 -0.0410 0.9943
vn -0.8811 -0.0006 0.4729
vn -0.4592 0.0722 0.8854
vn -0.4114 0.0482 0.9102
vn -0.7831 -0.2223 0.5808
vn 0.9805 0.1012 0.1682
vn 0.7231 0.1378 0.6769
vn 0.9828 0.1373 0.1233
vn 0.1339 -0.0520 0.9896
vn 0.7095 0.0052 0.7047
vn 0.7096 0.0137 0.7044
vn 0.1320 -0.0543 0.9898
vn 0.9672 -0.0716 0.2436
vn 0.9317 -0.0451 -0.3605
vn 0.9187 0.0270 -0.3939
vn 0.9825 -0.0130 0.1857
vn 0.2682 0.6033 -0.7511
vn 0.1621 -0.0404 -0.9860
vn 0.1972 -0.0754 -0.9775
vn 0.4799 0.6154 -0.6252
vn -0.5957 0.1409 -0.7908
vn -0.9542 0.1564 -0.2550
vn -0.9768 0.0632 -0.2045
vn -0.6652 0.0994 -0.7400
vn 0.5435 0.0008 -0.8394
vn 0.0054 0.0712 -0.9974
vn -0.0583 0.1068 -0.9926
vn 0.5396 0.0713 -0.8389
vn -0.9005 -0.0538 0.4316
vn -0.4820 -0.0708 0.8733
vn -0.5058 -0.0818 0.8588
vn -0.8986 -0.0675 0.4336
vn 0.9871 0.0658 0.1460
vn 0.8984 0.1186 -0.4229
vn 0.8712 0.1408 -0.4703
vn 0.9878 0.0835 0.1317
vn -0.7036 0.0769 -0.7064
vn -0.9874 0.0058 -0.1584
vn -0.9870 -0.0042 -0.1604
vn -0.7219 0.0702 -0.6884
vn 0.5056 0.1442 -0.8506
vn -0.1162 0.1364 -0.9838
vn -0.1806 0.1375 -0.9739
vn 0.4601 0.1591 -0.8735
vn 0.0789 0.1229 0.9893
vn -0.5162 0.1250 0.8473
vn -0.5324 0.1274 0.8368
vn 0.0678 0.1166 0.9909
vn -0.1649 -0.6293 -0.7595
vn -0.5191 -0.8483 -0.1044
vn -0.5080 -0.8567 -0.0895
vn -0.2166 -0.6891 -0.6916
vn -0.9193 0.1264 0.3728
vn -0.5301 0.0553 0.8461
vn -0.5115 -0.0149 0.8591
vn -0.9190 0.0196 0.3938
vn -0.1718 0.6666 0.7253
vn 0.0823 0.9960 -0.0347
vn 0.4275 0.9008 0.0759
vn 0.0950 0.6729 0.7336
vn -0.5606 -0.5585 0.6114
vn -0.4024 0.0350 0.9148
vn -0.3431 0.0124 0.9392
vn -0.5605 -0.6188 0.5504
vn 0.5511 0.5667 -0.6124
vn 0.2098 -0.0662 -0.9755
vn 0.1815 -0.1048 -0.9778
vn 0.5571 0.5518 -0.6206
vn -0.2854 -0.6574 -0.6974
vn -0.5826 -0.8067 -0.0991
vn -0.5949 -0.7980 -0.0969
vn -0.3131 -0.6649 -0.6781
vn -0.6155 -0.5761 0.5378
vn -0.3197 0.0370 0.9468
vn -0.3372 0.0110 0.9414
vn -0.6273 -0.5788 0.5210
vn 0.1707 0.6354 0.7531
vn 0.5221 0.8475 0.0954
vn 0.5364 0.8393 0.0891
vn 0.1791 0.6291 0.7564
vn -0.6893 0.3914 0.6097
vn -0.7304 0.6307 -0.2622
vn 0.9257 0.0007 -0.3782
vn -0.2055 0.3539 -0.9124
vn 0.9701 0.0021 0.2425
vn 0.8934 0.0724 -0.4435
vn 0.8689 0.1153 -0.4814
vn -0.9936 -0.0235 -0.1103
vn -0.8729 0.0002 0.4880
vn -0.4184 0.0552 0.9066
vn 0.4232 0.0616 -0.9039
vn -0.2016 0.0162 -0.9793
vn -0.7347 -0.0217 -0.6780
vn 0.1904 0.1003 0.9766
vn 0.2285 -0.7313 -0.6427
vn -0.7501 -0.5345 -0.3894
vn -0.4920 -0.6664 -0.5602
vn -0.6618 -0.3675 0.6534
vn -0.4058 -0.4310 0.8060
vn -0.2922 -0.4480 0.8449
vn 0.0904 -0.8616 0.4994
vn 0.0729 -0.7520 0.6551
vn 0.3201 0.3259 -0.8896
vn 0.9273 0.3733 0.0263
vn 0.6854 0.3223 0.6529
vn 0.8248 -0.0216 0.5651
vn 0.4202 0.5942 0.6858
vn -0.2172 0.9221 0.3203
vn -0.2192 0.8515 0.4764
vn -0.1691 0.9855 0.0151
vn -0.1031 0.9262 -0.3628
vn -0.0468 0.7990 -0.5995
vn 0.0534 0.4653 -0.8835
vn -0.1774 0.4552 -0.8725
vn 0.5409 -0.3607 -0.7598
vn -0.3329 0.3222 -0.8862
vn -0.6149 0.0148 -0.7885
vn -0.0591 -0.8563 -0.5131
vn 0.4382 -0.5539 -0.7079
vn 0.0971 0.7700 0.6307
vn -0.1622 -0.6045 0.7799
vn -0.8134 -0.0591 0.5787
vn 0.4777 0.0212 -0.8783
vn -0.1490 0.6333 -0.7594
vn -0.8119 -0.3168 -0.4904
vn -0.0681 0.6982 0.7127
vn -0.6373 -0.2711 0.7214
vn -0.5598 0.0766 0.8251
vn -0.8560 -0.4934 -0.1543
vn -0.8863 -0.2633 -0.3809
vn -0.8736 -0.1247 -0.4704
vn -0.8179 0.5027 -0.2799
vn -0.8127 0.4009 -0.4228
vn 0.7858 0.1887 0.5890
vn 0.8551 0.4428 -0.2697
vn 0.3404 0.1033 -0.9346
vn 0.1813 0.5122 -0.8395
vn 0.3600 -0.2031 -0.9106
vn 0.4372 -0.8232 -0.3622
vn 0.2954 -0.8083 -0.5092
vn 0.6101 -0.7815 -0.1308
vn 0.7412 -0.6536 0.1530
vn 0.7884 -0.5146 0.3371
vn 0.7281 -0.0580 0.6830
vn 0.5079 -0.3562 0.7843
vn 0.4661 0.7049 0.5347
vn 0.1606 -0.4877 0.8581
vn -0.2777 -0.5724 0.7715
vn -0.4840 0.4299 0.7622
vn 0.2711 0.7548 0.5974
vn 0.3380 -0.5126 -0.7893
vn -0.8832 0.1237 -0.4523
vn -0.6443 -0.7622 -0.0626
vn 0.6996 0.4230 0.5759
vn 0.6830 -0.4868 0.5446
vn -0.5668 -0.5084 0.6482
usemtl None
s 1
f 1/1/1 166/2/2 222/3/3
f 3/4/4 286/5/5 345/6/6
f 1/1/1 151/7/7 208/8/8
f 5/9/9 267/10/10 348/11/11
f 1/1/1 270/12/12 151/7/7
f 1/1/1 332/13/13 166/2/2
f 1/1/1 208/8/8 332/13/13
f 10/14/14 246/15/15 313/16/16
f 10/17/14 313/18/16 122/19/17
f 12/20/18 187/21/19 238/22/20
f 10/14/14 250/23/21 143/24/22
f 15/25/23 262/26/24 324/27/25
f 18/28/26 284/29/27 344/30/28
f 21/31/29 331/32/30 138/33/31
f 15/25/23 226/34/32 278/35/33
f 21/31/29 197/36/34 331/32/30
f 15/25/23 195/37/35 291/38/36
f 25/39/37 283/40/38 171/41/39
f 21/31/29 138/33/31 280/42/40
f 26/43/41 309/44/42 292/45/43
f 26/46/41 327/47/44 204/48/45
f 26/46/41 121/49/46 356/50/47
f 28/51/48 240/52/49 165/53/50
f 26/43/41 184/54/51 179/55/52
f 28/56/48 165/57/50 316/58/53
f 30/59/54 110/60/55 347/61/56
f 31/62/57 277/63/58 310/64/59
f 31/65/57 310/66/59 133/67/60
f 31/65/57 257/68/61 295/69/62
f 22/70/63 323/71/64 128/72/65
f 32/73/66 129/74/67 237/75/68
f 32/76/66 199/77/69 183/78/70
f 1/1/1 222/3/3 348/11/11
f 10/14/14 143/24/22 246/15/15
f 12/20/18 245/79/71 120/80/72
f 10/17/14 122/19/17 236/81/73
f 10/14/14 236/82/73 250/23/21
f 15/25/23 291/38/36 262/26/24
f 25/39/37 171/41/39 168/83/74
f 17/84/75 155/85/76 350/86/77
f 15/25/23 215/87/78 226/34/32
f 15/25/23 278/35/33 195/37/35
f 26/43/41 179/55/52 309/44/42
f 26/46/41 292/88/43 327/47/44
f 26/46/41 204/48/45 121/49/46
f 26/43/41 356/89/47 184/54/51
f 31/62/57 295/90/62 150/91/79
f 30/59/54 114/92/80 110/60/55
f 31/62/57 150/91/79 275/93/81
f 31/62/57 275/93/81 277/63/58
f 23/94/82 290/95/83 161/96/84
f 31/65/57 133/67/60 257/68/61
f 30/97/54 194/98/85 114/99/80
f 32/73/66 183/100/70 174/101/86
f 32/73/66 174/101/86 129/74/67
f 32/76/66 237/102/68 326/103/87
f 32/76/66 326/103/87 199/77/69
f 19/104/88 160/105/89 119/106/90
f 15/25/23 343/107/91 215/87/78
f 15/25/23 324/27/25 343/107/91
f 33/108/92 154/109/93 339/110/94
f 35/111/95 272/112/96 201/113/97
f 33/108/92 142/114/98 322/115/99
f 37/116/100 255/117/101 203/118/102
f 33/108/92 259/119/103 142/114/98
f 33/108/92 191/120/104 154/109/93
f 33/108/92 322/115/99 191/120/104
f 42/121/105 254/122/106 175/123/107
f 42/124/105 175/125/107 109/126/108
f 44/127/109 296/128/110 221/129/111
f 42/121/105 234/130/112 108/131/113
f 47/132/114 251/133/115 186/134/116
f 50/135/117 231/136/118 167/137/119
f 53/138/120 159/139/121 346/140/122
f 47/132/114 217/141/123 137/142/124
f 53/138/120 282/143/125 159/139/121
f 47/132/114 304/144/126 149/145/127
f 57/146/128 141/147/129 289/148/130
f 53/138/120 346/140/122 139/149/131
f 58/150/132 153/151/133 241/152/134
f 58/153/132 329/154/135 200/155/136
f 58/153/132 113/156/137 178/157/138
f 60/158/139 228/159/140 117/160/141
f 58/150/132 258/161/142 281/162/143
f 60/163/139 117/164/141 140/165/144
f 62/166/145 354/167/146 319/168/147
f 63/169/148 136/170/149 172/171/150
f 63/172/148 172/173/150 342/174/151
f 63/172/148 211/175/152 247/176/153
f 54/177/154 147/178/155 337/179/156
f 64/180/157 116/181/158 225/182/159
f 64/183/157 190/184/160 265/185/161
f 33/108/92 339/110/94 203/118/102
f 42/121/105 108/131/113 254/122/106
f 44/127/109 235/186/162 105/187/163
f 42/124/105 109/126/108 230/188/164
f 42/121/105 230/189/164 234/130/112
f 47/132/114 149/145/127 251/133/115
f 57/146/128 289/148/130 285/190/165
f 49/191/166 107/192/167 177/193/168
f 47/132/114 205/194/169 217/141/123
f 47/132/114 137/142/124 304/144/126
f 58/150/132 281/162/143 153/151/133
f 58/153/132 241/195/134 329/154/135
f 58/153/132 200/155/136 113/156/137
f 58/150/132 178/196/138 258/161/142
f 63/169/148 247/197/153 261/198/170
f 62/166/145 193/199/171 354/167/146
f 63/169/148 261/198/170 132/200/172
f 63/169/148 132/200/172 136/170/149
f 55/201/173 146/202/174 274/203/175
f 63/172/148 342/174/151 211/175/152
f 62/204/145 288/205/176 193/206/171
f 64/180/157 265/207/161 253/208/177
f 64/180/157 253/208/177 116/181/158
f 64/183/157 225/209/159 308/210/178
f 64/183/157 308/210/178 190/184/160
f 51/211/179 273/212/180 321/213/181
f 47/132/114 317/214/182 205/194/169
f 47/132/114 186/134/116 317/214/182
f 389/215/183 336/216/184 67/217/185 252/218/186
f 388/219/187 125/220/188 70/221/189 303/222/190
f 387/223/191 112/224/192 74/225/193 298/226/194
f 386/227/195 219/228/196 76/229/197 104/230/198
f 385/231/199 185/232/200 77/233/201 115/234/202
f 384/235/203 210/236/204 78/237/205 223/238/206
f 383/239/207 268/240/208 75/241/209 156/242/210
f 382/243/211 216/244/212 80/245/213 135/246/214
f 381/247/215 256/248/216 68/249/217 220/250/218
f 380/251/219 182/252/220 69/253/221 314/254/222
f 379/255/223 307/256/224 82/257/225 264/258/226
f 378/259/227 239/260/228 83/261/229 189/262/230
f 377/263/231 330/264/232 85/265/233 306/266/234
f 376/267/235 162/268/236 81/269/237 328/270/238
f 375/271/239 216/244/212 65/272/240 302/273/241
f 374/274/242 118/275/243 87/276/244 180/277/245
f 373/278/246 106/279/247 89/280/248 227/281/249
f 372/282/250 111/283/251 91/284/252 198/285/253
f 371/286/254 130/287/255 93/288/256 349/289/257
f 370/290/258 279/291/259 94/292/260 325/293/261
f 369/294/262 301/295/263 88/296/264 243/297/265
f 368/298/266 188/299/267 96/300/268 176/301/269
f 367/302/270 152/303/271 95/304/272 276/305/273
f 366/306/274 148/307/275 97/308/276 249/309/277
f 365/310/278 181/311/279 71/312/280 293/313/281
f 364/314/282 341/315/283 98/316/284 213/317/285
f 363/318/286 312/319/287 86/320/288 353/321/289
f 362/322/290 318/323/291 92/324/292 158/325/293
f 361/326/294 271/327/295 99/328/296 127/329/297
f 360/330/298 351/331/299 100/332/300 232/333/301
f 359/334/302 169/335/303 102/336/304 157/337/305
f 358/338/306 224/339/307 103/340/308 355/341/309
f 357/342/310 305/343/311 101/344/312 229/345/313
f 224/339/307 357/342/310 229/345/313 103/340/308
f 99/328/296 158/325/293 357/342/310 224/339/307
f 158/325/293 92/324/292 305/343/311 357/342/310
f 169/346/303 358/338/306 355/341/309 102/347/304
f 98/348/284 127/329/297 358/338/306 169/346/303
f 127/329/297 99/328/296 224/339/307 358/338/306
f 351/331/299 359/334/302 157/337/305 100/332/300
f 91/284/252 213/317/285 359/334/302 351/331/299
f 213/317/285 98/316/284 169/335/303 359/334/302
f 305/343/311 360/330/298 232/333/301 101/344/312
f 92/324/292 198/285/253 360/330/298 305/343/311
f 198/285/253 91/284/252 351/331/299 360/330/298
f 341/349/283 361/326/294 127/329/297 98/348/284
f 82/350/225 328/351/238 361/326/294 341/349/283
f 328/351/238 81/352/237 271/327/295 361/326/294
f 271/327/295 362/322/290 158/325/293 99/328/296
f 81/352/237 297/353/314 362/322/290 271/327/295
f 297/353/314 90/354/315 318/323/291 362/322/290
f 130/355/255 363/318/286 353/321/289 93/356/256
f 90/357/315 297/358/314 363/318/286 130/355/255
f 297/358/314 81/269/237 312/319/287 363/318/286
f 111/283/251 364/314/282 213/317/285 91/284/252
f 83/359/229 264/360/226 364/314/282 111/283/251
f 264/360/226 82/361/225 341/315/283 364/314/282
f 185/232/200 365/310/278 293/313/281 77/233/201
f 68/249/217 252/218/186 365/310/278 185/232/200
f 252/218/186 67/217/185 181/311/279 365/310/278
f 188/299/267 366/306/274 249/309/277 96/300/268
f 89/362/248 325/363/261 366/306/274 188/299/267
f 325/363/261 94/364/260 148/307/275 366/306/274
f 148/307/275 367/302/270 276/305/273 97/308/276
f 94/364/260 349/365/257 367/302/270 148/307/275
f 349/365/257 93/366/256 152/303/271 367/302/270
f 118/275/243 368/298/266 176/301/269 87/276/244
f 85/367/233 227/368/249 368/298/266 118/275/243
f 227/368/249 89/362/248 188/299/267 368/298/266
f 152/369/271 369/294/262 243/297/265 95/370/272
f 93/371/256 353/372/289 369/294/262 152/369/271
f 353/372/289 86/373/288 301/295/263 369/294/262
f 106/279/247 370/290/258 325/293/261 89/280/248
f 84/374/316 189/262/230 370/290/258 106/279/247
f 189/262/230 83/261/229 279/291/259 370/290/258
f 279/291/259 371/286/254 349/289/257 94/292/260
f 83/261/229 300/375/317 371/286/254 279/291/259
f 300/375/317 90/376/315 130/287/255 371/286/254
f 318/323/291 372/282/250 198/285/253 92/324/292
f 90/354/315 300/377/317 372/282/250 318/323/291
f 300/377/317 83/359/229 111/283/251 372/282/250
f 330/264/232 373/278/246 227/281/249 85/265/233
f 80/245/213 263/378/318 373/278/246 330/264/232
f 263/378/318 84/374/316 106/279/247 373/278/246
f 301/295/263 374/274/242 180/277/245 88/296/264
f 86/373/288 306/379/234 374/274/242 301/295/263
f 306/379/234 85/367/233 118/275/243 374/274/242
f 209/380/319 375/271/239 302/273/241 73/381/320
f 84/374/316 263/378/318 375/271/239 209/380/319
f 263/378/318 80/245/213 216/244/212 375/271/239
f 307/382/224 376/267/235 328/270/238 82/383/225
f 79/384/321 287/385/322 376/267/235 307/382/224
f 287/385/322 66/386/323 162/268/236 376/267/235
f 312/319/287 377/263/231 306/266/234 86/320/288
f 81/269/237 135/246/214 377/263/231 312/319/287
f 135/246/214 80/245/213 330/264/232 377/263/231
f 209/380/319 378/259/227 189/262/230 84/374/316
f 73/381/320 170/387/324 378/259/227 209/380/319
f 170/387/324 72/388/325 239/260/228 378/259/227
f 239/260/228 379/255/223 264/258/226 83/261/229
f 72/388/325 269/389/326 379/255/223 239/260/228
f 269/389/326 79/390/321 307/256/224 379/255/223
f 336/216/184 380/251/219 314/254/222 67/217/185
f 66/386/323 287/385/322 380/251/219 336/216/184
f 287/385/322 79/384/321 182/252/220 380/251/219
f 112/224/192 381/247/215 220/250/218 74/225/193
f 73/381/320 302/273/241 381/247/215 112/224/192
f 302/273/241 65/272/240 256/248/216 381/247/215
f 162/268/236 382/243/211 135/246/214 81/269/237
f 66/386/323 145/391/327 382/243/211 162/268/236
f 145/391/327 65/272/240 216/244/212 382/243/211
f 182/392/220 383/239/207 156/242/210 69/393/221
f 79/390/321 269/389/326 383/239/207 182/392/220
f 269/389/326 72/388/325 268/240/208 383/239/207
f 219/228/196 384/235/203 223/238/206 76/229/197
f 75/241/209 298/226/194 384/235/203 219/228/196
f 298/226/194 74/225/193 210/236/204 384/235/203
f 210/236/204 385/231/199 115/234/202 78/237/205
f 74/225/193 220/250/218 385/231/199 210/236/204
f 220/250/218 68/249/217 185/232/200 385/231/199
f 125/394/188 386/227/195 104/230/198 70/395/189
f 69/393/221 156/242/210 386/227/195 125/394/188
f 156/242/210 75/241/209 219/228/196 386/227/195
f 268/240/208 387/223/191 298/226/194 75/241/209
f 72/388/325 170/387/324 387/223/191 268/240/208
f 170/387/324 73/381/320 112/224/192 387/223/191
f 181/311/279 388/219/187 303/222/190 71/312/280
f 67/217/185 314/254/222 388/219/187 181/311/279
f 314/254/222 69/253/221 125/220/188 388/219/187
f 256/248/216 389/215/183 252/218/186 68/249/217
f 65/272/240 145/391/327 389/215/183 256/248/216
f 145/391/327 66/386/323 336/216/184 389/215/183
f 317/214/182 177/193/168 50/135/117
f 317/214/182 186/134/116 177/193/168
f 186/134/116 49/191/166 177/193/168
f 205/194/169 167/137/119 52/396/328
f 205/194/169 317/214/182 167/137/119
f 317/214/182 50/135/117 167/137/119
f 321/213/181 244/397/329 59/398/330
f 321/213/181 273/212/180 244/397/329
f 273/212/180 35/111/95 244/397/329
f 190/184/160 272/112/96 35/111/95
f 190/184/160 308/210/178 272/112/96
f 308/210/178 36/399/331 272/112/96
f 308/210/178 173/400/332 36/399/331
f 308/210/178 225/209/159 173/400/332
f 225/209/159 43/401/333 173/400/332
f 116/181/158 315/402/334 48/403/335
f 116/181/158 253/208/177 315/402/334
f 253/208/177 49/191/166 315/402/334
f 253/208/177 107/192/167 49/191/166
f 253/208/177 265/207/161 107/192/167
f 265/207/161 51/404/179 107/192/167
f 193/206/171 337/179/156 61/405/336
f 193/206/171 288/205/176 337/179/156
f 288/205/176 54/177/154 337/179/156
f 211/175/152 214/406/337 54/177/154
f 211/175/152 342/174/151 214/406/337
f 342/174/151 55/201/173 214/406/337
f 274/203/175 123/407/338 45/408/339
f 274/203/175 146/202/174 123/407/338
f 146/202/174 46/409/340 123/407/338
f 136/170/149 124/410/341 40/411/342
f 136/170/149 132/200/172 124/410/341
f 132/200/172 38/412/343 124/410/341
f 132/200/172 192/413/344 38/412/343
f 132/200/172 261/198/170 192/413/344
f 261/198/170 39/414/345 192/413/344
f 354/167/146 164/415/346 41/416/347
f 354/167/146 193/199/171 164/415/346
f 193/199/171 61/417/336 164/415/346
f 261/198/170 319/168/147 39/414/345
f 261/198/170 247/197/153 319/168/147
f 247/197/153 62/166/145 319/168/147
f 258/161/142 140/165/144 56/418/348
f 258/161/142 178/196/138 140/165/144
f 178/196/138 60/163/139 140/165/144
f 113/156/137 320/419/349 41/416/347
f 113/156/137 200/155/136 320/419/349
f 200/155/136 34/420/350 320/419/349
f 329/154/135 244/397/329 35/111/95
f 329/154/135 241/195/134 244/397/329
f 241/195/134 59/398/330 244/397/329
f 153/151/133 294/421/351 51/404/179
f 153/151/133 281/162/143 294/421/351
f 281/162/143 52/396/328 294/421/351
f 304/144/126 139/149/131 45/408/339
f 304/144/126 137/142/124 139/149/131
f 137/142/124 53/138/120 139/149/131
f 217/141/123 163/422/352 56/418/348
f 217/141/123 205/194/169 163/422/352
f 205/194/169 52/396/328 163/422/352
f 177/193/168 231/136/118 50/135/117
f 177/193/168 107/192/167 231/136/118
f 107/192/167 51/404/179 231/136/118
f 285/190/165 105/187/163 48/403/335
f 285/190/165 289/148/130 105/187/163
f 289/148/130 44/127/109 105/187/163
f 251/133/115 285/190/165 48/403/335
f 251/133/115 149/145/127 285/190/165
f 149/145/127 57/146/128 285/190/165
f 234/130/112 248/423/353 40/411/342
f 234/130/112 230/189/164 248/423/353
f 230/189/164 46/424/340 248/423/353
f 230/188/164 221/129/111 46/409/340
f 230/188/164 109/126/108 221/129/111
f 109/126/108 44/127/109 221/129/111
f 105/187/163 233/425/354 48/403/335
f 105/187/163 235/186/162 233/425/354
f 235/186/162 43/426/333 233/425/354
f 254/122/106 335/427/355 36/399/331
f 254/122/106 108/131/113 335/427/355
f 108/131/113 37/116/100 335/427/355
f 203/118/102 201/113/97 37/116/100
f 203/118/102 339/110/94 201/113/97
f 339/110/94 35/111/95 201/113/97
f 265/185/161 273/212/180 51/211/179
f 265/185/161 190/184/160 273/212/180
f 190/184/160 35/111/95 273/212/180
f 225/182/159 233/425/354 43/426/333
f 225/182/159 116/181/158 233/425/354
f 116/181/158 48/403/335 233/425/354
f 337/179/156 334/428/356 61/405/336
f 337/179/156 147/178/155 334/428/356
f 147/178/155 56/418/348 334/428/356
f 247/176/153 288/205/176 62/204/145
f 247/176/153 211/175/152 288/205/176
f 211/175/152 54/177/154 288/205/176
f 342/174/151 146/202/174 55/201/173
f 342/174/151 172/173/150 146/202/174
f 172/173/150 46/409/340 146/202/174
f 172/171/150 248/423/353 46/424/340
f 172/171/150 136/170/149 248/423/353
f 136/170/149 40/411/342 248/423/353
f 319/168/147 196/429/357 39/414/345
f 319/168/147 354/167/146 196/429/357
f 354/167/146 41/416/347 196/429/357
f 140/165/144 334/428/356 56/418/348
f 140/165/144 117/164/141 334/428/356
f 117/164/141 61/405/336 334/428/356
f 281/162/143 163/422/352 52/396/328
f 281/162/143 258/161/142 163/422/352
f 258/161/142 56/418/348 163/422/352
f 117/160/141 164/415/346 61/417/336
f 117/160/141 228/159/140 164/415/346
f 228/159/140 41/416/347 164/415/346
f 178/157/138 228/159/140 60/158/139
f 178/157/138 113/156/137 228/159/140
f 113/156/137 41/416/347 228/159/140
f 200/155/136 207/430/358 34/420/350
f 200/155/136 329/154/135 207/430/358
f 329/154/135 35/111/95 207/430/358
f 241/152/134 321/431/181 59/432/330
f 241/152/134 153/151/133 321/431/181
f 153/151/133 51/404/179 321/431/181
f 139/149/131 274/203/175 45/408/339
f 139/149/131 346/140/122 274/203/175
f 346/140/122 55/201/173 274/203/175
f 289/148/130 296/128/110 44/127/109
f 289/148/130 141/147/129 296/128/110
f 141/147/129 45/408/339 296/128/110
f 149/145/127 141/147/129 57/146/128
f 149/145/127 304/144/126 141/147/129
f 304/144/126 45/408/339 141/147/129
f 159/139/121 147/178/155 54/177/154
f 159/139/121 282/143/125 147/178/155
f 282/143/125 56/418/348 147/178/155
f 137/142/124 282/143/125 53/138/120
f 137/142/124 217/141/123 282/143/125
f 217/141/123 56/418/348 282/143/125
f 346/140/122 214/406/337 55/201/173
f 346/140/122 159/139/121 214/406/337
f 159/139/121 54/177/154 214/406/337
f 167/137/119 294/421/351 52/396/328
f 167/137/119 231/136/118 294/421/351
f 231/136/118 51/404/179 294/421/351
f 186/134/116 315/402/334 49/191/166
f 186/134/116 251/133/115 315/402/334
f 251/133/115 48/403/335 315/402/334
f 108/131/113 255/117/101 37/116/100
f 108/131/113 234/130/112 255/117/101
f 234/130/112 40/411/342 255/117/101
f 221/129/111 123/407/338 46/409/340
f 221/129/111 296/128/110 123/407/338
f 296/128/110 45/408/339 123/407/338
f 109/126/108 235/186/162 44/127/109
f 109/126/108 175/125/107 235/186/162
f 175/125/107 43/426/333 235/186/162
f 175/123/107 173/400/332 43/401/333
f 175/123/107 254/122/106 173/400/332
f 254/122/106 36/399/331 173/400/332
f 191/120/104 196/429/357 41/416/347
f 191/120/104 322/115/99 196/429/357
f 322/115/99 39/414/345 196/429/357
f 154/109/93 320/419/349 34/420/350
f 154/109/93 191/120/104 320/419/349
f 191/120/104 41/416/347 320/419/349
f 142/114/98 124/410/341 38/412/343
f 142/114/98 259/119/103 124/410/341
f 259/119/103 40/411/342 124/410/341
f 203/118/102 259/119/103 33/108/92
f 203/118/102 255/117/101 259/119/103
f 255/117/101 40/411/342 259/119/103
f 322/115/99 192/413/344 39/414/345
f 322/115/99 142/114/98 192/413/344
f 142/114/98 38/412/343 192/413/344
f 201/113/97 335/427/355 37/116/100
f 201/113/97 272/112/96 335/427/355
f 272/112/96 36/399/331 335/427/355
f 339/110/94 207/430/358 35/111/95
f 339/110/94 154/109/93 207/430/358
f 154/109/93 34/420/350 207/430/358
f 343/107/91 350/86/77 18/28/26
f 343/107/91 324/27/25 350/86/77
f 324/27/25 17/84/75 350/86/77
f 215/87/78 344/30/28 20/433/359
f 215/87/78 343/107/91 344/30/28
f 343/107/91 18/28/26 344/30/28
f 119/106/90 131/434/360 27/435/361
f 119/106/90 160/105/89 131/434/360
f 160/105/89 3/4/4 131/434/360
f 199/77/69 286/5/5 3/4/4
f 199/77/69 326/103/87 286/5/5
f 326/103/87 4/436/362 286/5/5
f 326/103/87 311/437/363 4/436/362
f 326/103/87 237/102/68 311/437/363
f 237/102/68 11/438/364 311/437/363
f 129/74/67 202/439/365 16/440/366
f 129/74/67 174/101/86 202/439/365
f 174/101/86 17/84/75 202/439/365
f 174/101/86 155/85/76 17/84/75
f 174/101/86 183/100/70 155/85/76
f 183/100/70 19/441/88 155/85/76
f 114/99/80 128/72/65 29/442/367
f 114/99/80 194/98/85 128/72/65
f 194/98/85 22/70/63 128/72/65
f 257/68/61 260/443/368 22/70/63
f 257/68/61 133/67/60 260/443/368
f 133/67/60 23/94/82 260/443/368
f 161/96/84 134/444/369 13/445/370
f 161/96/84 290/95/83 134/444/369
f 290/95/83 14/446/371 134/444/369
f 277/63/58 144/447/372 8/448/373
f 277/63/58 275/93/81 144/447/372
f 275/93/81 6/449/374 144/447/372
f 275/93/81 333/450/375 6/449/374
f 275/93/81 150/91/79 333/450/375
f 150/91/79 7/451/376 333/450/375
f 110/60/55 299/452/377 9/453/378
f 110/60/55 114/92/80 299/452/377
f 114/92/80 29/454/367 299/452/377
f 150/91/79 347/61/56 7/451/376
f 150/91/79 295/90/62 347/61/56
f 295/90/62 30/59/54 347/61/56
f 184/54/51 316/58/53 24/455/379
f 184/54/51 356/89/47 316/58/53
f 356/89/47 28/56/48 316/58/53
f 121/49/46 206/456/380 9/453/378
f 121/49/46 204/48/45 206/456/380
f 204/48/45 2/457/381 206/456/380
f 327/47/44 131/434/360 3/4/4
f 327/47/44 292/88/43 131/434/360
f 292/88/43 27/435/361 131/434/360
f 309/44/42 212/458/382 19/441/88
f 309/44/42 179/55/52 212/458/382
f 179/55/52 20/433/359 212/458/382
f 195/37/35 280/42/40 13/445/370
f 195/37/35 278/35/33 280/42/40
f 278/35/33 21/31/29 280/42/40
f 226/34/32 340/459/383 24/455/379
f 226/34/32 215/87/78 340/459/383
f 215/87/78 20/433/359 340/459/383
f 350/86/77 284/29/27 18/28/26
f 350/86/77 155/85/76 284/29/27
f 155/85/76 19/441/88 284/29/27
f 168/83/74 120/80/72 16/440/366
f 168/83/74 171/41/39 120/80/72
f 171/41/39 12/20/18 120/80/72
f 262/26/24 168/83/74 16/440/366
f 262/26/24 291/38/36 168/83/74
f 291/38/36 25/39/37 168/83/74
f 250/23/21 266/460/384 8/448/373
f 250/23/21 236/82/73 266/460/384
f 236/82/73 14/461/371 266/460/384
f 236/81/73 238/22/20 14/446/371
f 236/81/73 122/19/17 238/22/20
f 122/19/17 12/20/18 238/22/20
f 120/80/72 242/462/385 16/440/366
f 120/80/72 245/79/71 242/462/385
f 245/79/71 11/463/364 242/462/385
f 246/15/15 218/464/386 4/436/362
f 246/15/15 143/24/22 218/464/386
f 143/24/22 5/9/9 218/464/386
f 348/11/11 345/6/6 5/9/9
f 348/11/11 222/3/3 345/6/6
f 222/3/3 3/4/4 345/6/6
f 183/78/70 160/105/89 19/104/88
f 183/78/70 199/77/69 160/105/89
f 199/77/69 3/4/4 160/105/89
f 237/75/68 242/462/385 11/463/364
f 237/75/68 129/74/67 242/462/385
f 129/74/67 16/440/366 242/462/385
f 128/72/65 126/465/387 29/442/367
f 128/72/65 323/71/64 126/465/387
f 323/71/64 24/455/379 126/465/387
f 295/69/62 194/98/85 30/97/54
f 295/69/62 257/68/61 194/98/85
f 257/68/61 22/70/63 194/98/85
f 133/67/60 290/95/83 23/94/82
f 133/67/60 310/66/59 290/95/83
f 310/66/59 14/446/371 290/95/83
f 310/64/59 266/460/384 14/461/371
f 310/64/59 277/63/58 266/460/384
f 277/63/58 8/448/373 266/460/384
f 347/61/56 338/466/388 7/451/376
f 347/61/56 110/60/55 338/466/388
f 110/60/55 9/453/378 338/466/388
f 316/58/53 126/465/387 24/455/379
f 316/58/53 165/57/50 126/465/387
f 165/57/50 29/442/367 126/465/387
f 179/55/52 340/459/383 20/433/359
f 179/55/52 184/54/51 340/459/383
f 184/54/51 24/455/379 340/459/383
f 165/53/50 299/452/377 29/454/367
f 165/53/50 240/52/49 299/452/377
f 240/52/49 9/453/378 299/452/377
f 356/50/47 240/52/49 28/51/48
f 356/50/47 121/49/46 240/52/49
f 121/49/46 9/453/378 240/52/49
f 204/48/45 352/467/389 2/457/381
f 204/48/45 327/47/44 352/467/389
f 327/47/44 3/4/4 352/467/389
f 292/45/43 119/468/90 27/469/361
f 292/45/43 309/44/42 119/468/90
f 309/44/42 19/441/88 119/468/90
f 280/42/40 161/96/84 13/445/370
f 280/42/40 138/33/31 161/96/84
f 138/33/31 23/94/82 161/96/84
f 171/41/39 187/21/19 12/20/18
f 171/41/39 283/40/38 187/21/19
f 283/40/38 13/445/370 187/21/19
f 291/38/36 283/40/38 25/39/37
f 291/38/36 195/37/35 283/40/38
f 195/37/35 13/445/370 283/40/38
f 331/32/30 323/71/64 22/70/63
f 331/32/30 197/36/34 323/71/64
f 197/36/34 24/455/379 323/71/64
f 278/35/33 197/36/34 21/31/29
f 278/35/33 226/34/32 197/36/34
f 226/34/32 24/455/379 197/36/34
f 138/33/31 260/443/368 23/94/82
f 138/33/31 331/32/30 260/443/368
f 331/32/30 22/70/63 260/443/368
f 344/30/28 212/458/382 20/433/359
f 344/30/28 284/29/27 212/458/382
f 284/29/27 19/441/88 212/458/382
f 324/27/25 202/439/365 17/84/75
f 324/27/25 262/26/24 202/439/365
f 262/26/24 16/440/366 202/439/365
f 143/24/22 267/10/10 5/9/9
f 143/24/22 250/23/21 267/10/10
f 250/23/21 8/448/373 267/10/10
f 238/22/20 134/444/369 14/446/371
f 238/22/20 187/21/19 134/444/369
f 187/21/19 13/445/370 134/444/369
f 122/19/17 245/79/71 12/20/18
f 122/19/17 313/18/16 245/79/71
f 313/18/16 11/463/364 245/79/71
f 313/16/16 311/437/363 11/438/364
f 313/16/16 246/15/15 311/437/363
f 246/15/15 4/436/362 311/437/363
f 332/13/13 338/466/388 9/453/378
f 332/13/13 208/8/8 338/466/388
f 208/8/8 7/451/376 338/466/388
f 166/2/2 206/456/380 2/457/381
f 166/2/2 332/13/13 206/456/380
f 332/13/13 9/453/378 206/456/380
f 151/7/7 144/447/372 6/449/374
f 151/7/7 270/12/12 144/447/372
f 270/12/12 8/448/373 144/447/372
f 348/11/11 270/12/12 1/1/1
f 348/11/11 267/10/10 270/12/12
f 267/10/10 8/448/373 270/12/12
f 208/8/8 333/450/375 7/451/376
f 208/8/8 151/7/7 333/450/375
f 151/7/7 6/449/374 333/450/375
f 345/6/6 218/464/386 5/9/9
f 345/6/6 286/5/5 218/464/386
f 286/5/5 4/436/362 218/464/386
f 222/3/3 352/467/389 3/4/4
f 222/3/3 166/2/2 352/467/389
f 166/2/2 2/457/381 352/467/389
