# Blender v2.78 (sub 0) OBJ File: ''
# www.blender.org
mtllib Oak_Tree_crk_l_04.mtl
o Oak_Tree_crk_l_04
v -1.124973 1.180594 6.302381
v -0.875907 1.830493 6.303049
v -1.395350 1.830944 5.342549
v -0.831615 0.645248 6.260849
v -0.449137 0.275425 5.628033
v -0.237468 0.533386 6.616735
v -1.430066 0.991237 5.463495
v -0.172361 1.270659 6.967674
v -0.027839 2.350565 6.725287
v -1.201390 0.503624 4.362473
v -1.207963 1.551797 3.882695
v -0.588562 0.884887 3.302601
v -0.072979 1.823692 3.213553
v 0.747034 0.702593 3.344032
v -0.110121 -0.002515 4.446985
v 1.156476 1.788014 3.467985
v 0.698379 2.751123 3.706242
v 1.736042 2.168102 4.458596
v 0.806073 3.211596 4.830393
v 1.514207 2.755773 5.191724
v 1.971546 0.917853 4.411517
v 2.118334 0.619916 5.401050
v 1.590245 0.051560 4.914765
v 1.964831 1.661627 5.631716
v 1.023765 2.842247 6.146957
v 0.168380 3.362552 5.814977
v 1.167984 1.722039 6.858005
v 1.666796 1.082381 6.483582
v 1.020986 0.454251 6.295052
v 0.582961 -0.029367 5.518985
v -0.069041 3.406918 4.740248
v -0.297993 2.862558 3.970458
v -1.086197 2.355955 4.152008
v -0.941156 2.837758 5.662959
v 6.689027 0.010590 4.794310
v 6.153993 0.254434 5.482191
v 5.199231 -0.340504 5.024007
v 7.024531 0.368278 3.939251
v 6.621130 0.660414 2.949403
v 7.578078 0.899125 3.937345
v 6.022886 -0.330051 4.110412
v 7.169061 1.006471 5.182972
v 6.081558 1.099204 6.122718
v 5.310585 -0.268775 2.896047
v 3.935388 -0.111574 3.882948
v 3.933155 0.189167 2.636183
v 2.996446 0.566995 3.707214
v 3.970963 1.288185 2.203564
v 5.729272 0.714917 1.955509
v 3.230628 1.266183 3.068335
v 2.778939 1.030239 4.724527
v 3.565973 2.090466 4.144917
v 3.472663 1.248314 5.780035
v 4.180524 2.123233 5.051380
v 4.571677 2.817709 2.568310
v 5.874261 3.044011 2.920572
v 5.969499 2.529679 1.965870
v 5.295797 2.999227 4.410019
v 5.131803 2.047803 5.968946
v 4.422900 0.847871 6.316174
v 6.500575 2.396384 5.454414
v 6.576914 2.834664 4.438799
v 7.113526 2.092122 3.462659
v 6.725567 1.573264 2.320712
v 3.492280 0.668011 6.018934
v 3.102753 0.500690 5.174828
v 3.634555 -0.005908 4.888219
v 4.838511 0.143362 6.089334
v 0.264444 0.296593 0.342566
v 0.010030 0.296593 0.441018
v 0.038464 0.025365 0.588645
v 0.348366 0.025365 0.464208
v 0.288096 0.302301 -0.069669
v 0.215629 0.755203 0.014568
v 0.224455 0.697944 0.305024
v 0.289940 0.296593 0.203284
v -0.090797 0.296593 0.385746
v -0.012516 0.696745 0.413906
v -0.275645 0.769598 0.270301
v -0.320677 0.301506 0.218303
v -0.121660 0.025365 0.515919
v -0.369193 0.026554 0.240966
v 0.348160 0.026554 -0.101250
v 0.405090 0.025365 0.248160
v 0.192236 1.344478 0.136380
v -0.013070 1.564134 0.017587
v 0.031795 1.927451 0.150453
v 0.170354 1.829735 0.239311
v 0.148604 1.843883 0.490148
v 0.179294 1.284423 0.398173
v -0.011247 1.310506 0.494431
v -0.011677 1.825631 0.593980
v -0.172489 1.875414 0.418668
v -0.216203 1.509509 0.350186
v -0.033434 0.835785 -0.188777
v -0.274093 0.841724 -0.063436
v -0.223548 1.411882 0.064536
v -0.374525 0.347180 -0.185761
v -0.089247 0.336289 -0.333652
v -0.116926 0.037741 -0.411132
v -0.451694 0.039240 -0.245921
v 0.329717 2.165090 0.904949
v 1.211228 1.629272 2.257458
v 1.439952 1.574322 1.971379
v 0.483638 2.139648 0.751611
v 0.259866 1.810349 0.689161
v 0.394518 1.972472 0.616002
v 1.356083 1.394985 1.894416
v 1.039261 1.369740 2.025926
v 0.115689 1.980035 0.869952
v 0.805603 1.576758 2.130257
v 0.130607 1.814429 0.783692
v 3.223349 1.116817 2.934381
v 3.208689 1.208204 2.708993
v 1.327120 1.372805 2.465655
v 3.031346 0.975638 2.963333
v 0.409701 1.519219 3.216663
v 0.451516 1.420879 3.231453
v 3.248467 1.040376 2.765173
v 3.031480 0.934940 2.843151
v 0.360103 1.389256 3.152073
v 0.324469 1.473359 3.157901
v 0.333834 1.130047 4.252061
v 0.291064 1.099958 4.235997
v 0.267197 1.129772 4.242301
v 0.299219 1.162645 4.261067
v 0.669270 0.906884 4.859062
v 0.701411 0.891520 4.850602
v 0.652677 0.873128 4.854950
v 0.677906 0.857473 4.849614
v 3.775447 0.687967 4.091695
v 3.723322 0.722690 4.126095
v 3.813014 0.718667 4.045662
v 3.476163 1.076967 2.951801
v 3.796861 0.774803 4.047429
v 4.563945 1.778083 2.730830
v 4.576104 1.773959 2.806353
v 3.732692 0.780014 4.096437
v 4.487261 0.842152 5.199067
v 4.511701 0.839965 5.181583
v 4.485719 0.819761 5.209779
v 4.461596 0.801344 5.114123
v 4.552457 1.807237 2.833412
v 4.546186 1.818286 2.767761
v 5.634185 1.702938 3.048132
v 5.586269 1.727744 3.049814
v 5.627070 1.721692 3.030589
v 5.600881 1.712684 3.001284
v 0.186032 2.309555 0.342623
v 0.130001 2.300230 0.549611
v 0.198696 2.151960 0.325507
v 0.111297 1.458501 0.045710
v -0.194146 1.735029 0.404354
v 7.505445 0.946610 4.448627
v -0.056334 0.469392 0.394565
v 5.579862 3.155926 3.538404
v 5.178351 -0.421829 3.970211
v 0.140810 0.296593 0.401410
v 0.481717 1.632653 1.252894
v 3.912482 1.052235 6.185631
v 6.710569 0.534491 5.451061
v 5.737882 1.694654 3.067920
v 0.811085 1.686610 1.240865
v 4.370158 2.676369 4.123669
v 1.971994 0.857314 5.960382
v -0.110035 0.160154 -0.390095
v 4.572234 1.772008 2.764950
v 0.298197 -0.091838 5.096820
v 0.026428 1.922609 0.676594
v 2.193955 1.184140 2.619838
v 5.704030 -0.343035 3.578672
v 0.044445 2.951691 6.314662
v 0.315633 1.112077 4.242946
v 1.038716 -0.052522 5.317423
v 0.139585 0.032147 -0.291442
v 6.049961 3.078634 4.387053
v 3.304915 0.828037 2.826940
v 7.231986 0.881580 3.456853
v -0.918889 0.292561 4.925235
v 1.329188 1.478964 2.455173
v 5.317872 3.105493 2.651696
v 1.740879 2.333882 5.390187
v 7.068579 1.386663 3.162463
v 1.659450 2.504052 4.893818
v -0.141571 1.495981 0.057420
v 6.916055 1.866726 2.735754
v 1.255394 2.513632 4.001680
v -0.952475 0.618008 3.758714
v 5.007201 1.994584 1.909889
v 0.563274 3.169679 6.020142
v -0.635097 0.894208 6.686497
v -0.706852 2.959503 4.729404
v 0.222183 0.534972 6.562232
v -1.003644 1.483351 6.335964
v 6.879760 1.801549 5.455629
v 1.471581 0.752036 3.817353
v -0.215867 1.475087 0.179405
v -0.102318 1.844037 0.497787
v 0.778594 -0.050346 4.608175
v 4.539983 0.831639 5.224867
v 5.657236 1.701454 3.034745
v 0.827551 1.477591 2.085986
v 0.423127 2.172421 0.858297
v 4.228215 1.593826 5.985809
v 1.266507 1.351262 1.936672
v 0.351324 3.389749 4.721360
v 4.547112 1.816775 2.804228
v 0.409584 1.395691 3.192354
v -0.327794 0.039678 -0.388641
v 1.759717 0.482407 5.846203
v 5.529201 0.134018 2.291530
v 0.557650 2.030626 6.918918
v 0.275318 1.111457 4.237674
v 4.848962 1.035517 1.947828
v 3.930805 0.668314 6.256960
v 3.008656 0.897010 3.313275
v 0.607544 1.519776 2.652865
v 5.998508 2.833143 5.069125
v 5.959290 2.913493 2.376572
v 3.908818 1.478000 2.851040
v 1.330387 2.833050 5.587950
v -0.300846 0.807799 0.103327
v 1.934036 1.538423 4.440369
v 5.028086 -0.152674 5.644824
v -1.483952 1.320236 5.394637
v 0.795007 3.027951 4.241154
v 1.539077 2.302090 6.003258
v 0.283414 0.326013 0.281039
v 1.140826 2.236829 6.576449
v -0.706979 2.606112 4.044616
v 0.968224 2.258297 3.509435
v -0.103787 1.801931 6.950249
v -1.310779 1.504840 5.909579
v 0.058746 1.843157 0.563263
v 0.117976 1.893090 0.198941
v 0.308550 0.297553 0.074952
v -0.164844 0.847741 -0.153480
v 3.186640 0.242962 4.353476
v 0.293092 1.348577 3.753651
v -0.297922 0.509906 0.236709
v 4.070304 0.405138 6.146468
v 0.199080 0.025365 0.544005
v 4.870155 3.046040 3.394502
v 3.023015 0.948668 2.905370
v 6.999108 0.376904 4.983564
v 5.645674 1.717647 3.052157
v 5.147804 1.804376 2.941053
v 2.251396 1.174925 2.341051
v 0.439583 1.473802 3.231236
v 4.144160 0.799462 4.720667
v 0.280024 1.149135 4.252768
v 0.091931 1.944233 0.656050
v 0.020252 1.875644 0.646017
v 3.847783 -0.001781 3.212856
v -0.008831 1.014992 0.450768
v 3.340277 1.730057 3.503368
v 3.837732 1.744751 5.396372
v 0.001222 0.779496 3.221657
v 5.161267 1.783950 2.868785
v 7.443717 1.337464 3.844806
v 6.583528 2.635227 4.991002
v 4.265429 2.127355 2.211887
v -0.538307 0.570921 6.480307
v -0.201979 3.170160 4.376820
v -1.009441 0.908188 6.321647
v -0.502026 3.256642 5.190567
v 0.287943 2.108796 0.663280
v -0.048533 0.025365 0.578668
v 0.287453 0.296168 6.087479
v 0.091118 1.910128 0.298431
v 3.446622 1.089727 2.990069
v 3.763293 0.783799 4.069154
v -1.326238 2.212283 4.763213
v 0.331150 1.290266 3.751165
v 2.226025 1.340035 2.577754
v 2.824145 0.745449 4.959036
v 0.094497 1.282555 0.464750
v 4.485529 -0.288653 4.390849
v 0.239063 0.740981 0.162821
v 2.889163 0.541622 4.526717
v 4.138418 0.738859 4.607475
v 3.014247 0.840901 5.498446
v 0.148065 2.305573 0.425286
v 3.356319 0.247182 5.028986
v 0.324876 1.866990 0.634318
v 4.572112 2.146213 5.492870
v -1.158834 1.976335 4.002742
v 6.233377 0.597374 2.317470
v 6.517551 2.750027 3.111403
v -0.255574 0.346085 -0.295105
v 4.525138 0.819921 5.241076
v 0.674715 0.881977 4.876832
v 6.332641 -0.225022 4.518021
v 4.048183 2.527340 3.324797
v 6.709117 1.075323 5.760250
v 0.705888 0.865756 4.869503
v 2.308251 1.325439 2.404134
v 6.254610 0.041091 3.455172
v 5.202560 2.793276 2.100099
v 0.245033 1.925889 0.540416
v 0.204286 1.299214 0.269355
v 0.897541 3.182668 5.511622
v -0.452099 0.032897 -0.008026
v -0.253679 1.132507 0.322491
v 2.907376 1.127110 3.838245
v 5.310847 2.611807 5.301815
v -0.414952 0.388456 3.728278
v 3.460499 0.784471 3.442550
v 0.287926 2.260451 0.473340
v 1.295017 2.765863 4.529216
v -1.146673 0.774575 5.871293
v -1.257530 2.367809 5.537916
v -0.130873 1.404920 0.456005
v -1.277992 1.052819 4.079331
v 0.116353 0.318733 -0.221315
v 0.119201 0.730941 0.385503
v -1.181797 1.905344 5.931831
v 0.879677 1.157823 6.852221
v 0.243497 2.070960 0.938001
v -0.243683 0.025365 0.409959
v 5.236442 0.967296 6.310924
v 0.160168 1.566745 0.445647
v 3.832566 0.273183 5.705387
v 0.248306 0.515728 -0.031430
v 7.254587 0.555003 4.547387
v 0.148549 0.079899 5.586390
v 4.142704 0.760702 4.743285
v 6.384667 1.232558 2.059504
v 0.178422 2.240053 0.326255
v 4.565364 1.789575 2.827674
v 4.626284 2.539330 4.820996
v 5.978692 0.085936 2.780095
v 3.316219 0.576742 5.649359
v 4.622273 -0.082250 2.631008
v 0.521073 0.992342 4.610187
v 1.384292 1.624981 2.073006
v 6.242094 3.013183 3.697047
v 0.333327 0.138803 -0.089106
v 3.953714 1.446922 2.811403
v 1.264779 1.318696 2.371088
v 3.073607 0.952338 2.802538
v 3.055759 1.023859 2.972528
v 1.942590 1.281572 6.125924
v 0.200046 1.044267 0.073127
v 3.810401 0.748151 4.041107
v 0.267198 1.262119 3.713027
v -0.320461 0.582708 -0.126335
v 3.893756 2.142776 4.703275
v 0.477402 3.405300 5.354753
v 0.700778 0.892381 4.874240
v 6.523659 2.011186 2.133806
v -0.373349 0.324905 0.018051
v -1.362928 0.776733 4.979661
v 1.969357 1.871539 4.982685
v 2.762457 0.806919 4.174138
v 6.463788 0.121359 5.155172
v 0.490025 0.958379 4.605123
v -1.426968 1.167474 4.776499
v 3.037792 1.478304 4.427908
v 2.147793 1.045617 5.470517
v 4.755883 1.380754 6.246976
v 2.155454 0.691019 4.948326
v -0.620402 1.590384 6.710371
v -0.039869 0.326013 0.421991
v 0.244515 0.469392 0.315450
v 0.993774 1.259127 3.316871
v 0.828307 0.139511 5.852546
v -0.207166 0.800562 6.820020
v 0.334982 1.250633 3.077097
v -0.260914 0.383930 6.238857
v 5.674527 1.648748 6.156442
v 0.899992 1.649637 2.173216
v 4.187108 0.796292 4.687904
v -0.385051 3.176120 5.862101
v 0.499204 0.855336 6.787962
v 3.921949 1.433784 2.715692
v 1.583062 1.349582 3.835389
v 0.200137 2.263306 0.677280
v 3.721190 0.753599 4.115532
v 0.154236 1.845170 0.322818
v -0.349530 0.139365 0.233080
v 0.544374 1.624323 1.206871
v 0.475319 2.051499 0.682536
v 0.888502 1.870273 1.345267
v -0.428461 0.164586 -0.229450
v 5.654203 1.709628 3.027072
v 0.297902 3.188159 4.161695
v 5.145205 1.808109 2.896082
v 4.526685 0.845176 5.229558
v 0.243440 1.313107 3.714913
v -0.246732 1.154469 0.004060
v 4.747586 0.340026 2.184213
v 3.383048 0.170005 3.786528
v 4.567000 -0.265315 3.418211
v 6.557406 0.017992 3.958998
v 3.747523 0.700464 4.113502
v 6.629035 2.494577 2.579240
v 5.740964 -0.088236 5.390385
v -1.382156 1.673565 4.516237
v 5.536838 0.535583 6.203055
v 3.336767 1.625046 4.996421
v -0.369077 0.037074 5.019383
v 1.885434 0.398946 4.540277
v -0.136863 1.609571 0.175897
v 0.278810 2.093499 0.420623
v -0.546010 2.074604 6.570296
v 1.384309 0.794979 6.451039
v -1.348110 1.130295 5.889386
v -0.967044 2.307642 6.097983
v 1.415755 1.482067 1.915016
v -0.345191 1.295147 3.145060
v -1.073418 0.594656 5.447024
v 0.183201 1.621891 0.193902
v 0.002040 0.469392 0.417342
v 1.528687 1.959637 3.912507
v -0.746391 0.478338 5.979584
v 0.363311 1.505666 3.186692
v 0.238986 1.766536 0.812499
v 0.412701 0.025365 0.084474
v -0.015203 1.582230 0.534881
v -0.205154 0.296593 0.319659
v 0.262399 0.470159 0.248180
v 0.316524 0.136463 0.407206
v 5.162721 1.775380 2.924629
v 0.090448 1.893664 0.817060
v 3.729919 -0.064275 4.428866
v 0.807593 1.431521 2.774777
v 4.188318 -0.017419 5.520699
v 0.155512 2.234872 0.420316
v 0.320339 1.149754 4.258039
v 0.169789 2.839895 3.722721
v 4.513702 0.835142 5.243158
v 4.343300 -0.216209 5.095362
v 6.899437 0.166027 4.410308
v -0.171771 2.431327 3.509684
v 3.539804 0.882595 3.443076
v 3.192219 1.205020 2.776757
v 3.876051 0.640458 2.395634
v 0.333311 1.427555 3.147809
v 0.677008 1.383931 2.627971
v 7.351683 0.637869 3.928274
v 3.855939 0.702480 4.162639
v 0.102454 0.794315 -0.108530
v 3.909796 1.501831 2.758573
v 0.758610 1.589942 2.731342
v -0.084609 1.910942 0.280954
v -1.113361 2.627082 4.866910
v 0.184637 1.867588 0.532221
v 2.114533 1.244793 4.983069
v -0.011867 1.199545 -0.097377
v 1.233313 2.979760 5.042457
v -0.788952 1.195130 6.668877
v 1.418180 1.381105 6.717166
v 3.463651 0.889739 3.502588
v 0.616956 1.805446 3.210914
v 3.422275 0.822172 3.512555
v -0.936097 1.202662 3.492801
v 7.312723 1.637462 4.430674
v 0.585137 1.536206 7.027429
v 3.460394 1.053819 2.897745
v 0.014708 1.790053 0.074961
v 4.704089 0.498882 6.330946
v 0.560865 2.651983 6.564878
v 6.427670 1.758392 5.867760
v 4.124742 0.726908 4.626015
v -0.107231 0.136463 0.454092
v 4.553982 1.799208 2.741503
v -0.061496 0.562381 -0.265477
v -0.156982 0.744333 0.361341
v 0.019180 0.136463 0.521770
v 1.227632 0.263367 4.095589
v 6.201286 0.606080 5.849055
v 3.203787 1.158107 2.671603
v 0.497502 1.789969 1.486434
v 0.727396 1.930961 1.534380
v 3.364489 0.886769 5.959374
v 5.648707 1.709474 3.059829
v 1.645884 1.729067 6.372322
v 0.464568 0.978747 4.611588
v 1.494190 0.171205 5.639022
v -0.676455 2.144215 3.596090
v 0.351360 0.136463 0.223822
v 5.844647 1.628999 1.822762
v 0.486706 1.012951 4.620380
v 5.686127 -0.432448 4.501608
v 0.679826 0.855352 4.872096
v 2.132189 1.122717 2.438172
v 3.776516 1.997941 2.720839
v 3.382630 0.389605 3.082624
v 6.859449 0.428996 3.493414
v 6.035488 -0.222643 4.976028
v 0.401351 0.025365 0.370596
v 3.492126 1.319533 2.597481
v 3.035685 1.157919 5.313718
v 5.918021 2.327041 5.725545
v 0.198373 1.002635 0.350568
v -0.024196 3.458111 5.302479
v -0.547029 2.646191 6.310854
v 6.874985 2.493773 4.032314
v 1.971254 0.308249 5.188649
v -0.737129 0.168467 4.338182
v 3.521017 0.824014 3.392422
v 6.711418 1.185112 2.562081
v 0.386194 2.335234 3.353829
v -0.763352 1.687554 3.462374
v 0.345267 0.264173 3.812565
v 5.622034 0.166778 5.846148
v 6.990416 2.070694 4.866298
v -0.014585 1.899112 0.406591
v 0.106199 1.126787 -0.031035
v 0.220022 1.014360 0.215682
v -0.141944 1.073758 0.408061
v -0.108452 1.780355 0.226591
v 0.107317 1.000879 0.420657
v 0.208430 2.030404 0.676938
v 0.233328 2.167996 0.558542
v 0.293925 2.166026 0.417772
v 0.239620 2.283235 0.594929
v 0.084914 1.845554 0.575929
v 5.144761 1.809234 2.921028
v 5.163737 1.776674 2.894247
v 5.153008 1.796722 2.876760
v 5.155491 1.789186 2.938514
v 3.932999 1.461859 2.841812
v 3.914140 1.468409 2.726542
v 3.505001 0.892810 3.475011
v 3.906096 1.495494 2.809451
v 4.607489 0.845670 5.351483
v 4.198295 0.776296 4.689538
v 4.162097 0.746363 4.736064
v 4.138907 0.781392 4.734833
v 4.164966 0.802162 4.702507
v 3.436735 0.858378 3.514236
v 3.941042 1.434774 2.758903
v 3.537637 0.854938 3.412068
v 3.491616 0.799286 3.410956
v 3.436257 0.797579 3.480920
v 0.735259 0.848713 4.932002
v 0.474303 0.964727 4.607576
v 0.508915 0.973054 4.606717
v 0.472270 0.998155 4.616922
v 0.506883 1.006483 4.616063
v 0.264787 1.336993 3.734529
v 0.318515 1.323001 3.756734
v 0.248925 1.284033 3.709644
v 0.302652 1.270041 3.731850
v 0.748967 1.391165 2.702417
v 2.155442 1.142531 2.536153
v 0.676411 1.571420 2.691060
v 0.626425 1.445226 2.627740
v 2.291539 1.251645 2.358755
v 2.184657 1.137955 2.376590
v 0.798952 1.517359 2.765737
v 2.209273 1.265716 2.617920
v 2.270905 1.349409 2.491531
v 0.503314 1.686388 1.427825
v 0.867378 1.779828 1.278631
v 0.600857 1.873667 1.526705
v 0.718791 1.627321 1.266193
v 0.824570 1.917246 1.448188
v 0.081677 1.564231 0.508843
v 0.129098 0.149198 -0.262647
v 0.107547 0.538184 -0.168993
v -0.417490 0.152257 0.000624
v -0.335054 0.547657 0.056024
v -0.208363 0.579213 -0.227292
v -0.297399 0.164991 -0.350015
v -0.274861 1.146541 0.162197
v -0.139423 1.186089 -0.071925
v -0.125225 1.655554 0.492557
v 0.188509 1.584541 0.322911
v -0.047670 0.136463 0.503211
v 0.348628 0.136463 0.324471
v 0.112220 1.711268 0.102843
v 0.127859 0.501407 0.381117
v 0.365638 0.136463 0.075563
v -0.227435 0.136463 0.364222
v -0.180253 0.501407 0.330226
v 0.269524 0.506628 0.112868
v 0.171762 0.136463 0.475889
vt 0.7144 0.5580
vt 0.7172 0.5563
vt 0.7174 0.5617
vt 0.7052 0.5573
vt 0.7006 0.5588
vt 0.7054 0.5534
vt 0.7113 0.5657
vt 0.7036 0.5631
vt 0.7083 0.5615
vt 0.7146 0.5525
vt 0.7201 0.5547
vt 0.7175 0.5509
vt 0.7229 0.5515
vt 0.7100 0.5522
vt 0.7011 0.5704
vt 0.7107 0.5678
vt 0.7091 0.5737
vt 0.6601 0.5425
vt 0.6655 0.5461
vt 0.6587 0.5476
vt 0.6493 0.5442
vt 0.7020 0.5804
vt 0.6962 0.5724
vt 0.7016 0.5754
vt 0.6985 0.5654
vt 0.7062 0.5681
vt 0.6662 0.5593
vt 0.6686 0.5545
vt 0.6696 0.5605
vt 0.6654 0.5636
vt 0.6646 0.5679
vt 0.6695 0.5701
vt 0.6665 0.5711
vt 0.6590 0.5629
vt 0.6557 0.5652
vt 0.6540 0.5615
vt 0.6623 0.5705
vt 0.6618 0.5654
vt 0.6595 0.5681
vt 0.6582 0.5577
vt 0.6707 0.5832
vt 0.6725 0.5777
vt 0.6742 0.5830
vt 0.6714 0.5884
vt 0.7258 0.5482
vt 0.7203 0.5476
vt 0.7225 0.5403
vt 0.7191 0.5324
vt 0.7169 0.5397
vt 0.7148 0.5345
vt 0.6654 0.5782
vt 0.6695 0.5788
vt 0.6557 0.5879
vt 0.6535 0.5827
vt 0.6579 0.5805
vt 0.7004 0.5361
vt 0.7076 0.5415
vt 0.7030 0.5429
vt 0.6982 0.5482
vt 0.6948 0.5457
vt 0.6892 0.5553
vt 0.6926 0.5579
vt 0.6898 0.5598
vt 0.6342 0.5547
vt 0.6364 0.5503
vt 0.6416 0.5574
vt 0.6524 0.5675
vt 0.6562 0.5703
vt 0.6518 0.5725
vt 0.6873 0.5686
vt 0.6808 0.5704
vt 0.6801 0.5651
vt 0.6879 0.5567
vt 0.6794 0.5531
vt 0.6862 0.5512
vt 0.6844 0.5458
vt 0.6776 0.5477
vt 0.6815 0.5422
vt 0.7380 0.5784
vt 0.7336 0.5701
vt 0.7404 0.5735
vt 0.7204 0.5653
vt 0.7203 0.5600
vt 0.7248 0.5635
vt 0.7247 0.5583
vt 0.7128 0.5619
vt 0.7098 0.5576
vt 0.7096 0.5786
vt 0.6693 0.5405
vt 0.6957 0.5674
vt 0.6618 0.5560
vt 0.6688 0.5648
vt 0.6626 0.5611
vt 0.7318 0.5514
vt 0.7276 0.5550
vt 0.6632 0.5855
vt 0.7054 0.5364
vt 0.6398 0.5758
vt 0.6370 0.5653
vt 0.6444 0.5680
vt 0.6490 0.5601
vt 0.6438 0.5530
vt 0.6532 0.5563
vt 0.6461 0.5717
vt 0.6456 0.5767
vt 0.6876 0.5626
vt 0.6804 0.5591
vt 0.6825 0.5757
vt 0.7254 0.5706
vt 0.7212 0.5738
vt 0.7229 0.5680
vt 0.7317 0.5745
vt 0.7428 0.5686
vt 0.7361 0.5652
vt 0.7402 0.5616
vt 0.7273 0.5662
vt 0.7144 0.5580
vt 0.7172 0.5563
vt 0.7174 0.5617
vt 0.7052 0.5573
vt 0.7006 0.5588
vt 0.7054 0.5534
vt 0.7113 0.5657
vt 0.7036 0.5631
vt 0.7083 0.5615
vt 0.7146 0.5525
vt 0.7201 0.5547
vt 0.7175 0.5509
vt 0.7229 0.5515
vt 0.7100 0.5522
vt 0.7011 0.5704
vt 0.7107 0.5678
vt 0.7091 0.5737
vt 0.6601 0.5425
vt 0.6668 0.5469
vt 0.6587 0.5476
vt 0.6493 0.5442
vt 0.7020 0.5804
vt 0.6962 0.5724
vt 0.7016 0.5754
vt 0.6985 0.5654
vt 0.7062 0.5681
vt 0.6654 0.5544
vt 0.6695 0.5529
vt 0.6704 0.5573
vt 0.6662 0.5598
vt 0.6671 0.5651
vt 0.6723 0.5682
vt 0.6673 0.5681
vt 0.6590 0.5629
vt 0.6557 0.5652
vt 0.6540 0.5615
vt 0.6636 0.5691
vt 0.6630 0.5640
vt 0.6595 0.5681
vt 0.6582 0.5577
vt 0.6707 0.5832
vt 0.6740 0.5772
vt 0.6778 0.5822
vt 0.6714 0.5884
vt 0.7258 0.5482
vt 0.7203 0.5476
vt 0.7225 0.5403
vt 0.7191 0.5324
vt 0.7169 0.5397
vt 0.7148 0.5345
vt 0.6654 0.5782
vt 0.6690 0.5771
vt 0.6557 0.5879
vt 0.6535 0.5827
vt 0.6579 0.5805
vt 0.7004 0.5361
vt 0.7076 0.5415
vt 0.7030 0.5429
vt 0.6982 0.5482
vt 0.6948 0.5457
vt 0.6892 0.5553
vt 0.6926 0.5579
vt 0.6898 0.5598
vt 0.6342 0.5547
vt 0.6364 0.5503
vt 0.6416 0.5574
vt 0.6524 0.5675
vt 0.6562 0.5703
vt 0.6518 0.5725
vt 0.6873 0.5686
vt 0.6824 0.5699
vt 0.6813 0.5644
vt 0.6879 0.5567
vt 0.6808 0.5540
vt 0.6862 0.5512
vt 0.6844 0.5458
vt 0.6790 0.5486
vt 0.6815 0.5422
vt 0.7380 0.5784
vt 0.7336 0.5701
vt 0.7404 0.5735
vt 0.7204 0.5653
vt 0.7203 0.5600
vt 0.7248 0.5635
vt 0.7247 0.5583
vt 0.7128 0.5619
vt 0.7098 0.5576
vt 0.7096 0.5786
vt 0.6693 0.5405
vt 0.6957 0.5674
vt 0.6614 0.5535
vt 0.6712 0.5626
vt 0.6622 0.5587
vt 0.7328 0.5530
vt 0.7276 0.5550
vt 0.6632 0.5855
vt 0.7054 0.5364
vt 0.6398 0.5758
vt 0.6370 0.5653
vt 0.6444 0.5680
vt 0.6490 0.5601
vt 0.6438 0.5530
vt 0.6532 0.5563
vt 0.6461 0.5717
vt 0.6456 0.5767
vt 0.6876 0.5626
vt 0.6817 0.5584
vt 0.6861 0.5749
vt 0.7254 0.5706
vt 0.7212 0.5738
vt 0.7229 0.5680
vt 0.7317 0.5745
vt 0.7428 0.5686
vt 0.7361 0.5652
vt 0.7413 0.5632
vt 0.7273 0.5662
vt 0.9509 0.6553
vt 0.9498 0.6531
vt 0.9519 0.6520
vt 0.9531 0.6543
vt 0.9270 0.6435
vt 0.9262 0.6463
vt 0.9243 0.6458
vt 0.9252 0.6433
vt 0.9434 0.6539
vt 0.9413 0.6561
vt 0.9399 0.6543
vt 0.9421 0.6522
vt 0.9473 0.6505
vt 0.9455 0.6517
vt 0.9444 0.6501
vt 0.9459 0.6488
vt 0.9278 0.6388
vt 0.9279 0.6407
vt 0.9262 0.6408
vt 0.9258 0.6387
vt 0.9462 0.6578
vt 0.9452 0.6561
vt 0.9477 0.6542
vt 0.9488 0.6564
vt 0.9246 0.6584
vt 0.9257 0.6601
vt 0.9246 0.6619
vt 0.9233 0.6610
vt 0.9521 0.6586
vt 0.9520 0.6575
vt 0.9542 0.6566
vt 0.9542 0.6578
vt 0.9446 0.6606
vt 0.9472 0.6596
vt 0.9474 0.6604
vt 0.9493 0.6526
vt 0.9488 0.6522
vt 0.9508 0.6510
vt 0.9513 0.6515
vt 0.9467 0.6533
vt 0.9472 0.6538
vt 0.9447 0.6557
vt 0.9220 0.6561
vt 0.9206 0.6594
vt 0.9191 0.6587
vt 0.9204 0.6555
vt 0.9327 0.6644
vt 0.9308 0.6662
vt 0.9295 0.6653
vt 0.9309 0.6638
vt 0.9313 0.6542
vt 0.9338 0.6502
vt 0.9353 0.6516
vt 0.9331 0.6548
vt 0.9346 0.6565
vt 0.9376 0.6529
vt 0.9361 0.6583
vt 0.9391 0.6425
vt 0.9370 0.6413
vt 0.9381 0.6394
vt 0.9403 0.6407
vt 0.9359 0.6473
vt 0.9342 0.6460
vt 0.9360 0.6432
vt 0.9379 0.6444
vt 0.9399 0.6504
vt 0.9376 0.6486
vt 0.9398 0.6457
vt 0.9421 0.6479
vt 0.9435 0.6463
vt 0.9412 0.6438
vt 0.9426 0.6419
vt 0.9450 0.6447
vt 0.9315 0.6449
vt 0.9324 0.6488
vt 0.9303 0.6478
vt 0.9334 0.6400
vt 0.9327 0.6420
vt 0.9355 0.6658
vt 0.9329 0.6680
vt 0.9320 0.6672
vt 0.9345 0.6649
vt 0.9624 0.6530
vt 0.9631 0.6641
vt 0.9611 0.6645
vt 0.9606 0.6531
vt 0.9559 0.6521
vt 0.9575 0.6522
vt 0.9575 0.6637
vt 0.9559 0.6635
vt 0.9658 0.6518
vt 0.9675 0.6508
vt 0.9683 0.6612
vt 0.9667 0.6625
vt 0.9590 0.6527
vt 0.9593 0.6641
vt 0.9691 0.6506
vt 0.9707 0.6504
vt 0.9717 0.6619
vt 0.9700 0.6615
vt 0.9698 0.6390
vt 0.9710 0.6390
vt 0.9642 0.6783
vt 0.9657 0.6784
vt 0.9663 0.6931
vt 0.9654 0.6924
vt 0.9669 0.6787
vt 0.9681 0.6790
vt 0.9679 0.6923
vt 0.9671 0.6927
vt 0.9103 0.6453
vt 0.9117 0.6450
vt 0.9117 0.6533
vt 0.9109 0.6533
vt 0.9590 0.6777
vt 0.9602 0.6778
vt 0.9628 0.6919
vt 0.9621 0.6919
vt 0.9614 0.6780
vt 0.9627 0.6781
vt 0.9644 0.6917
vt 0.9636 0.6918
vt 0.9156 0.6455
vt 0.9168 0.6452
vt 0.9145 0.6533
vt 0.9139 0.6531
vt 0.9131 0.6454
vt 0.9144 0.6457
vt 0.9133 0.6530
vt 0.9125 0.6531
vt 0.9694 0.6779
vt 0.9707 0.6768
vt 0.9696 0.6912
vt 0.9688 0.6918
vt 0.9073 0.6455
vt 0.9089 0.6456
vt 0.9101 0.6534
vt 0.9092 0.6534
vt 0.9101 0.6608
vt 0.9107 0.6608
vt 0.9113 0.6682
vt 0.9110 0.6682
vt 0.9134 0.6605
vt 0.9138 0.6607
vt 0.9131 0.6680
vt 0.9129 0.6680
vt 0.9112 0.6607
vt 0.9118 0.6607
vt 0.9119 0.6680
vt 0.9116 0.6681
vt 0.9124 0.6605
vt 0.9129 0.6604
vt 0.9126 0.6679
vt 0.9122 0.6680
vt 0.9118 0.6734
vt 0.9120 0.6733
vt 0.9121 0.6787
vt 0.9119 0.6788
vt 0.9123 0.6733
vt 0.9127 0.6733
vt 0.9128 0.6787
vt 0.9125 0.6787
vt 0.9112 0.6735
vt 0.9115 0.6736
vt 0.9117 0.6789
vt 0.9114 0.6789
vt 0.9129 0.6734
vt 0.9132 0.6734
vt 0.9132 0.6789
vt 0.9130 0.6788
vt 0.9390 0.6755
vt 0.9391 0.6758
vt 0.9387 0.6759
vt 0.9387 0.6755
vt 0.9684 0.7026
vt 0.9691 0.7024
vt 0.9686 0.7135
vt 0.9681 0.7134
vt 0.9629 0.7026
vt 0.9635 0.7025
vt 0.9643 0.7130
vt 0.9639 0.7133
vt 0.9642 0.7027
vt 0.9648 0.7030
vt 0.9653 0.7125
vt 0.9648 0.7127
vt 0.9528 0.6791
vt 0.9536 0.6787
vt 0.9530 0.6888
vt 0.9524 0.6888
vt 0.9671 0.7028
vt 0.9677 0.7028
vt 0.9675 0.7133
vt 0.9670 0.7130
vt 0.9660 0.7226
vt 0.9663 0.7226
vt 0.9661 0.7326
vt 0.9660 0.7326
vt 0.9667 0.7228
vt 0.9670 0.7230
vt 0.9665 0.7327
vt 0.9663 0.7326
vt 0.9674 0.7230
vt 0.9677 0.7231
vt 0.9669 0.7327
vt 0.9667 0.7327
vt 0.9634 0.7136
vt 0.9644 0.7232
vt 0.9652 0.7227
vt 0.9656 0.7225
vt 0.9658 0.7326
vt 0.9656 0.7326
vt 0.9377 0.6754
vt 0.9377 0.6752
vt 0.9379 0.6752
vt 0.9379 0.6754
vt 0.9504 0.6790
vt 0.9511 0.6788
vt 0.9510 0.6889
vt 0.9505 0.6888
vt 0.9656 0.7029
vt 0.9664 0.7029
vt 0.9666 0.7127
vt 0.9660 0.7126
vt 0.9491 0.6790
vt 0.9497 0.6791
vt 0.9501 0.6886
vt 0.9496 0.6888
vt 0.9516 0.6791
vt 0.9521 0.6794
vt 0.9518 0.6889
vt 0.9514 0.6889
vt 0.9518 0.6970
vt 0.9520 0.6970
vt 0.9523 0.7052
vt 0.9521 0.7051
vt 0.9505 0.6970
vt 0.9509 0.6969
vt 0.9516 0.7051
vt 0.9514 0.7052
vt 0.9525 0.6970
vt 0.9529 0.6969
vt 0.9528 0.7051
vt 0.9525 0.7052
vt 0.9512 0.6969
vt 0.9515 0.6969
vt 0.9520 0.7050
vt 0.9518 0.7050
vt 0.9383 0.6752
vt 0.9384 0.6753
vt 0.9383 0.6754
vt 0.9379 0.6752
vt 0.9381 0.6752
vt 0.9381 0.6754
vt 0.9710 0.6387
vt 0.9721 0.6387
vt 0.9721 0.6390
vt 0.9544 0.6405
vt 0.9543 0.6402
vt 0.9559 0.6407
vt 0.9683 0.6397
vt 0.9698 0.6386
vt 0.9615 0.6400
vt 0.9600 0.6400
vt 0.9600 0.6383
vt 0.9613 0.6381
vt 0.9588 0.6394
vt 0.9575 0.6387
vt 0.9576 0.6367
vt 0.9588 0.6375
vt 0.8297 0.6582
vt 0.8246 0.6548
vt 0.8353 0.6575
vt 0.8323 0.6954
vt 0.8417 0.6883
vt 0.8446 0.6969
vt 0.8352 0.7040
vt 0.8410 0.7093
vt 0.8323 0.7163
vt 0.8258 0.7111
vt 0.9409 0.6614
vt 0.9381 0.6636
vt 0.9371 0.6626
vt 0.9399 0.6603
vt 0.8057 0.7067
vt 0.8061 0.6932
vt 0.8128 0.6993
vt 0.7968 0.6928
vt 0.7874 0.6924
vt 0.7878 0.6797
vt 0.7972 0.6797
vt 0.9380 0.6593
vt 0.9347 0.6624
vt 0.9324 0.6623
vt 0.9249 0.6496
vt 0.9235 0.6529
vt 0.9218 0.6523
vt 0.9231 0.6490
vt 0.9281 0.6518
vt 0.9295 0.6536
vt 0.9267 0.6583
vt 0.9259 0.6559
vt 0.8546 0.7178
vt 0.8467 0.7197
vt 0.8546 0.7128
vt 0.7789 0.6965
vt 0.7800 0.7050
vt 0.7729 0.7051
vt 0.7704 0.7007
vt 0.7744 0.6831
vt 0.7811 0.6814
vt 0.7711 0.6897
vt 0.7779 0.6880
vt 0.7679 0.6963
vt 0.7870 0.7050
vt 0.8467 0.7146
vt 0.8546 0.7077
vt 0.8388 0.7215
vt 0.9267 0.6501
vt 0.9252 0.6535
vt 0.9282 0.6467
vt 0.9427 0.6580
vt 0.8066 0.6797
vt 0.7964 0.7059
vt 0.8133 0.6858
vt 0.8200 0.6919
vt 0.9437 0.6593
vt 0.9419 0.6625
vt 0.9391 0.6645
vt 0.8496 0.7023
vt 0.8230 0.7024
vt 0.8201 0.6938
vt 0.8295 0.6867
vt 0.8388 0.6797
vt 0.8302 0.6541
vt 0.8408 0.6568
vt 0.8196 0.6514
vt 0.9601 0.6418
vt 0.9588 0.6413
vt 0.9574 0.6408
vt 0.9629 0.6400
vt 0.9626 0.6380
vt 0.9632 0.6420
vt 0.9617 0.6419
vt 0.9683 0.6393
vt 0.9698 0.6382
vt 0.9667 0.6404
vt 0.9559 0.6404
vt 0.9543 0.6400
vt 0.9710 0.6384
vt 0.9721 0.6385
vt 0.9383 0.6757
vt 0.9384 0.6756
vt 0.9386 0.6755
vt 0.9502 0.6970
vt 0.9512 0.7052
vt 0.9492 0.6889
vt 0.9512 0.6688
vt 0.9518 0.6694
vt 0.9524 0.6699
vt 0.9484 0.6788
vt 0.9477 0.6687
vt 0.9485 0.6692
vt 0.9493 0.6697
vt 0.9643 0.6934
vt 0.9653 0.6933
vt 0.9503 0.6693
vt 0.9377 0.6756
vt 0.9379 0.6756
vt 0.9375 0.6756
vt 0.9376 0.6754
vt 0.9376 0.6752
vt 0.9648 0.7228
vt 0.9654 0.7327
vt 0.9533 0.6693
vt 0.9542 0.6687
vt 0.9635 0.6927
vt 0.9624 0.7028
vt 0.9613 0.6920
vt 0.9390 0.6752
vt 0.9387 0.6752
vt 0.9393 0.6752
vt 0.9394 0.6754
vt 0.9394 0.6757
vt 0.9108 0.6735
vt 0.9111 0.6789
vt 0.9106 0.6681
vt 0.9094 0.6608
vt 0.9083 0.6534
vt 0.9057 0.6454
vt 0.9030 0.6375
vt 0.9054 0.6377
vt 0.9078 0.6378
vt 0.9683 0.6656
vt 0.9700 0.6640
vt 0.9718 0.6624
vt 0.9117 0.6367
vt 0.9137 0.6376
vt 0.9156 0.6385
vt 0.9173 0.6378
vt 0.9190 0.6371
vt 0.9578 0.6776
vt 0.9543 0.6632
vt 0.9097 0.6372
vt 0.9651 0.6638
vt 0.9667 0.6647
vt 0.9719 0.6504
vt 0.9641 0.6529
vt 0.9649 0.6412
vt 0.9543 0.6518
vt 0.9364 0.6666
vt 0.9337 0.6687
vt 0.9297 0.6388
vt 0.9295 0.6407
vt 0.9300 0.6369
vt 0.9340 0.6381
vt 0.9288 0.6437
vt 0.9474 0.6476
vt 0.9316 0.6601
vt 0.9308 0.6580
vt 0.9288 0.6581
vt 0.9237 0.6568
vt 0.9221 0.6600
vt 0.9499 0.6594
vt 0.9501 0.6603
vt 0.9498 0.6585
vt 0.9521 0.6596
vt 0.9542 0.6590
vt 0.9277 0.6368
vt 0.9254 0.6367
vt 0.9491 0.6493
vt 0.7293 0.5618
vt 0.7346 0.5598
vt 0.7399 0.5578
vt 0.7188 0.5711
vt 0.7171 0.5769
vt 0.6745 0.5558
vt 0.6736 0.5514
vt 0.6754 0.5601
vt 0.6811 0.5762
vt 0.6774 0.5712
vt 0.6849 0.5812
vt 0.6513 0.5776
vt 0.6507 0.5638
vt 0.6480 0.5493
vt 0.6574 0.5526
vt 0.6386 0.5459
vt 0.7008 0.5550
vt 0.6960 0.5604
vt 0.7056 0.5496
vt 0.7127 0.5418
vt 0.7148 0.5470
vt 0.7105 0.5366
vt 0.6600 0.5732
vt 0.6639 0.5907
vt 0.6720 0.5936
vt 0.6724 0.5712
vt 0.6674 0.5711
vt 0.6637 0.5721
vt 0.6764 0.5656
vt 0.6655 0.5520
vt 0.6932 0.5624
vt 0.6904 0.5643
vt 0.6761 0.5450
vt 0.6785 0.5385
vt 0.7158 0.5655
vt 0.6557 0.5754
vt 0.7102 0.5483
vt 0.6784 0.5874
vt 0.7293 0.5618
vt 0.7335 0.5582
vt 0.7377 0.5546
vt 0.7188 0.5711
vt 0.7171 0.5769
vt 0.6719 0.5556
vt 0.6709 0.5496
vt 0.6729 0.5616
vt 0.6760 0.5775
vt 0.6743 0.5722
vt 0.6777 0.5828
vt 0.6513 0.5776
vt 0.6507 0.5638
vt 0.6480 0.5493
vt 0.6574 0.5526
vt 0.6386 0.5459
vt 0.7008 0.5550
vt 0.6960 0.5604
vt 0.7056 0.5496
vt 0.7127 0.5418
vt 0.7148 0.5470
vt 0.7105 0.5366
vt 0.6600 0.5732
vt 0.6639 0.5907
vt 0.6720 0.5936
vt 0.6713 0.5732
vt 0.6683 0.5743
vt 0.6641 0.5738
vt 0.6736 0.5669
vt 0.6641 0.5511
vt 0.6932 0.5624
vt 0.6904 0.5643
vt 0.6747 0.5440
vt 0.6785 0.5385
vt 0.7158 0.5655
vt 0.6557 0.5754
vt 0.7102 0.5483
vt 0.6748 0.5882
vn -0.8062 -0.0422 0.5902
vn -0.7359 0.2615 0.6246
vn -0.8922 0.1806 0.4140
vn -0.5963 -0.6802 0.4263
vn -0.4772 -0.8464 0.2363
vn -0.4255 -0.7348 0.5282
vn -0.9142 -0.3790 0.1438
vn -0.6386 -0.7418 0.2045
vn -0.7309 -0.6204 0.2843
vn -0.6228 -0.0337 0.7816
vn -0.7139 0.2516 0.6535
vn -0.5840 0.2190 0.7816
vn -0.5726 0.3175 0.7559
vn -0.4957 -0.3909 0.7755
vn -0.7975 -0.5726 -0.1899
vn -0.9897 -0.0823 -0.1173
vn -0.9217 -0.1557 -0.3552
vn -0.4036 -0.3829 -0.8310
vn -0.2901 0.0298 -0.9565
vn -0.0692 -0.5216 -0.8504
vn -0.2131 -0.7947 -0.5684
vn -0.6251 -0.5439 -0.5598
vn -0.5723 -0.8062 0.1505
vn -0.8891 -0.4568 0.0310
vn 0.5891 0.1795 -0.7879
vn 0.2371 0.2173 -0.9469
vn 0.4871 0.4150 -0.7684
vn 0.7682 0.2976 -0.5669
vn 0.8432 0.4257 -0.3283
vn 0.6564 0.6929 -0.2983
vn 0.8221 0.5481 -0.1542
vn 0.8820 -0.0850 -0.4635
vn 0.9644 -0.2055 -0.1662
vn 0.7126 -0.5630 -0.4186
vn 0.9459 0.3190 -0.0589
vn 0.9121 0.1767 -0.3698
vn 0.9809 0.1581 -0.1135
vn 0.6354 -0.3599 -0.6831
vn 0.5295 0.6724 0.5172
vn 0.5002 0.8500 0.1652
vn 0.2733 0.8194 0.5038
vn 0.1726 0.5954 0.7846
vn -0.2294 0.4686 0.8531
vn -0.2737 0.2364 0.9323
vn 0.1164 0.3731 0.9205
vn 0.4556 0.1946 0.8687
vn 0.1097 -0.0595 0.9922
vn 0.5574 -0.0667 0.8276
vn 0.7770 0.4824 0.4045
vn 0.6843 0.6836 0.2540
vn 0.7754 0.3274 0.5400
vn 0.2217 -0.7464 0.6274
vn 0.1432 -0.4931 0.8581
vn 0.0794 -0.7785 0.6226
vn -0.0520 -0.9014 0.4299
vn 0.0704 -0.8746 0.4798
vn -0.0481 -0.9386 0.3415
vn -0.2027 -0.9065 0.3704
vn -0.0974 -0.9919 0.0811
vn 0.1556 -0.9731 0.1697
vn 0.9046 -0.3590 0.2300
vn 0.9864 0.0685 0.1492
vn 0.8155 -0.3275 0.4771
vn -0.2579 0.9328 -0.2516
vn 0.2089 0.9538 -0.2159
vn 0.0528 0.8683 -0.4932
vn -0.4216 0.7119 -0.5616
vn -0.3112 0.5157 -0.7983
vn -0.5486 0.6642 -0.5078
vn -0.7406 0.5202 -0.4253
vn -0.5139 0.4330 -0.7406
vn -0.8254 0.2889 -0.4850
vn -0.6248 0.7368 -0.2584
vn -0.4162 0.7995 -0.4331
vn -0.9784 0.1750 0.1102
vn -0.8456 0.2225 0.4852
vn -0.9050 0.3587 0.2288
vn -0.7407 0.3141 0.5939
vn -0.9077 -0.1935 0.3725
vn -0.7236 -0.4304 0.5396
vn -0.6970 -0.0447 -0.7157
vn -0.4053 -0.8861 -0.2246
vn 0.4994 -0.0765 -0.8630
vn 0.6593 0.5725 -0.4875
vn 0.7639 0.0179 -0.6451
vn -0.1389 0.6866 0.7136
vn -0.5050 0.5141 0.6933
vn 0.5237 0.4911 0.6962
vn 0.3947 -0.5744 0.7172
vn 0.3724 -0.8397 0.3952
vn 0.4062 -0.9075 -0.1072
vn 0.1023 -0.9669 -0.2339
vn 0.3463 -0.7815 -0.5190
vn 0.5705 -0.6413 0.5131
vn -0.1105 0.7023 -0.7032
vn -0.1628 0.9838 0.0750
vn -0.9402 0.3176 -0.1231
vn -0.5616 0.8268 -0.0316
vn -0.7711 0.6221 -0.1357
vn 0.5562 -0.7895 0.2595
vn 0.4273 -0.7131 0.5557
vn 0.3028 -0.8766 0.3741
vn 0.6224 -0.7553 -0.2050
vn 0.5804 -0.6859 -0.4390
vn 0.7168 -0.6704 -0.1916
vn 0.3655 -0.9198 -0.1430
vn 0.5345 -0.7769 -0.3327
vn 0.5259 -0.8133 -0.2491
vn 0.7162 -0.5723 0.3993
vn 0.4257 -0.6747 0.6030
vn 0.5618 -0.5291 0.6359
vn 0.4683 -0.5036 0.7260
vn 0.8041 -0.5679 0.1760
vn 0.1031 -0.9317 -0.3482
vn -0.0722 -0.9962 -0.0489
vn -0.2184 -0.9646 -0.1477
vn -0.4721 -0.6631 -0.5808
vn -0.6947 -0.5908 -0.4103
vn -0.5064 -0.3225 -0.7998
vn -0.1924 -0.4989 -0.8450
vn -0.2009 -0.8449 -0.4957
vn 0.5259 -0.7602 -0.3814
vn 0.2838 -0.9363 -0.2068
vn -0.8584 0.3517 -0.3734
vn -0.9145 -0.0722 -0.3981
vn -0.9118 0.3583 -0.2007
vn -0.8069 0.5589 -0.1912
vn -0.6799 0.7284 0.0852
vn -0.6278 0.7099 0.3192
vn -0.5235 0.7819 0.3385
vn -0.5173 0.7695 -0.3745
vn -0.0815 0.9614 -0.2628
vn -0.1740 0.6307 -0.7562
vn -0.4928 0.8460 0.2035
vn -0.6560 0.7503 -0.0819
vn -0.3527 0.9352 0.0320
vn -0.5326 0.3737 -0.7594
vn -0.1495 0.6265 0.7649
vn -0.3656 0.6140 0.6995
vn -0.1056 0.3213 0.9411
vn 0.1596 0.3131 0.9362
vn 0.3869 -0.0721 0.9193
vn 0.6393 -0.1344 0.7571
vn 0.4696 0.2935 0.8327
vn 0.5037 0.6148 0.6069
vn 0.7915 0.2940 0.5359
vn 0.6057 0.7124 0.3545
vn -0.2214 0.8322 0.5083
vn -0.4161 0.7666 0.4891
vn 0.1026 0.8807 0.4624
vn 0.8969 0.4001 -0.1883
vn 0.9143 0.3566 0.1921
vn 0.9453 0.2377 -0.2235
vn 0.8738 -0.0762 -0.4803
vn 0.9106 0.1105 -0.3983
vn 0.8294 -0.1028 -0.5491
vn 0.8299 -0.3434 -0.4398
vn 0.5649 -0.2392 -0.7897
vn 0.6396 0.1946 -0.7437
vn 0.2955 0.9450 -0.1403
vn 0.0169 0.9998 0.0135
vn 0.4368 0.8971 -0.0662
vn -0.5663 -0.4485 0.6914
vn -0.6652 0.1424 0.7329
vn -0.8657 -0.1244 0.4849
vn -0.6745 -0.6609 0.3290
vn -0.8009 -0.5970 0.0461
vn -0.5758 -0.7676 0.2816
vn -0.4615 -0.8645 0.1993
vn -0.6300 -0.7766 -0.0075
vn -0.3890 -0.9212 -0.0086
vn -0.4356 -0.7854 0.4397
vn -0.6077 -0.6746 0.4191
vn 0.0030 -0.9734 0.2292
vn 0.3047 -0.8200 0.4844
vn 0.0294 -0.8933 0.4486
vn 0.3511 -0.7011 0.6206
vn 0.4348 -0.8995 0.0432
vn 0.6606 -0.7497 -0.0391
vn -0.4337 -0.8707 -0.2317
vn 0.1961 -0.7083 -0.6781
vn -0.7551 0.1748 -0.6318
vn -0.8043 0.5923 0.0472
vn -0.7511 0.5255 -0.3997
vn 0.1121 0.0336 0.9931
vn 0.2939 -0.3869 0.8740
vn 0.1288 0.6518 0.7473
vn 0.7943 0.6075 0.0069
vn 0.7335 0.5483 -0.4017
vn 0.2835 0.4379 -0.8531
vn 0.1488 -0.0027 -0.9889
vn -0.2011 0.1453 -0.9687
vn 0.6268 0.7644 -0.1511
vn -0.9198 -0.2989 0.2543
vn -0.3195 -0.1832 0.9297
vn -0.2376 -0.9512 0.1969
vn -0.2991 -0.6896 0.6596
vn -0.3253 -0.8428 0.4288
vn 0.3156 0.4945 0.8099
vn 0.0338 0.4968 0.8672
vn 0.0541 0.5429 0.8380
vn 0.3091 0.5360 0.7856
vn 0.9874 0.1576 -0.0112
vn 0.9946 0.1037 -0.0037
vn 0.8631 0.0513 0.5024
vn 0.9756 0.1410 0.1685
vn -0.5395 -0.0106 0.8419
vn -0.5053 -0.0705 0.8601
vn -0.8601 -0.0002 0.5101
vn -0.8498 0.0430 0.5253
vn -0.6354 0.3162 0.7045
vn -0.5919 0.1600 0.7900
vn -0.8463 0.1514 0.5107
vn -0.8416 0.2365 0.4856
vn 0.9393 0.3369 -0.0643
vn 0.9659 0.2581 -0.0212
vn 0.9638 0.2583 0.0660
vn 0.9209 0.3869 0.0478
vn 0.3931 0.0762 0.9163
vn -0.0511 0.0738 0.9960
vn 0.0245 0.3198 0.9472
vn 0.3511 0.3008 0.8867
vn 0.6443 0.2265 -0.7305
vn -0.1451 0.4021 -0.9040
vn -0.0395 0.8142 -0.5792
vn 0.6760 0.6461 -0.3544
vn 0.8853 0.4234 0.1925
vn 0.6307 0.4894 0.6023
vn 0.5918 0.5263 0.6106
vn 0.8509 0.4696 0.2357
vn 0.7903 0.1359 0.5974
vn -0.4023 0.4500 0.7973
vn -0.5779 0.3896 0.7171
vn -0.5719 0.4427 0.6906
vn -0.3411 0.5091 0.7903
vn -0.5622 0.2164 0.7982
vn -0.4542 0.2082 0.8662
vn -0.4199 0.0310 0.9070
vn 0.9944 0.0598 0.0867
vn 0.8980 0.4348 0.0677
vn 0.7357 0.4890 0.4686
vn 0.8618 -0.0249 0.5066
vn -0.6722 -0.0620 0.7377
vn -0.5106 0.5515 0.6597
vn -0.7595 0.6185 0.2017
vn -0.9756 0.1382 0.1707
vn -0.4217 0.2742 -0.8643
vn -0.4282 0.2701 -0.8624
vn -0.8607 0.2144 -0.4618
vn -0.8453 0.2066 -0.4927
vn -0.9940 0.1092 -0.0085
vn -0.9945 0.1014 0.0271
vn -0.8912 0.0211 0.4531
vn -0.4311 0.3166 -0.8449
vn 0.1440 0.2622 -0.9542
vn 0.1426 0.2327 -0.9621
vn -0.4497 0.2876 -0.8456
vn -0.4299 0.3136 -0.8467
vn 0.1627 0.2675 -0.9497
vn 0.1518 0.2852 -0.9464
vn -0.4268 0.3387 -0.8385
vn -0.9864 0.1390 0.0881
vn -0.8715 0.2683 -0.4104
vn -0.8744 0.3127 -0.3711
vn -0.9708 0.1942 0.1408
vn -0.9594 0.2284 0.1652
vn -0.8838 0.3070 -0.3530
vn -0.8927 0.2817 -0.3518
vn -0.9615 0.2239 0.1592
vn 0.6088 0.2067 -0.7659
vn 0.1776 0.2450 -0.9531
vn 0.6479 0.1812 -0.7399
vn 0.5569 0.2175 -0.8016
vn 0.5748 0.2276 -0.7860
vn 0.4579 -0.1301 0.8794
vn 0.4732 -0.1486 0.8683
vn -0.1676 0.3371 0.9264
vn -0.1111 -0.1534 0.9819
vn 0.3919 0.9148 0.0975
vn 0.3407 0.9388 0.0509
vn 0.5931 0.6669 -0.4511
vn 0.7470 0.5856 -0.3146
vn 0.1955 -0.8625 -0.4667
vn 0.5742 -0.5121 -0.6388
vn 0.3949 -0.5538 -0.7330
vn 0.0252 -0.9170 -0.3982
vn -0.5050 0.6870 0.5224
vn -0.8384 0.1596 0.5212
vn -0.9414 0.3168 0.1153
vn -0.3298 0.9101 0.2510
vn 0.7955 -0.0098 -0.6058
vn 0.6251 0.0702 -0.7774
vn -0.7890 -0.5386 0.2956
vn -0.5074 -0.8599 0.0554
vn -0.2695 -0.9533 -0.1363
vn -0.7901 -0.6106 -0.0535
vn -0.6083 -0.7797 0.1484
vn -0.2032 -0.9577 -0.2039
vn 0.2021 0.9754 0.0884
vn 0.0390 0.8446 0.5340
vn -0.1952 0.8006 0.5665
vn -0.1176 0.9652 0.2335
vn -0.1799 0.3855 0.9050
vn -0.3525 -0.4111 0.8407
vn -0.6574 -0.3360 0.6745
vn -0.4368 0.4644 0.7704
vn 0.6025 0.4612 0.6514
vn 0.1979 0.9341 0.2972
vn 0.1227 0.9456 0.3014
vn 0.7712 0.4423 0.4579
vn 0.0269 -0.8835 -0.4676
vn 0.2834 -0.4993 -0.8188
vn 0.3194 -0.6658 -0.6743
vn 0.1546 -0.8621 -0.4826
vn 0.4165 0.0876 -0.9049
vn 0.3701 0.7725 -0.5160
vn -0.0594 0.8817 -0.4681
vn 0.2316 0.0326 -0.9723
vn -0.8227 -0.3930 -0.4106
vn -0.3599 -0.9155 -0.1798
vn -0.4008 -0.8839 -0.2410
vn -0.8716 -0.3306 -0.3619
vn -0.3391 0.9387 -0.0622
vn -0.8255 0.4449 -0.3471
vn -0.8893 0.3922 -0.2351
vn -0.4990 0.8666 0.0060
vn -0.2950 -0.8880 0.3527
vn -0.1725 -0.9814 -0.0846
vn -0.1352 -0.9838 -0.1179
vn -0.4407 -0.8523 0.2816
vn 0.0889 -0.9831 0.1601
vn 0.5519 -0.5050 0.6636
vn 0.8495 -0.4156 0.3250
vn 0.3067 -0.9517 0.0097
vn 0.4952 -0.8475 -0.1913
vn 0.9684 -0.2478 0.0283
vn 0.9649 0.0158 -0.2622
vn 0.5985 -0.6894 -0.4081
vn -0.8844 -0.4323 -0.1762
vn -0.2648 -0.9291 -0.2581
vn -0.1410 -0.9493 -0.2810
vn -0.8009 -0.5987 -0.0058
vn 0.8003 0.5376 0.2655
vn 0.0516 0.9358 0.3487
vn -0.1245 0.8935 0.4314
vn 0.6842 0.7200 0.1163
vn -0.6559 0.7280 0.1995
vn -0.9721 0.2342 0.0118
vn -0.9713 0.0106 0.2375
vn -0.7512 0.5176 0.4096
vn 0.5431 0.8395 0.0173
vn -0.1764 0.8498 0.4967
vn -0.1690 0.8227 0.5428
vn 0.5439 0.7874 0.2902
vn -0.7236 0.3309 0.6057
vn -0.8638 -0.2145 0.4559
vn -0.7945 -0.3170 0.5180
vn -0.5698 0.2532 0.7818
vn 0.6288 -0.4932 -0.6011
vn 0.8601 0.2385 -0.4509
vn 0.8512 0.2736 -0.4478
vn 0.7754 -0.4364 -0.4563
vn -0.6269 -0.7737 0.0917
vn 0.0358 -0.9245 -0.3795
vn 0.1348 -0.8994 -0.4159
vn -0.3738 -0.8937 0.2482
vn 0.5092 -0.3064 0.8043
vn -0.5519 -0.8160 0.1720
vn -0.0812 -0.9882 -0.1301
vn -0.0172 -0.9980 -0.0610
vn -0.4558 -0.8595 0.2314
vn 0.2843 -0.8973 -0.3376
vn 0.5031 -0.7525 -0.4251
vn 0.6944 -0.5816 -0.4237
vn 0.4362 -0.8712 -0.2253
vn 0.9164 -0.1836 -0.3557
vn 0.7791 0.6249 -0.0505
vn 0.5890 0.7720 -0.2391
vn 0.8858 0.1407 -0.4423
vn 0.5156 -0.8429 -0.1540
vn 0.3002 -0.5379 -0.7877
vn 0.2464 -0.2614 -0.9332
vn 0.2552 -0.9606 -0.1103
vn -0.6948 0.5028 0.5142
vn -0.8497 -0.2770 0.4487
vn -0.8086 -0.3681 0.4591
vn -0.7894 0.3875 0.4761
vn 0.0235 0.9972 -0.0705
vn -0.4476 0.8563 0.2577
vn -0.4600 0.8478 0.2638
vn 0.1227 0.9908 -0.0563
vn -0.7836 0.3314 0.5255
vn -0.7263 -0.4073 0.5537
vn -0.6937 -0.4314 0.5768
vn -0.7231 0.2627 0.6389
vn -0.2460 -0.9254 0.2882
vn 0.1167 -0.9930 0.0207
vn 0.5178 -0.8294 -0.2099
vn -0.0640 -0.9509 0.3027
vn 0.8468 0.0344 -0.5308
vn 0.5235 0.7670 -0.3710
vn 0.5487 0.7264 -0.4138
vn 0.8960 -0.1136 -0.4293
vn 0.5689 0.1166 0.8141
vn -0.4079 0.8815 0.2380
vn -0.2275 0.5882 0.7761
vn -0.1463 0.5294 0.8357
vn -0.2343 0.9562 0.1756
vn 0.2120 0.9537 0.2133
vn -0.2497 0.8911 0.3788
vn -0.4044 0.8671 0.2908
vn 0.1017 0.9943 0.0333
vn -0.1402 0.3619 -0.9216
vn -0.3794 0.8522 -0.3602
vn -0.1851 0.9319 -0.3119
vn -0.0555 0.6358 -0.7699
vn 0.3171 -0.3280 0.8899
vn 0.5264 -0.7722 0.3559
vn 0.1701 -0.9225 0.3464
vn 0.0514 -0.5357 0.8428
vn -0.2212 -0.5796 0.7843
vn -0.1511 -0.9359 0.3182
vn -0.2047 -0.9243 0.3221
vn -0.1088 -0.0470 0.9930
vn 0.2241 0.7483 -0.6243
vn 0.1450 0.9560 -0.2551
vn 0.2468 0.9409 -0.2320
vn 0.4744 0.2242 -0.8513
vn -0.0430 -0.9911 -0.1263
vn 0.2715 -0.2627 -0.9259
vn 0.2521 -0.2782 -0.9269
vn 0.0939 -0.9001 -0.4254
vn 0.0670 0.9911 0.1153
vn -0.1027 0.5190 0.8486
vn -0.1165 0.4908 0.8634
vn 0.1696 0.9163 0.3629
vn 0.9524 -0.1544 0.2630
vn 0.0543 -0.9955 0.0777
vn 0.4432 -0.8511 -0.2812
vn 0.1452 -0.9040 -0.4021
vn 0.4206 -0.6893 -0.5899
vn -0.8606 -0.3008 0.4111
vn -0.5321 -0.6737 0.5129
vn 0.2663 0.9562 0.1216
vn 0.6681 0.6894 -0.2801
vn -0.0122 0.7503 -0.6610
vn -0.6514 0.7439 -0.1494
vn 0.7800 0.0901 -0.6192
vn 0.0144 -0.8100 -0.5862
vn -0.2199 -0.5914 -0.7758
vn -0.2950 0.0873 -0.9515
vn -0.7879 -0.5951 0.1583
vn 0.4556 -0.3628 -0.8129
vn -0.9905 -0.0731 -0.1164
vn -0.4828 0.7773 -0.4034
vn -0.6374 0.6934 0.3359
vn -0.3447 0.8772 0.3343
vn 0.4307 -0.1069 0.8961
vn 0.4349 -0.1188 0.8926
vn -0.0797 -0.1420 0.9867
vn -0.0666 -0.1288 0.9894
vn -0.9602 0.1193 0.2524
vn -0.8145 0.3716 -0.4454
vn -0.9190 0.3654 -0.1483
vn -0.8193 0.2871 -0.4964
vn -0.5439 0.8124 -0.2103
vn -0.5211 -0.0905 0.8487
vn -0.5851 -0.0873 0.8062
vn 0.9981 0.0584 0.0205
vn 0.9974 0.0419 0.0587
vn 0.8526 -0.0356 0.5214
vn 0.8587 -0.0221 0.5121
vn 0.6694 0.1712 -0.7229
vn 0.1368 0.2694 -0.9533
vn -0.0900 0.3531 -0.9313
vn 0.6608 0.1795 -0.7288
vn -0.7831 -0.5616 -0.2670
vn -0.8489 0.5269 -0.0424
vn -0.4474 0.6782 -0.5831
vn -0.0056 0.9659 0.2587
vn 0.0063 0.9466 0.3223
vn 0.9282 0.3237 -0.1836
vn 0.3739 0.9218 0.1023
vn -0.4379 0.8065 -0.3973
vn -0.1165 -0.4640 -0.8781
vn -0.8423 0.4363 0.3165
vn 0.9193 0.1131 -0.3771
vn 0.9373 0.0979 -0.3344
vn 0.8990 0.1570 -0.4088
vn -0.0853 -0.0578 0.9947
vn -0.5657 0.4875 -0.6651
vn -0.8130 0.3411 -0.4719
vn 0.4224 -0.0431 0.9054
vn 0.1538 0.1963 -0.9684
vn -0.7234 0.4612 0.5138
vn -0.8290 0.4678 0.3063
vn -0.9270 -0.3730 -0.0383
vn 0.7510 0.6122 -0.2472
vn 0.8321 0.0188 -0.5542
vn 0.3547 0.9228 0.1505
vn 0.2535 -0.8934 0.3709
vn 0.2912 0.6785 0.6744
vn 0.9184 -0.3201 0.2327
vn 0.7220 -0.5732 -0.3875
vn 0.5783 -0.7436 -0.3356
vn -0.1237 -0.9695 0.2115
vn 0.0291 -0.4901 0.8712
vn 0.1599 0.9276 0.3377
vn 0.2046 0.5241 0.8267
vn -0.0415 -0.9538 -0.2974
vn -0.0186 0.9300 0.3672
vn 0.8335 0.2652 -0.4847
vn 0.8485 0.2597 -0.4610
vn 0.8234 0.2415 -0.5136
vn 0.5493 0.1972 -0.8121
vn 0.8781 0.2069 -0.4313
vn -0.8504 0.2455 0.4654
vn 0.9527 0.1211 -0.2787
vn 0.9511 0.2456 0.1876
vn 0.6882 0.3357 0.6432
vn 0.9016 0.4305 0.0427
vn 0.9318 0.3534 -0.0831
vn -0.6505 0.3555 0.6712
vn -0.0145 -0.7265 0.6870
vn -0.0137 -0.3131 0.9496
vn -0.0983 0.0953 0.9906
vn -0.2137 -0.9766 0.0250
vn -0.3504 -0.9340 -0.0702
vn -0.9831 -0.1341 -0.1249
vn -0.8101 -0.5298 -0.2512
vn -0.9533 0.2744 0.1258
vn -0.3382 0.3355 0.8792
vn -0.5515 0.5963 0.5833
vn 0.6186 0.7745 0.1322
vn 0.3411 0.8295 -0.4422
vn -0.1959 -0.1552 -0.9683
vn -0.4866 -0.0034 -0.8736
vn 0.1838 -0.3703 -0.9106
vn 0.7633 -0.2991 -0.5727
vn 0.7036 -0.5403 -0.4616
vn 0.9607 -0.2134 -0.1776
vn 0.8585 0.4337 0.2735
vn 0.8629 -0.0905 0.4972
vn -0.2358 0.9342 0.2676
vn -0.4878 0.7505 0.4458
vn -0.4782 0.7751 0.4130
vn -0.4301 0.8194 0.3790
vn -0.7784 0.4924 0.3894
vn -0.7702 -0.2172 -0.5996
vn 0.6012 -0.5492 -0.5804
vn -0.5758 -0.8046 -0.1453
vn 0.1236 -0.9876 0.0968
vn 0.1719 0.9668 0.1889
vn 0.9612 -0.1233 0.2469
vn -0.7234 0.6348 0.2715
vn -0.4228 0.7964 0.4325
vn -0.0090 0.9149 0.4036
vn -0.9779 0.1075 -0.1796
vn -0.8620 0.1207 -0.4923
vn 0.0586 0.4467 -0.8927
vn -0.1878 0.2942 -0.9371
vn 0.3351 0.6683 -0.6641
vn 0.2876 0.9545 0.0786
vn 0.4735 0.8644 -0.1689
vn 0.6397 -0.2708 0.7194
vn 0.7167 -0.6913 0.0920
vn 0.0376 -0.8468 -0.5305
vn 0.2895 -0.5244 -0.8008
vn -0.1281 -0.9632 -0.2364
vn -0.1669 -0.9339 0.3161
vn -0.3465 -0.8976 0.2727
vn -0.1479 -0.7648 0.6271
vn 0.2484 -0.3572 0.9004
vn -0.2102 -0.1196 0.9703
vn 0.9252 0.3175 0.2079
vn 0.6002 0.7943 -0.0942
vn 0.7476 0.6638 0.0213
vn 0.8723 0.4579 0.1712
vn 0.4659 0.7990 -0.3801
vn 0.1036 -0.0641 -0.9926
vn -0.3140 -0.9386 0.1431
vn -0.5560 0.2622 -0.7888
vn -0.9968 0.0307 0.0738
vn 0.8876 0.1153 0.4461
vn -0.1403 -0.4567 0.8785
usemtl None
s 1
f 1/1/1 194/2/2 233/3/3
f 4/4/4 416/5/5 263/6/6
f 7/7/7 412/8/8 311/9/9
f 1/1/1 452/10/10 194/2/2
f 2/11/11 363/12/12 406/13/13
f 4/4/4 263/6/6 191/14/14
f 10/15/15 358/16/16 314/17/17
f 12/18/18 411/19/19 258/20/20
f 12/18/18 258/20/20 307/21/21
f 12/22/18 307/23/21 188/24/22
f 10/15/15 179/25/23 353/26/24
f 16/27/25 455/28/26 231/29/27
f 16/27/25 231/29/27 415/30/28
f 18/31/29 310/32/30 184/33/31
f 21/34/32 362/35/33 403/36/34
f 18/31/29 354/37/35 223/38/36
f 21/34/32 449/39/37 362/35/33
f 21/34/32 403/36/34 196/40/38
f 25/41/39 302/42/40 190/43/41
f 25/41/39 190/43/41 463/44/42
f 9/45/43 232/46/44 212/47/45
f 27/48/46 459/49/47 453/50/48
f 25/41/39 227/51/49 221/52/50
f 27/53/46 453/54/48 478/55/51
f 29/56/52 375/57/53 193/58/54
f 29/56/52 269/59/55 367/60/56
f 30/61/57 326/62/58 168/63/59
f 30/64/57 168/65/59 174/66/60
f 22/67/61 360/68/62 165/69/63
f 31/70/64 206/71/65 387/72/66
f 32/73/67 435/74/68 230/75/69
f 33/76/70 481/77/71 287/78/72
f 32/79/67 192/80/73 264/81/74
f 3/82/75 317/83/76 312/84/77
f 2/11/11 406/13/13 409/85/78
f 1/1/1 233/3/3 408/86/79
f 1/1/1 408/86/79 265/87/80
f 1/1/1 265/87/80 452/10/10
f 12/22/18 188/24/22 457/88/81
f 10/15/15 353/26/24 358/16/16
f 12/18/18 457/89/81 411/19/19
f 10/15/15 501/90/82 179/25/23
f 16/27/25 366/91/83 455/28/26
f 18/31/29 187/92/84 310/32/30
f 16/27/25 415/30/28 377/93/85
f 18/31/29 184/33/31 354/37/35
f 16/27/25 377/93/85 366/91/83
f 25/41/39 221/52/50 302/42/40
f 9/45/43 172/94/86 498/95/87
f 25/41/39 463/44/42 229/96/88
f 25/41/39 229/96/88 227/51/49
f 29/56/52 407/97/89 375/57/53
f 29/56/52 193/58/54 269/59/55
f 29/98/52 367/99/56 480/100/90
f 23/101/91 199/102/92 471/103/93
f 29/98/52 480/100/90 210/104/94
f 29/98/52 210/104/94 407/105/89
f 32/73/67 264/106/74 431/107/95
f 31/70/64 497/108/96 206/71/65
f 32/73/67 431/107/95 435/74/68
f 33/109/70 287/110/72 273/111/97
f 32/79/67 230/112/69 192/80/73
f 31/113/64 266/114/98 497/115/96
f 33/109/70 273/111/97 447/116/99
f 35/117/100 356/118/101 491/119/102
f 38/120/103 490/121/104 441/122/105
f 41/123/106 298/124/107 395/125/108
f 35/117/100 245/126/109 356/118/101
f 36/127/110 161/128/111 472/129/112
f 38/120/103 441/122/105 325/130/113
f 44/131/114 157/132/115 394/133/116
f 46/134/117 489/135/118 438/136/119
f 46/134/117 438/136/119 392/137/120
f 46/138/117 392/139/120 334/140/121
f 44/131/114 332/141/122 171/142/123
f 50/143/124 216/144/125 305/145/126
f 50/143/124 305/145/126 256/146/127
f 52/147/128 401/148/129 348/149/130
f 55/150/131 181/151/132 299/152/133
f 52/147/128 164/153/134 294/154/135
f 55/150/131 243/155/136 181/151/132
f 55/150/131 299/152/133 262/156/137
f 59/157/138 204/158/139 361/159/140
f 59/157/138 361/159/140 371/160/141
f 43/161/142 295/162/143 464/163/144
f 61/164/145 195/165/146 261/166/147
f 59/157/138 306/167/148 286/168/149
f 61/169/145 261/170/147 218/171/150
f 63/172/151 458/173/152 260/174/153
f 63/172/151 183/175/154 186/176/155
f 64/177/156 503/178/157 328/179/158
f 64/180/156 328/181/158 351/182/159
f 56/183/160 156/184/161 337/185/162
f 65/186/163 476/187/164 282/188/165
f 66/189/166 280/190/167 284/191/168
f 67/192/169 238/193/170 426/194/171
f 66/195/166 323/196/172 333/197/173
f 37/198/174 398/199/175 224/200/176
f 36/127/110 472/129/112 507/201/177
f 35/117/100 491/119/102 293/202/178
f 35/117/100 293/202/178 434/203/179
f 35/117/100 434/203/179 245/126/109
f 46/138/117 334/140/121 254/204/180
f 44/131/114 171/142/123 157/132/115
f 46/134/117 254/205/180 489/135/118
f 44/131/114 211/206/181 332/141/122
f 50/143/124 493/207/182 216/144/125
f 52/147/128 359/208/183 401/148/129
f 50/143/124 256/146/127 488/209/184
f 52/147/128 348/149/130 164/153/134
f 50/143/124 488/209/184 493/207/182
f 59/157/138 286/168/149 204/158/139
f 43/161/142 321/210/185 400/211/186
f 59/157/138 371/160/141 495/212/187
f 59/157/138 495/212/187 306/167/148
f 63/172/151 499/213/188 458/173/152
f 63/172/151 260/174/153 183/175/154
f 63/214/151 186/215/155 397/216/189
f 57/217/190 483/218/191 189/219/192
f 63/214/151 397/216/189 289/220/193
f 63/214/151 289/220/193 499/221/188
f 66/189/166 333/222/173 276/223/194
f 65/186/163 215/224/195 476/187/164
f 66/189/166 276/223/194 280/190/167
f 67/225/169 426/226/171 433/227/196
f 66/195/166 284/228/168 323/196/172
f 65/229/163 241/230/197 215/231/195
f 67/225/169 433/227/196 428/232/198
f 580/233/199 470/234/200 71/235/201 242/236/202
f 579/237/203 279/238/204 75/239/205 422/240/206
f 578/241/207 469/242/208 79/243/209 240/244/210
f 577/245/211 421/246/212 80/247/213 381/248/214
f 576/249/215 236/250/216 76/251/217 482/252/218
f 575/253/219 414/254/220 70/255/221 158/256/222
f 574/257/223 461/258/224 87/259/225 235/260/226
f 573/261/227 423/262/228 72/263/229 492/264/230
f 75/265/205 365/266/231 422/267/206
f 572/268/232 466/269/233 81/270/234 268/271/235
f 77/272/236 364/273/237 155/274/238
f 571/275/239 380/276/240 89/277/241 322/278/242
f 570/279/243 198/280/244 93/281/245 153/282/246
f 569/283/247 237/284/248 96/285/249 391/286/250
f 568/287/251 222/288/252 79/243/209 304/289/253
f 567/290/254 166/291/255 100/292/256 209/293/257
f 566/294/258 468/295/259 99/296/260 290/297/261
f 565/298/262 347/299/263 98/300/264 352/301/265
f 564/302/266 385/303/267 101/304/268 303/305/269
f 563/306/270 468/295/259 95/307/271 443/308/272
f 562/309/273 166/291/255 99/296/260 315/310/274
f 561/311/275 234/312/276 92/313/277 420/314/278
f 560/315/279 336/316/280 104/317/281 384/318/282
f 559/319/283 163/320/284 108/321/285 205/322/286
f 558/323/287 474/324/288 111/325/289 372/326/290
f 557/327/291 384/318/282 104/317/281 410/328/292
f 556/329/293 159/330/294 109/331/295 202/332/296
f 112/333/297 418/334/298 159/330/294
f 555/335/299 275/336/300 113/337/301 437/338/302
f 554/339/303 170/340/304 116/341/305 342/342/306
f 553/343/307 445/344/308 117/345/309 249/346/310
f 552/347/311 248/348/312 119/349/313 341/350/314
f 551/351/315 297/352/316 114/353/317 473/354/318
f 550/355/319 440/356/320 121/357/321 439/358/322
f 549/359/323 217/360/324 122/361/325 417/362/326
f 548/363/327 487/364/328 120/365/329 244/366/330
f 547/367/331 427/368/332 118/369/333 208/370/334
f 546/371/335 274/372/336 123/373/337 173/374/338
f 545/375/339 346/376/340 124/377/341 213/378/342
f 544/379/343 239/380/344 126/381/345 430/382/346
f 543/383/347 390/384/348 125/385/349 251/386/350
f 542/387/351 484/388/352 127/389/353 350/390/354
f 541/391/355 479/392/356 129/393/357 292/394/358
f 540/395/359 335/396/360 128/397/361 296/398/362
f 539/399/363 357/400/364 130/401/365 486/402/366
f 538/403/367 296/404/362 128/405/361 350/406/354
f 537/407/368 308/408/369 131/409/370 396/410/371
f 536/411/372 502/412/373 133/413/374 442/414/375
f 535/415/376 436/416/377 135/417/378 345/418/379
f 534/419/380 376/420/381 136/421/382 167/422/383
f 533/423/384 456/424/385 132/425/386 379/426/387
f 532/427/388 250/428/389 139/429/390 389/430/391
f 531/431/392 327/432/393 141/433/394 432/434/395
f 530/435/396 465/436/397 142/437/398 291/438/399
f 131/439/370 442/414/375 465/440/397
f 529/441/400 373/442/401 140/443/402 200/444/403
f 528/445/404 432/446/395 141/447/394 291/448/399
f 527/449/405 220/450/406 143/451/407 207/452/408
f 526/453/409 454/454/410 138/455/411 272/456/412
f 525/457/413 444/458/414 144/459/415 467/460/416
f 524/461/417 339/462/418 137/463/419 330/464/420
f 523/465/421 424/466/422 145/467/423 477/468/424
f 522/469/425 388/470/426 147/471/427 386/472/428
f 521/473/429 259/474/430 148/475/431 201/476/432
f 520/477/433 247/478/434 146/479/435 246/480/436
f 147/481/427 246/482/436 162/483/437
f 148/484/431 386/485/428 201/486/432
f 519/487/438 448/488/439 106/489/440 418/334/298
f 106/490/440 448/491/439 285/492/441
f 112/333/297 425/493/442 253/494/443
f 518/495/444 309/496/445 149/497/446 283/498/447
f 517/499/448 405/500/449 151/501/450 329/502/451
f 149/503/446 329/504/451 283/505/447
f 516/506/452 405/507/449 107/508/453 267/509/454
f 515/510/455 319/511/456 102/512/457 267/509/454
f 514/513/458 277/514/459 91/515/460 255/516/461
f 94/517/462 404/518/463 197/519/464
f 513/520/465 446/521/466 87/522/225 461/523/224
f 512/524/467 313/525/468 94/526/462 304/289/253
f 511/527/469 301/528/470 90/529/471 496/530/472
f 510/531/473 450/532/474 86/533/475 152/534/476
f 92/535/477 169/536/478 234/537/479
f 509/538/480 198/539/244 92/540/277 234/541/481
f 88/542/482 235/543/226 380/544/240
f 380/544/240 270/545/483 89/546/241
f 380/544/240 235/543/226 270/545/483
f 235/543/226 87/522/225 270/545/483
f 270/545/483 509/538/480 234/541/481 89/546/241
f 87/522/225 446/521/466 509/538/480 270/545/483
f 446/521/466 93/547/245 198/539/244 509/538/480
f 234/537/479 252/548/484 89/549/485
f 234/537/479 169/536/478 252/548/484
f 169/536/478 110/550/486 252/548/484
f 344/551/487 510/531/473 152/534/476 85/552/488
f 74/553/489 443/308/272 510/531/473 344/551/487
f 443/308/272 95/307/271 450/532/474 510/531/473
f 279/238/204 511/527/469 496/530/472 75/239/205
f 74/553/489 344/551/487 511/527/469 279/238/204
f 344/551/487 85/552/488 301/528/470 511/527/469
f 469/242/208 512/524/467 304/289/253 79/243/209
f 78/554/490 255/516/461 512/524/467 469/242/208
f 255/516/461 91/515/460 313/525/468 512/524/467
f 404/518/463 513/520/465 461/523/224 86/555/475
f 94/517/462 153/556/246 513/520/465 404/518/463
f 153/556/246 93/547/245 446/521/466 513/520/465
f 197/519/464 185/557/491 97/558/492
f 197/519/464 404/518/463 185/557/491
f 404/518/463 86/555/475 185/557/491
f 316/559/493 514/513/458 255/516/461 78/554/490
f 75/265/205 496/560/472 514/513/458 316/559/493
f 496/560/472 90/561/471 277/514/459 514/513/458
f 300/562/494 515/510/455 267/509/454 107/508/453
f 89/549/485 252/548/484 515/510/455 300/562/494
f 252/548/484 110/550/486 319/511/456 515/510/455
f 378/563/495 516/506/452 267/509/454 102/512/457
f 150/564/496 429/565/497 516/506/452 378/563/495
f 429/565/497 151/566/450 405/507/449 516/506/452
f 283/505/447 429/567/497 150/568/496
f 283/505/447 329/504/451 429/567/497
f 329/504/451 151/569/450 429/567/497
f 309/496/445 517/499/448 329/502/451 149/497/446
f 105/570/498 383/571/499 517/499/448 309/496/445
f 383/571/499 107/572/453 405/500/449 517/499/448
f 378/573/495 518/495/444 283/498/447 150/574/496
f 102/575/457 203/576/500 518/495/444 378/573/495
f 203/576/500 105/570/498 309/496/445 518/495/444
f 253/494/443 169/577/478 92/578/477
f 253/494/443 425/493/442 169/577/478
f 425/493/442 110/579/486 169/577/478
f 285/492/441 300/580/494 107/572/453
f 285/492/441 448/491/439 300/580/494
f 448/491/439 89/581/485 300/580/494
f 253/494/443 519/487/438 418/334/298 112/333/297
f 92/578/477 234/582/501 519/487/438 253/494/443
f 234/582/501 89/583/485 448/488/439 519/487/438
f 201/486/432 162/483/437 145/584/423
f 201/486/432 386/485/428 162/483/437
f 386/485/428 147/481/427 162/483/437
f 162/483/437 477/585/424 145/584/423
f 162/483/437 246/482/436 477/585/424
f 246/482/436 146/586/435 477/585/424
f 388/470/426 520/477/433 246/480/436 147/471/427
f 144/459/415 207/452/408 520/477/433 388/470/426
f 207/452/408 143/451/407 247/478/434 520/477/433
f 424/466/422 521/473/429 201/476/432 145/467/423
f 137/463/419 167/422/383 521/473/429 424/466/422
f 167/422/383 136/421/382 259/474/430 521/473/429
f 259/587/430 522/469/425 386/472/428 148/588/431
f 136/589/382 467/460/416 522/469/425 259/587/430
f 467/460/416 144/459/415 388/470/426 522/469/425
f 247/478/434 523/465/421 477/468/424 146/479/435
f 143/451/407 330/464/420 523/465/421 247/478/434
f 330/464/420 137/463/419 424/466/422 523/465/421
f 220/450/406 524/461/417 330/464/420 143/451/407
f 113/590/301 271/591/502 524/461/417 220/450/406
f 271/591/502 134/592/503 339/462/418 524/461/417
f 376/593/381 525/457/413 467/460/416 136/589/382
f 119/594/313 473/595/318 525/457/413 376/593/381
f 473/595/318 114/596/317 444/458/414 525/457/413
f 436/416/377 526/453/409 272/456/412 135/417/378
f 134/597/503 271/598/502 526/453/409 436/416/377
f 271/598/502 113/337/301 454/454/410 526/453/409
f 444/458/414 527/449/405 207/452/408 144/459/415
f 114/596/317 437/599/302 527/449/405 444/458/414
f 437/599/302 113/590/301 220/450/406 527/449/405
f 200/600/403 528/445/404 291/448/399 142/601/398
f 140/602/402 389/603/391 528/445/404 200/600/403
f 389/603/391 139/604/390 432/446/395 528/445/404
f 281/605/504 529/441/400 200/444/403 142/606/398
f 133/413/374 345/418/379 529/441/400 281/605/504
f 345/418/379 135/417/378 373/442/401 529/441/400
f 465/440/397 281/605/504 142/606/398
f 465/440/397 442/414/375 281/605/504
f 442/414/375 133/413/374 281/605/504
f 327/432/393 530/435/396 291/438/399 141/433/394
f 132/425/386 396/410/371 530/435/396 327/432/393
f 396/410/371 131/409/370 465/436/397 530/435/396
f 250/428/389 531/431/392 432/434/395 139/429/390
f 138/455/411 379/426/387 531/431/392 250/428/389
f 379/426/387 132/425/386 327/432/393 531/431/392
f 373/442/401 532/427/388 389/430/391 140/443/402
f 135/417/378 272/456/412 532/427/388 373/442/401
f 272/456/412 138/455/411 250/428/389 532/427/388
f 454/454/410 533/423/384 379/426/387 138/455/411
f 113/337/301 342/342/306 533/423/384 454/454/410
f 342/342/306 116/341/305 456/424/385 533/423/384
f 339/462/418 534/419/380 167/422/383 137/463/419
f 134/592/503 460/607/505 534/419/380 339/462/418
f 460/607/505 119/608/313 376/420/381 534/419/380
f 502/412/373 535/415/376 345/418/379 133/413/374
f 119/349/313 460/609/505 535/415/376 502/412/373
f 460/609/505 134/597/503 436/416/377 535/415/376
f 308/610/369 536/411/372 442/414/375 131/439/370
f 120/611/329 341/350/314 536/411/372 308/610/369
f 341/350/314 119/349/313 502/412/373 536/411/372
f 456/424/385 537/407/368 396/410/371 132/425/386
f 116/341/305 244/366/330 537/407/368 456/424/385
f 244/366/330 120/365/329 308/408/369 537/407/368
f 292/612/358 538/403/367 350/406/354 127/613/353
f 129/614/357 486/615/366 538/403/367 292/612/358
f 486/615/366 130/616/365 296/404/362 538/403/367
f 479/392/356 539/399/363 486/402/366 129/393/357
f 125/385/349 213/378/342 539/399/363 479/392/356
f 213/378/342 124/377/341 357/400/364 539/399/363
f 357/617/364 540/395/359 296/398/362 130/618/365
f 124/619/341 173/374/338 540/395/359 357/617/364
f 173/374/338 123/373/337 335/396/360 540/395/359
f 484/388/352 541/391/355 292/394/358 127/389/353
f 126/381/345 251/386/350 541/391/355 484/388/352
f 251/386/350 125/385/349 479/392/356 541/391/355
f 335/396/360 542/387/351 350/390/354 128/397/361
f 123/373/337 430/382/346 542/387/351 335/396/360
f 430/382/346 126/381/345 484/388/352 542/387/351
f 239/380/344 543/383/347 251/386/350 126/381/345
f 117/345/309 417/362/326 543/383/347 239/380/344
f 417/362/326 122/361/325 390/384/348 543/383/347
f 274/372/336 544/379/343 430/382/346 123/373/337
f 118/369/333 249/346/310 544/379/343 274/372/336
f 249/346/310 117/345/309 239/380/344 544/379/343
f 390/384/348 545/375/339 213/378/342 125/385/349
f 122/361/325 439/358/322 545/375/339 390/384/348
f 439/358/322 121/357/321 346/376/340 545/375/339
f 346/620/340 546/371/335 173/374/338 124/619/341
f 121/621/321 208/370/334 546/371/335 346/620/340
f 208/370/334 118/369/333 274/372/336 546/371/335
f 440/622/320 547/367/331 208/370/334 121/621/321
f 109/623/295 340/624/506 547/367/331 440/622/320
f 340/624/506 115/625/507 427/368/332 547/367/331
f 170/340/304 548/363/327 244/366/330 116/341/305
f 115/626/507 340/627/506 548/363/327 170/340/304
f 340/627/506 109/628/295 487/364/328 548/363/327
f 445/344/308 549/359/323 417/362/326 117/345/309
f 103/629/508 372/630/290 549/359/323 445/344/308
f 372/630/290 111/631/289 217/360/324 549/359/323
f 217/360/324 550/355/319 439/358/322 122/361/325
f 111/631/289 202/632/296 550/355/319 217/360/324
f 202/632/296 109/633/295 440/356/320 550/355/319
f 248/348/312 551/351/315 473/354/318 119/349/313
f 108/321/285 410/328/292 551/351/315 248/348/312
f 410/328/292 104/317/281 297/352/316 551/351/315
f 487/634/328 552/347/311 341/350/314 120/611/329
f 109/635/295 205/322/286 552/347/311 487/634/328
f 205/322/286 108/321/285 248/348/312 552/347/311
f 427/368/332 553/343/307 249/346/310 118/369/333
f 115/625/507 180/636/509 553/343/307 427/368/332
f 180/636/509 103/629/508 445/344/308 553/343/307
f 275/336/300 554/339/303 342/342/306 113/337/301
f 103/637/508 180/638/509 554/339/303 275/336/300
f 180/638/509 115/626/507 170/340/304 554/339/303
f 297/352/316 555/335/299 437/338/302 114/353/317
f 104/317/281 336/316/280 555/335/299 297/352/316
f 336/316/280 103/637/508 275/336/300 555/335/299
f 159/330/294 382/639/510 109/331/295
f 159/330/294 418/334/298 382/639/510
f 418/334/298 106/489/440 382/639/510
f 474/324/288 556/329/293 202/332/296 111/325/289
f 110/579/486 425/493/442 556/329/293 474/324/288
f 425/493/442 112/333/297 159/330/294 556/329/293
f 163/320/284 557/327/291 410/328/292 108/321/285
f 107/572/453 383/571/499 557/327/291 163/320/284
f 383/571/499 105/570/498 384/318/282 557/327/291
f 475/640/511 558/323/287 372/326/290 103/637/508
f 102/575/457 319/641/456 558/323/287 475/640/511
f 319/641/456 110/579/486 474/324/288 558/323/287
f 382/642/510 559/319/283 205/322/286 109/635/295
f 106/490/440 285/492/441 559/319/283 382/642/510
f 285/492/441 107/572/453 163/320/284 559/319/283
f 203/576/500 560/315/279 384/318/282 105/570/498
f 102/575/457 475/640/511 560/315/279 203/576/500
f 475/640/511 103/637/508 336/316/280 560/315/279
f 277/514/459 561/311/275 420/314/278 91/515/460
f 90/561/471 322/643/242 561/311/275 277/514/459
f 322/643/242 89/644/241 234/312/276 561/311/275
f 338/645/512 562/309/273 315/310/274 73/646/513
f 83/647/514 175/648/515 562/309/273 338/645/512
f 175/648/515 100/292/256 166/291/255 562/309/273
f 324/649/516 563/306/270 443/308/272 74/553/489
f 73/646/513 315/310/274 563/306/270 324/649/516
f 315/310/274 99/296/260 468/295/259 563/306/270
f 381/248/214 564/302/266 303/305/269 82/650/517
f 80/247/213 352/301/265 564/302/266 381/248/214
f 352/301/265 98/300/264 385/303/267 564/302/266
f 240/244/210 565/298/262 352/301/265 80/247/213
f 79/243/209 222/288/252 565/298/262 240/244/210
f 222/288/252 96/285/249 347/299/263 565/298/262
f 347/299/263 566/294/258 290/297/261 98/300/264
f 96/285/249 237/284/248 566/294/258 347/299/263
f 237/284/248 95/307/271 468/295/259 566/294/258
f 385/303/267 567/290/254 209/293/257 101/304/268
f 98/300/264 290/297/261 567/290/254 385/303/267
f 290/297/261 99/296/260 166/291/255 567/290/254
f 197/651/464 568/287/251 304/289/253 94/526/462
f 97/652/492 391/286/250 568/287/251 197/651/464
f 391/286/250 96/285/249 222/288/252 568/287/251
f 185/653/491 569/283/247 391/286/250 97/652/492
f 86/533/475 450/532/474 569/283/247 185/653/491
f 450/532/474 95/307/271 237/284/248 569/283/247
f 313/525/468 570/279/243 153/282/246 94/526/462
f 91/515/460 420/314/278 570/279/243 313/525/468
f 420/314/278 92/313/277 198/280/244 570/279/243
f 301/528/470 571/275/239 322/278/242 90/529/471
f 85/552/488 413/654/518 571/275/239 301/528/470
f 413/654/518 88/655/482 380/276/240 571/275/239
f 155/274/238 414/254/220 78/554/490
f 155/274/238 364/273/237 414/254/220
f 364/273/237 70/255/221 414/254/220
f 470/234/200 572/268/232 268/271/235 71/235/201
f 70/255/221 364/273/237 572/268/232 470/234/200
f 364/273/237 77/272/236 466/269/233 572/268/232
f 422/267/206 228/656/519 76/657/217
f 422/267/206 365/266/231 228/656/519
f 365/266/231 69/658/520 228/656/519
f 482/659/218 573/261/227 492/264/230 84/660/521
f 76/657/217 228/656/519 573/261/227 482/659/218
f 228/656/519 69/658/520 423/262/228 573/261/227
f 413/654/518 574/257/223 235/260/226 88/655/482
f 85/552/488 152/534/476 574/257/223 413/654/518
f 152/534/476 86/533/475 461/258/224 574/257/223
f 365/266/231 575/253/219 158/256/222 69/658/520
f 75/265/205 316/559/493 575/253/219 365/266/231
f 316/559/493 78/554/490 414/254/220 575/253/219
f 419/661/522 576/249/215 482/252/218 84/662/521
f 83/647/514 338/645/512 576/249/215 419/661/522
f 338/645/512 73/646/513 236/250/216 576/249/215
f 320/663/523 577/245/211 381/248/214 82/650/517
f 81/270/234 466/269/233 577/245/211 320/663/523
f 466/269/233 77/272/236 421/246/212 577/245/211
f 421/246/212 578/241/207 240/244/210 80/247/213
f 77/272/236 155/274/238 578/241/207 421/246/212
f 155/274/238 78/554/490 469/242/208 578/241/207
f 236/250/216 579/237/203 422/240/206 76/251/217
f 73/646/513 324/649/516 579/237/203 236/250/216
f 324/649/516 74/553/489 279/238/204 579/237/203
f 423/262/228 580/233/199 242/236/202 72/263/229
f 69/658/520 158/256/222 580/233/199 423/262/228
f 158/256/222 70/255/221 470/234/200 580/233/199
f 428/232/198 224/200/176 68/664/524
f 428/232/198 433/227/196 224/200/176
f 433/227/196 37/198/174 224/200/176
f 215/231/195 462/665/525 60/666/526
f 215/231/195 241/230/197 462/665/525
f 241/230/197 68/664/524 462/665/525
f 323/196/172 428/232/198 68/664/524
f 323/196/172 284/228/168 428/232/198
f 284/228/168 67/225/169 428/232/198
f 433/227/196 278/667/527 37/198/174
f 433/227/196 426/226/171 278/667/527
f 426/226/171 45/668/528 278/667/527
f 280/190/167 355/669/529 47/670/530
f 280/190/167 276/223/194 355/669/529
f 276/223/194 51/671/531 355/669/529
f 476/187/164 160/672/532 53/673/533
f 476/187/164 215/224/195 160/672/532
f 215/224/195 60/674/526 160/672/532
f 276/223/194 282/188/165 51/671/531
f 276/223/194 333/222/173 282/188/165
f 333/222/173 65/186/163 282/188/165
f 499/221/188 337/185/162 62/675/534
f 499/221/188 289/220/193 337/185/162
f 289/220/193 56/183/160 337/185/162
f 289/220/193 219/676/535 56/183/160
f 289/220/193 397/216/189 219/676/535
f 397/216/189 57/217/190 219/676/535
f 189/219/192 214/677/536 48/678/537
f 189/219/192 483/218/191 214/677/536
f 483/218/191 49/679/538 214/677/536
f 397/216/189 351/182/159 57/217/190
f 397/216/189 186/215/155 351/182/159
f 186/215/155 64/180/156 351/182/159
f 183/175/154 178/680/539 39/681/540
f 183/175/154 260/174/153 178/680/539
f 260/174/153 40/682/541 178/680/539
f 458/173/152 508/683/542 42/684/543
f 458/173/152 499/213/188 508/683/542
f 499/213/188 62/685/534 508/683/542
f 306/167/148 218/171/150 58/686/544
f 306/167/148 495/212/187 218/171/150
f 495/212/187 61/169/145 218/171/150
f 495/212/187 464/687/144 61/169/145
f 495/212/187 371/160/141 464/687/144
f 371/160/141 43/688/142 464/687/144
f 400/211/186 462/665/525 68/664/524
f 400/211/186 321/210/185 462/665/525
f 321/210/185 60/666/526 462/665/525
f 204/158/139 257/689/545 53/673/533
f 204/158/139 286/168/149 257/689/545
f 286/168/149 54/690/546 257/689/545
f 493/207/182 262/156/137 48/678/537
f 493/207/182 488/209/184 262/156/137
f 488/209/184 55/150/131 262/156/137
f 164/153/134 331/691/547 58/686/544
f 164/153/134 348/149/130 331/691/547
f 348/149/130 54/690/546 331/691/547
f 488/209/184 294/154/135 55/150/131
f 488/209/184 256/146/127 294/154/135
f 256/146/127 52/147/128 294/154/135
f 401/148/129 494/692/548 53/673/533
f 401/148/129 359/208/183 494/692/548
f 359/208/183 51/671/531 494/692/548
f 216/144/125 177/693/549 47/670/530
f 216/144/125 493/207/182 177/693/549
f 493/207/182 48/678/537 177/693/549
f 332/141/122 288/694/550 39/681/540
f 332/141/122 211/206/181 288/694/550
f 211/206/181 49/695/538 288/694/550
f 489/135/118 393/696/551 47/670/530
f 489/135/118 254/205/180 393/696/551
f 254/205/180 45/697/528 393/696/551
f 157/132/115 485/698/552 37/198/174
f 157/132/115 171/142/123 485/698/552
f 171/142/123 41/123/106 485/698/552
f 254/204/180 394/133/116 45/668/528
f 254/204/180 334/140/121 394/133/116
f 334/140/121 44/131/114 394/133/116
f 245/126/109 325/130/113 42/684/543
f 245/126/109 434/203/179 325/130/113
f 434/203/179 38/120/103 325/130/113
f 434/203/179 395/125/108 38/120/103
f 434/203/179 293/202/178 395/125/108
f 293/202/178 41/123/106 395/125/108
f 293/202/178 485/698/552 41/123/106
f 293/202/178 491/119/102 485/698/552
f 491/119/102 37/198/174 485/698/552
f 507/201/177 400/211/186 68/664/524
f 507/201/177 472/129/112 400/211/186
f 472/129/112 43/161/142 400/211/186
f 224/200/176 507/201/177 68/664/524
f 224/200/176 398/199/175 507/201/177
f 398/199/175 36/127/110 507/201/177
f 333/197/173 241/230/197 65/229/163
f 333/197/173 323/196/172 241/230/197
f 323/196/172 68/664/524 241/230/197
f 426/194/171 393/696/551 45/697/528
f 426/194/171 238/193/170 393/696/551
f 238/193/170 47/670/530 393/696/551
f 284/191/168 238/193/170 67/192/169
f 284/191/168 280/190/167 238/193/170
f 280/190/167 47/670/530 238/193/170
f 282/188/165 494/692/548 51/671/531
f 282/188/165 476/187/164 494/692/548
f 476/187/164 53/673/533 494/692/548
f 337/185/162 176/699/553 62/675/534
f 337/185/162 156/184/161 176/699/553
f 156/184/161 58/686/544 176/699/553
f 351/182/159 483/218/191 57/217/190
f 351/182/159 328/181/158 483/218/191
f 328/181/158 49/679/538 483/218/191
f 328/179/158 288/694/550 49/695/538
f 328/179/158 503/178/157 288/694/550
f 503/178/157 39/681/540 288/694/550
f 186/176/155 503/178/157 64/177/156
f 186/176/155 183/175/154 503/178/157
f 183/175/154 39/681/540 503/178/157
f 260/174/153 154/700/554 40/682/541
f 260/174/153 458/173/152 154/700/554
f 458/173/152 42/684/543 154/700/554
f 218/171/150 176/699/553 58/686/544
f 218/171/150 261/170/147 176/699/553
f 261/170/147 62/675/534 176/699/553
f 286/168/149 331/691/547 54/690/546
f 286/168/149 306/167/148 331/691/547
f 306/167/148 58/686/544 331/691/547
f 261/166/147 508/683/542 62/685/534
f 261/166/147 195/165/146 508/683/542
f 195/165/146 42/684/543 508/683/542
f 464/163/144 195/165/146 61/164/145
f 464/163/144 295/162/143 195/165/146
f 295/162/143 42/684/543 195/165/146
f 371/160/141 321/701/185 43/688/142
f 371/160/141 361/159/140 321/701/185
f 361/159/140 60/674/526 321/701/185
f 361/159/140 160/672/532 60/674/526
f 361/159/140 204/158/139 160/672/532
f 204/158/139 53/673/533 160/672/532
f 262/156/137 189/219/192 48/678/537
f 262/156/137 299/152/133 189/219/192
f 299/152/133 57/217/190 189/219/192
f 181/151/132 156/184/161 56/183/160
f 181/151/132 243/155/136 156/184/161
f 243/155/136 58/686/544 156/184/161
f 294/154/135 243/155/136 55/150/131
f 294/154/135 164/153/134 243/155/136
f 164/153/134 58/686/544 243/155/136
f 299/152/133 219/676/535 57/217/190
f 299/152/133 181/151/132 219/676/535
f 181/151/132 56/183/160 219/676/535
f 348/149/130 257/689/545 54/690/546
f 348/149/130 401/148/129 257/689/545
f 401/148/129 53/673/533 257/689/545
f 256/146/127 359/208/183 52/147/128
f 256/146/127 305/145/126 359/208/183
f 305/145/126 51/671/531 359/208/183
f 305/145/126 355/669/529 51/671/531
f 305/145/126 216/144/125 355/669/529
f 216/144/125 47/670/530 355/669/529
f 171/142/123 298/124/107 41/123/106
f 171/142/123 332/141/122 298/124/107
f 332/141/122 39/681/540 298/124/107
f 334/140/121 211/206/181 44/131/114
f 334/140/121 392/139/120 211/206/181
f 392/139/120 49/695/538 211/206/181
f 392/137/120 214/677/536 49/679/538
f 392/137/120 438/136/119 214/677/536
f 438/136/119 48/678/537 214/677/536
f 438/136/119 177/693/549 48/678/537
f 438/136/119 489/135/118 177/693/549
f 489/135/118 47/670/530 177/693/549
f 394/133/116 278/667/527 45/668/528
f 394/133/116 157/132/115 278/667/527
f 157/132/115 37/198/174 278/667/527
f 325/130/113 154/700/554 42/684/543
f 325/130/113 441/122/105 154/700/554
f 441/122/105 40/682/541 154/700/554
f 472/129/112 295/162/143 43/161/142
f 472/129/112 161/128/111 295/162/143
f 161/128/111 42/684/543 295/162/143
f 356/118/101 161/128/111 36/127/110
f 356/118/101 245/126/109 161/128/111
f 245/126/109 42/684/543 161/128/111
f 395/125/108 490/121/104 38/120/103
f 395/125/108 298/124/107 490/121/104
f 298/124/107 39/681/540 490/121/104
f 441/122/105 178/680/539 40/682/541
f 441/122/105 490/121/104 178/680/539
f 490/121/104 39/681/540 178/680/539
f 491/119/102 398/199/175 37/198/174
f 491/119/102 356/118/101 398/199/175
f 356/118/101 36/127/110 398/199/175
f 447/116/99 312/84/77 34/702/555
f 447/116/99 273/111/97 312/84/77
f 273/111/97 3/82/75 312/84/77
f 497/115/96 374/703/556 26/704/557
f 497/115/96 266/114/98 374/703/556
f 266/114/98 34/702/555 374/703/556
f 192/80/73 447/116/99 34/702/555
f 192/80/73 230/112/69 447/116/99
f 230/112/69 33/109/70 447/116/99
f 273/111/97 399/705/558 3/82/75
f 273/111/97 287/110/72 399/705/558
f 287/110/72 11/706/559 399/705/558
f 435/74/68 504/707/560 13/708/561
f 435/74/68 431/107/95 504/707/560
f 431/107/95 17/709/562 504/707/560
f 206/71/65 349/710/563 19/711/564
f 206/71/65 497/108/96 349/710/563
f 497/108/96 26/712/557 349/710/563
f 431/107/95 387/72/66 17/709/562
f 431/107/95 264/106/74 387/72/66
f 264/106/74 31/70/64 387/72/66
f 407/105/89 165/69/63 28/713/565
f 407/105/89 210/104/94 165/69/63
f 210/104/94 22/67/61 165/69/63
f 210/104/94 500/714/566 22/67/61
f 210/104/94 480/100/90 500/714/566
f 480/100/90 23/101/91 500/714/566
f 471/103/93 506/715/567 14/716/568
f 471/103/93 199/102/92 506/715/567
f 199/102/92 15/717/569 506/715/567
f 480/100/90 174/66/60 23/101/91
f 480/100/90 367/99/56 174/66/60
f 367/99/56 30/64/57 174/66/60
f 269/59/55 370/718/570 5/719/571
f 269/59/55 193/58/54 370/718/570
f 193/58/54 6/720/572 370/718/570
f 375/57/53 318/721/573 8/722/574
f 375/57/53 407/97/89 318/721/573
f 407/97/89 28/723/565 318/721/573
f 227/51/49 478/55/51 24/724/575
f 227/51/49 229/96/88 478/55/51
f 229/96/88 27/53/46 478/55/51
f 229/96/88 212/725/45 27/53/46
f 229/96/88 463/44/42 212/725/45
f 463/44/42 9/726/43 212/725/45
f 498/95/87 374/703/556 34/702/555
f 498/95/87 172/94/86 374/703/556
f 172/94/86 26/704/557 374/703/556
f 302/42/40 451/727/576 19/711/564
f 302/42/40 221/52/50 451/727/576
f 221/52/50 20/728/577 451/727/576
f 366/91/83 196/40/38 14/716/568
f 366/91/83 377/93/85 196/40/38
f 377/93/85 21/34/32 196/40/38
f 354/37/35 182/729/578 24/724/575
f 354/37/35 184/33/31 182/729/578
f 184/33/31 20/728/577 182/729/578
f 377/93/85 223/38/36 21/34/32
f 377/93/85 415/30/28 223/38/36
f 415/30/28 18/31/29 223/38/36
f 310/32/30 226/730/579 19/711/564
f 310/32/30 187/92/84 226/730/579
f 187/92/84 17/709/562 226/730/579
f 455/28/26 369/731/580 13/708/561
f 455/28/26 366/91/83 369/731/580
f 366/91/83 14/716/568 369/731/580
f 179/25/23 402/732/581 5/719/571
f 179/25/23 501/90/82 402/732/581
f 501/90/82 15/733/569 402/732/581
f 411/19/19 505/734/582 13/708/561
f 411/19/19 457/89/81 505/734/582
f 457/89/81 11/735/559 505/734/582
f 358/16/16 225/736/583 3/82/75
f 358/16/16 353/26/24 225/736/583
f 353/26/24 7/7/7 225/736/583
f 457/88/81 314/17/17 11/706/559
f 457/88/81 188/24/22 314/17/17
f 188/24/22 10/15/15 314/17/17
f 452/10/10 191/14/14 8/722/574
f 452/10/10 265/87/80 191/14/14
f 265/87/80 4/4/4 191/14/14
f 265/87/80 311/9/9 4/4/4
f 265/87/80 408/86/79 311/9/9
f 408/86/79 7/7/7 311/9/9
f 408/86/79 225/736/583 7/7/7
f 408/86/79 233/3/3 225/736/583
f 233/3/3 3/82/75 225/736/583
f 409/85/78 498/95/87 34/702/555
f 409/85/78 406/13/13 498/95/87
f 406/13/13 9/45/43 498/95/87
f 312/84/77 409/85/78 34/702/555
f 312/84/77 317/83/76 409/85/78
f 317/83/76 2/11/11 409/85/78
f 264/81/74 266/114/98 31/113/64
f 264/81/74 192/80/73 266/114/98
f 192/80/73 34/702/555 266/114/98
f 287/78/72 505/734/582 11/735/559
f 287/78/72 481/77/71 505/734/582
f 481/77/71 13/708/561 505/734/582
f 230/75/69 481/77/71 33/76/70
f 230/75/69 435/74/68 481/77/71
f 435/74/68 13/708/561 481/77/71
f 387/72/66 226/730/579 17/709/562
f 387/72/66 206/71/65 226/730/579
f 206/71/65 19/711/564 226/730/579
f 165/69/63 343/737/584 28/713/565
f 165/69/63 360/68/62 343/737/584
f 360/68/62 24/724/575 343/737/584
f 174/66/60 199/102/92 23/101/91
f 174/66/60 168/65/59 199/102/92
f 168/65/59 15/717/569 199/102/92
f 168/63/59 402/732/581 15/733/569
f 168/63/59 326/62/58 402/732/581
f 326/62/58 5/719/571 402/732/581
f 367/60/56 326/62/58 30/61/57
f 367/60/56 269/59/55 326/62/58
f 269/59/55 5/719/571 326/62/58
f 193/58/54 368/738/585 6/720/572
f 193/58/54 375/57/53 368/738/585
f 375/57/53 8/722/574 368/738/585
f 478/55/51 343/737/584 24/724/575
f 478/55/51 453/54/48 343/737/584
f 453/54/48 28/713/565 343/737/584
f 221/52/50 182/729/578 20/728/577
f 221/52/50 227/51/49 182/729/578
f 227/51/49 24/724/575 182/729/578
f 453/50/48 318/721/573 28/723/565
f 453/50/48 459/49/47 318/721/573
f 459/49/47 8/722/574 318/721/573
f 212/47/45 459/49/47 27/48/46
f 212/47/45 232/46/44 459/49/47
f 232/46/44 8/722/574 459/49/47
f 463/44/42 172/739/86 9/726/43
f 463/44/42 190/43/41 172/739/86
f 190/43/41 26/712/557 172/739/86
f 190/43/41 349/710/563 26/712/557
f 190/43/41 302/42/40 349/710/563
f 302/42/40 19/711/564 349/710/563
f 196/40/38 471/103/93 14/716/568
f 196/40/38 403/36/34 471/103/93
f 403/36/34 23/101/91 471/103/93
f 362/35/33 360/68/62 22/67/61
f 362/35/33 449/39/37 360/68/62
f 449/39/37 24/724/575 360/68/62
f 223/38/36 449/39/37 21/34/32
f 223/38/36 354/37/35 449/39/37
f 354/37/35 24/724/575 449/39/37
f 403/36/34 500/714/566 23/101/91
f 403/36/34 362/35/33 500/714/566
f 362/35/33 22/67/61 500/714/566
f 184/33/31 451/727/576 20/728/577
f 184/33/31 310/32/30 451/727/576
f 310/32/30 19/711/564 451/727/576
f 415/30/28 187/92/84 18/31/29
f 415/30/28 231/29/27 187/92/84
f 231/29/27 17/709/562 187/92/84
f 231/29/27 504/707/560 17/709/562
f 231/29/27 455/28/26 504/707/560
f 455/28/26 13/708/561 504/707/560
f 353/26/24 412/8/8 7/7/7
f 353/26/24 179/25/23 412/8/8
f 179/25/23 5/719/571 412/8/8
f 188/24/22 501/90/82 10/15/15
f 188/24/22 307/23/21 501/90/82
f 307/23/21 15/733/569 501/90/82
f 307/21/21 506/715/567 15/717/569
f 307/21/21 258/20/20 506/715/567
f 258/20/20 14/716/568 506/715/567
f 258/20/20 369/731/580 14/716/568
f 258/20/20 411/19/19 369/731/580
f 411/19/19 13/708/561 369/731/580
f 314/17/17 399/705/558 11/706/559
f 314/17/17 358/16/16 399/705/558
f 358/16/16 3/82/75 399/705/558
f 191/14/14 368/738/585 8/722/574
f 191/14/14 263/6/6 368/738/585
f 263/6/6 6/720/572 368/738/585
f 406/13/13 232/46/44 9/45/43
f 406/13/13 363/12/12 232/46/44
f 363/12/12 8/722/574 232/46/44
f 194/2/2 363/12/12 2/11/11
f 194/2/2 452/10/10 363/12/12
f 452/10/10 8/722/574 363/12/12
f 311/9/9 416/5/5 4/4/4
f 311/9/9 412/8/8 416/5/5
f 412/8/8 5/719/571 416/5/5
f 263/6/6 370/718/570 6/720/572
f 263/6/6 416/5/5 370/718/570
f 416/5/5 5/719/571 370/718/570
f 233/3/3 317/83/76 3/82/75
f 233/3/3 194/2/2 317/83/76
f 194/2/2 2/11/11 317/83/76
