# Blender v2.78 (sub 0) OBJ File: ''
# www.blender.org
mtllib Oak_Tree_m_02.mtl
o Oak_Tree_m_02
v -1.920232 5.439905 -1.913900
v -2.393515 6.052664 -1.270704
v -1.371456 6.923785 -1.638003
v -0.455074 7.231213 -2.027312
v -1.006019 5.931100 -2.363561
v -0.349060 5.973086 -2.541190
v -1.441716 4.480362 -1.948482
v -0.702153 3.316003 -1.374380
v -1.404714 2.996943 -1.018937
v -0.238785 4.434978 -1.947704
v -2.442062 4.284713 -0.818750
v -2.484851 6.036428 -0.543480
v 1.089144 6.498443 -1.750479
v 0.346129 7.609349 -1.795439
v 1.154239 7.958365 -1.169915
v 0.344778 6.116216 -2.375788
v 1.742900 6.541491 -0.876859
v 1.624163 8.060066 0.051250
v 2.011549 6.537152 -0.181435
v 1.504765 4.649450 -1.214751
v 1.303371 3.608808 -0.466656
v 0.743563 3.605456 -1.180247
v 1.835492 4.587462 0.263387
v 0.668247 4.753006 -1.962626
v 1.567645 6.690929 1.028248
v 0.775794 8.291561 0.788005
v 0.609600 6.508389 1.555609
v -0.623899 7.684813 1.150208
v -0.333016 6.376221 1.827401
v 1.007380 4.476772 1.549873
v 0.128776 3.095378 1.181189
v 1.063532 3.291894 0.895154
v -0.684930 4.792728 1.886100
v 2.073666 6.717873 0.424291
v -1.754301 6.471881 1.057827
v -1.531402 7.750565 0.622559
v -2.280180 6.234249 0.230254
v -1.620396 7.639353 -0.575427
v -2.176033 4.543195 0.743291
v -2.162622 3.417540 0.140561
v -1.409003 3.493626 1.178205
v -0.981342 6.489244 1.456088
v -1.823925 2.966869 -0.580011
v -0.433163 2.774999 -0.285195
v 0.186682 2.936089 -0.744643
v 0.725495 2.952678 0.342196
v -1.173101 2.737712 0.178294
v -0.709446 8.507652 0.507485
v 0.096396 8.697971 -0.150921
v 0.598314 8.313366 -0.778168
v -0.376581 7.998286 -1.115115
v 0.097594 1.192951 -0.004631
v -0.075483 1.200113 0.033468
v -0.102058 0.436932 0.088073
v 0.157701 0.426654 0.063283
v -0.205734 0.444290 -0.151506
v -0.254793 0.045395 -0.183060
v -0.134462 0.044348 0.120251
v -0.047464 1.199277 -0.252062
v 0.114911 1.192434 -0.181099
v 0.214567 0.427660 -0.191617
v -0.010048 0.438560 -0.324364
v -0.003530 0.044588 -0.391262
v 0.191169 0.042894 0.099505
v 0.272090 0.043043 -0.216627
v -0.165314 1.196706 -0.118695
v 0.044646 2.099107 -0.055662
v -0.122530 2.107487 -0.071146
v -0.178259 1.949756 -0.193694
v -0.059225 2.093716 -0.275498
v 0.084663 2.091654 -0.188671
v 0.100835 3.056429 -0.047364
v 0.000323 3.106137 -0.038698
v 0.125068 3.049870 -0.160284
v -0.147134 2.282804 -0.196112
v -0.471874 2.159281 -0.391467
v -0.470943 2.224680 -0.324981
v -0.041858 3.131653 -0.142414
v 0.033154 3.081446 -0.218373
v -0.524751 2.121187 -0.336602
v -0.508938 2.168110 -0.267401
v -1.003793 2.523025 -0.549465
v -0.990798 2.556192 -0.508654
v -1.034763 2.505467 -0.517403
v -1.021707 2.528652 -0.477514
v -1.420475 3.189305 -0.761120
v -1.420118 3.201842 -0.749408
v -1.427706 3.182384 -0.749607
v -1.426525 3.191923 -0.737920
v -0.256617 2.106924 -0.331314
v 0.014952 1.196311 0.029109
v -0.566011 2.843739 0.704160
v 0.513419 5.396546 -2.205960
v -0.155414 0.044992 -0.319016
v 1.947072 7.362757 0.330718
v 0.485703 3.275942 -0.981003
v 1.097747 3.724289 1.186363
v 1.271605 7.600457 0.944188
v -0.217988 8.393507 -0.632758
v 0.098513 5.252685 -2.276462
v -1.234358 2.902665 -0.640273
v -1.168628 8.183090 0.547681
v -0.723649 2.358696 -0.410434
v 0.162524 0.789698 -0.184498
v -1.031400 2.514937 -0.494363
v -1.129664 8.258761 0.024650
v -2.210745 6.740761 -0.566208
v -0.087469 1.635822 -0.013036
v 0.446806 2.855518 -0.195761
v -0.130975 1.970432 -0.246960
v -0.921267 5.777719 1.707194
v -0.025403 6.788635 -2.273637
v -1.296118 6.491027 1.315382
v 0.362220 6.925934 -2.147367
v -2.477164 6.017780 -0.882375
v -0.873167 4.496203 -2.020605
v 0.271592 0.042968 -0.048220
v -2.370648 3.724304 -0.273764
v 0.740727 7.142434 -1.855201
v -0.521473 2.140214 -0.296727
v 0.121419 1.192038 -0.092038
v -0.946156 7.926537 -0.878114
v -2.042781 7.014570 -0.120150
v -0.051844 6.012329 -2.469301
v 1.591490 3.928692 -0.156831
v 1.668607 7.568265 0.630648
v -0.941782 2.811453 -0.687048
v 1.882672 5.499469 -0.430578
v -0.699252 5.199820 -2.271940
v 2.013969 5.733184 -0.037556
v -0.616918 5.967336 -2.462118
v -1.427537 3.186246 -0.742567
v -0.174974 0.441459 -0.022746
v 1.487168 4.042703 -0.780866
v 1.916260 6.519904 -0.432837
v -0.131338 2.813010 0.459025
v -0.085050 0.798391 0.062836
v 0.950896 3.120104 0.685356
v -0.402132 6.994978 1.539315
v 0.030868 0.043621 0.151080
v -0.763126 2.713850 -0.018535
v -2.207989 5.682888 -1.587065
v -0.029926 0.799556 -0.282830
v -0.897475 7.049758 1.324145
v 1.146589 6.619336 1.336006
v -2.101507 6.824363 -1.015870
v 0.255881 4.542405 1.817435
v -0.308943 2.117995 -0.171287
v 0.052064 3.080796 -0.029356
v -0.046021 2.666422 -0.047764
v -0.003380 7.879574 -1.468866
v -1.240906 2.881317 -0.664944
v -0.466780 2.196414 -0.363498
v -2.015299 3.164083 -0.279090
v -0.443906 7.661851 -1.597241
v 0.430188 8.531398 -0.451638
v -0.736414 2.311271 -0.465131
v 0.076118 2.095281 -0.118176
v -0.167968 1.977586 -0.128699
v -0.133157 1.198927 -0.034361
v -0.233036 0.044871 -0.016281
v 1.245480 8.278909 0.476191
v -1.936471 3.517869 -1.067731
v -0.155286 1.601150 -0.148311
v -1.711642 3.022453 0.204861
v -1.086613 3.957958 1.571210
v -1.976763 4.283778 -1.497075
v -0.118171 1.198533 -0.194969
v 0.114053 0.432863 -0.277646
v -2.477734 5.204636 -0.189685
v 1.131365 7.334988 -1.492842
v -1.814591 3.957980 1.061326
v -2.235506 4.870613 -1.503156
v 0.208445 0.426032 -0.059027
v -2.091122 6.369588 0.688665
v 1.401916 3.714819 0.693848
v 0.124851 3.047086 -0.100944
v -0.686105 3.287663 1.280424
v 1.150023 4.013757 -1.226006
v 1.067512 8.370806 -0.388933
v -1.224037 5.191380 -2.233597
v -1.284358 7.220950 1.087445
v -1.751483 4.991395 -1.976727
v 1.674425 5.551704 -1.052547
v -1.044862 3.172524 -1.254394
v -0.043174 1.628852 -0.258320
v 0.029817 0.431344 0.098510
v 1.338570 5.579174 -1.543817
v 0.915190 5.551633 -1.927243
v -0.775441 6.668107 -2.238765
v 0.128456 0.788979 0.029136
v 0.917975 8.206282 -0.964156
v 0.142086 2.784479 0.108301
v 0.103565 7.261134 1.373457
v -1.701212 6.154476 -1.856447
v 0.281806 3.846183 -1.512682
v 0.781032 3.162481 -0.532845
v -1.251945 2.885315 -0.620098
v 0.141150 8.229451 -0.937505
v 2.063015 6.607339 0.129944
v -1.419875 3.196481 -0.756461
v -0.328949 2.052657 -0.261381
v 2.031118 5.832825 0.397718
v 1.897476 6.704093 0.670894
v -1.423514 3.198094 -0.742634
v 0.722771 3.160134 1.088857
v 0.255342 0.197665 -0.207420
v -1.004789 2.545099 -0.489069
v -0.058785 7.458277 -1.925645
v -2.563190 5.308056 -0.645036
v -0.762882 2.318425 -0.368201
v -0.005104 0.203944 -0.369309
v -0.522438 3.772030 -1.640796
v 0.072005 2.628527 -0.051856
v 0.065307 1.634066 -0.034172
v 0.156463 0.043816 -0.338755
v 0.716616 6.314150 -2.120418
v -0.024179 2.104589 -0.042234
v -0.124027 0.202967 0.112664
v -1.619394 7.759929 0.106169
v -0.304210 5.360999 -2.368495
v -0.001077 8.541798 0.651865
v -0.776780 2.284570 -0.421875
v -0.994131 2.541731 -0.532155
v -2.251144 3.886255 0.404145
v 1.771064 5.584291 0.795526
v 1.760609 4.600392 -0.548974
v -0.665148 6.412827 1.668774
v -0.596631 2.946653 -0.884855
v -1.157497 7.828600 0.896275
v -1.683292 7.200916 0.838680
v -0.122913 0.442397 -0.255223
v -0.627961 8.253313 0.837830
v -0.392805 6.563587 -2.383182
v 0.085248 3.062989 -0.201352
v -1.043254 3.837732 -1.716315
v 1.929923 7.263117 -0.104556
v -0.290557 2.198751 -0.255383
v 0.098183 5.535055 1.854384
v -0.878820 7.175282 -1.824511
v 0.092683 1.629759 -0.185766
v 0.026659 6.412012 1.743972
v 0.181844 0.197061 0.090456
v 0.448036 2.891421 0.741694
v -1.527535 7.311833 -1.169991
v -0.147254 2.246795 -0.133173
v -0.488793 2.201676 -0.289596
v -0.109698 2.238250 -0.247004
v -1.257586 3.051516 0.751406
v -1.562388 2.801979 -0.282890
v -0.425924 5.722940 1.922364
v 0.758481 7.487383 1.187913
v 1.334348 3.543530 0.331385
v -1.258875 2.870037 -0.644331
v -0.013160 3.109415 -0.190370
v 0.567717 3.701180 1.509907
v -0.120300 2.795180 -0.513108
v -0.223607 3.810134 1.675390
v 0.004690 2.645096 -0.245218
v 1.073471 3.288200 -0.056809
v -1.423898 3.184633 -0.756394
v -0.917620 7.545637 -1.360883
v 0.035239 2.092193 -0.237860
v 0.039201 1.195672 -0.230760
v -1.020741 2.511569 -0.537449
v -0.750776 8.344542 -0.371703
v 1.451212 6.547209 -1.354746
v -0.346802 8.642344 0.183998
v -0.182936 0.804929 -0.129969
v -2.434272 4.400581 0.012534
v -1.255255 2.727184 -0.453404
v -2.320150 5.359503 0.441601
v 0.767718 7.831752 -1.501871
v -2.518367 5.216998 -1.134814
v -2.131562 3.393651 -0.703508
v -1.554744 4.636256 1.392519
v 0.691933 4.119244 -1.604915
v 1.479065 7.401495 -1.037797
v -1.985332 5.495079 0.978946
v -2.399572 6.107980 -0.242754
v -1.860381 3.436717 0.671300
v 1.502554 4.493355 1.004908
v 1.047176 3.548768 -0.837761
v -0.033372 3.499416 -1.328915
v 0.512467 8.655760 0.337942
v -1.670092 2.946125 -0.759801
v -1.926311 7.110217 0.430346
v -1.501893 3.689212 -1.498044
v -1.390659 5.571682 1.479788
v 1.083702 4.677409 -1.638858
v -0.082636 2.722590 -0.163820
v 1.413851 8.069242 -0.613761
v 0.902748 8.560780 0.002467
v -0.293018 3.112239 -1.091156
v -1.204368 6.478526 -2.066348
v -1.480908 5.713209 -2.178755
v 1.360993 5.547585 1.313319
v 0.444115 8.042063 -1.288990
v 0.817747 5.506545 1.645323
v 1.750615 7.426717 -0.488231
v -0.031481 3.125250 -0.085111
v -1.943346 6.533716 -1.461543
v -0.239568 0.207221 -0.171486
v 0.277381 4.555467 -1.978040
v -0.499459 2.134953 -0.370630
v 0.106142 2.621521 -0.175219
v 0.101361 8.062771 1.003154
v -1.257151 2.876275 -0.630217
v -1.242492 2.895783 -0.627791
v -1.250551 2.873884 -0.657031
v -1.235892 2.893393 -0.654605
v -0.741960 2.342539 -0.384013
v -0.773728 2.298219 -0.390853
v -0.757902 2.293941 -0.448808
v -0.726135 2.338262 -0.441968
v -0.323387 2.078716 -0.208793
v -0.300432 2.166067 -0.205207
v -0.073761 2.700052 -0.101849
v -0.292101 2.072096 -0.304475
v 0.030849 0.199790 0.128427
v 0.060989 2.629030 -0.219705
v -0.045355 2.687623 -0.213084
v -0.269146 2.159447 -0.300889
v 0.099268 2.622700 -0.110463
v 0.092311 1.631536 -0.107560
v -0.133608 1.617184 -0.074609
v 0.013039 2.644752 -0.038777
v 0.031200 1.630659 -0.234147
v -0.108635 1.613254 -0.212898
v -0.150912 0.802343 -0.024955
v 0.164229 0.788448 -0.074697
v -0.009207 1.637017 -0.010390
v -0.119833 0.802999 -0.219839
v 0.139335 0.200682 -0.311246
v 0.244734 0.196801 -0.052034
v -0.139692 0.206069 -0.290987
v 0.074935 0.794412 -0.250582
v -0.206740 0.205518 -0.019254
v 0.024648 0.793350 0.064748
vt 0.7144 0.5580
vt 0.7172 0.5563
vt 0.7178 0.5608
vt 0.7212 0.5635
vt 0.7199 0.5666
vt 0.7169 0.5638
vt 0.7126 0.5641
vt 0.7156 0.5669
vt 0.7110 0.5662
vt 0.7079 0.5564
vt 0.7048 0.5564
vt 0.7068 0.5530
vt 0.7075 0.5638
vt 0.7103 0.5603
vt 0.7052 0.5599
vt 0.7146 0.5525
vt 0.7201 0.5547
vt 0.7175 0.5509
vt 0.7219 0.5524
vt 0.7113 0.5517
vt 0.7040 0.5832
vt 0.7105 0.5798
vt 0.7115 0.5849
vt 0.7071 0.5738
vt 0.7128 0.5718
vt 0.7120 0.5752
vt 0.6643 0.5324
vt 0.6714 0.5354
vt 0.6640 0.5373
vt 0.6637 0.5423
vt 0.6687 0.5468
vt 0.6638 0.5455
vt 0.6492 0.5403
vt 0.6487 0.5450
vt 0.6436 0.5429
vt 0.6604 0.5475
vt 0.6565 0.5413
vt 0.6532 0.5466
vt 0.7014 0.5759
vt 0.7055 0.5785
vt 0.7048 0.5687
vt 0.7082 0.5710
vt 0.6892 0.5757
vt 0.6895 0.5699
vt 0.6940 0.5721
vt 0.6668 0.5593
vt 0.6702 0.5554
vt 0.6711 0.5597
vt 0.6669 0.5622
vt 0.6671 0.5651
vt 0.6723 0.5682
vt 0.6672 0.5676
vt 0.6590 0.5629
vt 0.6557 0.5652
vt 0.6562 0.5616
vt 0.6636 0.5691
vt 0.6630 0.5640
vt 0.6595 0.5681
vt 0.6619 0.5561
vt 0.6660 0.5565
vt 0.6652 0.5537
vt 0.6611 0.5532
vt 0.6646 0.5512
vt 0.6581 0.5579
vt 0.6707 0.5832
vt 0.6740 0.5772
vt 0.6778 0.5822
vt 0.6714 0.5884
vt 0.7301 0.5446
vt 0.7297 0.5532
vt 0.7269 0.5473
vt 0.6557 0.5879
vt 0.6501 0.5875
vt 0.6535 0.5828
vt 0.7225 0.5458
vt 0.7246 0.5385
vt 0.7191 0.5324
vt 0.7169 0.5397
vt 0.7148 0.5345
vt 0.6654 0.5782
vt 0.6697 0.5792
vt 0.6686 0.5752
vt 0.6643 0.5742
vt 0.6679 0.5727
vt 0.6579 0.5805
vt 0.7081 0.5414
vt 0.7114 0.5442
vt 0.7069 0.5455
vt 0.6934 0.5445
vt 0.6975 0.5504
vt 0.6913 0.5499
vt 0.6892 0.5553
vt 0.6959 0.5594
vt 0.6895 0.5597
vt 0.6342 0.5547
vt 0.6412 0.5522
vt 0.6409 0.5574
vt 0.6477 0.5601
vt 0.6524 0.5565
vt 0.6506 0.5602
vt 0.6342 0.5670
vt 0.6433 0.5673
vt 0.6372 0.5718
vt 0.6524 0.5675
vt 0.6562 0.5703
vt 0.6518 0.5726
vt 0.6873 0.5686
vt 0.6824 0.5699
vt 0.6813 0.5644
vt 0.6879 0.5567
vt 0.6808 0.5540
vt 0.6862 0.5512
vt 0.6844 0.5458
vt 0.6790 0.5486
vt 0.6815 0.5422
vt 0.7254 0.5710
vt 0.7220 0.5703
vt 0.7233 0.5673
vt 0.7282 0.5848
vt 0.7226 0.5806
vt 0.7268 0.5779
vt 0.7380 0.5784
vt 0.7336 0.5701
vt 0.7404 0.5735
vt 0.7206 0.5591
vt 0.7253 0.5626
vt 0.7247 0.5583
vt 0.7135 0.5611
vt 0.7111 0.5572
vt 0.6711 0.5404
vt 0.6568 0.5364
vt 0.6966 0.5795
vt 0.7030 0.5712
vt 0.6988 0.5686
vt 0.6942 0.5663
vt 0.7006 0.5660
vt 0.6694 0.5525
vt 0.6712 0.5626
vt 0.6629 0.5611
vt 0.6730 0.5732
vt 0.7350 0.5512
vt 0.6632 0.5855
vt 0.6972 0.5400
vt 0.6995 0.5470
vt 0.6403 0.5766
vt 0.6457 0.5772
vt 0.6424 0.5818
vt 0.7105 0.5366
vt 0.7127 0.5418
vt 0.7093 0.5390
vt 0.6954 0.5559
vt 0.6342 0.5609
vt 0.6409 0.5635
vt 0.6360 0.5501
vt 0.6479 0.5548
vt 0.6464 0.5720
vt 0.6501 0.5638
vt 0.6876 0.5626
vt 0.6817 0.5584
vt 0.6861 0.5749
vt 0.7331 0.5816
vt 0.7317 0.5747
vt 0.7236 0.5857
vt 0.7212 0.5738
vt 0.7428 0.5686
vt 0.7361 0.5652
vt 0.7413 0.5632
vt 0.7273 0.5664
vt 0.7010 0.5354
vt 0.7057 0.5360
vt 0.7046 0.5384
vt 0.7033 0.5425
vt 0.9229 0.6579
vt 0.9196 0.6586
vt 0.9181 0.6479
vt 0.9219 0.6471
vt 0.9128 0.6450
vt 0.9087 0.6464
vt 0.9065 0.6424
vt 0.9111 0.6408
vt 0.9362 0.6585
vt 0.9330 0.6577
vt 0.9335 0.6466
vt 0.9372 0.6475
vt 0.9462 0.6459
vt 0.9424 0.6442
vt 0.9438 0.6398
vt 0.9480 0.6418
vt 0.9297 0.6421
vt 0.9254 0.6421
vt 0.9250 0.6377
vt 0.9298 0.6377
vt 0.9382 0.6431
vt 0.9340 0.6422
vt 0.9346 0.6377
vt 0.9392 0.6388
vt 0.9426 0.6604
vt 0.9394 0.6594
vt 0.9409 0.6485
vt 0.9444 0.6500
vt 0.9238 0.6803
vt 0.9262 0.6801
vt 0.9258 0.6919
vt 0.9238 0.6919
vt 0.9295 0.6575
vt 0.9261 0.6573
vt 0.9257 0.6464
vt 0.9296 0.6465
vt 0.9164 0.6595
vt 0.9132 0.6604
vt 0.9110 0.6503
vt 0.9146 0.6491
vt 0.9384 0.6812
vt 0.9409 0.6813
vt 0.9382 0.6909
vt 0.9360 0.6915
vt 0.9335 0.6808
vt 0.9359 0.6811
vt 0.9339 0.6921
vt 0.9319 0.6920
vt 0.9237 0.7064
vt 0.9255 0.7061
vt 0.9251 0.7202
vt 0.9236 0.7210
vt 0.9189 0.6804
vt 0.9214 0.6805
vt 0.9217 0.6919
vt 0.9196 0.6910
vt 0.9287 0.6802
vt 0.9266 0.6683
vt 0.9295 0.6686
vt 0.9273 0.7061
vt 0.9291 0.7061
vt 0.9284 0.7203
vt 0.9268 0.7203
vt 0.9559 0.7325
vt 0.9566 0.7343
vt 0.9500 0.7338
vt 0.9500 0.7322
vt 0.9344 0.7080
vt 0.9360 0.7093
vt 0.9347 0.7225
vt 0.9331 0.7219
vt 0.9309 0.7064
vt 0.9327 0.7067
vt 0.9316 0.7212
vt 0.9300 0.7207
vt 0.9211 0.6428
vt 0.9169 0.6435
vt 0.9157 0.6392
vt 0.9204 0.6385
vt 0.9558 0.7359
vt 0.9550 0.7375
vt 0.9492 0.7363
vt 0.9496 0.7350
vt 0.9201 0.7076
vt 0.9218 0.7068
vt 0.9220 0.7217
vt 0.9203 0.7217
vt 0.9558 0.7288
vt 0.9552 0.7306
vt 0.9501 0.7306
vt 0.9500 0.7291
vt 0.9557 0.7253
vt 0.9563 0.7270
vt 0.9499 0.7275
vt 0.9496 0.7262
vt 0.9401 0.7318
vt 0.9400 0.7330
vt 0.9300 0.7322
vt 0.9302 0.7314
vt 0.9396 0.7340
vt 0.9393 0.7350
vt 0.9294 0.7337
vt 0.9297 0.7329
vt 0.9397 0.7272
vt 0.9400 0.7282
vt 0.9301 0.7289
vt 0.9298 0.7282
vt 0.9401 0.7294
vt 0.9403 0.7305
vt 0.9304 0.7305
vt 0.9303 0.7297
vt 0.9184 0.7308
vt 0.9183 0.7314
vt 0.9066 0.7306
vt 0.9065 0.7304
vt 0.9181 0.7319
vt 0.9180 0.7323
vt 0.9065 0.7310
vt 0.9065 0.7308
vt 0.9184 0.7298
vt 0.9184 0.7303
vt 0.9065 0.7301
vt 0.9065 0.7299
vt 0.9182 0.7289
vt 0.9183 0.7293
vt 0.9066 0.7297
vt 0.9066 0.7295
vt 0.9180 0.7284
vt 0.9066 0.7293
vt 0.9295 0.7275
vt 0.9394 0.7262
vt 0.9493 0.7248
vt 0.9552 0.7236
vt 0.9610 0.7225
vt 0.9619 0.7245
vt 0.9628 0.7265
vt 0.9615 0.7285
vt 0.9603 0.7306
vt 0.9183 0.7085
vt 0.9187 0.7217
vt 0.9179 0.6952
vt 0.9198 0.6935
vt 0.9631 0.7349
vt 0.9620 0.7368
vt 0.9609 0.7387
vt 0.9299 0.6919
vt 0.9356 0.6941
vt 0.9374 0.6961
vt 0.9617 0.7327
vt 0.9279 0.6919
vt 0.9311 0.6804
vt 0.9324 0.6688
vt 0.9165 0.6803
vt 0.9176 0.6902
vt 0.9154 0.6704
vt 0.9182 0.6698
vt 0.9210 0.6692
vt 0.9352 0.6695
vt 0.9379 0.6702
vt 0.9408 0.6709
vt 0.9436 0.6717
vt 0.9238 0.6687
vt 0.9457 0.6616
vt 0.9478 0.6514
vt 0.9500 0.6476
vt 0.9522 0.6438
vt 0.7056 0.5496
vt 0.7293 0.5618
vt 0.7346 0.5598
vt 0.7399 0.5578
vt 0.7178 0.5731
vt 0.7186 0.5697
vt 0.7170 0.5765
vt 0.7180 0.5816
vt 0.7190 0.5866
vt 0.6745 0.5558
vt 0.6736 0.5514
vt 0.6754 0.5601
vt 0.6811 0.5762
vt 0.6774 0.5712
vt 0.6849 0.5812
vt 0.6530 0.5638
vt 0.6535 0.5602
vt 0.6512 0.5778
vt 0.6526 0.5512
vt 0.6571 0.5528
vt 0.6482 0.5496
vt 0.6430 0.5475
vt 0.6379 0.5455
vt 0.7020 0.5599
vt 0.7025 0.5635
vt 0.7016 0.5564
vt 0.7036 0.5530
vt 0.7148 0.5470
vt 0.6479 0.5824
vt 0.6445 0.5870
vt 0.6600 0.5732
vt 0.7192 0.5485
vt 0.7237 0.5500
vt 0.6639 0.5907
vt 0.6720 0.5936
vt 0.6723 0.5706
vt 0.6672 0.5701
vt 0.6636 0.5717
vt 0.6764 0.5656
vt 0.6688 0.5501
vt 0.6639 0.5488
vt 0.6961 0.5638
vt 0.6897 0.5641
vt 0.6605 0.5508
vt 0.6761 0.5450
vt 0.6785 0.5385
vt 0.7140 0.5689
vt 0.7094 0.5682
vt 0.7060 0.5659
vt 0.7265 0.5559
vt 0.6556 0.5755
vt 0.6553 0.5565
vt 0.7102 0.5483
vt 0.6784 0.5874
vn -0.6372 0.0336 -0.7699
vn -0.7420 0.1266 -0.6583
vn -0.5885 0.3312 -0.7375
vn -0.5290 0.5274 -0.6648
vn -0.4756 0.5881 -0.6542
vn -0.5156 0.3855 -0.7652
vn -0.3222 0.0808 -0.9432
vn -0.3683 0.3921 -0.8430
vn -0.2564 0.0018 -0.9666
vn -0.3172 -0.3714 -0.8726
vn -0.0867 -0.4870 -0.8691
vn -0.3789 -0.4992 -0.7793
vn -0.0728 -0.2925 -0.9535
vn -0.2249 -0.2014 -0.9533
vn -0.0140 -0.3798 -0.9250
vn -0.7662 -0.2043 -0.6092
vn -0.8518 0.2700 -0.4489
vn -0.9417 -0.0480 -0.3330
vn -0.9641 0.2395 -0.1143
vn -0.6472 -0.3650 -0.6693
vn 0.6859 0.1199 -0.7178
vn 0.5037 0.3205 -0.8022
vn 0.6531 0.2783 -0.7043
vn 0.3672 0.0521 -0.9287
vn 0.1004 0.3669 -0.9248
vn 0.3104 0.3507 -0.8836
vn 0.7924 0.1075 -0.6004
vn 0.8972 0.0829 -0.4338
vn 0.8892 0.2877 -0.3556
vn 0.9334 0.0486 -0.3554
vn 0.8076 -0.2249 -0.5452
vn 0.8138 -0.4440 -0.3749
vn 0.6121 -0.4856 -0.6241
vn 0.9598 -0.0922 -0.2653
vn 0.8945 -0.0346 -0.4456
vn 0.9495 -0.2116 -0.2317
vn 0.6363 -0.0709 -0.7681
vn 0.5917 0.1074 -0.7990
vn 0.1805 -0.2977 -0.9375
vn 0.2173 0.0104 -0.9761
vn 0.6160 -0.2656 -0.7416
vn 0.6573 0.1436 0.7398
vn 0.7099 0.3980 0.5811
vn 0.4812 0.3814 0.7893
vn 0.4506 0.1999 0.8701
vn 0.2797 0.2409 0.9294
vn 0.0920 0.4053 0.9096
vn 0.2114 0.2653 0.9407
vn 0.5362 -0.1527 0.8301
vn 0.2989 -0.4078 0.8628
vn 0.6561 -0.3671 0.6593
vn 0.1983 0.0495 0.9789
vn 0.3932 0.0621 0.9173
vn 0.1859 -0.1321 0.9736
vn 0.8341 -0.0832 0.5453
vn 0.7765 0.0981 0.6225
vn 0.9543 0.0979 0.2825
vn 0.9608 -0.0954 0.2604
vn 0.9933 0.0525 -0.1032
vn 0.8269 -0.1896 0.5295
vn -0.6335 0.2123 0.7440
vn -0.4407 0.3273 0.8359
vn -0.6948 0.3525 0.6269
vn -0.8547 0.2073 0.4760
vn -0.9453 0.2224 0.2385
vn -0.8936 0.4446 0.0615
vn -0.9556 0.2225 0.1933
vn -0.8446 -0.0660 0.5313
vn -0.8833 -0.2477 0.3981
vn -0.6896 -0.2440 0.6818
vn -0.9832 0.0094 0.1822
vn -0.9280 0.0519 0.3690
vn -0.9802 -0.0773 0.1823
vn -0.5497 0.0946 0.8300
vn -0.4457 0.2438 0.8614
vn -0.4389 0.2702 0.8570
vn -0.4355 0.1523 0.8872
vn -0.4210 0.2740 0.8647
vn -0.6011 -0.0582 0.7971
vn -0.6117 -0.7661 -0.1973
vn -0.7971 -0.5006 -0.3377
vn -0.4402 -0.7836 -0.4385
vn 0.0490 -0.9916 -0.1197
vn 0.0727 -0.8724 -0.4834
vn 0.0644 -0.9640 -0.2581
vn 0.2612 -0.8326 -0.4884
vn 0.2044 -0.5950 -0.7773
vn 0.3450 -0.6964 -0.6293
vn 0.5454 -0.7717 -0.3272
vn 0.3706 -0.9171 -0.1467
vn 0.4879 -0.8729 -0.0056
vn 0.8079 -0.5889 0.0237
vn 0.6125 -0.7779 0.1405
vn 0.0486 -0.9805 0.1906
vn 0.0576 -0.9983 0.0103
vn 0.0529 -0.7540 0.6547
vn -0.0149 -0.3981 0.9172
vn -0.1746 -0.6579 0.7326
vn -0.3636 0.8767 0.3148
vn -0.2288 0.6164 0.7534
vn -0.0198 0.8220 0.5691
vn -0.0448 0.9747 -0.2190
vn 0.3891 0.9190 -0.0639
vn 0.1272 0.8942 -0.4292
vn 0.0960 0.8864 -0.4529
vn 0.4256 0.8607 -0.2793
vn 0.2551 0.8569 -0.4480
vn -0.2818 0.7934 -0.5396
vn -0.3229 0.7383 -0.5922
vn -0.4408 0.6901 -0.5740
vn 0.0166 0.8219 -0.5693
vn -0.0746 0.8470 -0.5264
vn -0.4002 0.8411 -0.3640
vn -0.2293 0.9733 0.0111
vn -0.6229 0.4373 -0.6487
vn -0.5456 0.6287 -0.5542
vn -0.7829 0.5169 -0.3463
vn -0.4792 0.1063 -0.8713
vn -0.5171 -0.2104 -0.8297
vn 0.8158 0.2622 -0.5155
vn 0.7475 -0.0345 -0.6633
vn 0.4194 -0.1774 -0.8903
vn 0.4116 -0.3101 -0.8570
vn 0.3568 -0.5078 -0.7841
vn 0.1497 -0.4405 -0.8852
vn 0.9185 0.3242 0.2264
vn 0.2354 0.3709 0.8983
vn 0.6645 0.0066 0.7473
vn -0.3730 0.3381 0.8641
vn -0.8824 0.3921 0.2602
vn -0.7576 0.0555 0.6503
vn 0.0629 -0.9278 -0.3678
vn -0.2183 -0.9471 0.2353
vn -0.3584 -0.7795 0.5138
vn -0.5520 -0.7708 0.3181
vn -0.8046 -0.5318 0.2641
vn -0.9443 -0.3290 0.0093
vn -0.7458 -0.6642 0.0517
vn 0.1571 -0.7357 -0.6588
vn 0.1179 -0.9925 0.0315
vn 0.6801 -0.7254 -0.1059
vn -0.0632 -0.9153 0.3978
vn 0.2002 -0.9366 0.2877
vn 0.1824 0.9478 0.2614
vn -0.5971 0.7174 0.3589
vn -0.1974 0.8428 -0.5008
vn -0.1334 0.7941 -0.5930
vn -0.5818 0.8036 -0.1253
vn -0.4237 0.7455 -0.5146
vn -0.4269 -0.9035 0.0387
vn -0.1133 -0.9762 -0.1848
vn 0.1559 0.0923 0.9835
vn -0.4515 0.0803 0.8886
vn -0.4939 0.1114 0.8624
vn 0.1059 0.1113 0.9881
vn -0.9172 0.1243 0.3786
vn -0.9603 0.1520 -0.2339
vn -0.9563 0.1482 -0.2520
vn -0.9229 0.1200 0.3658
vn 0.4590 0.1002 -0.8828
vn 0.8876 0.1234 -0.4438
vn 0.9057 0.1634 -0.3913
vn 0.5029 0.1480 -0.8516
vn -0.6378 0.1578 -0.7539
vn -0.0687 0.1807 -0.9811
vn -0.0594 0.1755 -0.9827
vn -0.6288 0.1565 -0.7617
vn 0.9608 0.1462 0.2356
vn 0.6406 0.1397 0.7551
vn 0.6386 0.1249 0.7593
vn 0.9615 0.1341 0.2397
vn 0.5215 0.1712 -0.8359
vn 0.9132 0.1736 -0.3686
vn 0.9151 0.1624 -0.3691
vn 0.5266 0.1652 -0.8339
vn -0.7037 0.0615 -0.7078
vn -0.1519 0.0879 -0.9845
vn -0.0937 0.1487 -0.9844
vn -0.6609 0.1188 -0.7410
vn 0.1105 0.0874 0.9900
vn 0.6879 0.0816 0.7212
vn 0.6284 0.0141 0.7777
vn 0.0044 0.0335 0.9994
vn 0.9799 0.1185 0.1603
vn 0.7004 0.1182 0.7039
vn 0.6613 0.1403 0.7369
vn 0.9671 0.1432 0.2101
vn -0.8902 0.0566 0.4521
vn -0.9859 0.0609 -0.1558
vn -0.9714 0.1158 -0.2075
vn -0.9091 0.0962 0.4053
vn -0.6686 -0.0579 -0.7414
vn -0.9852 -0.0331 -0.1684
vn -0.8508 -0.4936 -0.1804
vn -0.3612 -0.3393 -0.8686
vn 0.4717 -0.0043 -0.8818
vn -0.0975 -0.0336 -0.9947
vn 0.1867 -0.0129 -0.9823
vn 0.5304 -0.0050 -0.8477
vn 0.0143 -0.0154 0.9998
vn 0.6252 -0.0460 0.7791
vn 0.5882 -0.0531 0.8070
vn 0.0004 -0.0173 0.9999
vn -0.8897 0.0151 0.4563
vn -0.4747 0.0676 0.8775
vn -0.4533 0.0504 0.8899
vn -0.7912 -0.2120 0.5736
vn 0.9820 0.0550 0.1805
vn 0.7230 0.1058 0.6827
vn 0.9873 0.0905 0.1309
vn 0.9636 -0.0532 0.2621
vn 0.9382 -0.0319 -0.3447
vn 0.9250 -0.0325 -0.3785
vn 0.9662 -0.0605 0.2508
vn 0.2085 0.5919 -0.7786
vn 0.2169 -0.0693 -0.9737
vn 0.2266 -0.1261 -0.9658
vn 0.4246 0.6274 -0.6527
vn -0.6084 0.1164 -0.7850
vn -0.9595 0.1267 -0.2516
vn -0.9788 0.1032 -0.1771
vn -0.6939 0.0973 -0.7135
vn 0.5535 0.0037 -0.8329
vn -0.0052 0.0631 -0.9980
vn -0.1584 0.0674 -0.9851
vn 0.5296 0.0111 -0.8482
vn 0.0770 0.1164 0.9902
vn -0.5187 0.1262 0.8456
vn -0.5327 0.1161 0.8383
vn 0.0678 0.1049 0.9922
vn -0.0522 -0.7036 -0.7087
vn -0.4147 -0.9077 -0.0641
vn -0.4277 -0.9014 -0.0673
vn -0.1349 -0.7472 -0.6508
vn -0.9300 0.1021 0.3531
vn -0.5623 0.0456 0.8257
vn -0.6210 0.0437 0.7826
vn -0.9345 0.0822 0.3464
vn -0.3672 0.6452 0.6700
vn -0.1442 0.9836 -0.1081
vn 0.3042 0.9522 0.0283
vn -0.0340 0.7073 0.7060
vn -0.5409 -0.5781 0.6110
vn -0.4909 0.0375 0.8704
vn -0.4005 0.0027 0.9163
vn -0.5230 -0.6476 0.5542
vn 0.5565 0.5579 -0.6156
vn 0.2171 -0.1047 -0.9705
vn 0.2017 -0.1504 -0.9678
vn 0.6910 0.4343 -0.5778
vn -0.2703 -0.6799 -0.6817
vn -0.5761 -0.8120 -0.0936
vn -0.7312 -0.6707 -0.1241
vn -0.3941 -0.5980 -0.6979
vn -0.6230 -0.5743 0.5311
vn -0.3550 0.0345 0.9342
vn -0.3902 0.0626 0.9186
vn -0.7475 -0.4471 0.4914
vn 0.1374 0.6482 0.7490
vn 0.5061 0.8574 0.0937
vn 0.6823 0.7160 0.1477
vn 0.2433 0.5779 0.7790
vn 0.7953 0.3417 -0.5007
vn 0.2494 -0.1425 -0.9579
vn 0.4867 0.0132 -0.8734
vn 0.8272 0.3561 -0.4347
vn -0.4803 -0.5160 -0.7093
vn -0.8291 -0.5356 -0.1604
vn -0.8385 -0.5145 -0.1795
vn -0.4742 -0.4975 -0.7264
vn 0.3593 0.5274 0.7699
vn 0.7941 0.5830 0.1721
vn 0.8168 0.5585 0.1447
vn 0.4475 0.5393 0.7134
vn -0.8347 -0.3272 0.4429
vn -0.3747 0.1366 0.9170
vn -0.1546 0.2782 0.9480
vn -0.8430 -0.3029 0.4445
vn -0.7845 0.3257 0.5278
vn -0.8213 0.5007 -0.2735
vn 0.9309 -0.0076 -0.3652
vn -0.2587 0.3365 -0.9055
vn 0.9670 -0.0036 0.2547
vn 0.9010 0.0265 -0.4331
vn 0.8763 0.0747 -0.4759
vn -0.9926 0.0325 -0.1166
vn -0.8752 0.0480 0.4813
vn -0.4203 0.0805 0.9038
vn 0.4307 0.0423 -0.9015
vn -0.1926 0.0272 -0.9809
vn -0.7298 0.0163 -0.6835
vn 0.1851 0.0941 0.9782
vn -0.2413 -0.7567 -0.6076
vn -0.6959 0.6615 -0.2794
vn -0.8029 0.5957 0.0195
vn -0.7355 0.5367 0.4135
vn -0.0500 0.6060 -0.7939
vn -0.2394 0.5651 -0.7895
vn 0.1482 0.5986 -0.7872
vn 0.3114 0.6059 -0.7321
vn 0.5749 0.5750 -0.5821
vn 0.5590 0.7127 0.4237
vn 0.7868 0.6168 0.0227
vn 0.2747 0.6407 0.7170
vn -0.4441 0.4803 0.7564
vn -0.1890 0.4325 0.8816
vn 0.3814 -0.6965 0.6078
vn 0.6974 -0.6029 0.3875
vn -0.4652 -0.5296 0.7093
vn 0.8837 -0.4634 -0.0654
vn 0.9602 -0.2421 0.1392
vn 0.7388 -0.6314 -0.2357
vn 0.5997 -0.6528 -0.4628
vn 0.3923 -0.6314 -0.6690
vn 0.1509 -0.5037 -0.8506
vn 0.0773 -0.4483 -0.8906
vn 0.1022 -0.6399 -0.7617
vn -0.0554 -0.7023 -0.7097
vn -0.9364 -0.2335 -0.2620
vn -0.6620 -0.5435 0.5162
vn -0.2231 -0.0837 0.9712
vn -0.9986 -0.0033 0.0535
vn -0.9707 0.2174 0.1022
vn -0.1242 0.4121 0.9026
vn -0.0795 0.2716 0.9591
vn -0.1111 0.0905 0.9897
vn 0.0301 0.5001 0.8655
vn 0.9441 0.2466 -0.2190
vn 0.9611 0.0425 -0.2728
vn 0.1687 -0.5737 -0.8015
vn 0.9831 -0.1022 -0.1517
vn 0.7090 0.6184 -0.3390
vn -0.0820 0.3213 -0.9434
vn -0.0235 -0.0166 -0.9996
vn 0.0138 -0.3021 -0.9532
vn -0.8992 0.4374 -0.0109
vn -0.3634 -0.3088 0.8789
vn 0.8604 -0.4281 0.2765
vn -0.6348 -0.4682 -0.6147
usemtl None
s 1
f 1/1/1 142/2/2 195/3/3
f 3/4/4 240/5/5 295/6/6
f 5/7/7 190/8/8 131/9/9
f 7/10/10 236/11/11 288/12/12
f 5/7/7 129/13/13 181/14/14
f 7/10/10 116/15/15 236/11/11
f 1/1/1 173/16/16 142/2/2
f 2/17/17 274/18/18 115/19/19
f 7/10/10 288/12/12 167/20/20
f 13/21/21 119/22/22 171/23/23
f 16/24/24 112/25/25 114/26/26
f 13/27/21 171/28/23 267/29/27
f 17/30/28 300/31/29 135/32/30
f 20/33/31 134/34/32 179/35/33
f 17/30/28 128/36/34 184/37/35
f 20/33/31 227/38/36 134/34/32
f 13/21/21 189/39/37 217/40/38
f 16/24/24 100/41/39 124/42/40
f 20/43/31 179/44/33 290/45/41
f 25/46/42 126/47/43 98/48/44
f 25/46/42 98/48/44 145/49/45
f 27/50/46 194/51/47 242/52/48
f 30/53/49 256/54/50 97/55/51
f 27/50/46 239/56/52 299/57/53
f 30/53/49 147/58/54 256/54/50
f 25/46/42 226/59/55 204/60/56
f 34/61/57 203/62/58 200/63/59
f 30/53/49 97/55/51 282/64/60
f 35/65/61 182/66/62 231/67/63
f 35/65/61 231/67/63 175/68/64
f 37/69/65 123/70/66 280/71/67
f 39/72/68 225/73/69 172/74/70
f 37/69/65 170/75/71 272/76/72
f 39/77/68 270/78/73 225/79/69
f 35/65/61 289/80/74 113/81/75
f 42/82/76 111/83/77 228/84/78
f 39/72/68 172/74/70 276/85/79
f 43/86/80 275/87/81 286/88/82
f 44/89/83 229/90/84 257/91/85
f 45/92/86 284/93/87 96/94/88
f 45/95/86 197/96/89 109/97/90
f 46/98/91 253/99/92 138/100/93
f 44/101/83 136/102/94 141/103/95
f 31/104/96 258/105/97 178/106/98
f 48/107/99 233/108/100 222/109/101
f 49/110/102 293/111/103 156/112/104
f 50/113/105 180/114/106 192/115/107
f 51/116/108 155/117/109 262/118/110
f 50/119/105 298/120/111 199/121/112
f 49/122/102 266/123/113 268/124/114
f 3/4/4 302/125/115 245/126/116
f 2/17/17 115/19/19 146/127/117
f 1/1/1 195/3/3 296/128/118
f 1/1/1 296/128/118 183/129/119
f 5/7/7 131/9/9 129/13/13
f 1/1/1 183/129/119 173/16/16
f 13/21/21 217/40/38 119/22/22
f 16/24/24 124/42/40 112/25/25
f 17/30/28 278/130/120 300/31/29
f 13/27/21 267/29/27 188/131/121
f 17/30/28 135/32/30 128/36/34
f 13/21/21 188/132/121 189/39/37
f 16/24/24 93/133/122 100/41/39
f 24/134/123 277/135/124 304/136/125
f 25/46/42 204/60/56 126/47/43
f 34/61/57 200/63/59 95/137/126
f 27/50/46 252/138/127 194/51/47
f 25/46/42 145/49/45 297/139/128
f 27/50/46 242/52/48 239/56/52
f 25/46/42 297/139/128 226/59/55
f 35/65/61 113/81/75 182/66/62
f 42/82/76 228/84/78 144/140/129
f 37/69/65 287/141/130 123/70/66
f 35/65/61 175/68/64 279/142/131
f 37/69/65 280/71/67 170/75/71
f 35/65/61 279/142/131 289/80/74
f 44/89/83 141/143/95 127/144/132
f 47/145/133 249/146/134 165/147/135
f 40/148/136 118/149/137 154/150/138
f 44/89/83 127/144/132 229/90/84
f 45/92/86 294/151/139 284/93/87
f 44/101/83 257/152/85 193/153/140
f 45/95/86 96/154/88 197/96/89
f 46/98/91 260/155/141 253/99/92
f 44/101/83 193/153/140 136/102/94
f 47/145/133 92/156/142 249/146/134
f 46/98/91 138/100/93 244/157/143
f 49/110/102 268/158/114 285/159/144
f 48/107/99 102/160/145 233/108/100
f 49/110/102 285/159/144 293/111/103
f 49/122/102 156/161/104 99/162/146
f 50/119/105 192/163/107 298/120/111
f 51/116/108 151/164/147 155/117/109
f 49/122/102 99/162/146 266/123/113
f 48/165/99 106/166/148 102/167/145
f 51/116/108 262/118/110 122/168/149
f 47/169/133 165/170/135 250/171/150
f 47/169/133 250/171/150 271/172/151
f 339/173/152 137/174/153 54/175/154 187/176/155
f 338/177/156 303/178/157 57/179/158 161/180/159
f 337/181/160 104/182/161 61/183/162 169/184/163
f 336/185/164 212/186/165 63/187/166 94/188/167
f 335/189/168 243/190/169 64/191/170 117/192/171
f 334/193/172 207/194/173 65/195/174 216/196/175
f 333/197/176 143/198/177 62/199/178 232/200/179
f 332/201/180 215/202/181 67/203/182 218/204/183
f 331/205/184 191/206/185 55/207/186 174/208/187
f 330/209/188 269/210/189 56/211/190 133/212/191
f 329/213/192 164/214/193 69/215/194 110/216/195
f 328/217/196 186/218/197 70/219/198 263/220/199
f 327/221/200 214/222/201 72/223/202 149/224/203
f 326/225/204 108/226/205 68/227/206 159/228/207
f 325/229/208 215/202/181 52/230/209 121/231/210
f 324/232/211 306/233/212 74/234/213 177/235/214
f 323/236/215 90/237/216 76/238/217 153/239/218
f 322/240/219 291/241/220 78/242/221 255/243/222
f 321/244/223 259/245/224 79/246/225 235/247/226
f 320/248/227 219/249/228 58/250/229 140/251/230
f 319/252/231 202/253/232 80/254/233 305/255/234
f 318/256/235 150/257/236 73/258/237 301/259/238
f 317/260/239 238/261/240 77/262/241 247/263/242
f 316/264/243 148/265/244 81/266/245 120/267/246
f 315/268/247 157/269/248 82/270/249 224/271/250
f 314/272/251 223/273/252 84/274/253 265/275/254
f 313/276/255 211/277/256 85/278/257 105/279/258
f 312/280/259 103/281/260 83/282/261 208/283/262
f 311/284/263 152/285/264 86/286/265 201/287/266
f 310/288/267 254/289/268 88/290/269 261/291/270
f 309/292/271 101/293/272 87/294/273 205/295/274
f 308/296/275 198/297/276 89/298/277 132/299/278
f 254/300/268 308/296/275 132/299/278 88/301/269
f 84/302/253 105/279/258 308/296/275 254/300/268
f 105/279/258 85/278/257 198/297/276 308/296/275
f 198/297/276 309/292/271 205/295/274 89/298/277
f 85/278/257 208/283/262 309/292/271 198/297/276
f 208/283/262 83/282/261 101/293/272 309/292/271
f 152/285/264 310/288/267 261/291/270 86/286/265
f 82/270/249 265/275/254 310/288/267 152/285/264
f 265/275/254 84/274/253 254/289/268 310/288/267
f 101/293/272 311/284/263 201/287/266 87/294/273
f 83/282/261 224/271/250 311/284/263 101/293/272
f 224/271/250 82/270/249 152/285/264 311/284/263
f 211/277/256 312/280/259 208/283/262 85/278/257
f 81/266/245 247/263/242 312/280/259 211/277/256
f 247/263/242 77/262/241 103/281/260 312/280/259
f 223/303/252 313/276/255 105/279/258 84/302/253
f 80/304/233 120/267/246 313/276/255 223/303/252
f 120/267/246 81/266/245 211/277/256 313/276/255
f 157/269/248 314/272/251 265/275/254 82/270/249
f 76/238/217 305/255/234 314/272/251 157/269/248
f 305/255/234 80/254/233 223/273/252 314/272/251
f 103/281/260 315/268/247 224/271/250 83/282/261
f 77/262/241 153/239/218 315/268/247 103/281/260
f 153/239/218 76/238/217 157/269/248 315/268/247
f 202/305/232 316/264/243 120/267/246 80/304/233
f 69/306/194 159/307/207 316/264/243 202/305/232
f 159/307/207 68/308/206 148/265/244 316/264/243
f 148/265/244 317/260/239 247/263/242 81/266/245
f 68/308/206 246/309/279 317/260/239 148/265/244
f 246/309/279 75/310/280 238/261/240 317/260/239
f 291/311/220 318/256/235 301/259/238 78/312/221
f 75/313/280 246/314/279 318/256/235 291/311/220
f 246/314/279 68/227/206 150/257/236 318/256/235
f 90/237/216 319/252/231 305/255/234 76/238/217
f 70/315/198 110/316/195 319/252/231 90/237/216
f 110/316/195 69/317/194 202/253/232 319/252/231
f 243/190/169 320/248/227 140/251/230 64/191/170
f 55/207/186 187/176/155 320/248/227 243/190/169
f 187/176/155 54/175/154 219/249/228 320/248/227
f 306/233/212 321/244/223 235/247/226 74/234/213
f 71/318/281 263/220/199 321/244/223 306/233/212
f 263/220/199 70/219/198 259/245/224 321/244/223
f 259/245/224 322/240/219 255/243/222 79/246/225
f 70/219/198 248/319/282 322/240/219 259/245/224
f 248/319/282 75/320/280 291/241/220 322/240/219
f 238/261/240 323/236/215 153/239/218 77/262/241
f 75/310/280 248/321/282 323/236/215 238/261/240
f 248/321/282 70/315/198 90/237/216 323/236/215
f 214/222/201 324/232/211 177/235/214 72/223/202
f 67/203/182 158/322/283 324/232/211 214/222/201
f 158/322/283 71/318/281 306/233/212 324/232/211
f 241/323/284 325/229/208 121/231/210 60/324/285
f 71/318/281 158/322/283 325/229/208 241/323/284
f 158/322/283 67/203/182 215/202/181 325/229/208
f 164/325/193 326/225/204 159/228/207 69/326/194
f 66/327/286 160/328/287 326/225/204 164/325/193
f 160/328/287 53/329/288 108/226/205 326/225/204
f 150/257/236 327/221/200 149/224/203 73/258/237
f 68/227/206 218/204/183 327/221/200 150/257/236
f 218/204/183 67/203/182 214/222/201 327/221/200
f 241/323/284 328/217/196 263/220/199 71/318/281
f 60/324/285 264/330/289 328/217/196 241/323/284
f 264/330/289 59/331/290 186/218/197 328/217/196
f 186/218/197 329/213/192 110/216/195 70/219/198
f 59/331/290 168/332/291 329/213/192 186/218/197
f 168/332/291 66/333/286 164/214/193 329/213/192
f 137/174/153 330/209/188 133/212/191 54/175/154
f 53/329/288 160/328/287 330/209/188 137/174/153
f 160/328/287 66/327/286 269/210/189 330/209/188
f 104/182/161 331/205/184 174/208/187 61/183/162
f 60/324/285 121/231/210 331/205/184 104/182/161
f 121/231/210 52/230/209 191/206/185 331/205/184
f 108/226/205 332/201/180 218/204/183 68/227/206
f 53/329/288 91/334/292 332/201/180 108/226/205
f 91/334/292 52/230/209 215/202/181 332/201/180
f 269/335/189 333/197/176 232/200/179 56/336/190
f 66/333/286 168/332/291 333/197/176 269/335/189
f 168/332/291 59/331/290 143/198/177 333/197/176
f 212/186/165 334/193/172 216/196/175 63/187/166
f 62/199/178 169/184/163 334/193/172 212/186/165
f 169/184/163 61/183/162 207/194/173 334/193/172
f 207/194/173 335/189/168 117/192/171 65/195/174
f 61/183/162 174/208/187 335/189/168 207/194/173
f 174/208/187 55/207/186 243/190/169 335/189/168
f 303/337/157 336/185/164 94/188/167 57/338/158
f 56/336/190 232/200/179 336/185/164 303/337/157
f 232/200/179 62/199/178 212/186/165 336/185/164
f 143/198/177 337/181/160 169/184/163 62/199/178
f 59/331/290 264/330/289 337/181/160 143/198/177
f 264/330/289 60/324/285 104/182/161 337/181/160
f 219/249/228 338/177/156 161/180/159 58/250/229
f 54/175/154 133/212/191 338/177/156 219/249/228
f 133/212/191 56/211/190 303/178/157 338/177/156
f 191/206/185 339/173/152 187/176/155 55/207/186
f 52/230/209 91/334/292 339/173/152 191/206/185
f 91/334/292 53/329/288 137/174/153 339/173/152
f 271/172/151 286/88/82 9/339/293
f 271/172/151 250/171/150 286/88/82
f 250/171/150 43/86/80 286/88/82
f 250/171/150 154/150/138 43/86/80
f 250/171/150 165/170/135 154/150/138
f 165/170/135 40/148/136 154/150/138
f 122/168/149 245/126/116 38/340/294
f 122/168/149 262/118/110 245/126/116
f 262/118/110 3/4/4 245/126/116
f 102/167/145 220/341/295 36/342/296
f 102/167/145 106/166/148 220/341/295
f 106/166/148 38/340/294 220/341/295
f 266/123/113 122/168/149 38/340/294
f 266/123/113 99/162/146 122/168/149
f 99/162/146 51/116/108 122/168/149
f 155/117/109 209/343/297 4/344/298
f 155/117/109 151/164/147 209/343/297
f 151/164/147 14/345/299 209/343/297
f 298/120/111 273/346/300 14/345/299
f 298/120/111 192/163/107 273/346/300
f 192/163/107 15/347/301 273/346/300
f 99/162/146 199/121/112 51/116/108
f 99/162/146 156/161/104 199/121/112
f 156/161/104 50/119/105 199/121/112
f 293/111/103 162/348/302 18/349/303
f 293/111/103 285/159/144 162/348/302
f 285/159/144 26/350/304 162/348/302
f 233/108/100 230/351/305 28/352/306
f 233/108/100 102/160/145 230/351/305
f 102/160/145 36/353/296 230/351/305
f 285/159/144 222/109/101 26/350/304
f 285/159/144 268/158/114 222/109/101
f 268/158/114 48/107/99 222/109/101
f 244/157/143 206/354/307 31/104/96
f 244/157/143 138/100/93 206/354/307
f 138/100/93 32/355/308 206/354/307
f 249/146/134 178/106/98 41/356/309
f 249/146/134 92/156/142 178/106/98
f 92/156/142 31/104/96 178/106/98
f 136/102/94 244/157/143 31/104/96
f 136/102/94 193/153/140 244/157/143
f 193/153/140 46/98/91 244/157/143
f 253/99/92 125/357/310 23/358/311
f 253/99/92 260/155/141 125/357/310
f 260/155/141 21/359/312 125/357/310
f 197/96/89 283/360/313 21/359/312
f 197/96/89 96/154/88 283/360/313
f 96/154/88 22/361/314 283/360/313
f 193/153/140 109/97/90 46/98/91
f 193/153/140 257/152/85 109/97/90
f 257/152/85 45/95/86 109/97/90
f 284/93/87 213/362/315 10/363/316
f 284/93/87 294/151/139 213/362/315
f 294/151/139 8/364/317 213/362/315
f 229/90/84 185/365/318 8/364/317
f 229/90/84 127/144/132 185/365/318
f 127/144/132 9/339/293 185/365/318
f 154/150/138 275/87/81 43/86/80
f 154/150/138 118/149/137 275/87/81
f 118/149/137 11/366/319 275/87/81
f 165/147/135 281/367/320 40/368/136
f 165/147/135 249/146/134 281/367/320
f 249/146/134 41/356/309 281/367/320
f 127/144/132 271/172/151 9/339/293
f 127/144/132 141/143/95 271/172/151
f 141/143/95 47/169/133 271/172/151
f 289/80/74 276/85/79 33/369/321
f 289/80/74 279/142/131 276/85/79
f 279/142/131 39/72/68 276/85/79
f 170/75/71 210/370/322 11/366/319
f 170/75/71 280/71/67 210/370/322
f 280/71/67 12/371/323 210/370/322
f 279/142/131 272/372/72 39/72/68
f 279/142/131 175/68/64 272/372/72
f 175/68/64 37/373/65 272/372/72
f 123/70/66 220/341/295 38/340/294
f 123/70/66 287/141/130 220/341/295
f 287/141/130 36/342/296 220/341/295
f 144/140/129 139/374/324 28/352/306
f 144/140/129 228/84/78 139/374/324
f 228/84/78 29/375/325 139/374/324
f 182/66/62 144/140/129 28/352/306
f 182/66/62 113/81/75 144/140/129
f 113/81/75 42/82/76 144/140/129
f 226/59/55 282/64/60 23/358/311
f 226/59/55 297/139/128 282/64/60
f 297/139/128 30/53/49 282/64/60
f 239/56/52 251/376/326 33/369/321
f 239/56/52 242/52/48 251/376/326
f 242/52/48 29/375/325 251/376/326
f 297/139/128 299/57/53 30/53/49
f 297/139/128 145/49/45 299/57/53
f 145/49/45 27/50/46 299/57/53
f 194/51/47 307/377/327 28/352/306
f 194/51/47 252/138/127 307/377/327
f 252/138/127 26/350/304 307/377/327
f 95/137/126 237/378/328 18/349/303
f 95/137/126 200/63/59 237/378/328
f 200/63/59 19/379/329 237/378/328
f 126/47/43 95/137/126 18/349/303
f 126/47/43 204/60/56 95/137/126
f 204/60/56 34/61/57 95/137/126
f 304/136/125 196/380/330 10/363/316
f 304/136/125 277/135/124 196/380/330
f 277/135/124 22/381/314 196/380/330
f 100/41/39 304/136/125 10/363/316
f 100/41/39 93/133/122 304/136/125
f 93/133/122 24/134/123 304/136/125
f 189/39/37 290/45/41 24/134/123
f 189/39/37 188/132/121 290/45/41
f 188/132/121 20/43/31 290/45/41
f 128/36/34 130/382/331 23/358/311
f 128/36/34 135/32/30 130/382/331
f 135/32/30 19/379/329 130/382/331
f 188/131/121 184/37/35 20/33/31
f 188/131/121 267/29/27 184/37/35
f 267/29/27 17/30/28 184/37/35
f 300/31/29 292/383/332 18/349/303
f 300/31/29 278/130/120 292/383/332
f 278/130/120 15/384/301 292/383/332
f 112/25/25 234/385/333 4/344/298
f 112/25/25 124/42/40 234/385/333
f 124/42/40 6/386/334 234/385/333
f 119/22/22 114/26/26 14/345/299
f 119/22/22 217/40/38 114/26/26
f 217/40/38 16/24/24 114/26/26
f 173/16/16 167/20/20 11/366/319
f 173/16/16 183/129/119 167/20/20
f 183/129/119 7/10/10 167/20/20
f 129/13/13 221/387/335 10/363/316
f 129/13/13 131/9/9 221/387/335
f 131/9/9 6/386/334 221/387/335
f 183/129/119 181/14/14 7/10/10
f 183/129/119 296/128/118 181/14/14
f 296/128/118 5/7/7 181/14/14
f 296/128/118 295/6/6 5/7/7
f 296/128/118 195/3/3 295/6/6
f 195/3/3 3/4/4 295/6/6
f 146/127/117 107/388/336 38/340/294
f 146/127/117 115/19/19 107/388/336
f 115/19/19 12/371/323 107/388/336
f 245/126/116 146/127/117 38/340/294
f 245/126/116 302/125/115 146/127/117
f 302/125/115 2/17/17 146/127/117
f 268/124/114 106/166/148 48/165/99
f 268/124/114 266/123/113 106/166/148
f 266/123/113 38/340/294 106/166/148
f 199/121/112 151/164/147 51/116/108
f 199/121/112 298/120/111 151/164/147
f 298/120/111 14/345/299 151/164/147
f 262/118/110 240/5/5 3/4/4
f 262/118/110 155/117/109 240/5/5
f 155/117/109 4/344/298 240/5/5
f 192/115/107 292/383/332 15/384/301
f 192/115/107 180/114/106 292/383/332
f 180/114/106 18/349/303 292/383/332
f 156/112/104 180/114/106 50/113/105
f 156/112/104 293/111/103 180/114/106
f 293/111/103 18/349/303 180/114/106
f 222/109/101 307/377/327 26/350/304
f 222/109/101 233/108/100 307/377/327
f 233/108/100 28/352/306 307/377/327
f 178/106/98 166/389/337 41/356/309
f 178/106/98 258/105/97 166/389/337
f 258/105/97 33/369/321 166/389/337
f 141/103/95 92/156/142 47/145/133
f 141/103/95 136/102/94 92/156/142
f 136/102/94 31/104/96 92/156/142
f 138/100/93 176/390/338 32/355/308
f 138/100/93 253/99/92 176/390/338
f 253/99/92 23/358/311 176/390/338
f 109/97/90 260/155/141 46/98/91
f 109/97/90 197/96/89 260/155/141
f 197/96/89 21/359/312 260/155/141
f 96/94/88 196/380/330 22/381/314
f 96/94/88 284/93/87 196/380/330
f 284/93/87 10/363/316 196/380/330
f 257/91/85 294/151/139 45/92/86
f 257/91/85 229/90/84 294/151/139
f 229/90/84 8/364/317 294/151/139
f 286/88/82 163/391/339 9/339/293
f 286/88/82 275/87/81 163/391/339
f 275/87/81 11/366/319 163/391/339
f 276/85/79 166/389/337 33/369/321
f 276/85/79 172/74/70 166/389/337
f 172/74/70 41/356/309 166/389/337
f 228/84/78 251/376/326 29/375/325
f 228/84/78 111/83/77 251/376/326
f 111/83/77 33/369/321 251/376/326
f 113/81/75 111/83/77 42/82/76
f 113/81/75 289/80/74 111/83/77
f 289/80/74 33/369/321 111/83/77
f 225/79/69 118/149/137 40/148/136
f 225/79/69 270/78/73 118/149/137
f 270/78/73 11/366/319 118/149/137
f 272/76/72 270/78/73 39/77/68
f 272/76/72 170/75/71 270/78/73
f 170/75/71 11/366/319 270/78/73
f 172/74/70 281/367/320 41/356/309
f 172/74/70 225/73/69 281/367/320
f 225/73/69 40/368/136 281/367/320
f 280/71/67 107/388/336 12/371/323
f 280/71/67 123/70/66 107/388/336
f 123/70/66 38/340/294 107/388/336
f 175/68/64 287/392/130 37/373/65
f 175/68/64 231/67/63 287/392/130
f 231/67/63 36/353/296 287/392/130
f 231/67/63 230/351/305 36/353/296
f 231/67/63 182/66/62 230/351/305
f 182/66/62 28/352/306 230/351/305
f 282/64/60 176/390/338 23/358/311
f 282/64/60 97/55/51 176/390/338
f 97/55/51 32/355/308 176/390/338
f 200/63/59 130/382/331 19/379/329
f 200/63/59 203/62/58 130/382/331
f 203/62/58 23/358/311 130/382/331
f 204/60/56 203/62/58 34/61/57
f 204/60/56 226/59/55 203/62/58
f 226/59/55 23/358/311 203/62/58
f 256/54/50 258/105/97 31/104/96
f 256/54/50 147/58/54 258/105/97
f 147/58/54 33/369/321 258/105/97
f 299/57/53 147/58/54 30/53/49
f 299/57/53 239/56/52 147/58/54
f 239/56/52 33/369/321 147/58/54
f 97/55/51 206/354/307 32/355/308
f 97/55/51 256/54/50 206/354/307
f 256/54/50 31/104/96 206/354/307
f 242/52/48 139/374/324 29/375/325
f 242/52/48 194/51/47 139/374/324
f 194/51/47 28/352/306 139/374/324
f 145/49/45 252/138/127 27/50/46
f 145/49/45 98/48/44 252/138/127
f 98/48/44 26/350/304 252/138/127
f 98/48/44 162/348/302 26/350/304
f 98/48/44 126/47/43 162/348/302
f 126/47/43 18/349/303 162/348/302
f 290/45/41 277/135/124 24/134/123
f 290/45/41 179/44/33 277/135/124
f 179/44/33 22/381/314 277/135/124
f 124/42/40 221/387/335 6/386/334
f 124/42/40 100/41/39 221/387/335
f 100/41/39 10/363/316 221/387/335
f 217/40/38 93/133/122 16/24/24
f 217/40/38 189/39/37 93/133/122
f 189/39/37 24/134/123 93/133/122
f 134/34/32 125/357/310 21/359/312
f 134/34/32 227/38/36 125/357/310
f 227/38/36 23/358/311 125/357/310
f 184/37/35 227/38/36 20/33/31
f 184/37/35 128/36/34 227/38/36
f 128/36/34 23/358/311 227/38/36
f 179/35/33 283/360/313 22/361/314
f 179/35/33 134/34/32 283/360/313
f 134/34/32 21/359/312 283/360/313
f 135/32/30 237/378/328 19/379/329
f 135/32/30 300/31/29 237/378/328
f 300/31/29 18/349/303 237/378/328
f 267/29/27 278/130/120 17/30/28
f 267/29/27 171/28/23 278/130/120
f 171/28/23 15/384/301 278/130/120
f 114/26/26 209/343/297 14/345/299
f 114/26/26 112/25/25 209/343/297
f 112/25/25 4/344/298 209/343/297
f 171/23/23 273/346/300 15/347/301
f 171/23/23 119/22/22 273/346/300
f 119/22/22 14/345/299 273/346/300
f 167/20/20 163/391/339 11/366/319
f 167/20/20 288/12/12 163/391/339
f 288/12/12 9/339/293 163/391/339
f 115/19/19 210/370/322 12/371/323
f 115/19/19 274/18/18 210/370/322
f 274/18/18 11/366/319 210/370/322
f 142/2/2 274/18/18 2/17/17
f 142/2/2 173/16/16 274/18/18
f 173/16/16 11/366/319 274/18/18
f 236/11/11 213/362/315 8/364/317
f 236/11/11 116/15/15 213/362/315
f 116/15/15 10/363/316 213/362/315
f 181/14/14 116/15/15 7/10/10
f 181/14/14 129/13/13 116/15/15
f 129/13/13 10/363/316 116/15/15
f 288/12/12 185/365/318 9/339/293
f 288/12/12 236/11/11 185/365/318
f 236/11/11 8/364/317 185/365/318
f 131/9/9 234/385/333 6/386/334
f 131/9/9 190/8/8 234/385/333
f 190/8/8 4/344/298 234/385/333
f 295/6/6 190/8/8 5/7/7
f 295/6/6 240/5/5 190/8/8
f 240/5/5 4/344/298 190/8/8
f 195/3/3 302/125/115 3/4/4
f 195/3/3 142/2/2 302/125/115
f 142/2/2 2/17/17 302/125/115
