# Blender v2.78 (sub 0) OBJ File: ''
# www.blender.org
mtllib Oak_Tree_m_01.mtl
o Oak_Tree_m_01
v -2.170973 6.012784 -1.999056
v -2.591199 6.612439 -1.304877
v -1.551353 7.431506 -1.669604
v -0.563030 7.520225 -1.965427
v -1.136069 6.342818 -2.375590
v -0.398028 6.279022 -2.515331
v -1.669448 5.075750 -2.091577
v -0.971926 4.097508 -1.818050
v -1.869461 4.253368 -1.102498
v -0.290678 5.003989 -2.235689
v -2.724628 5.274357 -0.735215
v -2.718396 6.647421 -0.594591
v 1.191671 6.559803 -1.670862
v 0.286834 7.717126 -1.668165
v 1.106409 7.858814 -1.040305
v 0.366295 6.327367 -2.328170
v 1.911659 6.555094 -0.783449
v 1.549685 7.914507 0.220782
v 2.210939 6.552025 -0.000057
v 1.656919 4.982128 -1.219877
v 1.527676 4.185226 -0.519199
v 0.893716 4.228122 -1.420863
v 2.245117 5.039887 0.474704
v 0.765887 5.134914 -2.044513
v 1.739705 6.728927 1.559782
v 0.679080 8.256702 1.005732
v 0.700787 6.665539 2.228491
v -0.655877 7.979688 1.150506
v -0.394392 6.647536 2.391075
v 1.205533 4.913939 2.051674
v 0.271055 3.812234 1.671778
v 1.531806 3.961935 1.323768
v -0.673104 5.297376 2.263196
v 2.246414 6.701899 0.742288
v -1.850877 6.967038 1.055222
v -1.657064 8.239076 0.359828
v -2.464913 6.838412 0.155793
v -1.803792 8.154346 -0.715618
v -2.166662 5.442218 0.894785
v -2.082928 4.696626 0.419876
v -1.358693 4.401442 1.389250
v -1.070762 6.855958 1.758844
v -1.447585 3.872777 0.401706
v -0.540136 3.628848 -0.279557
v 0.289155 3.643284 -1.000765
v 1.057857 3.647088 0.522573
v -0.836855 8.833941 0.315253
v -0.100337 8.803860 -0.168290
v 0.463582 8.357782 -0.702693
v -0.546738 8.313843 -1.126700
v -0.021249 0.357475 0.212442
v -0.207770 0.341323 0.038834
v -0.246048 0.035078 0.060663
v -0.023548 0.038382 0.259291
v -0.209792 0.333774 -0.148724
v -0.248398 0.033944 -0.168954
v 0.256369 0.325475 0.082627
v 0.293298 0.032777 0.106429
v -0.070337 1.134037 -0.257593
v 0.151950 1.114566 -0.167681
v 0.253320 0.314223 -0.188391
v -0.025420 0.341836 -0.329837
v -0.028459 0.036113 -0.375128
v 0.289880 0.030924 -0.209924
v -0.222819 1.122607 -0.138654
v -0.068267 1.148831 0.124196
v -0.221838 1.129777 0.010319
v 0.153698 1.124996 0.043483
v -0.470908 1.975316 -0.201951
v -0.360349 2.011491 -0.272052
v -0.239501 2.040618 -0.203354
v -0.247546 2.056383 -0.061199
v -0.368624 2.024748 0.001952
v -0.475477 1.981783 -0.070518
v -0.775288 2.793982 -0.038868
v -0.866128 2.763389 -0.089695
v -0.582013 2.630342 -0.166339
v -0.655264 2.797243 -0.073341
v -0.866298 2.759666 -0.201791
v -0.740435 2.771466 -0.239530
v -0.917392 3.940126 -0.429943
v -0.979046 3.963606 -0.384483
v -1.054446 3.923962 -0.398473
v -1.068040 3.941023 -0.497640
v -0.695082 2.948340 -0.176586
v -0.933625 3.924047 -0.507658
v -1.007598 3.917092 -0.545317
v -0.174510 3.037144 0.078022
v -0.195331 3.130182 0.035802
v -0.162298 3.117241 -0.045694
v -0.114981 3.028010 -0.029106
v 0.315431 3.910356 0.462375
v 0.362249 3.927182 0.399657
v 0.414695 3.863368 0.415342
v 0.354303 3.840825 0.492927
v -0.231762 0.145965 0.050167
v 0.577646 5.684180 -2.240744
v 0.222504 0.693063 0.067625
v 2.017331 7.252947 0.622429
v 0.624861 3.949413 -1.253698
v 1.461659 4.293573 1.640307
v 1.310197 7.556891 1.389366
v -0.427797 2.001467 -0.024411
v 0.101140 5.627590 -2.400283
v -0.029574 1.599105 -0.011463
v -0.585703 2.659093 -0.103064
v 0.219728 0.681246 -0.174636
v -0.570738 2.364214 -0.251537
v -0.329007 1.561446 -0.032073
v -0.942970 8.689079 -0.478718
v -2.431859 7.288219 -0.659970
v -0.679443 2.927313 -0.124902
v 0.652505 3.555467 -0.240615
v -0.420532 1.990705 -0.247120
v 0.050089 1.138531 0.100698
v -0.999101 6.202894 2.057268
v -0.064810 7.018236 -2.198972
v -1.374722 6.905549 1.468662
v 0.357550 7.075386 -2.043814
v -0.589841 7.981892 -1.565723
v -2.703154 6.621184 -0.919494
v -1.026164 5.057678 -2.283878
v 0.137773 3.555288 0.190289
v -2.390363 4.848048 0.003663
v 0.766061 7.202596 -1.744926
v -2.239488 7.577999 -0.252827
v -0.079645 6.286458 -2.449006
v 1.923311 4.454807 -0.091737
v 1.708404 7.488233 1.002570
v -1.299827 3.881902 -0.756214
v 2.196342 5.721090 -0.326698
v -0.806669 5.674359 -2.421761
v -0.395713 2.807408 -0.121169
v -0.468463 2.885269 -0.152577
v 2.336210 5.942021 0.139968
v -0.132037 0.339325 -0.255064
v -0.694555 6.327888 -2.460996
v -0.190881 3.084101 0.067797
v 1.700981 4.514778 -0.808977
v 0.330923 3.928658 0.427303
v -0.023922 0.155483 0.248497
v 2.119402 6.542136 -0.284848
v -0.099239 3.596270 0.748812
v -0.158376 0.036730 0.185045
v 1.397421 3.804904 1.038575
v -0.428613 7.257250 1.899076
v 0.339137 0.031851 -0.050599
v -2.449806 6.272366 -1.635877
v -0.034068 0.710760 -0.289086
v -0.977858 7.385341 1.489308
v 1.283931 6.703876 1.981659
v -0.576492 2.385512 -0.004857
v -2.296107 7.360194 -1.104009
v 0.366855 4.985707 2.330318
v -0.303181 2.043263 -0.019505
v -1.291915 8.623518 0.287028
v -0.824547 3.427264 -0.263063
v -1.882963 4.324381 0.402253
v -0.010576 8.405305 -0.903575
v -0.670532 2.341777 -0.188453
v -1.070209 3.930759 -0.445048
v -0.030268 0.726940 0.171498
v -0.199557 1.593477 0.057968
v 0.285164 0.137037 0.098848
v -1.285794 8.700059 -0.170504
v 1.147306 8.176630 0.698392
v -2.298323 4.618787 -0.961137
v -0.991033 3.405537 -0.354241
v -1.040586 4.666479 1.863300
v -2.303258 5.107580 -1.557369
v 0.122337 0.328148 -0.282508
v -0.420097 8.627876 -0.665107
v -2.729465 6.006033 -0.169366
v 1.168173 7.308487 -1.381928
v -1.748261 4.876472 1.264909
v -2.533058 5.617142 -1.560701
v 0.089963 3.546653 0.265040
v -2.225883 6.938916 0.628889
v 1.865734 4.301891 1.036191
v -0.919320 3.398335 -0.406710
v -0.236718 1.124475 -0.063760
v -0.639488 4.084569 1.657848
v 1.301507 4.495881 -1.355431
v -0.473048 2.409307 -0.061259
v -1.382144 5.658135 -2.337995
v -0.132238 8.696424 0.623967
v -1.369095 7.640103 1.025242
v -1.995335 5.564944 -2.066294
v -0.702075 8.570929 0.685991
v -0.162399 0.035028 -0.298258
v 1.874439 5.722068 -0.991702
v -1.442439 4.167652 -1.529370
v -0.195650 1.580089 -0.262896
v -0.202082 0.701620 -0.138583
v 0.819889 8.164293 -0.844474
v 1.470850 5.750896 -1.518232
v 1.029729 5.758189 -1.921140
v -0.898049 7.030142 -2.200508
v -0.825486 2.778440 -0.056628
v -0.225982 0.335496 -0.054457
v 0.126374 0.343409 0.170441
v 0.278902 3.528018 0.230812
v 0.138405 7.455958 1.758037
v -1.915643 6.676239 -1.922456
v 0.176772 1.116395 -0.061521
v 0.355005 4.449311 -1.797005
v 0.980233 3.803822 -0.668391
v -0.633146 2.645241 -0.200595
v -0.460530 2.940059 -0.075747
v -1.043956 3.932918 -0.531330
v -1.127349 8.356679 -0.960483
v 2.251528 6.614167 0.367491
v -0.158650 1.129594 -0.209024
v -0.967809 3.915542 -0.534235
v -0.965127 3.684210 0.154998
v 2.339588 6.029831 0.698045
v -0.828037 2.762512 -0.239611
v 0.283470 0.315801 -0.052190
v 2.089754 6.715026 1.070739
v 1.076300 3.832601 1.584828
v -0.141829 3.021701 0.027102
v -0.983399 3.394649 -0.246618
v 0.121526 3.461620 0.299712
v -0.143222 7.668833 -1.833549
v -2.850174 6.084367 -0.647305
v -0.232873 2.052998 -0.132030
v -0.028569 0.146673 -0.365602
v -0.683202 4.428998 -2.054418
v -0.200240 0.709460 0.027814
v -0.522256 8.865503 0.083793
v 0.785803 6.445560 -2.053501
v -1.096681 7.996307 -1.389257
v 0.149515 0.035580 0.220907
v -1.780661 8.283762 -0.113327
v -0.353808 5.782899 -2.484739
v 0.354073 8.677181 0.404332
v 0.326213 3.871749 0.488197
v -1.019562 3.943501 -0.381174
v -2.198027 4.987201 0.576262
v 2.085709 5.825133 1.221399
v 2.055053 4.990777 -0.486838
v -0.745572 6.735090 2.092717
v 0.392417 3.842207 0.457848
v 0.742147 8.521091 0.091939
v -0.826825 3.797331 -1.163669
v -1.246374 8.250989 0.690009
v -1.802959 7.690381 0.672499
v -0.460448 6.837274 -2.330522
v -1.317552 4.548473 -2.048018
v -0.132678 3.072188 -0.048285
v -0.275794 0.034511 -0.053336
v 2.013953 7.165136 0.064353
v 0.172211 5.833526 2.469211
v -1.024282 7.589397 -1.804572
v -0.028019 1.590713 -0.186171
v 0.025674 6.640888 2.357505
v 0.709591 3.599085 1.099415
v -1.713418 7.836066 -1.254623
v -0.874960 2.759807 -0.145353
v -0.234014 0.141696 -0.158936
v -0.449855 6.074802 2.467037
v 0.787395 7.536064 1.652567
v -0.455158 2.365896 -0.191126
v 1.769703 4.146192 0.527819
v -0.128704 0.351926 0.140731
v 0.757943 4.270758 2.046236
v -0.106650 3.551463 -0.675356
v -0.128231 4.411826 2.141159
v -1.292550 4.040268 1.020739
v 1.379848 3.921757 -0.016073
v -0.899910 3.433108 -0.217276
v -0.294178 2.027853 -0.247575
v 0.047824 1.124400 -0.229904
v -0.839856 3.443130 -0.356512
v -0.916556 3.928509 -0.469253
v 0.281770 0.130603 -0.203020
v 1.582302 6.569836 -1.280064
v 0.186208 3.475060 0.204668
v 0.267173 8.596482 -0.415602
v -0.327026 1.554866 -0.172224
v -2.568819 5.404689 0.124712
v -2.445476 6.114698 0.472159
v 0.716131 7.826756 -1.370710
v -2.797505 5.962344 -1.149064
v 0.144642 0.033518 -0.331383
v -2.191427 4.426797 -0.218508
v -1.556566 5.347102 1.616904
v 0.804183 4.630698 -1.789605
v 1.528375 7.333171 -0.926592
v -2.034599 6.158445 1.075646
v -2.632622 6.731474 -0.315571
v -0.438153 2.854492 -0.010817
v -0.942054 3.958627 -0.402474
v -1.792352 4.532392 0.866699
v 1.855606 4.947577 1.404347
v -0.726595 2.915071 -0.217786
v 1.225178 4.140496 -1.007073
v -0.025495 4.155865 -1.682545
v -1.759099 4.041603 -0.394477
v -2.087296 7.653456 0.245974
v -0.156928 1.141418 0.077580
v -1.906154 4.630298 -1.636309
v 0.334702 8.130423 -1.187669
v -1.461998 6.089541 1.663997
v 1.203579 5.027705 -1.695564
v -0.181731 3.134588 -0.007590
v -0.724986 2.801303 -0.054648
v 1.345667 7.942052 -0.490869
v 0.925671 8.323598 -0.292562
v -0.391124 3.845943 -1.478664
v -1.368239 6.939946 -2.078492
v -1.676405 6.198501 -2.238642
v -0.624431 3.718616 1.061078
v 0.397126 3.899117 0.396954
v -0.674034 2.349648 -0.067105
v 1.585633 5.786470 1.862858
v -0.125263 8.095036 -1.400589
v 0.953364 5.778602 2.282960
v 1.796530 7.333416 -0.373884
v -2.138874 7.070766 -1.516510
v -0.483843 1.974052 -0.136481
v 0.326412 5.035895 -2.171275
v 0.052542 8.199828 1.118271
v 0.158294 3.459194 0.254905
v 0.099519 3.502915 0.291773
v 0.168216 3.516396 0.188082
v 0.109440 3.560117 0.224950
v -0.430178 2.840701 -0.147233
v -0.411668 2.821906 -0.060661
v -0.876848 3.421186 -0.388835
v -0.469761 2.921708 -0.119494
v -0.451251 2.902914 -0.032923
v -0.959444 3.400176 -0.388557
v -0.824489 3.437185 -0.309397
v -0.994951 3.398583 -0.299106
v -0.945100 3.413649 -0.224256
v -0.857233 3.431242 -0.234268
v -0.521002 2.401793 -0.023421
v -0.507017 2.363781 -0.231040
v -0.626421 2.352952 -0.228988
v -0.681982 2.342604 -0.127708
v -0.453055 2.388668 -0.125962
v -0.630526 2.366558 -0.027218
v -0.011497 1.595465 -0.098404
v -0.340537 1.555049 -0.102068
v -0.273093 1.577619 0.023045
v -0.108427 1.598449 0.036741
v -0.105453 1.586350 -0.238103
v -0.269826 1.566764 -0.228070
v -0.216957 0.703655 -0.054937
v 0.247403 0.683438 -0.052871
v 0.104212 0.711778 0.139444
v -0.128289 0.720521 0.112364
v -0.131327 0.707586 -0.227177
v 0.136019 0.138697 -0.310579
v 0.315611 0.131796 -0.051310
v -0.147496 0.144945 -0.279992
v 0.100532 0.696112 -0.252191
v 0.140518 0.147227 0.199393
v -0.252203 0.142804 -0.053837
v -0.143781 0.151987 0.166279
vt 0.5916 0.5580
vt 0.5945 0.5563
vt 0.5950 0.5608
vt 0.5984 0.5635
vt 0.5971 0.5666
vt 0.5941 0.5638
vt 0.5898 0.5641
vt 0.5928 0.5669
vt 0.5882 0.5662
vt 0.5852 0.5564
vt 0.5820 0.5564
vt 0.5840 0.5530
vt 0.5848 0.5638
vt 0.5875 0.5603
vt 0.5825 0.5599
vt 0.5918 0.5525
vt 0.5974 0.5547
vt 0.5947 0.5509
vt 0.5992 0.5524
vt 0.5886 0.5517
vt 0.5813 0.5832
vt 0.5878 0.5798
vt 0.5888 0.5849
vt 0.5844 0.5738
vt 0.5901 0.5718
vt 0.5893 0.5752
vt 0.5416 0.5324
vt 0.5487 0.5354
vt 0.5413 0.5373
vt 0.5410 0.5423
vt 0.5459 0.5468
vt 0.5411 0.5455
vt 0.5265 0.5403
vt 0.5259 0.5450
vt 0.5209 0.5429
vt 0.5376 0.5475
vt 0.5337 0.5413
vt 0.5304 0.5466
vt 0.5786 0.5759
vt 0.5828 0.5785
vt 0.5821 0.5687
vt 0.5855 0.5710
vt 0.5665 0.5757
vt 0.5667 0.5699
vt 0.5712 0.5721
vt 0.5441 0.5593
vt 0.5475 0.5554
vt 0.5484 0.5597
vt 0.5442 0.5622
vt 0.5443 0.5651
vt 0.5495 0.5682
vt 0.5444 0.5676
vt 0.5363 0.5629
vt 0.5330 0.5652
vt 0.5336 0.5616
vt 0.5408 0.5691
vt 0.5403 0.5640
vt 0.5367 0.5681
vt 0.5392 0.5561
vt 0.5433 0.5565
vt 0.5425 0.5537
vt 0.5384 0.5532
vt 0.5418 0.5512
vt 0.5353 0.5579
vt 0.5480 0.5832
vt 0.5513 0.5772
vt 0.5551 0.5822
vt 0.5486 0.5884
vt 0.6073 0.5446
vt 0.6069 0.5532
vt 0.6041 0.5473
vt 0.5330 0.5879
vt 0.5274 0.5875
vt 0.5307 0.5828
vt 0.5997 0.5458
vt 0.6019 0.5385
vt 0.5964 0.5324
vt 0.5942 0.5397
vt 0.5921 0.5345
vt 0.5426 0.5782
vt 0.5469 0.5792
vt 0.5459 0.5752
vt 0.5415 0.5742
vt 0.5451 0.5727
vt 0.5351 0.5805
vt 0.5783 0.5354
vt 0.5852 0.5412
vt 0.5806 0.5425
vt 0.5707 0.5445
vt 0.5748 0.5504
vt 0.5686 0.5499
vt 0.5665 0.5553
vt 0.5732 0.5594
vt 0.5667 0.5597
vt 0.5114 0.5547
vt 0.5184 0.5522
vt 0.5181 0.5574
vt 0.5249 0.5601
vt 0.5296 0.5565
vt 0.5279 0.5602
vt 0.5114 0.5670
vt 0.5206 0.5673
vt 0.5144 0.5718
vt 0.5297 0.5675
vt 0.5335 0.5703
vt 0.5290 0.5726
vt 0.5645 0.5686
vt 0.5595 0.5699
vt 0.5586 0.5644
vt 0.5652 0.5567
vt 0.5580 0.5540
vt 0.5634 0.5512
vt 0.5616 0.5458
vt 0.5562 0.5486
vt 0.5587 0.5422
vt 0.6027 0.5710
vt 0.5993 0.5703
vt 0.6005 0.5673
vt 0.6055 0.5848
vt 0.5998 0.5806
vt 0.6041 0.5779
vt 0.6153 0.5784
vt 0.6109 0.5701
vt 0.6177 0.5735
vt 0.5979 0.5591
vt 0.6025 0.5626
vt 0.6020 0.5583
vt 0.5907 0.5611
vt 0.5884 0.5572
vt 0.5484 0.5404
vt 0.5340 0.5364
vt 0.5739 0.5795
vt 0.5802 0.5712
vt 0.5760 0.5686
vt 0.5714 0.5663
vt 0.5779 0.5660
vt 0.5467 0.5525
vt 0.5485 0.5626
vt 0.5402 0.5611
vt 0.5502 0.5732
vt 0.6122 0.5512
vt 0.5405 0.5855
vt 0.5745 0.5400
vt 0.5768 0.5470
vt 0.5175 0.5766
vt 0.5229 0.5772
vt 0.5196 0.5818
vt 0.5830 0.5360
vt 0.5727 0.5559
vt 0.5114 0.5609
vt 0.5181 0.5635
vt 0.5133 0.5501
vt 0.5252 0.5548
vt 0.5236 0.5720
vt 0.5273 0.5638
vt 0.5648 0.5626
vt 0.5589 0.5584
vt 0.5633 0.5749
vt 0.6104 0.5816
vt 0.6090 0.5747
vt 0.6008 0.5857
vt 0.5985 0.5738
vt 0.6201 0.5686
vt 0.6134 0.5652
vt 0.6186 0.5632
vt 0.6047 0.5664
vt 0.8995 0.7741
vt 0.8957 0.7753
vt 0.8942 0.7718
vt 0.8983 0.7703
vt 0.8933 0.7763
vt 0.8910 0.7773
vt 0.8892 0.7742
vt 0.8917 0.7730
vt 0.9084 0.7719
vt 0.9033 0.7729
vt 0.9024 0.7689
vt 0.9078 0.7680
vt 0.9246 0.7863
vt 0.9208 0.7848
vt 0.9217 0.7745
vt 0.9263 0.7760
vt 0.9361 0.7752
vt 0.9323 0.7736
vt 0.9336 0.7698
vt 0.9376 0.7718
vt 0.9178 0.7709
vt 0.9135 0.7709
vt 0.9132 0.7672
vt 0.9178 0.7673
vt 0.9272 0.7723
vt 0.9220 0.7710
vt 0.9224 0.7675
vt 0.9280 0.7686
vt 0.9314 0.7888
vt 0.9284 0.7878
vt 0.9310 0.7774
vt 0.9345 0.7787
vt 0.9034 0.7881
vt 0.9004 0.7889
vt 0.8971 0.7788
vt 0.9007 0.7779
vt 0.9102 0.7861
vt 0.9064 0.7873
vt 0.9043 0.7770
vt 0.9090 0.7758
vt 0.9174 0.7848
vt 0.9139 0.7848
vt 0.9137 0.7745
vt 0.9177 0.7745
vt 0.8985 0.7896
vt 0.8965 0.7902
vt 0.8928 0.7804
vt 0.8949 0.7796
vt 0.9261 0.8101
vt 0.9283 0.8106
vt 0.9257 0.8215
vt 0.9240 0.8212
vt 0.9217 0.8087
vt 0.9240 0.8095
vt 0.9222 0.8208
vt 0.9205 0.8206
vt 0.9124 0.8086
vt 0.9147 0.8079
vt 0.9152 0.8206
vt 0.9134 0.8209
vt 0.9080 0.8099
vt 0.9101 0.8094
vt 0.9116 0.8211
vt 0.9098 0.8214
vt 0.9040 0.8107
vt 0.9058 0.8104
vt 0.9080 0.8217
vt 0.9061 0.8219
vt 0.9170 0.8078
vt 0.9142 0.7951
vt 0.9171 0.7951
vt 0.9107 0.8316
vt 0.9123 0.8313
vt 0.9130 0.8414
vt 0.9117 0.8419
vt 0.9171 0.8296
vt 0.9189 0.8289
vt 0.9190 0.8372
vt 0.9173 0.8386
vt 0.9075 0.8321
vt 0.9092 0.8320
vt 0.9103 0.8423
vt 0.9089 0.8423
vt 0.9234 0.8312
vt 0.9249 0.8317
vt 0.9241 0.8419
vt 0.9228 0.8413
vt 0.9204 0.8298
vt 0.9219 0.8307
vt 0.9215 0.8406
vt 0.9203 0.8389
vt 0.9138 0.8308
vt 0.9153 0.8303
vt 0.9155 0.8401
vt 0.9143 0.8407
vt 0.9653 0.7858
vt 0.9664 0.7859
vt 0.9658 0.8042
vt 0.9647 0.8043
vt 0.9627 0.7854
vt 0.9640 0.7858
vt 0.9637 0.8043
vt 0.9625 0.8036
vt 0.9600 0.7857
vt 0.9614 0.7851
vt 0.9614 0.8028
vt 0.9600 0.8038
vt 0.9675 0.7869
vt 0.9685 0.7879
vt 0.9680 0.8050
vt 0.9669 0.8046
vt 0.9726 0.7874
vt 0.9739 0.7873
vt 0.9726 0.8060
vt 0.9715 0.8059
vt 0.9521 0.7782
vt 0.9539 0.7781
vt 0.9533 0.7848
vt 0.9517 0.7853
vt 0.9493 0.7773
vt 0.9505 0.7784
vt 0.9500 0.7858
vt 0.9485 0.7856
vt 0.9700 0.7876
vt 0.9714 0.7874
vt 0.9704 0.8059
vt 0.9692 0.8054
vt 0.9559 0.7782
vt 0.9578 0.7783
vt 0.9572 0.7856
vt 0.9553 0.7852
vt 0.9466 0.7765
vt 0.9482 0.7763
vt 0.9470 0.7854
vt 0.9456 0.7847
vt 0.9471 0.8021
vt 0.9483 0.8023
vt 0.9467 0.8188
vt 0.9456 0.8187
vt 0.9443 0.8015
vt 0.9457 0.8020
vt 0.9445 0.8186
vt 0.9431 0.8183
vt 0.9499 0.8019
vt 0.9513 0.8014
vt 0.9494 0.8180
vt 0.9481 0.8184
vt 0.9532 0.8019
vt 0.9549 0.8024
vt 0.9527 0.8191
vt 0.9511 0.8185
vt 0.9429 0.8010
vt 0.9417 0.8181
vt 0.9441 0.7840
vt 0.9450 0.7766
vt 0.9459 0.7693
vt 0.9477 0.7682
vt 0.9494 0.7672
vt 0.9544 0.7714
vt 0.9564 0.7712
vt 0.9585 0.7710
vt 0.9691 0.7707
vt 0.9708 0.7698
vt 0.9725 0.7689
vt 0.9502 0.7691
vt 0.9509 0.7710
vt 0.9527 0.7712
vt 0.9738 0.7688
vt 0.9751 0.7687
vt 0.9671 0.7676
vt 0.9681 0.7692
vt 0.9586 0.7864
vt 0.9587 0.8049
vt 0.9585 0.7679
vt 0.9599 0.7676
vt 0.9614 0.7673
vt 0.9629 0.7673
vt 0.9644 0.7672
vt 0.9657 0.7674
vt 0.9188 0.8205
vt 0.9059 0.8322
vt 0.9075 0.8423
vt 0.9043 0.8222
vt 0.9170 0.8205
vt 0.9194 0.8078
vt 0.9199 0.7951
vt 0.9022 0.8111
vt 0.9002 0.8000
vt 0.9020 0.7995
vt 0.9037 0.7990
vt 0.9061 0.7983
vt 0.9085 0.7977
vt 0.9114 0.7964
vt 0.9229 0.7966
vt 0.9258 0.7982
vt 0.9283 0.7990
vt 0.9308 0.7997
vt 0.9345 0.7898
vt 0.9381 0.7799
vt 0.9399 0.7768
vt 0.9417 0.7738
vt 0.6066 0.5618
vt 0.6119 0.5598
vt 0.6171 0.5578
vt 0.5950 0.5731
vt 0.5959 0.5697
vt 0.5942 0.5765
vt 0.5952 0.5816
vt 0.5962 0.5866
vt 0.5518 0.5558
vt 0.5509 0.5514
vt 0.5527 0.5601
vt 0.5584 0.5762
vt 0.5546 0.5712
vt 0.5622 0.5812
vt 0.5302 0.5638
vt 0.5308 0.5602
vt 0.5284 0.5778
vt 0.5299 0.5512
vt 0.5343 0.5528
vt 0.5254 0.5496
vt 0.5203 0.5475
vt 0.5152 0.5455
vt 0.5793 0.5599
vt 0.5798 0.5635
vt 0.5789 0.5564
vt 0.5809 0.5530
vt 0.5829 0.5496
vt 0.5899 0.5418
vt 0.5920 0.5470
vt 0.5877 0.5366
vt 0.5251 0.5824
vt 0.5218 0.5870
vt 0.5372 0.5732
vt 0.5965 0.5485
vt 0.6010 0.5500
vt 0.5411 0.5907
vt 0.5492 0.5936
vt 0.5495 0.5706
vt 0.5444 0.5701
vt 0.5408 0.5717
vt 0.5537 0.5656
vt 0.5460 0.5501
vt 0.5412 0.5488
vt 0.5734 0.5638
vt 0.5669 0.5641
vt 0.5378 0.5508
vt 0.5533 0.5450
vt 0.5558 0.5385
vt 0.5913 0.5689
vt 0.5866 0.5682
vt 0.5832 0.5659
vt 0.6038 0.5559
vt 0.5328 0.5755
vt 0.5325 0.5565
vt 0.5875 0.5483
vt 0.5557 0.5874
vn -0.6179 0.0752 -0.7827
vn -0.7499 0.1992 -0.6308
vn -0.5189 0.3770 -0.7672
vn -0.4146 0.5389 -0.7333
vn -0.2749 0.5950 -0.7553
vn -0.3600 0.4212 -0.8325
vn -0.2325 0.1748 -0.9568
vn -0.1999 0.4242 -0.8832
vn -0.1629 0.1375 -0.9770
vn -0.4573 -0.3228 -0.8287
vn -0.3394 -0.4872 -0.8047
vn -0.6185 -0.5474 -0.5637
vn -0.0998 -0.1380 -0.9854
vn -0.2648 -0.1042 -0.9586
vn -0.1113 -0.2731 -0.9555
vn -0.8148 -0.2046 -0.5425
vn -0.8277 0.3206 -0.4607
vn -0.9488 -0.0196 -0.3154
vn -0.9326 0.3162 -0.1738
vn -0.7397 -0.4116 -0.5324
vn 0.6586 0.2075 -0.7233
vn 0.5045 0.4061 -0.7620
vn 0.6321 0.3904 -0.6694
vn 0.3703 0.1676 -0.9137
vn 0.1895 0.4183 -0.8883
vn 0.3595 0.4163 -0.8351
vn 0.7613 0.1998 -0.6169
vn 0.8671 0.2053 -0.4539
vn 0.8388 0.4467 -0.3112
vn 0.9154 0.2146 -0.3405
vn 0.7847 -0.2196 -0.5797
vn 0.7674 -0.4991 -0.4025
vn 0.6160 -0.4906 -0.6163
vn 0.9437 -0.0351 -0.3289
vn 0.8542 -0.0015 -0.5200
vn 0.9128 -0.2469 -0.3254
vn 0.6312 -0.0006 -0.7756
vn 0.5659 0.2001 -0.7998
vn 0.2129 -0.1680 -0.9625
vn 0.2160 0.1476 -0.9652
vn 0.6309 -0.2240 -0.7428
vn 0.7195 0.2748 0.6378
vn 0.7098 0.5709 0.4128
vn 0.5001 0.5890 0.6348
vn 0.4998 0.3101 0.8087
vn 0.2438 0.3508 0.9041
vn 0.0038 0.6256 0.7802
vn 0.1037 0.3795 0.9194
vn 0.5083 -0.1934 0.8392
vn 0.2248 -0.4673 0.8551
vn 0.6371 -0.3568 0.6833
vn 0.0798 -0.0282 0.9964
vn 0.3848 0.0012 0.9230
vn 0.0912 -0.2140 0.9726
vn 0.8625 -0.0402 0.5045
vn 0.8366 0.2591 0.4826
vn 0.9423 0.2690 0.1990
vn 0.9761 0.0049 0.2172
vn 0.9657 0.2464 -0.0826
vn 0.8224 -0.1795 0.5398
vn -0.6619 0.3070 0.6838
vn -0.4914 0.4871 0.7220
vn -0.6558 0.4510 0.6055
vn -0.8167 0.2696 0.5101
vn -0.9051 0.2757 0.3238
vn -0.8671 0.4887 0.0966
vn -0.9265 0.3019 0.2247
vn -0.8266 -0.1330 0.5469
vn -0.8239 -0.3781 0.4222
vn -0.7484 -0.3219 0.5799
vn -0.9544 0.0082 0.2985
vn -0.8813 0.0517 0.4697
vn -0.9161 -0.2090 0.3422
vn -0.6646 0.1101 0.7390
vn -0.6025 0.3454 0.7195
vn -0.6044 0.3612 0.7101
vn -0.6262 0.1103 0.7718
vn -0.5503 0.3714 0.7478
vn -0.6794 -0.0913 0.7280
vn -0.5180 -0.8360 0.1812
vn -0.7686 -0.6316 0.1015
vn -0.5469 -0.8354 -0.0546
vn -0.1946 -0.9800 -0.0415
vn -0.2492 -0.9345 -0.2540
vn -0.0846 -0.9860 -0.1437
vn 0.1825 -0.8959 -0.4050
vn 0.2104 -0.6276 -0.7496
vn 0.3231 -0.7443 -0.5844
vn 0.4725 -0.8294 -0.2980
vn 0.2542 -0.9610 -0.1090
vn 0.3685 -0.9290 -0.0330
vn 0.7486 -0.6606 -0.0568
vn 0.5132 -0.8537 0.0879
vn -0.1036 -0.9851 0.1375
vn -0.2569 -0.9664 0.0124
vn -0.0672 -0.8257 0.5601
vn -0.1702 -0.4681 0.8671
vn -0.3616 -0.6922 0.6246
vn -0.2169 0.9265 0.3075
vn -0.2237 0.6861 0.6923
vn 0.0596 0.8653 0.4976
vn 0.1808 0.9632 -0.1991
vn 0.4792 0.8763 -0.0497
vn 0.3236 0.8743 -0.3618
vn 0.3261 0.8417 -0.4303
vn 0.5179 0.8206 -0.2418
vn 0.4144 0.8046 -0.4252
vn -0.0331 0.8136 -0.5805
vn -0.0812 0.7295 -0.6791
vn -0.2587 0.7047 -0.6606
vn 0.2656 0.7834 -0.5619
vn 0.1917 0.8371 -0.5124
vn -0.1825 0.9045 -0.3855
vn 0.0112 0.9997 -0.0200
vn -0.6014 0.4519 -0.6589
vn -0.4746 0.6391 -0.6053
vn -0.7564 0.5251 -0.3901
vn -0.3880 0.1596 -0.9077
vn -0.5397 -0.1994 -0.8179
vn 0.7737 0.4070 -0.4854
vn 0.7321 0.0104 -0.6811
vn 0.4495 -0.0767 -0.8900
vn 0.4658 -0.2488 -0.8492
vn 0.3898 -0.4864 -0.7819
vn 0.2231 -0.3860 -0.8951
vn 0.8585 0.4938 0.1383
vn 0.2072 0.5999 0.7728
vn 0.6818 -0.0078 0.7315
vn -0.4718 0.5300 0.7047
vn -0.8313 0.4502 0.3259
vn -0.7669 0.0865 0.6359
vn -0.3609 -0.9191 -0.1581
vn -0.5536 -0.7151 0.4268
vn -0.7441 -0.5822 0.3278
vn 0.0340 -0.8396 -0.5421
vn -0.0053 -0.9995 0.0322
vn 0.5840 -0.7966 -0.1560
vn -0.2627 -0.9119 0.3154
vn 0.1012 -0.9741 0.2023
vn 0.3079 0.9276 0.2115
vn -0.5125 0.7673 0.3855
vn 0.0453 0.8816 -0.4697
vn 0.1323 0.7686 -0.6259
vn -0.4368 0.8892 -0.1361
vn -0.2624 0.7981 -0.5424
vn -0.6771 0.1522 0.7199
vn -0.9021 0.1589 0.4012
vn -0.8950 0.1802 0.4081
vn -0.6713 0.1607 0.7235
vn -0.9873 0.1584 0.0084
vn -0.9099 0.1610 -0.3824
vn -0.9029 0.1833 -0.3889
vn -0.9834 0.1815 0.0086
vn 0.4329 0.1572 0.8876
vn -0.1477 0.1634 0.9754
vn -0.1406 0.1546 0.9779
vn 0.4324 0.1523 0.8887
vn 0.4221 0.0985 -0.9012
vn 0.8215 0.1192 -0.5576
vn 0.8269 0.1389 -0.5450
vn 0.4495 0.1311 -0.8836
vn -0.6928 0.1553 -0.7042
vn -0.1418 0.1668 -0.9757
vn -0.1352 0.1568 -0.9783
vn -0.6864 0.1642 -0.7084
vn 0.9859 0.1669 -0.0127
vn 0.8273 0.1699 0.5355
vn 0.8229 0.1652 0.5437
vn 0.9865 0.1636 -0.0103
vn 0.4581 0.1573 -0.8749
vn 0.8272 0.1686 -0.5361
vn 0.8236 0.1650 -0.5427
vn 0.4561 0.1525 -0.8768
vn -0.6649 0.0238 -0.7466
vn -0.1369 0.0760 -0.9877
vn -0.1415 0.1375 -0.9803
vn -0.6927 0.1015 -0.7141
vn -0.6451 0.0400 0.7630
vn -0.8985 0.0061 0.4390
vn -0.9069 0.0864 0.4124
vn -0.6756 0.1008 0.7303
vn 0.3946 0.1161 0.9115
vn -0.1415 0.0947 0.9854
vn -0.1475 0.1347 0.9798
vn 0.4232 0.1315 0.8965
vn 0.9915 0.1291 -0.0139
vn 0.8196 0.1321 0.5574
vn 0.8278 0.1409 0.5431
vn 0.9906 0.1358 -0.0147
vn -0.9999 -0.0101 0.0122
vn -0.9104 -0.0027 -0.4137
vn -0.9156 0.0871 -0.3926
vn -0.9967 0.0811 0.0088
vn -0.5336 -0.1970 -0.8225
vn -0.8361 -0.2752 -0.4745
vn -0.7895 -0.3546 -0.5010
vn -0.4804 -0.2164 -0.8499
vn 0.4123 0.1408 -0.9001
vn -0.0636 -0.0351 -0.9974
vn -0.0161 0.0165 -0.9997
vn 0.4297 0.2399 -0.8705
vn 0.3664 0.2634 0.8924
vn 0.7588 0.3839 0.5261
vn 0.7497 0.4474 0.4877
vn 0.3940 0.2707 0.8783
vn -0.5586 -0.0771 0.8259
vn -0.1040 0.1040 0.9891
vn -0.0528 0.0523 0.9972
vn -0.5010 -0.1762 0.8473
vn -0.9599 -0.2802 -0.0001
vn -0.8535 -0.2059 0.4786
vn -0.8085 -0.3360 0.4831
vn -0.9161 -0.4009 -0.0097
vn 0.9176 0.3973 -0.0124
vn 0.7954 0.2562 0.5493
vn 0.9659 0.2587 -0.0135
vn -0.4663 -0.2051 0.8605
vn -0.0440 0.0254 0.9987
vn -0.0474 0.1562 0.9866
vn -0.4754 -0.0105 0.8797
vn 0.8670 0.4973 -0.0304
vn 0.7336 0.4581 -0.5020
vn 0.8169 0.0457 -0.5749
vn 0.9205 -0.0371 0.3891
vn -0.8945 -0.4470 0.0069
vn -0.7808 -0.3770 0.4983
vn -0.8290 -0.1872 0.5270
vn -0.9542 -0.2976 0.0294
vn -0.4363 -0.2134 -0.8741
vn -0.7913 -0.4006 -0.4619
vn -0.8529 -0.3267 -0.4072
vn -0.4394 -0.2638 -0.8587
vn 0.4630 0.3003 -0.8340
vn 0.0700 0.0657 -0.9954
vn 0.1202 -0.0228 -0.9925
vn 0.4596 0.1288 -0.8787
vn 0.3632 0.2370 0.9011
vn 0.7378 0.4193 0.5290
vn 0.1980 0.1671 0.9658
vn 0.3417 0.2816 0.8966
vn 0.4679 0.3345 0.8180
vn 0.8057 0.3329 0.4899
vn 0.8940 0.2734 0.3549
vn 0.5509 0.3342 0.7648
vn -0.4151 0.1818 0.8914
vn 0.0611 0.2924 0.9543
vn 0.1478 0.3157 0.9373
vn -0.3260 0.2298 0.9170
vn -0.9875 -0.1439 0.0641
vn -0.8329 0.0103 0.5533
vn -0.8219 0.0506 0.5673
vn -0.9910 -0.1274 0.0419
vn 0.9759 0.1925 -0.1026
vn 0.8438 0.0212 -0.5362
vn 0.8050 -0.0295 -0.5925
vn 0.9740 0.1218 -0.1913
vn -0.5337 -0.2962 -0.7921
vn -0.8969 -0.2421 -0.3702
vn -0.8951 -0.2335 -0.3798
vn -0.6440 -0.2894 -0.7082
vn -0.4177 0.4114 0.8101
vn -0.0943 -0.2551 0.9623
vn 0.0398 -0.4472 0.8936
vn -0.6055 0.2022 0.7697
vn -0.0495 0.7309 -0.6807
vn -0.3970 0.8947 0.2047
vn -0.7685 0.5932 0.2399
vn -0.5525 0.7302 -0.4019
vn 0.6061 -0.0919 -0.7900
vn 0.1323 -0.2191 -0.9667
vn -0.1222 -0.2780 -0.9528
vn 0.5043 -0.1532 -0.8498
vn 0.3892 -0.7258 0.5673
vn 0.6672 -0.6381 -0.3842
vn 0.7515 -0.5444 -0.3727
vn 0.5587 -0.7301 0.3935
vn 0.3571 -0.0783 -0.9308
vn 0.1875 0.2342 -0.9540
vn -0.0327 0.4832 -0.8749
vn 0.4391 0.0309 -0.8979
vn -0.6766 0.6376 -0.3684
vn -0.8688 0.4380 0.2310
vn -0.8786 0.4404 0.1845
vn -0.6828 0.6245 -0.3790
vn 0.5059 0.1399 -0.8512
vn -0.1264 0.5393 -0.8326
vn -0.1586 0.5506 -0.8196
vn 0.4711 0.1930 -0.8607
vn -0.6675 0.0439 0.7433
vn 0.0374 -0.4783 0.8774
vn 0.0433 -0.4816 0.8753
vn -0.6803 0.0321 0.7322
vn 0.6729 -0.6338 0.3815
vn 0.8670 -0.3836 -0.3181
vn 0.8689 -0.3053 -0.3896
vn 0.7024 -0.6138 0.3604
vn 0.7007 0.5362 -0.4706
vn 0.5533 0.1520 -0.8190
vn 0.5316 0.6447 0.5493
vn 0.7528 0.4115 -0.5137
vn 0.8703 0.4919 -0.0252
vn 0.7819 0.3084 -0.5417
vn 0.8071 0.2077 -0.5527
vn -0.8848 -0.1395 -0.4446
vn -0.9899 -0.1411 0.0140
vn -0.8757 -0.0922 0.4739
vn -0.5969 -0.0133 0.8022
vn -0.1164 0.1079 0.9873
vn 0.3736 0.1935 0.9072
vn 0.4055 0.1110 -0.9073
vn -0.1039 0.0109 -0.9945
vn -0.6068 -0.0953 -0.7891
vn -0.6341 0.7085 -0.3097
vn -0.7515 0.6569 0.0613
vn -0.6714 0.5900 0.4485
vn 0.1365 0.6026 -0.7863
vn -0.0547 0.5642 -0.8238
vn 0.2941 0.6047 -0.7401
vn 0.4101 0.6224 -0.6667
vn 0.5937 0.6130 -0.5213
vn 0.5551 0.7747 0.3027
vn 0.7327 0.6804 -0.0142
vn 0.2717 0.7632 0.5863
vn -0.4369 0.5673 0.6980
vn -0.2663 0.6049 0.7504
vn 0.3173 -0.7684 0.5557
vn 0.6615 -0.6449 0.3827
vn -0.6225 -0.5317 0.5742
vn 0.8249 -0.5378 -0.1740
vn 0.9635 -0.2572 0.0738
vn 0.6620 -0.7009 -0.2654
vn 0.5638 -0.7005 -0.4374
vn 0.3940 -0.6536 -0.6462
vn 0.0848 -0.4958 -0.8643
vn 0.0998 -0.3720 -0.9228
vn -0.1788 -0.7518 -0.6347
vn -0.4591 -0.7791 -0.4270
vn -0.5823 -0.7640 -0.2780
vn -0.8564 -0.4404 0.2694
vn -0.9381 -0.3417 -0.0574
vn -0.7926 -0.4763 0.3807
vn -0.7539 -0.5031 0.4225
vn -0.3910 -0.1728 0.9040
vn -0.9967 0.0404 0.0697
vn -0.9491 0.3063 0.0735
vn -0.2148 0.6166 0.7574
vn -0.2354 0.3673 0.8998
vn -0.2910 0.0229 0.9564
vn -0.0354 0.6690 0.7424
vn 0.8872 0.4239 -0.1821
vn 0.9451 0.2281 -0.2340
vn 0.2060 -0.5697 -0.7956
vn 0.9876 0.0065 -0.1568
vn 0.6935 0.6595 -0.2899
vn 0.0108 0.3713 -0.9285
vn 0.0164 0.1169 -0.9930
vn 0.0191 -0.1483 -0.9888
vn -0.8752 0.4821 -0.0400
vn -0.5226 -0.3785 0.7640
vn 0.8566 -0.4494 0.2537
vn -0.7739 -0.5915 -0.2263
usemtl None
s 1
f 1/1/1 148/2/2 204/3/3
f 3/4/4 254/5/5 311/6/6
f 5/7/7 198/8/8 137/9/9
f 7/10/10 249/11/11 302/12/12
f 5/7/7 132/13/13 185/14/14
f 7/10/10 122/15/15 249/11/11
f 1/1/1 176/16/16 148/2/2
f 2/17/17 284/18/18 121/19/19
f 7/10/10 302/12/12 170/20/20
f 13/21/21 125/22/22 174/23/23
f 16/24/24 117/25/25 119/26/26
f 13/27/21 174/28/23 277/29/27
f 17/30/28 319/31/29 142/32/30
f 20/33/31 139/34/32 183/35/33
f 17/30/28 131/36/34 191/37/35
f 20/33/31 241/38/36 139/34/32
f 13/21/21 197/39/37 231/40/38
f 16/24/24 104/41/39 127/42/40
f 20/43/31 183/44/33 305/45/41
f 25/46/42 129/47/43 102/48/44
f 25/46/42 102/48/44 151/49/45
f 27/50/46 203/51/47 256/52/48
f 30/53/49 266/54/50 101/55/51
f 27/50/46 253/56/52 318/57/53
f 30/53/49 154/58/54 266/54/50
f 25/46/42 240/59/55 219/60/56
f 34/61/57 216/62/58 212/63/59
f 30/53/49 101/55/51 295/64/60
f 35/65/61 187/66/62 247/67/63
f 35/65/61 247/67/63 178/68/64
f 37/69/65 126/70/66 291/71/67
f 39/72/68 239/73/69 175/74/70
f 37/69/65 173/75/71 282/76/72
f 39/77/68 281/78/73 239/79/69
f 35/65/61 304/80/74 118/81/75
f 42/82/76 116/83/77 242/84/78
f 39/72/68 175/74/70 287/85/79
f 43/86/80 286/87/81 299/88/82
f 44/89/83 245/90/84 267/91/85
f 45/92/86 298/93/87 100/94/88
f 45/95/86 207/96/89 113/97/90
f 46/98/91 264/99/92 145/100/93
f 44/101/83 143/102/94 215/103/95
f 31/104/96 268/105/97 182/106/98
f 47/107/99 189/108/100 186/109/101
f 48/110/102 244/111/103 279/112/104
f 49/113/105 309/114/106 195/115/107
f 50/116/108 120/117/109 232/118/110
f 49/119/105 303/120/111 159/121/112
f 48/122/102 110/123/113 230/124/114
f 3/4/4 320/125/115 258/126/116
f 2/17/17 121/19/19 153/127/117
f 1/1/1 204/3/3 312/128/118
f 1/1/1 312/128/118 188/129/119
f 5/7/7 137/9/9 132/13/13
f 1/1/1 188/129/119 176/16/16
f 13/21/21 231/40/38 125/22/22
f 16/24/24 127/42/40 117/25/25
f 17/30/28 289/130/120 319/31/29
f 13/27/21 277/29/27 196/131/121
f 17/30/28 142/32/30 131/36/34
f 13/21/21 196/132/121 197/39/37
f 16/24/24 97/133/122 104/41/39
f 24/134/123 288/135/124 322/136/125
f 25/46/42 219/60/56 129/47/43
f 34/61/57 212/63/59 99/137/126
f 27/50/46 262/138/127 203/51/47
f 25/46/42 151/49/45 316/139/128
f 27/50/46 256/52/48 253/56/52
f 25/46/42 316/139/128 240/59/55
f 35/65/61 118/81/75 187/66/62
f 42/82/76 242/84/78 150/140/129
f 37/69/65 300/141/130 126/70/66
f 35/65/61 178/68/64 290/142/131
f 37/69/65 291/71/67 173/75/71
f 35/65/61 290/142/131 304/80/74
f 44/89/83 215/143/95 130/144/132
f 43/145/80 269/146/133 158/147/134
f 43/86/80 158/148/134 286/87/81
f 44/89/83 130/144/132 245/90/84
f 45/92/86 310/149/135 298/93/87
f 44/101/83 267/150/85 202/151/136
f 45/95/86 100/152/88 207/96/89
f 46/98/91 270/153/137 264/99/92
f 44/101/83 202/151/136 143/102/94
f 43/145/80 313/154/138 269/146/133
f 46/98/91 145/100/93 257/155/139
f 48/110/102 230/156/114 236/157/140
f 47/107/99 156/158/141 189/108/100
f 48/110/102 236/157/140 244/111/103
f 48/122/102 279/159/104 172/160/142
f 49/119/105 195/161/107 303/120/111
f 50/116/108 317/162/143 120/117/109
f 48/122/102 172/160/142 110/123/113
f 47/163/99 165/164/144 156/165/141
f 50/116/108 232/118/110 211/166/145
f 361/167/146 96/168/147 53/169/148 144/170/149
f 360/171/150 260/172/151 56/173/152 251/174/153
f 359/175/154 141/176/155 54/177/156 233/178/157
f 358/179/158 107/180/159 61/181/160 171/182/161
f 357/183/162 227/184/163 63/185/164 190/186/165
f 356/187/166 164/188/167 58/189/168 147/190/169
f 355/191/170 276/192/171 64/193/172 285/194/173
f 354/195/174 149/196/175 62/197/176 136/198/177
f 353/199/178 229/200/179 52/201/180 265/202/181
f 352/203/182 162/204/183 51/205/184 201/206/185
f 351/207/186 98/208/187 57/209/188 218/210/189
f 350/211/190 194/212/191 55/213/192 200/214/193
f 349/215/194 280/216/195 69/217/196 114/218/197
f 348/219/198 193/220/199 70/221/200 272/222/201
f 347/223/202 105/224/203 72/225/204 155/226/205
f 346/227/206 163/228/207 73/229/208 103/230/209
f 345/231/210 109/232/211 74/233/212 321/234/213
f 344/235/214 105/224/203 68/236/215 205/237/216
f 343/238/217 152/239/218 75/240/219 199/241/220
f 342/242/221 263/243/222 77/244/223 106/245/224
f 341/246/225 315/247/226 76/248/227 259/249/228
f 340/250/229 160/251/230 79/252/231 217/253/232
f 339/254/233 108/255/234 80/256/235 208/257/236
f 338/258/237 184/259/238 78/260/239 307/261/240
f 337/262/241 157/263/242 81/264/243 293/265/244
f 336/266/245 271/267/246 82/268/247 238/269/248
f 335/270/249 222/271/250 83/272/251 161/273/252
f 334/274/253 274/275/254 86/276/255 275/277/256
f 333/278/257 168/279/258 84/280/259 210/281/260
f 332/282/261 292/283/262 88/284/263 138/285/264
f 331/286/265 209/287/266 89/288/267 306/289/268
f 330/290/269 180/291/270 87/292/271 214/293/272
f 329/294/273 133/295/274 91/296/275 221/297/276
f 328/298/277 134/299/278 90/300/279 250/301/280
f 327/302/281 177/303/282 92/304/283 140/305/284
f 326/306/285 123/307/286 93/308/287 314/309/288
f 325/310/289 223/311/290 95/312/291 237/313/292
f 324/314/293 278/315/294 94/316/295 243/317/296
f 223/311/290 324/314/293 243/317/296 95/312/291
f 88/284/263 221/297/276 324/314/293 223/311/290
f 221/297/276 91/296/275 278/315/294 324/314/293
f 177/303/282 325/310/289 237/313/292 92/304/283
f 89/288/267 138/285/264 325/310/289 177/303/282
f 138/285/264 88/284/263 223/311/290 325/310/289
f 278/318/294 326/306/285 314/309/288 94/319/295
f 91/320/275 250/301/280 326/306/285 278/318/294
f 250/301/280 90/300/279 123/307/286 326/306/285
f 123/307/286 327/302/281 140/305/284 93/308/287
f 90/300/279 306/289/268 327/302/281 123/307/286
f 306/289/268 89/288/267 177/303/282 327/302/281
f 133/321/274 328/298/277 250/301/280 91/320/275
f 77/322/223 208/323/236 328/298/277 133/321/274
f 208/323/236 80/324/235 134/299/278 328/298/277
f 292/283/262 329/294/273 221/297/276 88/284/263
f 78/325/239 106/326/224 329/294/273 292/283/262
f 106/326/224 77/327/223 133/295/274 329/294/273
f 274/275/254 330/290/269 214/293/272 86/276/255
f 85/328/297 296/329/298 330/290/269 274/275/254
f 296/329/298 80/330/235 180/291/270 330/290/269
f 134/299/278 331/286/265 306/289/268 90/300/279
f 80/324/235 296/331/298 331/286/265 134/299/278
f 296/331/298 85/332/297 209/287/266 331/286/265
f 209/287/266 332/282/261 138/285/264 89/288/267
f 85/332/297 112/333/299 332/282/261 209/287/266
f 112/333/299 78/325/239 292/283/262 332/282/261
f 180/291/270 333/278/257 210/281/260 87/292/271
f 80/330/235 217/334/232 333/278/257 180/291/270
f 217/334/232 79/335/231 168/279/258 333/278/257
f 157/263/242 334/274/253 275/277/256 81/264/243
f 78/336/239 112/337/299 334/274/253 157/263/242
f 112/337/299 85/328/297 274/275/254 334/274/253
f 168/338/258 335/270/249 161/273/252 84/339/259
f 79/340/231 259/341/228 335/270/249 168/338/258
f 259/341/228 76/342/227 222/271/250 335/270/249
f 222/271/250 336/266/245 238/269/248 83/272/251
f 76/342/227 199/343/220 336/266/245 222/271/250
f 199/343/220 75/344/219 271/267/246 336/266/245
f 271/267/246 337/262/241 293/265/244 82/268/247
f 75/344/219 307/345/240 337/262/241 271/267/246
f 307/345/240 78/336/239 157/263/242 337/262/241
f 152/239/218 338/258/237 307/261/240 75/240/219
f 73/229/208 155/226/205 338/258/237 152/239/218
f 155/226/205 72/225/204 184/259/238 338/258/237
f 263/243/222 339/254/233 208/257/236 77/244/223
f 71/346/300 272/222/201 339/254/233 263/243/222
f 272/222/201 70/221/200 108/255/234 339/254/233
f 108/255/234 340/250/229 217/253/232 80/256/235
f 70/221/200 114/218/197 340/250/229 108/255/234
f 114/218/197 69/217/196 160/251/230 340/250/229
f 160/347/230 341/246/225 259/249/228 79/348/231
f 69/349/196 321/234/213 341/246/225 160/347/230
f 321/234/213 74/233/212 315/247/226 341/246/225
f 184/259/238 342/242/221 106/245/224 78/260/239
f 72/225/204 226/350/301 342/242/221 184/259/238
f 226/350/301 71/346/300 263/243/222 342/242/221
f 315/247/226 343/238/217 199/241/220 76/248/227
f 74/233/212 103/230/209 343/238/217 315/247/226
f 103/230/209 73/229/208 152/239/218 343/238/217
f 255/351/302 344/235/214 205/237/216 60/352/303
f 71/346/300 226/350/301 344/235/214 255/351/302
f 226/350/301 72/225/204 105/224/203 344/235/214
f 280/353/195 345/231/210 321/234/213 69/349/196
f 65/354/304 181/355/305 345/231/210 280/353/195
f 181/355/305 67/356/306 109/232/211 345/231/210
f 109/232/211 346/227/206 103/230/209 74/233/212
f 67/356/306 301/357/307 346/227/206 109/232/211
f 301/357/307 66/358/308 163/228/207 346/227/206
f 163/228/207 347/223/202 155/226/205 73/229/208
f 66/358/308 115/359/309 347/223/202 163/228/207
f 115/359/309 68/236/215 105/224/203 347/223/202
f 255/351/302 348/219/198 272/222/201 71/346/300
f 60/352/303 273/360/310 348/219/198 255/351/302
f 273/360/310 59/361/311 193/220/199 348/219/198
f 193/220/199 349/215/194 114/218/197 70/221/200
f 59/361/311 213/362/312 349/215/194 193/220/199
f 213/362/312 65/363/304 280/216/195 349/215/194
f 229/200/179 350/211/190 200/214/193 52/201/180
f 67/356/306 181/355/305 350/211/190 229/200/179
f 181/355/305 65/354/304 194/212/191 350/211/190
f 107/180/159 351/207/186 218/210/189 61/181/160
f 60/352/303 205/237/216 351/207/186 107/180/159
f 205/237/216 68/236/215 98/208/187 351/207/186
f 98/208/187 352/203/182 201/206/185 57/209/188
f 68/236/215 115/359/309 352/203/182 98/208/187
f 115/359/309 66/358/308 162/204/183 352/203/182
f 162/204/183 353/199/178 265/202/181 51/205/184
f 66/358/308 301/357/307 353/199/178 162/204/183
f 301/357/307 67/356/306 229/200/179 353/199/178
f 194/364/191 354/195/174 136/198/177 55/365/192
f 65/363/304 213/362/312 354/195/174 194/364/191
f 213/362/312 59/361/311 149/196/175 354/195/174
f 227/184/163 355/191/170 285/194/173 63/185/164
f 62/197/176 171/182/161 355/191/170 227/184/163
f 171/182/161 61/181/160 276/192/171 355/191/170
f 276/192/171 356/187/166 147/190/169 64/193/172
f 61/181/160 218/210/189 356/187/166 276/192/171
f 218/210/189 57/209/188 164/188/167 356/187/166
f 260/366/151 357/183/162 190/186/165 56/367/152
f 55/365/192 136/198/177 357/183/162 260/366/151
f 136/198/177 62/197/176 227/184/163 357/183/162
f 149/196/175 358/179/158 171/182/161 62/197/176
f 59/361/311 273/360/310 358/179/158 149/196/175
f 273/360/310 60/352/303 107/180/159 358/179/158
f 164/188/167 359/175/154 233/178/157 58/189/168
f 57/209/188 201/206/185 359/175/154 164/188/167
f 201/206/185 51/205/184 141/176/155 359/175/154
f 96/168/147 360/171/150 251/174/153 53/169/148
f 52/201/180 200/214/193 360/171/150 96/168/147
f 200/214/193 55/213/192 260/172/151 360/171/150
f 141/176/155 361/167/146 144/170/149 54/177/156
f 51/205/184 265/202/181 361/167/146 141/176/155
f 265/202/181 52/201/180 96/168/147 361/167/146
f 211/166/145 258/126/116 38/368/313
f 211/166/145 232/118/110 258/126/116
f 232/118/110 3/4/4 258/126/116
f 156/165/141 234/369/314 36/370/315
f 156/165/141 165/164/144 234/369/314
f 165/164/144 38/368/313 234/369/314
f 110/123/113 211/166/145 38/368/313
f 110/123/113 172/160/142 211/166/145
f 172/160/142 50/116/108 211/166/145
f 120/117/109 224/371/316 4/372/317
f 120/117/109 317/162/143 224/371/316
f 317/162/143 14/373/318 224/371/316
f 303/120/111 283/374/319 14/373/318
f 303/120/111 195/161/107 283/374/319
f 195/161/107 15/375/320 283/374/319
f 172/160/142 159/121/112 50/116/108
f 172/160/142 279/159/104 159/121/112
f 279/159/104 49/119/105 159/121/112
f 244/111/103 166/376/321 18/377/322
f 244/111/103 236/157/140 166/376/321
f 236/157/140 26/378/323 166/376/321
f 189/108/100 246/379/324 28/380/325
f 189/108/100 156/158/141 246/379/324
f 156/158/141 36/381/315 246/379/324
f 236/157/140 186/109/101 26/378/323
f 236/157/140 230/156/114 186/109/101
f 230/156/114 47/107/99 186/109/101
f 257/155/139 220/382/326 31/104/96
f 257/155/139 145/100/93 220/382/326
f 145/100/93 32/383/327 220/382/326
f 269/146/133 182/106/98 41/384/328
f 269/146/133 313/154/138 182/106/98
f 313/154/138 31/104/96 182/106/98
f 143/102/94 257/155/139 31/104/96
f 143/102/94 202/151/136 257/155/139
f 202/151/136 46/98/91 257/155/139
f 264/99/92 128/385/329 23/386/330
f 264/99/92 270/153/137 128/385/329
f 270/153/137 21/387/331 128/385/329
f 207/96/89 297/388/332 21/387/331
f 207/96/89 100/152/88 297/388/332
f 100/152/88 22/389/333 297/388/332
f 202/151/136 113/97/90 46/98/91
f 202/151/136 267/150/85 113/97/90
f 267/150/85 45/95/86 113/97/90
f 298/93/87 228/390/334 10/391/335
f 298/93/87 310/149/135 228/390/334
f 310/149/135 8/392/336 228/390/334
f 245/90/84 192/393/337 8/392/336
f 245/90/84 130/144/132 192/393/337
f 130/144/132 9/394/338 192/393/337
f 286/87/81 124/395/339 11/396/340
f 286/87/81 158/148/134 124/395/339
f 158/148/134 40/397/341 124/395/339
f 158/147/134 294/398/342 40/399/341
f 158/147/134 269/146/133 294/398/342
f 269/146/133 41/384/328 294/398/342
f 130/144/132 299/88/82 9/394/338
f 130/144/132 215/143/95 299/88/82
f 215/143/95 43/86/80 299/88/82
f 304/80/74 287/85/79 33/400/343
f 304/80/74 290/142/131 287/85/79
f 290/142/131 39/72/68 287/85/79
f 173/75/71 225/401/344 11/396/340
f 173/75/71 291/71/67 225/401/344
f 291/71/67 12/402/345 225/401/344
f 290/142/131 282/403/72 39/72/68
f 290/142/131 178/68/64 282/403/72
f 178/68/64 37/404/65 282/403/72
f 126/70/66 234/369/314 38/368/313
f 126/70/66 300/141/130 234/369/314
f 300/141/130 36/370/315 234/369/314
f 150/140/129 146/405/346 28/380/325
f 150/140/129 242/84/78 146/405/346
f 242/84/78 29/406/347 146/405/346
f 187/66/62 150/140/129 28/380/325
f 187/66/62 118/81/75 150/140/129
f 118/81/75 42/82/76 150/140/129
f 240/59/55 295/64/60 23/386/330
f 240/59/55 316/139/128 295/64/60
f 316/139/128 30/53/49 295/64/60
f 253/56/52 261/407/348 33/400/343
f 253/56/52 256/52/48 261/407/348
f 256/52/48 29/406/347 261/407/348
f 316/139/128 318/57/53 30/53/49
f 316/139/128 151/49/45 318/57/53
f 151/49/45 27/50/46 318/57/53
f 203/51/47 323/408/349 28/380/325
f 203/51/47 262/138/127 323/408/349
f 262/138/127 26/378/323 323/408/349
f 99/137/126 252/409/350 18/377/322
f 99/137/126 212/63/59 252/409/350
f 212/63/59 19/410/351 252/409/350
f 129/47/43 99/137/126 18/377/322
f 129/47/43 219/60/56 99/137/126
f 219/60/56 34/61/57 99/137/126
f 322/136/125 206/411/352 10/391/335
f 322/136/125 288/135/124 206/411/352
f 288/135/124 22/412/333 206/411/352
f 104/41/39 322/136/125 10/391/335
f 104/41/39 97/133/122 322/136/125
f 97/133/122 24/134/123 322/136/125
f 197/39/37 305/45/41 24/134/123
f 197/39/37 196/132/121 305/45/41
f 196/132/121 20/43/31 305/45/41
f 131/36/34 135/413/353 23/386/330
f 131/36/34 142/32/30 135/413/353
f 142/32/30 19/410/351 135/413/353
f 196/131/121 191/37/35 20/33/31
f 196/131/121 277/29/27 191/37/35
f 277/29/27 17/30/28 191/37/35
f 319/31/29 308/414/354 18/377/322
f 319/31/29 289/130/120 308/414/354
f 289/130/120 15/415/320 308/414/354
f 117/25/25 248/416/355 4/372/317
f 117/25/25 127/42/40 248/416/355
f 127/42/40 6/417/356 248/416/355
f 125/22/22 119/26/26 14/373/318
f 125/22/22 231/40/38 119/26/26
f 231/40/38 16/24/24 119/26/26
f 176/16/16 170/20/20 11/396/340
f 176/16/16 188/129/119 170/20/20
f 188/129/119 7/10/10 170/20/20
f 132/13/13 235/418/357 10/391/335
f 132/13/13 137/9/9 235/418/357
f 137/9/9 6/417/356 235/418/357
f 188/129/119 185/14/14 7/10/10
f 188/129/119 312/128/118 185/14/14
f 312/128/118 5/7/7 185/14/14
f 312/128/118 311/6/6 5/7/7
f 312/128/118 204/3/3 311/6/6
f 204/3/3 3/4/4 311/6/6
f 153/127/117 111/419/358 38/368/313
f 153/127/117 121/19/19 111/419/358
f 121/19/19 12/402/345 111/419/358
f 258/126/116 153/127/117 38/368/313
f 258/126/116 320/125/115 153/127/117
f 320/125/115 2/17/17 153/127/117
f 230/124/114 165/164/144 47/163/99
f 230/124/114 110/123/113 165/164/144
f 110/123/113 38/368/313 165/164/144
f 159/121/112 317/162/143 50/116/108
f 159/121/112 303/120/111 317/162/143
f 303/120/111 14/373/318 317/162/143
f 232/118/110 254/5/5 3/4/4
f 232/118/110 120/117/109 254/5/5
f 120/117/109 4/372/317 254/5/5
f 195/115/107 308/414/354 15/415/320
f 195/115/107 309/114/106 308/414/354
f 309/114/106 18/377/322 308/414/354
f 279/112/104 309/114/106 49/113/105
f 279/112/104 244/111/103 309/114/106
f 244/111/103 18/377/322 309/114/106
f 186/109/101 323/408/349 26/378/323
f 186/109/101 189/108/100 323/408/349
f 189/108/100 28/380/325 323/408/349
f 182/106/98 169/420/359 41/384/328
f 182/106/98 268/105/97 169/420/359
f 268/105/97 33/400/343 169/420/359
f 215/103/95 313/154/138 43/145/80
f 215/103/95 143/102/94 313/154/138
f 143/102/94 31/104/96 313/154/138
f 145/100/93 179/421/360 32/383/327
f 145/100/93 264/99/92 179/421/360
f 264/99/92 23/386/330 179/421/360
f 113/97/90 270/153/137 46/98/91
f 113/97/90 207/96/89 270/153/137
f 207/96/89 21/387/331 270/153/137
f 100/94/88 206/411/352 22/412/333
f 100/94/88 298/93/87 206/411/352
f 298/93/87 10/391/335 206/411/352
f 267/91/85 310/149/135 45/92/86
f 267/91/85 245/90/84 310/149/135
f 245/90/84 8/392/336 310/149/135
f 299/88/82 167/422/361 9/394/338
f 299/88/82 286/87/81 167/422/361
f 286/87/81 11/396/340 167/422/361
f 287/85/79 169/420/359 33/400/343
f 287/85/79 175/74/70 169/420/359
f 175/74/70 41/384/328 169/420/359
f 242/84/78 261/407/348 29/406/347
f 242/84/78 116/83/77 261/407/348
f 116/83/77 33/400/343 261/407/348
f 118/81/75 116/83/77 42/82/76
f 118/81/75 304/80/74 116/83/77
f 304/80/74 33/400/343 116/83/77
f 239/79/69 124/395/339 40/397/341
f 239/79/69 281/78/73 124/395/339
f 281/78/73 11/396/340 124/395/339
f 282/76/72 281/78/73 39/77/68
f 282/76/72 173/75/71 281/78/73
f 173/75/71 11/396/340 281/78/73
f 175/74/70 294/398/342 41/384/328
f 175/74/70 239/73/69 294/398/342
f 239/73/69 40/399/341 294/398/342
f 291/71/67 111/419/358 12/402/345
f 291/71/67 126/70/66 111/419/358
f 126/70/66 38/368/313 111/419/358
f 178/68/64 300/423/130 37/404/65
f 178/68/64 247/67/63 300/423/130
f 247/67/63 36/381/315 300/423/130
f 247/67/63 246/379/324 36/381/315
f 247/67/63 187/66/62 246/379/324
f 187/66/62 28/380/325 246/379/324
f 295/64/60 179/421/360 23/386/330
f 295/64/60 101/55/51 179/421/360
f 101/55/51 32/383/327 179/421/360
f 212/63/59 135/413/353 19/410/351
f 212/63/59 216/62/58 135/413/353
f 216/62/58 23/386/330 135/413/353
f 219/60/56 216/62/58 34/61/57
f 219/60/56 240/59/55 216/62/58
f 240/59/55 23/386/330 216/62/58
f 266/54/50 268/105/97 31/104/96
f 266/54/50 154/58/54 268/105/97
f 154/58/54 33/400/343 268/105/97
f 318/57/53 154/58/54 30/53/49
f 318/57/53 253/56/52 154/58/54
f 253/56/52 33/400/343 154/58/54
f 101/55/51 220/382/326 32/383/327
f 101/55/51 266/54/50 220/382/326
f 266/54/50 31/104/96 220/382/326
f 256/52/48 146/405/346 29/406/347
f 256/52/48 203/51/47 146/405/346
f 203/51/47 28/380/325 146/405/346
f 151/49/45 262/138/127 27/50/46
f 151/49/45 102/48/44 262/138/127
f 102/48/44 26/378/323 262/138/127
f 102/48/44 166/376/321 26/378/323
f 102/48/44 129/47/43 166/376/321
f 129/47/43 18/377/322 166/376/321
f 305/45/41 288/135/124 24/134/123
f 305/45/41 183/44/33 288/135/124
f 183/44/33 22/412/333 288/135/124
f 127/42/40 235/418/357 6/417/356
f 127/42/40 104/41/39 235/418/357
f 104/41/39 10/391/335 235/418/357
f 231/40/38 97/133/122 16/24/24
f 231/40/38 197/39/37 97/133/122
f 197/39/37 24/134/123 97/133/122
f 139/34/32 128/385/329 21/387/331
f 139/34/32 241/38/36 128/385/329
f 241/38/36 23/386/330 128/385/329
f 191/37/35 241/38/36 20/33/31
f 191/37/35 131/36/34 241/38/36
f 131/36/34 23/386/330 241/38/36
f 183/35/33 297/388/332 22/389/333
f 183/35/33 139/34/32 297/388/332
f 139/34/32 21/387/331 297/388/332
f 142/32/30 252/409/350 19/410/351
f 142/32/30 319/31/29 252/409/350
f 319/31/29 18/377/322 252/409/350
f 277/29/27 289/130/120 17/30/28
f 277/29/27 174/28/23 289/130/120
f 174/28/23 15/415/320 289/130/120
f 119/26/26 224/371/316 14/373/318
f 119/26/26 117/25/25 224/371/316
f 117/25/25 4/372/317 224/371/316
f 174/23/23 283/374/319 15/375/320
f 174/23/23 125/22/22 283/374/319
f 125/22/22 14/373/318 283/374/319
f 170/20/20 167/422/361 11/396/340
f 170/20/20 302/12/12 167/422/361
f 302/12/12 9/394/338 167/422/361
f 121/19/19 225/401/344 12/402/345
f 121/19/19 284/18/18 225/401/344
f 284/18/18 11/396/340 225/401/344
f 148/2/2 284/18/18 2/17/17
f 148/2/2 176/16/16 284/18/18
f 176/16/16 11/396/340 284/18/18
f 249/11/11 228/390/334 8/392/336
f 249/11/11 122/15/15 228/390/334
f 122/15/15 10/391/335 228/390/334
f 185/14/14 122/15/15 7/10/10
f 185/14/14 132/13/13 122/15/15
f 132/13/13 10/391/335 122/15/15
f 302/12/12 192/393/337 9/394/338
f 302/12/12 249/11/11 192/393/337
f 249/11/11 8/392/336 192/393/337
f 137/9/9 248/416/355 6/417/356
f 137/9/9 198/8/8 248/416/355
f 198/8/8 4/372/317 248/416/355
f 311/6/6 198/8/8 5/7/7
f 311/6/6 254/5/5 198/8/8
f 254/5/5 4/372/317 198/8/8
f 204/3/3 320/125/115 3/4/4
f 204/3/3 148/2/2 320/125/115
f 148/2/2 2/17/17 320/125/115
