# Blender v2.78 (sub 0) OBJ File: ''
# www.blender.org
mtllib Oak_Tree_crk_l_03.mtl
o Oak_Tree_crk_l_03
v 3.026008 -0.181687 5.794090
v 2.201688 -0.035038 6.384791
v 1.197529 -0.084632 4.858031
v 4.595146 -0.024666 5.346243
v 5.584821 0.102477 4.283995
v 5.326819 0.051729 6.152183
v 2.938038 -0.173145 4.440865
v 3.922927 0.225057 7.237664
v 2.141244 0.593985 7.690133
v 3.899689 -0.050656 2.780307
v 1.310044 0.621178 3.118638
v 3.379280 1.302474 2.320319
v 1.156736 2.192767 3.318731
v 5.011965 2.454858 2.803416
v 5.986343 0.525369 2.865455
v 3.012374 2.969228 3.441080
v 0.258684 2.883446 4.663638
v 2.701571 3.339145 5.218590
v 0.164764 2.553710 6.141758
v 2.448236 2.879592 6.377381
v 5.492785 3.269358 4.651206
v 6.250567 2.492175 5.752354
v 7.022550 1.965274 4.452920
v 4.524807 2.810196 6.881078
v 2.156719 2.033974 7.732392
v 0.130193 1.395891 6.847170
v 4.073218 1.446542 8.110546
v 5.372048 1.813525 7.433488
v 6.193876 1.021300 6.258186
v 6.806957 0.655842 4.428942
v -0.676072 1.862743 5.918828
v -0.484622 1.730714 4.606770
v -0.063108 0.705720 4.018222
v 0.105488 0.345840 6.230507
v 0.264883 0.296328 0.342328
v 0.009524 0.296328 0.441005
v 0.037747 0.024630 0.589705
v 0.349676 0.024630 0.464768
v 0.289052 0.301919 -0.069641
v 0.215945 0.754894 0.014301
v 0.224780 0.698378 0.305380
v 0.289566 0.296328 0.203132
v -0.090541 0.296328 0.385346
v -0.012263 0.697203 0.414249
v -0.276328 0.768570 0.270558
v -0.320940 0.301141 0.218769
v -0.121237 0.024630 0.516935
v -0.369759 0.025794 0.241841
v 0.349863 0.025794 -0.101321
v 0.405483 0.024630 0.248799
v 0.192637 1.343936 0.136095
v -0.012536 1.565784 0.016827
v 0.031782 1.928656 0.148714
v 0.170809 1.831080 0.239393
v 0.148689 1.843892 0.490543
v 0.179650 1.284338 0.398544
v -0.011174 1.309983 0.494813
v -0.011746 1.826077 0.594028
v -0.173606 1.876285 0.419415
v -0.216911 1.510781 0.351314
v -0.033392 0.835140 -0.189587
v -0.274374 0.841907 -0.063835
v -0.224122 1.412547 0.064105
v -0.375244 0.346974 -0.186399
v -0.089558 0.336055 -0.334613
v -0.117512 0.036950 -0.412880
v -0.453286 0.038419 -0.247138
v 0.328551 2.166447 0.904173
v 1.210753 1.630754 2.256174
v 1.435697 1.573512 1.974019
v 0.482891 2.140821 0.749741
v 0.258158 1.811077 0.686216
v 0.394246 1.972976 0.613891
v 1.351212 1.393518 1.897011
v 1.039525 1.369026 2.025865
v 0.113881 1.981433 0.868907
v 0.810246 1.577620 2.127362
v 0.128468 1.815040 0.781025
v 3.185435 1.106584 2.957757
v 3.174661 1.198106 2.732069
v 1.325561 1.374057 2.461926
v 3.001460 0.967843 2.982125
v 0.440973 1.539365 3.171762
v 0.482107 1.440160 3.187750
v 3.211579 1.030417 2.787075
v 3.002324 0.927202 2.861526
v 0.389407 1.408060 3.109527
v 0.354619 1.492700 3.114250
v 0.409242 1.175043 4.148210
v 0.366422 1.144879 4.132094
v 0.343991 1.175599 4.136398
v 0.376462 1.208823 4.154601
v 0.754967 0.956315 4.744737
v 0.785309 0.939685 4.739037
v 0.738127 0.922176 4.740947
v 0.761839 0.905473 4.737879
v 3.698475 0.669318 4.139067
v 3.649054 0.704918 4.171510
v 3.734190 0.699699 4.093995
v 3.427515 1.065474 2.978194
v 3.718796 0.756366 4.094707
v 4.475751 1.759703 2.784430
v 4.484867 1.754672 2.862157
v 3.657984 0.762428 4.141723
v 4.377069 0.816590 5.271595
v 4.399735 0.814021 5.255223
v 4.375625 0.794258 5.282184
v 4.353004 0.776190 5.187855
v 4.462606 1.788548 2.888470
v 4.458360 1.800028 2.821254
v 5.480779 1.666661 3.144800
v 5.436433 1.692144 3.144775
v 5.475154 1.685893 3.126192
v 5.451676 1.677151 3.095850
v 0.185366 2.310694 0.340699
v 0.129091 2.301018 0.550731
v 0.198601 2.150989 0.323970
v 0.019948 1.875037 0.645581
v 0.014861 1.790578 0.073896
v 0.386662 1.322844 3.675474
v -0.373314 0.324608 0.017929
v 0.981250 1.681577 7.345547
v 3.731532 0.729348 4.089214
v 0.811299 1.686409 1.240491
v 0.308443 0.297268 0.074724
v 3.406823 0.771955 3.475591
v 6.667192 0.853171 5.205605
v 0.001846 0.470045 0.417714
v -0.349851 0.139306 0.233680
v 0.065817 0.834845 6.727812
v -0.484695 2.424318 5.330889
v -0.493275 2.245476 5.996274
v 2.291772 1.321866 2.414247
v -0.300797 0.807333 0.103259
v 0.091890 1.944278 0.656215
v 0.262269 0.470797 0.248403
v -0.452445 1.008537 5.344846
v 0.241587 2.072371 0.936058
v 1.027287 0.959844 7.348191
v 0.548059 1.028104 4.496972
v 3.737768 0.529838 2.358502
v -0.298400 0.509732 0.237226
v 0.200484 1.043955 0.072899
v 1.379275 1.624173 2.076128
v 2.355952 -0.119796 3.685993
v 0.283320 0.325148 0.280679
v 6.411470 1.856038 6.064662
v 3.983253 2.834290 3.075324
v 6.626002 0.546051 3.704678
v 0.317192 0.136463 0.407289
v 3.347640 -0.185958 3.664231
v 0.178326 2.239948 0.324683
v 0.058952 1.843213 0.563052
v -0.255606 0.345777 -0.295181
v 0.691220 1.391996 2.607872
v 3.114839 2.436600 2.816353
v -0.136496 1.609547 0.176244
v 0.184225 1.867131 0.532119
v 0.199261 0.024630 0.544456
v 6.456886 2.765919 4.441628
v 0.116329 0.318437 -0.221380
v 4.859023 -0.072367 3.306499
v 4.819110 0.108448 6.661897
v 5.144369 0.624129 7.020525
v 5.037448 1.755398 2.944979
v 2.235263 1.170938 2.350783
v -0.110342 0.160190 -0.391089
v 5.611441 0.369395 6.291369
v 3.415713 2.430034 7.517037
v 2.944572 0.013942 6.894155
v 5.600213 0.116416 5.383492
v 2.291905 2.568121 7.032249
v 0.760145 0.931462 4.762075
v 4.177782 3.390162 4.953311
v 0.570550 1.062633 4.505429
v 0.774234 1.599567 2.710295
v 0.183590 1.621583 0.193677
v -0.142682 0.443490 5.039058
v 4.331132 3.200767 3.864478
v 0.078584 2.809816 5.438446
v 4.292559 -0.020024 6.279949
v 5.493909 1.673104 3.156898
v 5.490763 2.956359 3.623587
v 5.022861 1.775673 3.018232
v 4.030676 0.705102 4.686810
v 0.349904 1.382352 3.675880
v 0.117853 1.894070 0.198030
v 4.466297 1.780938 2.795022
v 4.412313 0.793841 5.314031
v 5.730894 1.437549 6.973393
v 6.699542 1.255255 3.526220
v 0.278990 2.092628 0.419822
v 2.624860 -0.134139 6.116691
v 3.272903 1.738799 8.056026
v 4.043681 0.716997 4.668564
v 3.687047 0.765682 4.115425
v 0.323933 1.868105 0.632163
v -0.040005 0.325148 0.421609
v -0.285857 2.371824 4.582976
v 0.288739 2.108910 0.663820
v 3.398466 1.078343 3.015782
v 3.846901 1.463764 2.889452
v 2.993964 0.941105 2.923724
v 0.496855 1.790087 1.486543
v 0.413013 0.024630 0.084533
v -0.295095 1.200285 4.306906
v 0.363080 1.446621 3.105051
v 3.173965 0.971727 8.065564
v 3.850082 1.488317 2.795289
v 2.208658 1.336460 2.588635
v -0.321039 0.582936 -0.126817
v 1.214583 0.033476 6.410260
v 0.394185 1.525268 3.142310
v 0.139655 0.031372 -0.291632
v 2.343453 1.824227 2.700872
v 0.470473 1.493522 3.186592
v 1.187891 0.176671 3.782815
v 0.822891 1.440053 2.754832
v 0.727570 1.931382 1.534936
v -0.015125 1.581902 0.535286
v 0.351291 0.136463 0.224105
v 0.334346 0.138755 -0.089053
v 0.621666 1.528562 2.632714
v -0.164737 0.847327 -0.153526
v -0.141116 1.496975 0.056491
v 5.088642 3.198162 5.744420
v 0.357310 1.195197 4.146284
v 0.396590 1.195273 4.152846
v 0.244895 0.470045 0.315679
v 5.922064 0.138452 3.374040
v 1.579766 2.995288 3.957551
v 0.236170 1.768142 0.808140
v 4.230690 -0.084293 4.148564
v 2.158352 0.162268 7.083420
v 2.810801 -0.187343 5.122729
v 2.895495 3.249057 4.257538
v 2.142584 -0.199249 4.560744
v 1.417280 2.772164 6.292920
v 0.198784 1.002575 0.350952
v 3.049276 0.353967 7.623137
v 4.401717 0.809228 5.315628
v 0.764279 0.904113 4.758744
v 0.154613 1.845678 0.323912
v 4.048662 0.777584 4.779535
v 0.147481 2.306523 0.425309
v 5.021891 1.779784 2.972079
v 5.036827 1.746293 3.002398
v 4.994748 -0.007864 4.826670
v 4.748491 1.631679 7.843231
v 2.084298 -0.186982 5.411740
v 0.089142 1.894742 0.815402
v 1.410830 1.480981 1.917999
v 5.502703 1.665122 3.131649
v 0.026012 1.923127 0.677225
v 0.439368 1.414874 3.149335
v 0.401700 0.024630 0.370902
v -0.216590 1.475761 0.180324
v 3.482631 0.869483 3.478469
v -0.254216 1.132772 0.322934
v -0.055984 0.470045 0.394644
v 0.199706 2.263753 0.678472
v 3.157562 1.194178 2.800389
v 0.119220 0.730702 0.385321
v 4.125661 1.858572 2.441619
v -0.628877 1.787206 5.330119
v 0.299199 1.346174 3.638164
v -0.061627 0.562424 -0.266275
v -0.102703 1.844828 0.498358
v -0.484030 1.131410 6.115129
v 2.258882 0.992203 2.613518
v 0.021808 2.030025 3.959686
v 4.342860 2.139200 7.759553
v 6.870564 1.555213 5.396530
v 3.773424 0.682916 4.210645
v -0.452328 0.032106 -0.008083
v -0.247201 1.154328 0.003573
v -0.243790 0.024630 0.410262
v 2.125528 2.707853 3.284050
v 0.102402 0.793863 -0.108631
v 0.155190 2.234602 0.420460
v 0.312010 0.230233 4.476457
v 3.980809 0.842505 7.901807
v 6.739431 2.324665 5.166564
v -0.429303 0.164657 -0.230099
v 0.249014 0.515649 -0.031469
v 6.102078 0.466466 5.351856
v 4.089025 0.773776 4.748343
v 0.545837 1.623376 1.208972
v 0.967850 2.292245 6.969314
v 3.470215 -0.084185 6.452839
v 0.140703 0.296328 0.401089
v 5.047588 -0.014258 5.767904
v 5.491516 1.681520 3.148728
v 3.465062 0.811075 3.426754
v 0.351469 1.156899 4.132806
v -0.447798 1.568225 6.391963
v 4.426050 0.805275 5.298562
v 4.413733 0.819036 5.302650
v 1.262438 1.320229 2.366239
v 1.215594 3.047858 5.599653
v 3.861866 1.419753 2.752388
v 0.833262 1.478079 2.083118
v 0.321920 1.294333 3.637772
v 3.782566 -0.107440 5.623387
v 2.143353 1.303558 7.909979
v -0.008730 1.014727 0.451200
v 4.458422 1.798243 2.858365
v 6.315289 2.250358 3.522874
v 3.647243 0.735967 4.160546
v 0.160466 1.566654 0.446000
v -0.106871 0.136463 0.454334
v 0.204287 1.299211 0.269355
v 0.905800 1.650373 2.170264
v 0.111322 1.458970 0.045826
v 1.326889 1.480936 2.450441
v 0.480793 0.687398 3.575209
v -0.156933 0.743820 0.361249
v 0.288177 2.260876 0.472948
v 1.261487 1.350240 1.939780
v 0.421835 2.173277 0.856361
v 5.077221 0.161163 2.629795
v 4.771116 0.906060 2.360445
v 0.889006 1.870530 1.345052
v -0.195063 1.735232 0.404885
v 1.083296 1.344162 3.099329
v 0.251154 1.406154 3.582772
v -0.130841 1.405397 0.456072
v 3.043628 0.944599 2.821668
v 3.024979 1.015684 2.992105
v 0.474070 2.052430 0.680571
v 0.523905 0.023727 5.577282
v -0.031221 1.987967 6.607380
v 3.672034 0.682375 4.159744
v 0.598570 2.645522 3.923828
v 2.506063 0.253674 2.890242
v -0.048539 0.024630 0.579168
v 1.060503 0.359750 7.053590
v 5.172789 2.334404 7.274784
v 5.860828 2.196902 6.664274
v 0.571915 1.006647 4.492802
v 5.690396 1.509461 2.722958
v 5.580422 2.762146 6.281050
v 0.245481 1.925784 0.539817
v 0.602916 1.040634 4.498179
v 2.116577 1.119017 2.447308
v 2.178474 1.180307 2.629978
v 0.238995 0.740750 0.162804
v 7.018073 1.147023 4.486059
v 3.830898 3.235226 5.960039
v 3.170062 1.147671 2.694671
v -0.011811 1.200057 -0.097921
v 6.100111 2.935120 5.270319
v 4.796433 1.041271 7.555306
v 0.018671 0.136463 0.522151
v 3.412817 1.042546 2.922823
v -0.327996 0.038849 -0.388897
v -0.084883 1.911787 0.280531
v 5.500310 1.673537 3.123479
v 3.332448 2.905145 6.652100
v 3.858249 -0.095841 4.840784
v 4.474494 1.770538 2.883134
v 3.369892 0.810080 3.544938
v 0.789455 0.914006 4.757483
v 0.390749 1.156976 4.139369
v 0.482924 1.631518 1.255159
v 6.369558 0.379453 4.349701
v 2.528576 3.119153 5.920898
v 0.091135 1.910236 0.298205
v 5.576411 1.657452 3.167557
v 0.785321 0.941355 4.760815
v 3.890253 1.432246 2.850797
v 1.355897 3.175941 4.836068
v -0.205169 0.296328 0.319332
v 1.571575 -0.111419 5.773439
v 3.409626 0.877486 3.535951
v 0.094497 1.282555 0.464750
v 4.482370 1.753232 2.819791
v 4.047226 0.738700 4.802209
v -0.014585 1.899112 0.406591
v 0.106199 1.126787 -0.031035
v 0.220022 1.014360 0.215682
v -0.141944 1.073758 0.408061
v -0.108452 1.780355 0.226591
v 0.107317 1.000879 0.420657
v 0.208430 2.030404 0.676938
v 0.233328 2.167996 0.558542
v 0.293925 2.166026 0.417772
v 0.239620 2.283235 0.594929
v 0.084914 1.845554 0.575929
v 5.020756 1.780679 2.997512
v 5.038757 1.747895 2.971332
v 5.029651 1.768316 2.952845
v 5.029863 1.760258 3.015998
v 3.869960 1.447343 2.880693
v 3.854590 1.454696 2.763271
v 3.449170 0.879953 3.509446
v 3.845466 1.481533 2.846846
v 4.489017 0.818390 5.424553
v 4.099420 0.753528 4.750521
v 4.065419 0.724102 4.795692
v 4.043799 0.759491 4.793494
v 4.068236 0.779888 4.762168
v 3.383922 0.846217 3.546810
v 3.879085 1.420507 2.797117
v 3.480621 0.841809 3.447234
v 3.436791 0.786662 3.444771
v 3.383528 0.785437 3.513442
v 0.819018 0.898199 4.817167
v 0.557051 1.013615 4.494128
v 0.590500 1.021256 4.494864
v 0.556219 1.047753 4.501827
v 0.589669 1.055394 4.502563
v 0.321288 1.370374 3.657066
v 0.374618 1.356148 3.679816
v 0.304224 1.316704 3.633829
v 0.357555 1.302478 3.656579
v 0.763543 1.399776 2.682433
v 2.140201 1.139022 2.545552
v 0.691463 1.580313 2.670424
v 0.640844 1.453746 2.607970
v 2.274961 1.247828 2.368980
v 2.168970 1.134343 2.386266
v 0.814161 1.526344 2.744886
v 2.192812 1.261926 2.628073
v 2.253799 1.345470 2.502081
v 0.503314 1.686388 1.427825
v 0.867378 1.779828 1.278631
v 0.600857 1.873667 1.526705
v 0.718791 1.627321 1.266193
v 0.824570 1.917246 1.448188
v 0.081677 1.564231 0.508843
v 0.129098 0.149198 -0.262647
v 0.107548 0.538184 -0.168993
v -0.417490 0.152257 0.000624
v -0.335054 0.547657 0.056024
v -0.208363 0.579213 -0.227292
v -0.297399 0.164991 -0.350014
v -0.274861 1.146541 0.162197
v -0.139423 1.186089 -0.071925
v -0.125225 1.655554 0.492557
v 0.188509 1.584541 0.322911
v -0.047670 0.136463 0.503211
v 0.348629 0.136463 0.324471
v 0.112220 1.711268 0.102843
v 0.127859 0.501407 0.381117
v 0.365638 0.136463 0.075563
v -0.227435 0.136463 0.364222
v -0.180253 0.501407 0.330226
v 0.269524 0.506628 0.112868
v 0.171762 0.136463 0.475889
vt 0.7176 0.5580
vt 0.7204 0.5563
vt 0.7206 0.5617
vt 0.7084 0.5573
vt 0.7038 0.5588
vt 0.7086 0.5534
vt 0.7146 0.5657
vt 0.7069 0.5631
vt 0.7115 0.5615
vt 0.7178 0.5525
vt 0.7233 0.5547
vt 0.7206 0.5509
vt 0.7261 0.5515
vt 0.7132 0.5522
vt 0.7043 0.5704
vt 0.7140 0.5678
vt 0.7123 0.5737
vt 0.6633 0.5425
vt 0.6701 0.5469
vt 0.6620 0.5476
vt 0.6525 0.5442
vt 0.7052 0.5804
vt 0.6994 0.5724
vt 0.7048 0.5754
vt 0.7017 0.5654
vt 0.7095 0.5681
vt 0.6686 0.5544
vt 0.6727 0.5529
vt 0.6736 0.5573
vt 0.6695 0.5598
vt 0.6703 0.5651
vt 0.6754 0.5682
vt 0.6704 0.5681
vt 0.6622 0.5629
vt 0.6589 0.5652
vt 0.6572 0.5615
vt 0.6668 0.5691
vt 0.6662 0.5640
vt 0.6627 0.5681
vt 0.6615 0.5577
vt 0.6739 0.5832
vt 0.6773 0.5772
vt 0.6810 0.5822
vt 0.6745 0.5884
vt 0.7290 0.5482
vt 0.7235 0.5476
vt 0.7257 0.5403
vt 0.7224 0.5324
vt 0.7202 0.5397
vt 0.7181 0.5345
vt 0.6686 0.5782
vt 0.6723 0.5771
vt 0.6589 0.5879
vt 0.6567 0.5827
vt 0.6611 0.5805
vt 0.7036 0.5361
vt 0.7108 0.5415
vt 0.7062 0.5429
vt 0.7014 0.5482
vt 0.6980 0.5457
vt 0.6924 0.5553
vt 0.6958 0.5579
vt 0.6930 0.5598
vt 0.6374 0.5547
vt 0.6396 0.5503
vt 0.6448 0.5574
vt 0.6557 0.5675
vt 0.6595 0.5703
vt 0.6551 0.5725
vt 0.6905 0.5686
vt 0.6855 0.5699
vt 0.6846 0.5644
vt 0.6911 0.5567
vt 0.6840 0.5540
vt 0.6894 0.5512
vt 0.6876 0.5458
vt 0.6822 0.5486
vt 0.6847 0.5422
vt 0.7413 0.5784
vt 0.7369 0.5701
vt 0.7436 0.5735
vt 0.7237 0.5653
vt 0.7235 0.5600
vt 0.7282 0.5635
vt 0.7279 0.5583
vt 0.7161 0.5619
vt 0.7130 0.5576
vt 0.7128 0.5786
vt 0.6725 0.5405
vt 0.6989 0.5674
vt 0.6647 0.5535
vt 0.6745 0.5626
vt 0.6654 0.5587
vt 0.7361 0.5530
vt 0.7308 0.5550
vt 0.6664 0.5855
vt 0.7086 0.5364
vt 0.6430 0.5758
vt 0.6402 0.5653
vt 0.6476 0.5680
vt 0.6522 0.5601
vt 0.6470 0.5530
vt 0.6565 0.5563
vt 0.6494 0.5717
vt 0.6488 0.5767
vt 0.6908 0.5626
vt 0.6848 0.5584
vt 0.6893 0.5749
vt 0.7286 0.5706
vt 0.7244 0.5738
vt 0.7262 0.5680
vt 0.7350 0.5745
vt 0.7460 0.5686
vt 0.7393 0.5652
vt 0.7445 0.5632
vt 0.7306 0.5662
vt 0.9509 0.6553
vt 0.9498 0.6531
vt 0.9519 0.6520
vt 0.9531 0.6543
vt 0.9270 0.6435
vt 0.9262 0.6463
vt 0.9243 0.6458
vt 0.9252 0.6433
vt 0.9434 0.6539
vt 0.9413 0.6561
vt 0.9399 0.6543
vt 0.9421 0.6522
vt 0.9473 0.6505
vt 0.9455 0.6517
vt 0.9444 0.6501
vt 0.9459 0.6488
vt 0.9278 0.6388
vt 0.9279 0.6407
vt 0.9262 0.6408
vt 0.9258 0.6387
vt 0.9462 0.6578
vt 0.9452 0.6561
vt 0.9477 0.6542
vt 0.9488 0.6564
vt 0.9246 0.6584
vt 0.9257 0.6601
vt 0.9246 0.6619
vt 0.9233 0.6610
vt 0.9521 0.6586
vt 0.9520 0.6575
vt 0.9542 0.6566
vt 0.9542 0.6578
vt 0.9446 0.6606
vt 0.9472 0.6596
vt 0.9474 0.6604
vt 0.9493 0.6526
vt 0.9488 0.6522
vt 0.9508 0.6510
vt 0.9513 0.6515
vt 0.9467 0.6533
vt 0.9472 0.6538
vt 0.9447 0.6557
vt 0.9220 0.6561
vt 0.9206 0.6594
vt 0.9191 0.6587
vt 0.9204 0.6555
vt 0.9327 0.6644
vt 0.9308 0.6662
vt 0.9295 0.6653
vt 0.9309 0.6638
vt 0.9313 0.6542
vt 0.9338 0.6502
vt 0.9353 0.6516
vt 0.9331 0.6548
vt 0.9346 0.6565
vt 0.9376 0.6529
vt 0.9361 0.6583
vt 0.9391 0.6425
vt 0.9370 0.6413
vt 0.9381 0.6394
vt 0.9403 0.6407
vt 0.9359 0.6473
vt 0.9342 0.6460
vt 0.9360 0.6432
vt 0.9379 0.6444
vt 0.9399 0.6504
vt 0.9376 0.6486
vt 0.9398 0.6457
vt 0.9421 0.6479
vt 0.9435 0.6463
vt 0.9412 0.6438
vt 0.9426 0.6419
vt 0.9450 0.6447
vt 0.9315 0.6449
vt 0.9324 0.6488
vt 0.9303 0.6478
vt 0.9334 0.6400
vt 0.9327 0.6420
vt 0.9355 0.6658
vt 0.9329 0.6680
vt 0.9320 0.6672
vt 0.9345 0.6649
vt 0.9624 0.6530
vt 0.9631 0.6641
vt 0.9611 0.6645
vt 0.9606 0.6531
vt 0.9559 0.6521
vt 0.9575 0.6522
vt 0.9575 0.6637
vt 0.9559 0.6635
vt 0.9658 0.6518
vt 0.9675 0.6508
vt 0.9683 0.6612
vt 0.9667 0.6625
vt 0.9590 0.6527
vt 0.9593 0.6641
vt 0.9691 0.6506
vt 0.9707 0.6504
vt 0.9717 0.6619
vt 0.9700 0.6615
vt 0.9698 0.6390
vt 0.9710 0.6390
vt 0.9642 0.6783
vt 0.9657 0.6784
vt 0.9663 0.6931
vt 0.9654 0.6924
vt 0.9669 0.6787
vt 0.9681 0.6790
vt 0.9679 0.6923
vt 0.9671 0.6927
vt 0.9103 0.6453
vt 0.9117 0.6450
vt 0.9117 0.6533
vt 0.9109 0.6533
vt 0.9590 0.6777
vt 0.9602 0.6778
vt 0.9628 0.6919
vt 0.9621 0.6919
vt 0.9614 0.6780
vt 0.9627 0.6781
vt 0.9644 0.6917
vt 0.9636 0.6918
vt 0.9156 0.6455
vt 0.9168 0.6452
vt 0.9145 0.6533
vt 0.9139 0.6531
vt 0.9131 0.6454
vt 0.9144 0.6457
vt 0.9133 0.6530
vt 0.9125 0.6531
vt 0.9694 0.6779
vt 0.9707 0.6768
vt 0.9696 0.6912
vt 0.9688 0.6918
vt 0.9073 0.6455
vt 0.9089 0.6456
vt 0.9101 0.6534
vt 0.9092 0.6534
vt 0.9101 0.6608
vt 0.9107 0.6608
vt 0.9113 0.6682
vt 0.9110 0.6682
vt 0.9134 0.6605
vt 0.9138 0.6607
vt 0.9131 0.6680
vt 0.9129 0.6680
vt 0.9112 0.6607
vt 0.9118 0.6607
vt 0.9119 0.6680
vt 0.9116 0.6681
vt 0.9124 0.6605
vt 0.9129 0.6604
vt 0.9126 0.6679
vt 0.9122 0.6680
vt 0.9118 0.6734
vt 0.9120 0.6733
vt 0.9121 0.6787
vt 0.9119 0.6788
vt 0.9123 0.6733
vt 0.9127 0.6733
vt 0.9128 0.6787
vt 0.9125 0.6787
vt 0.9112 0.6735
vt 0.9115 0.6736
vt 0.9117 0.6789
vt 0.9114 0.6789
vt 0.9129 0.6734
vt 0.9132 0.6734
vt 0.9132 0.6789
vt 0.9130 0.6788
vt 0.9390 0.6755
vt 0.9391 0.6758
vt 0.9387 0.6759
vt 0.9387 0.6755
vt 0.9684 0.7026
vt 0.9691 0.7024
vt 0.9686 0.7135
vt 0.9681 0.7134
vt 0.9629 0.7026
vt 0.9635 0.7025
vt 0.9643 0.7130
vt 0.9639 0.7133
vt 0.9642 0.7027
vt 0.9648 0.7030
vt 0.9653 0.7125
vt 0.9648 0.7127
vt 0.9528 0.6791
vt 0.9536 0.6787
vt 0.9530 0.6888
vt 0.9524 0.6888
vt 0.9671 0.7028
vt 0.9677 0.7028
vt 0.9675 0.7133
vt 0.9670 0.7130
vt 0.9660 0.7226
vt 0.9663 0.7226
vt 0.9661 0.7326
vt 0.9660 0.7326
vt 0.9667 0.7228
vt 0.9670 0.7230
vt 0.9665 0.7327
vt 0.9663 0.7326
vt 0.9674 0.7230
vt 0.9677 0.7231
vt 0.9669 0.7327
vt 0.9667 0.7327
vt 0.9634 0.7136
vt 0.9644 0.7232
vt 0.9652 0.7227
vt 0.9656 0.7225
vt 0.9658 0.7326
vt 0.9656 0.7326
vt 0.9377 0.6754
vt 0.9377 0.6752
vt 0.9379 0.6752
vt 0.9379 0.6754
vt 0.9504 0.6790
vt 0.9511 0.6788
vt 0.9510 0.6889
vt 0.9505 0.6888
vt 0.9656 0.7029
vt 0.9664 0.7029
vt 0.9666 0.7127
vt 0.9660 0.7126
vt 0.9491 0.6790
vt 0.9497 0.6791
vt 0.9501 0.6886
vt 0.9496 0.6888
vt 0.9516 0.6791
vt 0.9521 0.6794
vt 0.9518 0.6889
vt 0.9514 0.6889
vt 0.9518 0.6970
vt 0.9520 0.6970
vt 0.9523 0.7052
vt 0.9521 0.7051
vt 0.9505 0.6970
vt 0.9509 0.6969
vt 0.9516 0.7051
vt 0.9514 0.7052
vt 0.9525 0.6970
vt 0.9529 0.6969
vt 0.9528 0.7051
vt 0.9525 0.7052
vt 0.9512 0.6969
vt 0.9515 0.6969
vt 0.9520 0.7050
vt 0.9518 0.7050
vt 0.9383 0.6752
vt 0.9384 0.6753
vt 0.9383 0.6754
vt 0.9379 0.6752
vt 0.9381 0.6752
vt 0.9381 0.6754
vt 0.9710 0.6387
vt 0.9721 0.6387
vt 0.9721 0.6390
vt 0.9544 0.6405
vt 0.9543 0.6402
vt 0.9559 0.6407
vt 0.9683 0.6397
vt 0.9698 0.6386
vt 0.9615 0.6400
vt 0.9600 0.6400
vt 0.9600 0.6383
vt 0.9613 0.6381
vt 0.9588 0.6394
vt 0.9575 0.6387
vt 0.9576 0.6367
vt 0.9588 0.6375
vt 0.8297 0.6582
vt 0.8246 0.6548
vt 0.8353 0.6575
vt 0.8323 0.6954
vt 0.8417 0.6883
vt 0.8446 0.6969
vt 0.8352 0.7040
vt 0.8410 0.7093
vt 0.8323 0.7163
vt 0.8258 0.7111
vt 0.9409 0.6614
vt 0.9381 0.6636
vt 0.9371 0.6626
vt 0.9399 0.6603
vt 0.8057 0.7067
vt 0.8061 0.6932
vt 0.8128 0.6993
vt 0.7968 0.6928
vt 0.7874 0.6924
vt 0.7878 0.6797
vt 0.7972 0.6797
vt 0.9380 0.6593
vt 0.9347 0.6624
vt 0.9324 0.6623
vt 0.9249 0.6496
vt 0.9235 0.6529
vt 0.9218 0.6523
vt 0.9231 0.6490
vt 0.9281 0.6518
vt 0.9295 0.6536
vt 0.9267 0.6583
vt 0.9259 0.6559
vt 0.8546 0.7178
vt 0.8467 0.7197
vt 0.8546 0.7128
vt 0.7789 0.6965
vt 0.7800 0.7050
vt 0.7729 0.7051
vt 0.7704 0.7007
vt 0.7744 0.6831
vt 0.7811 0.6814
vt 0.7711 0.6897
vt 0.7779 0.6880
vt 0.7679 0.6963
vt 0.7870 0.7050
vt 0.8467 0.7146
vt 0.8546 0.7077
vt 0.8388 0.7215
vt 0.9267 0.6501
vt 0.9252 0.6535
vt 0.9282 0.6467
vt 0.9427 0.6580
vt 0.8066 0.6797
vt 0.7964 0.7059
vt 0.8133 0.6858
vt 0.8200 0.6919
vt 0.9437 0.6593
vt 0.9419 0.6625
vt 0.9391 0.6645
vt 0.8496 0.7023
vt 0.8230 0.7024
vt 0.8201 0.6938
vt 0.8295 0.6867
vt 0.8388 0.6797
vt 0.8302 0.6541
vt 0.8408 0.6568
vt 0.8196 0.6514
vt 0.9601 0.6418
vt 0.9588 0.6413
vt 0.9574 0.6408
vt 0.9629 0.6400
vt 0.9626 0.6380
vt 0.9632 0.6420
vt 0.9617 0.6419
vt 0.9683 0.6393
vt 0.9698 0.6382
vt 0.9667 0.6404
vt 0.9559 0.6404
vt 0.9543 0.6400
vt 0.9710 0.6384
vt 0.9721 0.6385
vt 0.9383 0.6757
vt 0.9384 0.6756
vt 0.9386 0.6755
vt 0.9502 0.6970
vt 0.9512 0.7052
vt 0.9492 0.6889
vt 0.9512 0.6688
vt 0.9518 0.6694
vt 0.9524 0.6699
vt 0.9484 0.6788
vt 0.9477 0.6687
vt 0.9485 0.6692
vt 0.9493 0.6697
vt 0.9643 0.6934
vt 0.9653 0.6933
vt 0.9503 0.6693
vt 0.9377 0.6756
vt 0.9379 0.6756
vt 0.9375 0.6756
vt 0.9376 0.6754
vt 0.9376 0.6752
vt 0.9648 0.7228
vt 0.9654 0.7327
vt 0.9533 0.6693
vt 0.9542 0.6687
vt 0.9635 0.6927
vt 0.9624 0.7028
vt 0.9613 0.6920
vt 0.9390 0.6752
vt 0.9387 0.6752
vt 0.9393 0.6752
vt 0.9394 0.6754
vt 0.9394 0.6757
vt 0.9108 0.6735
vt 0.9111 0.6789
vt 0.9106 0.6681
vt 0.9094 0.6608
vt 0.9083 0.6534
vt 0.9057 0.6454
vt 0.9030 0.6375
vt 0.9054 0.6377
vt 0.9078 0.6378
vt 0.9683 0.6656
vt 0.9700 0.6640
vt 0.9718 0.6624
vt 0.9117 0.6367
vt 0.9137 0.6376
vt 0.9156 0.6385
vt 0.9173 0.6378
vt 0.9190 0.6371
vt 0.9578 0.6776
vt 0.9543 0.6632
vt 0.9097 0.6372
vt 0.9651 0.6638
vt 0.9667 0.6647
vt 0.9719 0.6504
vt 0.9641 0.6529
vt 0.9649 0.6412
vt 0.9543 0.6518
vt 0.9364 0.6666
vt 0.9337 0.6687
vt 0.9297 0.6388
vt 0.9295 0.6407
vt 0.9300 0.6369
vt 0.9340 0.6381
vt 0.9288 0.6437
vt 0.9474 0.6476
vt 0.9316 0.6601
vt 0.9308 0.6580
vt 0.9288 0.6581
vt 0.9237 0.6568
vt 0.9221 0.6600
vt 0.9499 0.6594
vt 0.9501 0.6603
vt 0.9498 0.6585
vt 0.9521 0.6596
vt 0.9542 0.6590
vt 0.9277 0.6368
vt 0.9254 0.6367
vt 0.9491 0.6493
vt 0.7326 0.5618
vt 0.7378 0.5598
vt 0.7431 0.5578
vt 0.7220 0.5711
vt 0.7203 0.5769
vt 0.6777 0.5558
vt 0.6768 0.5514
vt 0.6786 0.5601
vt 0.6844 0.5762
vt 0.6806 0.5712
vt 0.6881 0.5812
vt 0.6545 0.5776
vt 0.6539 0.5638
vt 0.6513 0.5493
vt 0.6607 0.5526
vt 0.6418 0.5459
vt 0.7040 0.5550
vt 0.6992 0.5604
vt 0.7088 0.5496
vt 0.7158 0.5418
vt 0.7180 0.5470
vt 0.7137 0.5366
vt 0.6632 0.5732
vt 0.6671 0.5907
vt 0.6752 0.5936
vt 0.6756 0.5712
vt 0.6706 0.5711
vt 0.6669 0.5721
vt 0.6796 0.5656
vt 0.6688 0.5520
vt 0.6964 0.5624
vt 0.6936 0.5643
vt 0.6793 0.5450
vt 0.6818 0.5385
vt 0.7192 0.5655
vt 0.6589 0.5754
vt 0.7134 0.5483
vt 0.6816 0.5874
vn 0.0385 -0.9973 0.0625
vn -0.0534 -0.9856 0.1602
vn -0.0619 -0.9969 0.0487
vn 0.0627 -0.9980 0.0121
vn 0.1339 -0.9910 -0.0069
vn 0.1181 -0.9923 0.0376
vn 0.0565 -0.9982 0.0194
vn 0.0947 -0.9948 0.0378
vn 0.0827 -0.9965 0.0103
vn 0.0727 -0.9777 0.1968
vn -0.0817 -0.9686 0.2347
vn -0.0192 -0.9469 0.3211
vn -0.1275 -0.8938 0.4300
vn 0.0906 -0.9840 0.1537
vn -0.0393 -0.8546 -0.5178
vn -0.1753 -0.9444 -0.2781
vn -0.2722 -0.6739 -0.6869
vn -0.1283 0.1139 -0.9852
vn -0.2786 0.3154 -0.9071
vn 0.0428 0.3328 -0.9420
vn 0.1938 -0.0397 -0.9802
vn -0.0861 -0.3522 -0.9319
vn 0.1413 -0.9843 -0.1054
vn 0.0084 -0.9976 -0.0691
vn -0.0992 0.8754 -0.4731
vn -0.2315 0.6815 -0.6942
vn -0.2042 0.8953 -0.3959
vn -0.0749 0.9720 -0.2228
vn -0.0848 0.9928 0.0844
vn -0.1884 0.9441 0.2706
vn -0.1215 0.9283 0.3515
vn 0.2688 0.9605 -0.0716
vn 0.5367 0.8096 0.2377
vn 0.6527 0.7371 -0.1751
vn -0.0007 0.9563 0.2925
vn 0.0290 0.9996 -0.0024
vn 0.2169 0.9367 0.2749
vn 0.3253 0.8202 -0.4706
vn -0.2432 0.5341 0.8097
vn -0.3256 0.6880 0.6486
vn -0.4556 0.2247 0.8614
vn -0.2978 -0.0227 0.9543
vn -0.2443 -0.5558 0.7946
vn -0.0050 -0.7647 0.6444
vn -0.0509 -0.3043 0.9512
vn 0.2195 0.0018 0.9756
vn 0.2791 -0.5411 0.7933
vn 0.4573 0.0317 0.8887
vn -0.0400 0.7647 0.6431
vn -0.1562 0.8534 0.4973
vn 0.1811 0.5849 0.7906
vn 0.7585 -0.3861 0.5251
vn 0.5003 -0.5637 0.6572
vn 0.6207 -0.6554 0.4303
vn 0.5773 -0.7844 0.2268
vn 0.7526 -0.5679 0.3332
vn 0.7621 -0.6411 0.0909
vn 0.4494 -0.8856 0.1167
vn 0.7694 -0.5640 -0.2999
vn 0.9786 -0.2055 -0.0131
vn 0.6903 0.5660 0.4507
vn 0.4651 0.7631 0.4487
vn 0.7167 0.4071 0.5662
vn -0.9750 0.0903 0.2030
vn -0.7181 0.5672 0.4033
vn -0.8188 0.5710 -0.0591
vn -0.9345 0.0438 -0.3534
vn -0.6793 0.3032 -0.6682
vn -0.9026 -0.1484 -0.4041
vn -0.7408 -0.4554 -0.4938
vn -0.6284 0.0550 -0.7760
vn -0.5102 -0.4889 -0.7075
vn -0.9239 -0.3796 -0.0481
vn -0.9904 -0.0037 -0.1385
vn -0.1983 -0.9754 -0.0967
vn -0.1112 -0.9878 0.1086
vn -0.3471 -0.9360 0.0594
vn -0.1859 -0.9413 0.2817
vn 0.0437 -0.9990 -0.0025
vn 0.1000 -0.9947 0.0250
vn -0.3155 -0.1430 -0.9381
vn 0.2410 -0.6654 -0.7065
vn 0.0018 0.7709 -0.6369
vn -0.1826 0.9814 -0.0596
vn 0.0413 0.9489 -0.3128
vn -0.4514 -0.2286 0.8625
vn -0.3458 -0.6984 0.6266
vn -0.0666 0.3359 0.9396
vn 0.7304 -0.1778 0.6595
vn 0.9201 -0.0361 0.3900
vn 0.9472 0.2892 -0.1388
vn 0.8257 0.0340 -0.5631
vn 0.6386 0.4780 -0.6031
vn 0.8154 0.1805 0.5500
vn -0.7754 0.4926 -0.3951
vn -0.7877 0.0180 0.6158
vn -0.4433 -0.8581 -0.2592
vn -0.8894 -0.3768 0.2590
vn -0.7518 -0.6552 -0.0739
vn 0.3149 0.4957 0.8094
vn 0.0309 0.4984 0.8664
vn 0.0518 0.5435 0.8378
vn 0.3085 0.5366 0.7854
vn 0.9876 0.1570 -0.0091
vn 0.9946 0.1036 -0.0034
vn 0.8628 0.0510 0.5029
vn 0.9763 0.1395 0.1654
vn -0.5375 -0.0116 0.8432
vn -0.5039 -0.0709 0.8608
vn -0.8599 -0.0002 0.5105
vn -0.8493 0.0426 0.5261
vn -0.6336 0.3176 0.7055
vn -0.5898 0.1601 0.7916
vn -0.8458 0.1517 0.5115
vn -0.8409 0.2378 0.4861
vn 0.9391 0.3383 -0.0609
vn 0.9660 0.2581 -0.0178
vn 0.9638 0.2584 0.0660
vn 0.9205 0.3879 0.0477
vn 0.3927 0.0754 0.9166
vn -0.0537 0.0722 0.9959
vn 0.0203 0.3204 0.9471
vn 0.3507 0.3007 0.8869
vn 0.6469 0.2243 -0.7289
vn -0.1439 0.3990 -0.9056
vn -0.0388 0.8132 -0.5806
vn 0.6760 0.6469 -0.3529
vn 0.8859 0.4239 0.1886
vn 0.6319 0.4911 0.5996
vn 0.5928 0.5274 0.6086
vn 0.8520 0.4693 0.2319
vn 0.7917 0.1344 0.5959
vn -0.4053 0.4507 0.7954
vn -0.5778 0.3911 0.7164
vn -0.5717 0.4433 0.6904
vn -0.3441 0.5089 0.7891
vn -0.5623 0.2166 0.7980
vn -0.4602 0.2076 0.8632
vn -0.4228 0.0294 0.9057
vn 0.9944 0.0593 0.0871
vn 0.8965 0.4374 0.0702
vn 0.7346 0.4889 0.4704
vn 0.8610 -0.0252 0.5079
vn -0.6697 -0.0633 0.7399
vn -0.5058 0.5529 0.6622
vn -0.7587 0.6189 0.2033
vn -0.9757 0.1361 0.1718
vn -0.4217 0.2732 -0.8646
vn -0.4283 0.2702 -0.8623
vn -0.8601 0.2148 -0.4626
vn -0.8450 0.2059 -0.4935
vn -0.9941 0.1083 -0.0089
vn -0.9945 0.1016 0.0267
vn -0.8907 0.0203 0.4542
vn -0.4307 0.3179 -0.8446
vn 0.1428 0.2640 -0.9539
vn 0.1405 0.2354 -0.9617
vn -0.4488 0.2898 -0.8453
vn -0.4300 0.3138 -0.8466
vn 0.1618 0.2681 -0.9497
vn 0.1506 0.2859 -0.9464
vn -0.4267 0.3388 -0.8385
vn -0.9864 0.1389 0.0882
vn -0.8710 0.2689 -0.4111
vn -0.8738 0.3133 -0.3719
vn -0.9707 0.1941 0.1414
vn -0.9591 0.2292 0.1663
vn -0.8829 0.3090 -0.3536
vn -0.8912 0.2847 -0.3531
vn -0.9610 0.2251 0.1605
vn 0.6091 0.2066 -0.7657
vn 0.1771 0.2454 -0.9531
vn 0.6483 0.1811 -0.7395
vn 0.5570 0.2184 -0.8013
vn 0.5750 0.2275 -0.7859
vn 0.4576 -0.1299 0.8796
vn 0.4727 -0.1479 0.8687
vn -0.1639 0.3395 0.9262
vn -0.1100 -0.1532 0.9821
vn 0.3944 0.9138 0.0971
vn 0.3456 0.9370 0.0510
vn 0.6006 0.6627 -0.4474
vn 0.7494 0.5833 -0.3134
vn 0.1954 -0.8628 -0.4662
vn 0.5756 -0.5126 -0.6372
vn 0.3983 -0.5567 -0.7290
vn 0.0240 -0.9174 -0.3972
vn -0.5053 0.6848 0.5250
vn -0.8370 0.1565 0.5244
vn -0.9425 0.3121 0.1196
vn -0.3304 0.9103 0.2494
vn 0.7971 -0.0117 -0.6037
vn 0.6319 0.0648 -0.7724
vn -0.7889 -0.5364 0.2999
vn -0.5086 -0.8592 0.0562
vn -0.2750 -0.9524 -0.1317
vn -0.7908 -0.6105 -0.0444
vn -0.6076 -0.7803 0.1483
vn -0.2019 -0.9577 -0.2049
vn 0.2080 0.9739 0.0906
vn 0.0365 0.8431 0.5364
vn -0.2063 0.7982 0.5660
vn -0.1223 0.9645 0.2341
vn -0.1944 0.3791 0.9047
vn -0.3699 -0.4095 0.8340
vn -0.6802 -0.3305 0.6543
vn -0.4567 0.4602 0.7613
vn 0.6037 0.4620 0.6497
vn 0.2032 0.9352 0.2902
vn 0.1215 0.9485 0.2924
vn 0.7807 0.4418 0.4419
vn 0.0280 -0.8839 -0.4669
vn 0.2918 -0.5002 -0.8153
vn 0.3359 -0.6633 -0.6687
vn 0.1622 -0.8617 -0.4809
vn 0.4302 0.0845 -0.8988
vn 0.3841 0.7691 -0.5108
vn -0.0507 0.8821 -0.4683
vn 0.2511 0.0308 -0.9675
vn -0.8263 -0.3945 -0.4020
vn -0.3695 -0.9141 -0.1668
vn -0.4183 -0.8806 -0.2226
vn -0.8814 -0.3284 -0.3396
vn -0.3358 0.9391 -0.0727
vn -0.8256 0.4430 -0.3495
vn -0.8932 0.3913 -0.2213
vn -0.5010 0.8654 0.0071
vn -0.3081 -0.8827 0.3547
vn -0.1782 -0.9805 -0.0826
vn -0.1383 -0.9831 -0.1201
vn -0.4611 -0.8435 0.2755
vn 0.0762 -0.9822 0.1719
vn 0.5406 -0.5035 0.6740
vn 0.8525 -0.4180 0.3138
vn 0.3005 -0.9537 0.0143
vn 0.4971 -0.8437 -0.2024
vn 0.9688 -0.2477 -0.0100
vn 0.9527 0.0021 -0.3040
vn 0.5997 -0.6785 -0.4243
vn -0.8972 -0.4212 -0.1325
vn -0.2813 -0.9302 -0.2358
vn -0.1565 -0.9529 -0.2599
vn -0.8196 -0.5712 0.0446
vn 0.8170 0.5292 0.2291
vn 0.0599 0.9364 0.3457
vn -0.1054 0.8947 0.4340
vn 0.7100 0.7004 0.0731
vn -0.6566 0.7216 0.2195
vn -0.9705 0.2357 0.0499
vn -0.9608 0.0295 0.2758
vn -0.7424 0.5142 0.4294
vn 0.5790 0.8149 -0.0279
vn -0.1542 0.8584 0.4893
vn -0.1513 0.8325 0.5330
vn 0.5582 0.7801 0.2826
vn -0.7147 0.3335 0.6147
vn -0.8566 -0.1747 0.4856
vn -0.7962 -0.2697 0.5417
vn -0.5690 0.2720 0.7761
vn 0.6277 -0.4845 -0.6093
vn 0.8536 0.2082 -0.4776
vn 0.8500 0.2376 -0.4701
vn 0.7600 -0.4514 -0.4676
vn -0.6599 -0.7379 0.1414
vn 0.0189 -0.9294 -0.3686
vn 0.1176 -0.9064 -0.4057
vn -0.3890 -0.8784 0.2776
vn 0.5085 -0.3019 0.8064
vn -0.5825 -0.7967 0.1610
vn -0.0907 -0.9871 -0.1316
vn -0.0318 -0.9976 -0.0618
vn -0.4916 -0.8412 0.2251
vn 0.2965 -0.8951 -0.3330
vn 0.5203 -0.7480 -0.4121
vn 0.7126 -0.5728 -0.4052
vn 0.4504 -0.8652 -0.2203
vn 0.9267 -0.1837 -0.3280
vn 0.7961 0.6042 -0.0350
vn 0.6194 0.7524 -0.2240
vn 0.9019 0.1288 -0.4122
vn 0.5291 -0.8359 -0.1460
vn 0.3261 -0.5361 -0.7786
vn 0.2790 -0.2513 -0.9268
vn 0.2592 -0.9597 -0.1089
vn -0.7176 0.4937 0.4911
vn -0.8699 -0.2632 0.4172
vn -0.8302 -0.3515 0.4327
vn -0.8089 0.3763 0.4518
vn 0.0411 0.9966 -0.0720
vn -0.4595 0.8521 0.2507
vn -0.4713 0.8437 0.2569
vn 0.1414 0.9885 -0.0529
vn -0.8027 0.3204 0.5030
vn -0.7526 -0.3908 0.5299
vn -0.7220 -0.4154 0.5533
vn -0.7448 0.2697 0.6104
vn -0.2815 -0.9150 0.2889
vn 0.1072 -0.9940 0.0233
vn 0.5195 -0.8316 -0.1962
vn -0.0811 -0.9504 0.3004
vn 0.8632 0.0278 -0.5041
vn 0.5550 0.7500 -0.3598
vn 0.5781 0.7110 -0.4004
vn 0.9052 -0.1259 -0.4059
vn 0.5478 0.1123 0.8291
vn -0.4230 0.8766 0.2295
vn -0.2480 0.5804 0.7756
vn -0.1776 0.5373 0.8245
vn -0.2366 0.9566 0.1701
vn 0.2267 0.9500 0.2146
vn -0.2573 0.8915 0.3728
vn -0.4190 0.8627 0.2831
vn 0.1202 0.9922 0.0344
vn -0.1247 0.3676 -0.9216
vn -0.3808 0.8502 -0.3636
vn -0.1706 0.9349 -0.3112
vn -0.0257 0.6413 -0.7669
vn 0.3024 -0.3272 0.8953
vn 0.5308 -0.7675 0.3595
vn 0.1582 -0.9252 0.3450
vn 0.0172 -0.5337 0.8455
vn -0.2734 -0.5691 0.7755
vn -0.1855 -0.9332 0.3076
vn -0.2391 -0.9195 0.3120
vn -0.1486 -0.0376 0.9882
vn 0.2710 0.7466 -0.6076
vn 0.1771 0.9540 -0.2421
vn 0.2824 0.9349 -0.2152
vn 0.5362 0.2087 -0.8179
vn -0.0545 -0.9896 -0.1332
vn 0.3153 -0.2658 -0.9110
vn 0.2983 -0.2842 -0.9112
vn 0.1014 -0.9035 -0.4165
vn 0.0816 0.9892 0.1214
vn -0.1331 0.5252 0.8405
vn -0.1479 0.4966 0.8553
vn 0.1802 0.9131 0.3657
vn 0.9333 -0.1758 0.3131
vn 0.0522 -0.9958 0.0756
vn 0.4390 -0.8543 -0.2784
vn 0.1454 -0.9041 -0.4017
vn 0.4202 -0.6896 -0.5898
vn -0.8601 -0.3019 0.4111
vn -0.5256 -0.6805 0.5105
vn 0.2691 0.9554 0.1218
vn 0.6694 0.6884 -0.2793
vn -0.0196 0.7475 -0.6640
vn -0.6511 0.7446 -0.1467
vn 0.7820 0.0912 -0.6165
vn 0.0185 -0.8104 -0.5856
vn -0.2174 -0.5909 -0.7769
vn -0.2921 0.0837 -0.9527
vn -0.7864 -0.5967 0.1598
vn 0.4534 -0.3613 -0.8148
vn -0.9904 -0.0703 -0.1188
vn -0.4819 0.7759 -0.4071
vn -0.6376 0.6955 0.3314
vn -0.3427 0.8789 0.3319
vn 0.4303 -0.1072 0.8963
vn 0.4347 -0.1189 0.8927
vn -0.0790 -0.1419 0.9867
vn -0.0659 -0.1289 0.9895
vn -0.9598 0.1192 0.2541
vn -0.8141 0.3736 -0.4446
vn -0.9183 0.3672 -0.1480
vn -0.8201 0.2839 -0.4968
vn -0.5434 0.8129 -0.2098
vn -0.5200 -0.0909 0.8493
vn -0.5835 -0.0878 0.8073
vn 0.9981 0.0583 0.0203
vn 0.9974 0.0419 0.0586
vn 0.8521 -0.0356 0.5221
vn 0.8583 -0.0223 0.5127
vn 0.6701 0.1707 -0.7224
vn 0.1375 0.2686 -0.9534
vn -0.0880 0.3534 -0.9313
vn 0.6624 0.1787 -0.7275
vn -0.7818 -0.5602 -0.2739
vn -0.8504 0.5243 -0.0439
vn -0.4447 0.6792 -0.5838
vn -0.0017 0.9658 0.2592
vn 0.0104 0.9470 0.3210
vn 0.9270 0.3278 -0.1822
vn 0.3723 0.9221 0.1059
vn -0.4355 0.8054 -0.4020
vn -0.1179 -0.4645 -0.8777
vn -0.8437 0.4365 0.3125
vn 0.9193 0.1130 -0.3770
vn 0.9373 0.0980 -0.3345
vn 0.8991 0.1573 -0.4086
vn -0.0843 -0.0581 0.9947
vn -0.5652 0.4890 -0.6644
vn -0.8126 0.3417 -0.4722
vn 0.4219 -0.0432 0.9056
vn 0.1500 0.1923 -0.9698
vn -0.7217 0.4621 0.5153
vn -0.8274 0.4696 0.3080
vn -0.9263 -0.3750 -0.0367
vn 0.7510 0.6122 -0.2474
vn 0.8324 0.0200 -0.5538
vn 0.3557 0.9225 0.1499
vn 0.2497 -0.8962 0.3668
vn 0.2958 0.6724 0.6785
vn 0.9175 -0.3182 0.2386
vn 0.7387 -0.5619 -0.3722
vn 0.5915 -0.7390 -0.3226
vn -0.1368 -0.9661 0.2190
vn 0.0082 -0.4856 0.8742
vn 0.1641 0.9279 0.3347
vn 0.1983 0.5232 0.8288
vn -0.0399 -0.9535 -0.2988
vn -0.0183 0.9299 0.3674
vn 0.8338 0.2671 -0.4831
vn 0.8492 0.2603 -0.4595
vn 0.8238 0.2442 -0.5115
vn 0.5493 0.1987 -0.8116
vn 0.8786 0.2072 -0.4303
vn -0.8498 0.2467 0.4659
vn 0.9527 0.1205 -0.2791
vn 0.9524 0.2449 0.1817
vn 0.6907 0.3363 0.6402
vn 0.9014 0.4309 0.0425
vn 0.9316 0.3546 -0.0804
vn -0.6495 0.3563 0.6718
vn -0.5944 -0.7410 0.3124
vn -0.6283 -0.3810 0.6782
vn -0.5685 0.0224 0.8224
vn -0.3200 -0.8548 -0.4085
vn -0.4090 -0.4776 -0.7776
vn -0.4338 0.6669 -0.6059
vn -0.3942 0.4157 -0.8196
vn -0.4397 0.8666 -0.2358
vn -0.5387 0.4250 0.7274
vn -0.3602 0.8002 0.4796
vn 0.6369 0.0947 0.7651
vn 0.8274 0.4867 0.2803
vn 0.4567 0.1989 -0.8671
vn 0.2440 0.5523 -0.7971
vn 0.5674 -0.3587 -0.7413
vn 0.4334 -0.8989 0.0643
vn 0.2576 -0.9647 0.0545
vn 0.3938 -0.8792 0.2681
vn 0.4847 -0.4656 0.7405
vn 0.2010 -0.8350 0.5122
vn 0.1403 0.8571 0.4957
vn -0.1777 0.8825 0.4354
vn -0.1420 0.8961 0.4206
vn -0.0765 0.8967 0.4359
vn -0.4117 0.8967 0.1628
vn -0.1382 0.5474 -0.8254
vn 0.4113 -0.8833 -0.2250
vn -0.4482 0.0510 -0.8925
vn -0.0759 -0.9958 -0.0506
vn 0.4266 0.6239 0.6548
vn 0.2635 -0.8607 0.4356
usemtl None
s 1
f 1/1/1 193/2/2 250/3/3
f 4/4/4 248/5/5 292/6/6
f 7/7/7 233/8/8 360/9/9
f 1/1/1 290/10/10 193/2/2
f 2/11/11 170/12/12 234/13/13
f 4/4/4 292/6/6 181/14/14
f 10/15/15 145/16/16 335/17/17
f 12/18/18 215/19/19 264/20/20
f 12/18/18 264/20/20 322/21/21
f 12/22/18 322/23/21 141/24/22
f 10/15/15 162/25/23 151/26/24
f 16/27/25 278/28/26 231/29/27
f 16/27/25 231/29/27 236/30/28
f 18/31/29 300/32/30 367/33/31
f 21/34/32 352/35/33 160/36/34
f 18/31/29 349/37/35 174/38/36
f 21/34/32 226/39/37 352/35/33
f 21/34/32 160/36/34 183/40/38
f 25/41/39 289/42/40 122/43/41
f 25/41/39 122/43/41 305/44/42
f 9/45/43 240/46/44 208/47/45
f 27/48/46 282/49/47 249/50/48
f 25/41/39 169/51/49 172/52/50
f 27/53/46 249/54/48 272/55/51
f 29/56/52 164/57/53 168/58/54
f 29/56/52 286/59/55 127/60/56
f 30/61/57 366/62/58 149/63/59
f 30/64/57 149/65/59 348/66/60
f 22/67/61 342/68/62 339/69/63
f 31/70/64 132/71/65 131/72/66
f 32/73/67 271/74/68 206/75/69
f 33/76/70 326/77/71 316/78/72
f 32/79/67 137/80/73 265/81/74
f 3/82/75 374/83/76 331/84/77
f 2/11/11 234/13/13 212/85/78
f 1/1/1 250/3/3 235/86/79
f 1/1/1 235/86/79 304/87/80
f 1/1/1 304/87/80 290/10/10
f 12/22/18 141/24/22 270/88/81
f 10/15/15 151/26/24 145/16/16
f 12/18/18 270/89/81 215/19/19
f 10/15/15 321/90/82 162/25/23
f 16/27/25 148/91/83 278/28/26
f 18/31/29 372/92/84 300/32/30
f 16/27/25 236/30/28 179/93/85
f 18/31/29 367/33/31 349/37/35
f 16/27/25 179/93/85 148/91/83
f 25/41/39 172/52/50 289/42/40
f 9/45/43 139/94/86 337/95/87
f 25/41/39 305/44/42 194/96/88
f 25/41/39 194/96/88 169/51/49
f 29/56/52 190/97/89 164/57/53
f 29/56/52 168/58/54 286/59/55
f 29/98/52 127/99/56 273/100/90
f 23/101/91 191/102/92 308/103/93
f 29/98/52 273/100/90 147/104/94
f 29/98/52 147/104/94 190/105/89
f 32/73/67 265/106/74 199/107/95
f 31/70/64 296/108/96 132/71/65
f 32/73/67 199/107/95 271/74/68
f 33/109/70 316/110/72 281/111/97
f 32/79/67 206/112/69 137/80/73
f 31/113/64 269/114/98 296/115/96
f 33/109/70 281/111/97 178/116/99
f 450/117/100 354/118/101 37/119/102 159/120/103
f 449/121/104 347/122/105 41/123/106 136/124/107
f 448/125/108 317/126/109 45/127/110 142/128/111
f 447/129/112 373/130/113 46/131/114 129/132/115
f 446/133/116 125/134/117 42/135/118 221/136/119
f 445/137/120 128/138/121 36/139/122 291/140/123
f 444/141/124 119/142/125 53/143/126 187/144/127
f 443/145/128 150/146/129 38/147/130 256/148/131
f 41/149/106 229/150/132 136/151/107
f 442/152/133 311/153/134 47/154/135 336/155/136
f 43/156/137 198/157/138 260/158/139
f 441/159/140 243/160/141 55/161/142 310/162/143
f 440/163/144 268/164/145 59/165/146 324/166/147
f 439/167/148 224/168/149 62/169/150 276/170/151
f 438/171/152 134/172/153 45/127/110 259/173/154
f 437/174/155 167/175/156 66/176/157 356/177/158
f 436/178/159 267/179/160 65/180/161 154/181/162
f 435/182/163 211/183/164 64/184/165 121/185/166
f 434/186/167 284/187/168 67/188/169 275/189/170
f 433/190/171 267/179/160 61/191/172 279/192/173
f 432/193/174 167/175/156 65/180/161 161/194/175
f 431/195/176 153/196/177 58/197/178 220/198/179
f 430/199/180 144/200/181 70/201/182 323/202/183
f 429/203/184 124/204/185 74/205/186 319/206/187
f 428/207/188 204/208/189 77/209/190 313/210/191
f 427/211/192 323/202/183 70/201/182 252/212/193
f 426/213/194 365/214/195 75/215/196 302/216/197
f 78/217/198 232/218/199 365/214/195
f 425/219/200 210/220/201 79/221/202 262/222/203
f 424/223/204 346/224/205 82/225/206 329/226/207
f 423/227/208 176/228/209 83/229/210 216/230/211
f 422/231/212 166/232/213 85/233/214 328/234/215
f 421/235/216 133/236/217 80/237/218 350/238/219
f 420/239/220 155/240/221 87/241/222 207/242/223
f 419/243/224 223/244/225 88/245/226 213/246/227
f 418/247/228 345/248/229 86/249/230 203/250/231
f 417/251/232 218/252/233 84/253/234 255/254/235
f 416/255/236 120/256/237 89/257/238 364/258/239
f 415/259/240 303/260/241 90/261/242 295/262/243
f 414/263/244 186/264/245 92/265/246 228/266/247
f 413/267/248 266/268/249 91/269/250 227/270/251
f 412/271/252 175/272/253 93/273/254 370/274/255
f 411/275/256 140/276/257 95/277/258 173/278/259
f 410/279/260 344/280/261 94/281/262 363/282/263
f 409/283/264 340/284/265 96/285/266 242/286/267
f 408/287/268 363/288/263 94/289/262 370/290/255
f 407/291/269 126/292/270 97/293/271 333/294/272
f 406/295/273 294/296/274 99/297/275 274/298/276
f 405/299/277 258/300/278 101/301/279 123/302/280
f 404/303/281 301/304/282 102/305/283 377/306/284
f 403/307/285 362/308/286 98/309/287 309/310/288
f 402/311/289 244/312/290 105/313/291 298/314/292
f 401/315/293 378/316/294 107/317/295 241/318/296
f 400/319/297 185/320/298 108/321/299 189/322/300
f 97/323/271 274/298/276 185/324/298
f 399/325/301 287/326/302 106/327/303 297/328/304
f 398/329/305 241/330/296 107/331/295 189/332/300
f 397/333/306 202/334/307 109/335/308 307/336/309
f 396/337/310 375/338/311 104/339/312 196/340/313
f 395/341/314 209/342/315 110/343/316 188/344/317
f 394/345/318 371/346/319 103/347/320 361/348/321
f 393/349/322 247/350/323 111/351/324 182/352/325
f 392/353/326 246/354/327 113/355/328 358/356/329
f 391/357/330 165/358/331 114/359/332 253/360/333
f 390/361/334 184/362/335 112/363/336 293/364/337
f 113/365/328 293/366/337 369/367/338
f 114/368/332 358/369/329 253/370/333
f 389/371/339 158/372/340 72/373/341 232/218/199
f 72/374/341 158/375/340 197/376/342
f 78/217/198 251/377/343 118/378/344
f 388/379/345 318/380/346 115/381/347 245/382/348
f 387/383/349 192/384/350 117/385/351 152/386/352
f 115/387/347 152/388/352 245/389/348
f 386/390/353 192/391/350 73/392/354 200/393/355
f 385/394/356 138/395/357 68/396/358 200/393/355
f 384/397/359 376/398/360 57/399/361 306/400/362
f 60/401/363 157/402/364 257/403/365
f 383/404/366 357/405/367 53/406/126 119/407/125
f 382/408/368 327/409/369 60/410/363 259/173/154
f 381/411/370 312/412/371 56/413/372 239/414/373
f 380/415/374 351/416/375 52/417/376 314/418/377
f 58/419/378 254/420/379 153/421/380
f 379/422/381 268/423/145 58/424/178 153/425/382
f 54/426/383 187/427/127 243/428/141
f 243/428/141 368/429/384 55/430/142
f 243/428/141 187/427/127 368/429/384
f 187/427/127 53/406/126 368/429/384
f 368/429/384 379/422/381 153/425/382 55/430/142
f 53/406/126 357/405/367 379/422/381 368/429/384
f 357/405/367 59/431/146 268/423/145 379/422/381
f 153/421/380 135/432/385 55/433/386
f 153/421/380 254/420/379 135/432/385
f 254/420/379 76/434/387 135/432/385
f 143/435/388 380/415/374 314/418/377 51/436/389
f 40/437/390 279/192/173 380/415/374 143/435/388
f 279/192/173 61/191/172 351/416/375 380/415/374
f 347/122/105 381/411/370 239/414/373 41/123/106
f 40/437/390 143/435/388 381/411/370 347/122/105
f 143/435/388 51/436/389 312/412/371 381/411/370
f 317/126/109 382/408/368 259/173/154 45/127/110
f 44/438/391 306/400/362 382/408/368 317/126/109
f 306/400/362 57/399/361 327/409/369 382/408/368
f 157/402/364 383/404/366 119/407/125 52/439/376
f 60/401/363 324/440/147 383/404/366 157/402/364
f 324/440/147 59/431/146 357/405/367 383/404/366
f 257/403/365 225/441/392 63/442/393
f 257/403/365 157/402/364 225/441/392
f 157/402/364 52/439/376 225/441/392
f 263/443/394 384/397/359 306/400/362 44/438/391
f 41/149/106 239/444/373 384/397/359 263/443/394
f 239/444/373 56/445/372 376/398/360 384/397/359
f 343/446/395 385/394/356 200/393/355 73/392/354
f 55/433/386 135/432/385 385/394/356 343/446/395
f 135/432/385 76/434/387 138/395/357 385/394/356
f 261/447/396 386/390/353 200/393/355 68/396/358
f 116/448/397 280/449/398 386/390/353 261/447/396
f 280/449/398 117/450/351 192/391/350 386/390/353
f 245/389/348 280/451/398 116/452/397
f 245/389/348 152/388/352 280/451/398
f 152/388/352 117/453/351 280/451/398
f 318/380/346 387/383/349 152/386/352 115/381/347
f 71/454/399 330/455/400 387/383/349 318/380/346
f 330/455/400 73/456/354 192/384/350 387/383/349
f 261/457/396 388/379/345 245/382/348 116/458/397
f 68/459/358 320/460/401 388/379/345 261/457/396
f 320/460/401 71/454/399 318/380/346 388/379/345
f 118/378/344 254/461/379 58/462/378
f 118/378/344 251/377/343 254/461/379
f 251/377/343 76/463/387 254/461/379
f 197/376/342 343/464/395 73/456/354
f 197/376/342 158/375/340 343/464/395
f 158/375/340 55/465/386 343/464/395
f 118/378/344 389/371/339 232/218/199 78/217/198
f 58/462/378 153/466/402 389/371/339 118/378/344
f 153/466/402 55/467/386 158/372/340 389/371/339
f 253/370/333 369/367/338 111/468/324
f 253/370/333 358/369/329 369/367/338
f 358/369/329 113/365/328 369/367/338
f 369/367/338 182/469/325 111/468/324
f 369/367/338 293/366/337 182/469/325
f 293/366/337 112/470/336 182/469/325
f 246/354/327 390/361/334 293/364/337 113/355/328
f 110/343/316 307/336/309 390/361/334 246/354/327
f 307/336/309 109/335/308 184/362/335 390/361/334
f 247/350/323 391/357/330 253/360/333 111/351/324
f 103/347/320 377/306/284 391/357/330 247/350/323
f 377/306/284 102/305/283 165/358/331 391/357/330
f 165/471/331 392/353/326 358/356/329 114/472/332
f 102/473/283 188/344/317 392/353/326 165/471/331
f 188/344/317 110/343/316 246/354/327 392/353/326
f 184/362/335 393/349/322 182/352/325 112/363/336
f 109/335/308 361/348/321 393/349/322 184/362/335
f 361/348/321 103/347/320 247/350/323 393/349/322
f 202/334/307 394/345/318 361/348/321 109/335/308
f 79/474/202 201/475/403 394/345/318 202/334/307
f 201/475/403 100/476/404 371/346/319 394/345/318
f 301/477/282 395/341/314 188/344/317 102/473/283
f 85/478/214 350/479/219 395/341/314 301/477/282
f 350/479/219 80/480/218 209/342/315 395/341/314
f 258/300/278 396/337/310 196/340/313 101/301/279
f 100/481/404 201/482/403 396/337/310 258/300/278
f 201/482/403 79/221/202 375/338/311 396/337/310
f 209/342/315 397/333/306 307/336/309 110/343/316
f 80/480/218 262/483/203 397/333/306 209/342/315
f 262/483/203 79/474/202 202/334/307 397/333/306
f 297/484/304 398/329/305 189/332/300 108/485/299
f 106/486/303 298/487/292 398/329/305 297/484/304
f 298/487/292 105/488/291 241/330/296 398/329/305
f 195/489/405 399/325/301 297/328/304 108/490/299
f 99/297/275 123/302/280 399/325/301 195/489/405
f 123/302/280 101/301/279 287/326/302 399/325/301
f 185/324/298 195/489/405 108/490/299
f 185/324/298 274/298/276 195/489/405
f 274/298/276 99/297/275 195/489/405
f 378/316/294 400/319/297 189/322/300 107/317/295
f 98/309/287 333/294/272 400/319/297 378/316/294
f 333/294/272 97/293/271 185/320/298 400/319/297
f 244/312/290 401/315/293 241/318/296 105/313/291
f 104/339/312 309/310/288 401/315/293 244/312/290
f 309/310/288 98/309/287 378/316/294 401/315/293
f 287/326/302 402/311/289 298/314/292 106/327/303
f 101/301/279 196/340/313 402/311/289 287/326/302
f 196/340/313 104/339/312 244/312/290 402/311/289
f 375/338/311 403/307/285 309/310/288 104/339/312
f 79/221/202 329/226/207 403/307/285 375/338/311
f 329/226/207 82/225/206 362/308/286 403/307/285
f 371/346/319 404/303/281 377/306/284 103/347/320
f 100/476/404 355/491/406 404/303/281 371/346/319
f 355/491/406 85/492/214 301/304/282 404/303/281
f 294/296/274 405/299/277 123/302/280 99/297/275
f 85/233/214 355/493/406 405/299/277 294/296/274
f 355/493/406 100/481/404 258/300/278 405/299/277
f 126/494/270 406/295/273 274/298/276 97/323/271
f 86/495/230 328/234/215 406/295/273 126/494/270
f 328/234/215 85/233/214 294/296/274 406/295/273
f 362/308/286 407/291/269 333/294/272 98/309/287
f 82/225/206 203/250/231 407/291/269 362/308/286
f 203/250/231 86/249/230 126/292/270 407/291/269
f 173/496/259 408/287/268 370/290/255 93/497/254
f 95/498/258 242/499/267 408/287/268 173/496/259
f 242/499/267 96/500/266 363/288/263 408/287/268
f 140/276/257 409/283/264 242/286/267 95/277/258
f 91/269/250 295/262/243 409/283/264 140/276/257
f 295/262/243 90/261/242 340/284/265 409/283/264
f 340/501/265 410/279/260 363/282/263 96/502/266
f 90/503/242 364/258/239 410/279/260 340/501/265
f 364/258/239 89/257/238 344/280/261 410/279/260
f 175/272/253 411/275/256 173/278/259 93/273/254
f 92/265/246 227/270/251 411/275/256 175/272/253
f 227/270/251 91/269/250 140/276/257 411/275/256
f 344/280/261 412/271/252 370/274/255 94/281/262
f 89/257/238 228/266/247 412/271/252 344/280/261
f 228/266/247 92/265/246 175/272/253 412/271/252
f 186/264/245 413/267/248 227/270/251 92/265/246
f 83/229/210 213/246/227 413/267/248 186/264/245
f 213/246/227 88/245/226 266/268/249 413/267/248
f 120/256/237 414/263/244 228/266/247 89/257/238
f 84/253/234 216/230/211 414/263/244 120/256/237
f 216/230/211 83/229/210 186/264/245 414/263/244
f 266/268/249 415/259/240 295/262/243 91/269/250
f 88/245/226 207/242/223 415/259/240 266/268/249
f 207/242/223 87/241/222 303/260/241 415/259/240
f 303/504/241 416/255/236 364/258/239 90/503/242
f 87/505/222 255/254/235 416/255/236 303/504/241
f 255/254/235 84/253/234 120/256/237 416/255/236
f 155/506/221 417/251/232 255/254/235 87/505/222
f 75/507/196 299/508/407 417/251/232 155/506/221
f 299/508/407 81/509/408 218/252/233 417/251/232
f 346/224/205 418/247/228 203/250/231 82/225/206
f 81/510/408 299/511/407 418/247/228 346/224/205
f 299/511/407 75/512/196 345/248/229 418/247/228
f 176/228/209 419/243/224 213/246/227 83/229/210
f 69/513/409 313/514/191 419/243/224 176/228/209
f 313/514/191 77/515/190 223/244/225 419/243/224
f 223/244/225 420/239/220 207/242/223 88/245/226
f 77/515/190 302/516/197 420/239/220 223/244/225
f 302/516/197 75/517/196 155/240/221 420/239/220
f 166/232/213 421/235/216 350/238/219 85/233/214
f 74/205/186 252/212/193 421/235/216 166/232/213
f 252/212/193 70/201/182 133/236/217 421/235/216
f 345/518/229 422/231/212 328/234/215 86/495/230
f 75/519/196 319/206/187 422/231/212 345/518/229
f 319/206/187 74/205/186 166/232/213 422/231/212
f 218/252/233 423/227/208 216/230/211 84/253/234
f 81/509/408 315/520/410 423/227/208 218/252/233
f 315/520/410 69/513/409 176/228/209 423/227/208
f 210/220/201 424/223/204 329/226/207 79/221/202
f 69/521/409 315/522/410 424/223/204 210/220/201
f 315/522/410 81/510/408 346/224/205 424/223/204
f 133/236/217 425/219/200 262/222/203 80/237/218
f 70/201/182 144/200/181 425/219/200 133/236/217
f 144/200/181 69/521/409 210/220/201 425/219/200
f 365/214/195 288/523/411 75/215/196
f 365/214/195 232/218/199 288/523/411
f 232/218/199 72/373/341 288/523/411
f 204/208/189 426/213/194 302/216/197 77/209/190
f 76/463/387 251/377/343 426/213/194 204/208/189
f 251/377/343 78/217/198 365/214/195 426/213/194
f 124/204/185 427/211/192 252/212/193 74/205/186
f 73/456/354 330/455/400 427/211/192 124/204/185
f 330/455/400 71/454/399 323/202/183 427/211/192
f 219/524/412 428/207/188 313/210/191 69/521/409
f 68/459/358 138/525/357 428/207/188 219/524/412
f 138/525/357 76/463/387 204/208/189 428/207/188
f 288/526/411 429/203/184 319/206/187 75/519/196
f 72/374/341 197/376/342 429/203/184 288/526/411
f 197/376/342 73/456/354 124/204/185 429/203/184
f 320/460/401 430/199/180 323/202/183 71/454/399
f 68/459/358 219/524/412 430/199/180 320/460/401
f 219/524/412 69/521/409 144/200/181 430/199/180
f 376/398/360 431/195/176 220/198/179 57/399/361
f 56/445/372 310/527/143 431/195/176 376/398/360
f 310/527/143 55/528/142 153/196/177 431/195/176
f 222/529/413 432/193/174 161/194/175 39/530/414
f 49/531/415 214/532/416 432/193/174 222/529/413
f 214/532/416 66/176/157 167/175/156 432/193/174
f 285/533/417 433/190/171 279/192/173 40/437/390
f 39/530/414 161/194/175 433/190/171 285/533/417
f 161/194/175 65/180/161 267/179/160 433/190/171
f 129/132/115 434/186/167 275/189/170 48/534/418
f 46/131/114 121/185/166 434/186/167 129/132/115
f 121/185/166 64/184/165 284/187/168 434/186/167
f 142/128/111 435/182/163 121/185/166 46/131/114
f 45/127/110 134/172/153 435/182/163 142/128/111
f 134/172/153 62/169/150 211/183/164 435/182/163
f 211/183/164 436/178/159 154/181/162 64/184/165
f 62/169/150 224/168/149 436/178/159 211/183/164
f 224/168/149 61/191/172 267/179/160 436/178/159
f 284/187/168 437/174/155 356/177/158 67/188/169
f 64/184/165 154/181/162 437/174/155 284/187/168
f 154/181/162 65/180/161 167/175/156 437/174/155
f 257/535/365 438/171/152 259/173/154 60/410/363
f 63/536/393 276/170/151 438/171/152 257/535/365
f 276/170/151 62/169/150 134/172/153 438/171/152
f 225/537/392 439/167/148 276/170/151 63/536/393
f 52/417/376 351/416/375 439/167/148 225/537/392
f 351/416/375 61/191/172 224/168/149 439/167/148
f 327/409/369 440/163/144 324/166/147 60/410/363
f 57/399/361 220/198/179 440/163/144 327/409/369
f 220/198/179 58/197/178 268/164/145 440/163/144
f 312/412/371 441/159/140 310/162/143 56/413/372
f 51/436/389 177/538/419 441/159/140 312/412/371
f 177/538/419 54/539/383 243/160/141 441/159/140
f 260/158/139 128/138/121 44/438/391
f 260/158/139 198/157/138 128/138/121
f 198/157/138 36/139/122 128/138/121
f 354/118/101 442/152/133 336/155/136 37/119/102
f 36/139/122 198/157/138 442/152/133 354/118/101
f 198/157/138 43/156/137 311/153/134 442/152/133
f 136/151/107 146/540/420 42/541/118
f 136/151/107 229/150/132 146/540/420
f 229/150/132 35/542/421 146/540/420
f 221/543/119 443/145/128 256/148/131 50/544/422
f 42/541/118 146/540/420 443/145/128 221/543/119
f 146/540/420 35/542/421 150/146/129 443/145/128
f 177/538/419 444/141/124 187/144/127 54/539/383
f 51/436/389 314/418/377 444/141/124 177/538/419
f 314/418/377 52/417/376 119/142/125 444/141/124
f 229/150/132 445/137/120 291/140/123 35/542/421
f 41/149/106 263/443/394 445/137/120 229/150/132
f 263/443/394 44/438/391 128/138/121 445/137/120
f 205/545/423 446/133/116 221/136/119 50/546/422
f 49/531/415 222/529/413 446/133/116 205/545/423
f 222/529/413 39/530/414 125/134/117 446/133/116
f 277/547/424 447/129/112 129/132/115 48/534/418
f 47/154/135 311/153/134 447/129/112 277/547/424
f 311/153/134 43/156/137 373/130/113 447/129/112
f 373/130/113 448/125/108 142/128/111 46/131/114
f 43/156/137 260/158/139 448/125/108 373/130/113
f 260/158/139 44/438/391 317/126/109 448/125/108
f 125/134/117 449/121/104 136/124/107 42/135/118
f 39/530/414 285/533/417 449/121/104 125/134/117
f 285/533/417 40/437/390 347/122/105 449/121/104
f 150/146/129 450/117/100 159/120/103 38/147/130
f 35/542/421 291/140/123 450/117/100 150/146/129
f 291/140/123 36/139/122 354/118/101 450/117/100
f 178/116/99 331/84/77 34/548/425
f 178/116/99 281/111/97 331/84/77
f 281/111/97 3/82/75 331/84/77
f 296/115/96 130/549/426 26/550/427
f 296/115/96 269/114/98 130/549/426
f 269/114/98 34/548/425 130/549/426
f 137/80/73 178/116/99 34/548/425
f 137/80/73 206/112/69 178/116/99
f 206/112/69 33/109/70 178/116/99
f 281/111/97 217/551/428 3/82/75
f 281/111/97 316/110/72 217/551/428
f 316/110/72 11/552/429 217/551/428
f 271/74/68 334/553/430 13/554/431
f 271/74/68 199/107/95 334/553/430
f 199/107/95 17/555/432 334/553/430
f 132/71/65 332/556/433 19/557/434
f 132/71/65 296/108/96 332/556/433
f 296/108/96 26/558/427 332/556/433
f 199/107/95 131/72/66 17/555/432
f 199/107/95 265/106/74 131/72/66
f 265/106/74 31/70/64 131/72/66
f 190/105/89 339/69/63 28/559/435
f 190/105/89 147/104/94 339/69/63
f 147/104/94 22/67/61 339/69/63
f 147/104/94 283/560/436 22/67/61
f 147/104/94 273/100/90 283/560/436
f 273/100/90 23/101/91 283/560/436
f 308/103/93 341/561/437 14/562/438
f 308/103/93 191/102/92 341/561/437
f 191/102/92 15/563/439 341/561/437
f 273/100/90 348/66/60 23/101/91
f 273/100/90 127/99/56 348/66/60
f 127/99/56 30/64/57 348/66/60
f 286/59/55 171/564/440 5/565/441
f 286/59/55 168/58/54 171/564/440
f 168/58/54 6/566/442 171/564/440
f 164/57/53 353/567/443 8/568/444
f 164/57/53 190/97/89 353/567/443
f 190/97/89 28/569/435 353/567/443
f 169/51/49 272/55/51 24/570/445
f 169/51/49 194/96/88 272/55/51
f 194/96/88 27/53/46 272/55/51
f 194/96/88 208/571/45 27/53/46
f 194/96/88 305/44/42 208/571/45
f 305/44/42 9/572/43 208/571/45
f 337/95/87 130/549/426 34/548/425
f 337/95/87 139/94/86 130/549/426
f 139/94/86 26/550/427 130/549/426
f 289/42/40 238/573/446 19/557/434
f 289/42/40 172/52/50 238/573/446
f 172/52/50 20/574/447 238/573/446
f 148/91/83 183/40/38 14/562/438
f 148/91/83 179/93/85 183/40/38
f 179/93/85 21/34/32 183/40/38
f 349/37/35 359/575/448 24/570/445
f 349/37/35 367/33/31 359/575/448
f 367/33/31 20/574/447 359/575/448
f 179/93/85 174/38/36 21/34/32
f 179/93/85 236/30/28 174/38/36
f 236/30/28 18/31/29 174/38/36
f 300/32/30 180/576/449 19/557/434
f 300/32/30 372/92/84 180/576/449
f 372/92/84 17/555/432 180/576/449
f 278/28/26 156/577/450 13/554/431
f 278/28/26 148/91/83 156/577/450
f 148/91/83 14/562/438 156/577/450
f 162/25/23 230/578/451 5/565/441
f 162/25/23 321/90/82 230/578/451
f 321/90/82 15/579/439 230/578/451
f 215/19/19 325/580/452 13/554/431
f 215/19/19 270/89/81 325/580/452
f 270/89/81 11/581/429 325/580/452
f 145/16/16 237/582/453 3/82/75
f 145/16/16 151/26/24 237/582/453
f 151/26/24 7/7/7 237/582/453
f 270/88/81 335/17/17 11/552/429
f 270/88/81 141/24/22 335/17/17
f 141/24/22 10/15/15 335/17/17
f 290/10/10 181/14/14 8/568/444
f 290/10/10 304/87/80 181/14/14
f 304/87/80 4/4/4 181/14/14
f 304/87/80 360/9/9 4/4/4
f 304/87/80 235/86/79 360/9/9
f 235/86/79 7/7/7 360/9/9
f 235/86/79 237/582/453 7/7/7
f 235/86/79 250/3/3 237/582/453
f 250/3/3 3/82/75 237/582/453
f 212/85/78 337/95/87 34/548/425
f 212/85/78 234/13/13 337/95/87
f 234/13/13 9/45/43 337/95/87
f 331/84/77 212/85/78 34/548/425
f 331/84/77 374/83/76 212/85/78
f 374/83/76 2/11/11 212/85/78
f 265/81/74 269/114/98 31/113/64
f 265/81/74 137/80/73 269/114/98
f 137/80/73 34/548/425 269/114/98
f 316/78/72 325/580/452 11/581/429
f 316/78/72 326/77/71 325/580/452
f 326/77/71 13/554/431 325/580/452
f 206/75/69 326/77/71 33/76/70
f 206/75/69 271/74/68 326/77/71
f 271/74/68 13/554/431 326/77/71
f 131/72/66 180/576/449 17/555/432
f 131/72/66 132/71/65 180/576/449
f 132/71/65 19/557/434 180/576/449
f 339/69/63 338/583/454 28/559/435
f 339/69/63 342/68/62 338/583/454
f 342/68/62 24/570/445 338/583/454
f 348/66/60 191/102/92 23/101/91
f 348/66/60 149/65/59 191/102/92
f 149/65/59 15/563/439 191/102/92
f 149/63/59 230/578/451 15/579/439
f 149/63/59 366/62/58 230/578/451
f 366/62/58 5/565/441 230/578/451
f 127/60/56 366/62/58 30/61/57
f 127/60/56 286/59/55 366/62/58
f 286/59/55 5/565/441 366/62/58
f 168/58/54 163/584/455 6/566/442
f 168/58/54 164/57/53 163/584/455
f 164/57/53 8/568/444 163/584/455
f 272/55/51 338/583/454 24/570/445
f 272/55/51 249/54/48 338/583/454
f 249/54/48 28/559/435 338/583/454
f 172/52/50 359/575/448 20/574/447
f 172/52/50 169/51/49 359/575/448
f 169/51/49 24/570/445 359/575/448
f 249/50/48 353/567/443 28/569/435
f 249/50/48 282/49/47 353/567/443
f 282/49/47 8/568/444 353/567/443
f 208/47/45 282/49/47 27/48/46
f 208/47/45 240/46/44 282/49/47
f 240/46/44 8/568/444 282/49/47
f 305/44/42 139/585/86 9/572/43
f 305/44/42 122/43/41 139/585/86
f 122/43/41 26/558/427 139/585/86
f 122/43/41 332/556/433 26/558/427
f 122/43/41 289/42/40 332/556/433
f 289/42/40 19/557/434 332/556/433
f 183/40/38 308/103/93 14/562/438
f 183/40/38 160/36/34 308/103/93
f 160/36/34 23/101/91 308/103/93
f 352/35/33 342/68/62 22/67/61
f 352/35/33 226/39/37 342/68/62
f 226/39/37 24/570/445 342/68/62
f 174/38/36 226/39/37 21/34/32
f 174/38/36 349/37/35 226/39/37
f 349/37/35 24/570/445 226/39/37
f 160/36/34 283/560/436 23/101/91
f 160/36/34 352/35/33 283/560/436
f 352/35/33 22/67/61 283/560/436
f 367/33/31 238/573/446 20/574/447
f 367/33/31 300/32/30 238/573/446
f 300/32/30 19/557/434 238/573/446
f 236/30/28 372/92/84 18/31/29
f 236/30/28 231/29/27 372/92/84
f 231/29/27 17/555/432 372/92/84
f 231/29/27 334/553/430 17/555/432
f 231/29/27 278/28/26 334/553/430
f 278/28/26 13/554/431 334/553/430
f 151/26/24 233/8/8 7/7/7
f 151/26/24 162/25/23 233/8/8
f 162/25/23 5/565/441 233/8/8
f 141/24/22 321/90/82 10/15/15
f 141/24/22 322/23/21 321/90/82
f 322/23/21 15/579/439 321/90/82
f 322/21/21 341/561/437 15/563/439
f 322/21/21 264/20/20 341/561/437
f 264/20/20 14/562/438 341/561/437
f 264/20/20 156/577/450 14/562/438
f 264/20/20 215/19/19 156/577/450
f 215/19/19 13/554/431 156/577/450
f 335/17/17 217/551/428 11/552/429
f 335/17/17 145/16/16 217/551/428
f 145/16/16 3/82/75 217/551/428
f 181/14/14 163/584/455 8/568/444
f 181/14/14 292/6/6 163/584/455
f 292/6/6 6/566/442 163/584/455
f 234/13/13 240/46/44 9/45/43
f 234/13/13 170/12/12 240/46/44
f 170/12/12 8/568/444 240/46/44
f 193/2/2 170/12/12 2/11/11
f 193/2/2 290/10/10 170/12/12
f 290/10/10 8/568/444 170/12/12
f 360/9/9 248/5/5 4/4/4
f 360/9/9 233/8/8 248/5/5
f 233/8/8 5/565/441 248/5/5
f 292/6/6 171/564/440 6/566/442
f 292/6/6 248/5/5 171/564/440
f 248/5/5 5/565/441 171/564/440
f 250/3/3 374/83/76 3/82/75
f 250/3/3 193/2/2 374/83/76
f 193/2/2 2/11/11 374/83/76
