# Blender v2.78 (sub 0) OBJ File: ''
# www.blender.org
mtllib Birch_Tree_m_08.mtl
o Birch_Tree_m_08
v 0.084849 0.050955 0.090636
v 0.013328 0.434259 0.089363
v -0.131167 0.411003 0.083572
v -0.081585 0.037999 0.088611
v -0.136106 1.169657 0.069991
v -0.240757 1.152970 0.069991
v -0.167921 0.408949 -0.033894
v -0.273097 1.147814 -0.030890
v -0.188431 1.161313 -0.093238
v -0.049672 0.409166 -0.112803
v -0.111675 0.037789 -0.035478
v 0.013440 0.051321 -0.125487
v -0.097767 1.180660 -0.032995
v -0.299941 2.548155 -0.026931
v -0.325150 2.543133 0.052181
v -0.406727 2.526880 0.052181
v -0.431935 2.521858 -0.026931
v -0.365938 2.535007 -0.075826
v -0.500561 4.040131 -0.047869
v -0.463667 4.047615 -0.020518
v -0.477759 4.044756 0.023736
v -0.523363 4.035506 0.023736
v -0.537455 4.032649 -0.020518
v 0.119208 0.529649 -0.061120
v 0.220116 0.362676 -0.009830
v 0.443979 1.200239 -0.254000
v 0.375375 1.251338 -0.280201
v 0.156485 0.348011 -0.145523
v 0.206391 0.023026 -0.050737
v 0.267486 0.290615 -0.101475
v 0.467325 1.167258 -0.310825
v 0.389709 1.205430 -0.342302
v 0.614144 2.655610 -0.429051
v 0.658099 2.644526 -0.415214
v 0.643406 2.652704 -0.383683
v 0.604309 2.667307 -0.394126
v 0.136311 0.906983 0.213043
v 0.030627 0.942851 0.258509
v 0.080915 1.867894 0.455055
v 0.006352 1.890224 0.486493
v 0.068104 0.953996 0.172427
v 0.044042 2.921499 0.631534
v -0.001637 2.934988 0.650780
v 0.026927 1.886723 0.423212
v 0.010642 2.932070 0.611945
v 0.107924 4.268257 1.061894
v -0.131869 4.366990 0.996902
v -0.128709 3.828450 1.144985
v -0.051241 3.310831 1.016648
v 0.183176 3.211197 0.918091
v 0.269901 3.719105 0.998528
v -0.400457 3.856894 0.931139
v -0.210333 4.471257 0.798505
v -0.449553 3.946984 0.658601
v -0.220344 4.381248 0.535617
v -0.357399 3.743213 0.438622
v -0.360529 3.306403 0.714264
v -0.101326 4.039701 0.356549
v -0.005951 4.454775 0.578042
v 0.219970 3.932855 0.428349
v -0.008028 3.354627 0.343386
v -0.248239 3.256449 0.445841
v 0.111914 4.452184 0.808002
v 0.353054 4.000641 0.740097
v 0.323499 3.369403 0.609495
v 0.118688 3.004088 0.670420
v -0.109094 2.997340 0.626640
v 1.289922 4.598965 -0.589590
v 1.207358 4.843904 -0.355546
v 1.314736 3.982457 -0.239216
v 1.060543 3.147028 -0.300360
v 0.980537 2.946988 -0.594840
v 1.213927 3.732932 -0.739579
v 0.996344 4.080116 0.034083
v 0.940897 4.939521 -0.236022
v 0.667138 4.236492 0.013266
v 0.622252 4.802693 -0.322923
v 0.375880 3.885756 -0.108341
v 0.672087 3.190895 0.020927
v 0.408994 4.278830 -0.483817
v 0.704401 4.883906 -0.586760
v 0.500248 4.115200 -0.878158
v 0.308164 3.206119 -0.506010
v 0.365307 3.090898 -0.171011
v 0.978103 4.891888 -0.684843
v 0.951576 4.186757 -0.916015
v 0.711165 3.173097 -0.847401
v 0.691359 2.623133 -0.527089
v 0.587560 2.652156 -0.257604
v -0.415454 4.267568 0.575640
v -0.189705 4.042666 0.221522
v 0.024526 5.189387 0.440464
v -0.164541 6.340789 0.386483
v -0.564264 6.593044 0.524996
v -0.637866 5.484491 0.700235
v 0.133675 5.137952 -0.136616
v -0.319098 3.840767 -0.124862
v -0.113997 4.981106 -0.544791
v -0.588032 4.076995 -0.468738
v -0.455026 5.466495 -0.714877
v -0.101871 6.371517 -0.344209
v -0.904334 4.857520 -0.550014
v -0.823578 3.929075 -0.179922
v -1.226295 5.106009 -0.096338
v -0.969346 6.355840 -0.430814
v -0.537882 6.532170 -0.561362
v -0.720088 3.908518 0.245824
v -1.058948 4.920954 0.447810
v -1.101732 6.310287 0.277557
v -0.734634 7.076541 0.145738
v -0.490160 7.078455 -0.162845
v -0.336799 4.196907 0.868172
v 0.453977 2.851350 -0.208177
v 0.248712 4.168056 0.916463
v 0.337209 0.722116 -0.142703
v 0.057841 4.462278 0.681555
v 0.113930 3.508458 1.054425
v 0.372127 4.099521 -0.300424
v 0.061093 2.444981 0.554791
v 0.479839 3.142970 -0.715420
v 0.233927 0.122070 -0.068133
v 0.290506 3.625630 0.484816
v -0.004741 4.067715 1.123367
v 0.072728 0.178831 -0.134451
v 0.486500 4.397818 -0.205169
v 0.126730 3.632319 0.354336
v 0.051864 0.326199 -0.125011
v -0.061853 3.717153 0.321817
v 0.010506 1.890339 0.454826
v -0.276191 1.812323 -0.085268
v 0.736784 4.558950 -0.824851
v -0.085623 3.094292 0.819082
v 0.096788 0.686287 0.059550
v -0.017793 0.207885 -0.125858
v 0.019309 1.392334 0.372370
v -0.885674 5.183359 0.600625
v 1.275930 4.434957 -0.267058
v -0.345925 4.463041 -0.524381
v -0.228647 3.107600 0.689166
v -0.120984 0.753402 -0.101296
v 0.056530 5.812502 -0.236663
v -0.124023 0.411352 -0.078536
v -0.169372 4.239875 0.439379
v -0.057060 3.108117 0.470408
v 0.366533 3.695733 0.662448
v 1.153685 4.790917 -0.652633
v 0.070208 3.775578 1.104909
v -0.200145 1.826300 -0.029085
v 0.545435 4.615291 -0.563835
v -0.174673 4.430439 0.905596
v 0.085136 0.922703 0.241737
v -0.323190 1.803684 0.061823
v -0.640022 6.861386 0.363379
v 0.421323 4.180226 -0.685831
v -0.492807 3.349767 -0.023679
v -0.264719 1.149078 0.022118
v -0.521628 4.035858 -0.037874
v 0.979802 3.441853 -0.836099
v 0.219682 3.140444 0.619973
v 0.196207 4.015216 1.044040
v 0.193837 0.481103 -0.040782
v -0.497644 6.102135 -0.646874
v -0.188432 1.161313 0.078300
v 0.637687 2.625875 -0.393473
v -0.420671 3.847840 0.551150
v 0.501137 2.006186 -0.346291
v -0.466473 4.047046 0.003015
v -0.354624 5.919770 0.608821
v -0.181124 0.744501 0.077160
v -0.035684 5.722790 0.434650
v 0.113946 0.336900 0.060214
v 0.637528 2.649271 -0.425770
v 1.082870 4.912531 -0.291035
v -0.703570 5.135642 -0.658850
v -0.352965 4.226519 0.732428
v -0.919812 4.388760 0.355830
v 0.055690 0.208377 0.090153
v -0.086445 6.413038 0.011726
v -1.035441 4.431571 -0.148553
v -0.000581 2.935076 0.631340
v 0.032241 0.651137 0.163969
v 1.088807 3.277360 -0.673195
v 0.872589 3.128092 -0.103706
v 0.121037 4.387994 0.945860
v 0.313588 3.957992 0.579714
v 1.277915 4.199354 -0.669705
v -0.309467 3.252164 0.561743
v 0.022561 2.927752 0.644912
v 0.722557 4.136671 -0.930664
v 0.639316 4.568025 -0.144341
v 0.057595 3.975984 0.365737
v 0.099139 3.247492 0.980263
v 0.000429 2.462894 0.580352
v 0.129757 0.026558 -0.100051
v 0.512608 1.981985 -0.395438
v 0.670711 2.822881 -0.683588
v -0.015146 4.339936 1.046995
v 1.145007 4.438314 -0.772196
v 1.300699 3.856493 -0.480684
v 0.490698 2.811801 -0.535685
v 0.043899 3.091287 0.851068
v 0.314674 3.125877 -0.303928
v 0.108507 0.929256 0.186734
v -1.223255 5.770553 0.068926
v 1.268580 4.757096 -0.471396
v 0.492467 3.094174 -0.067011
v -0.137135 0.192434 -0.035342
v -0.911532 5.907752 0.540071
v 0.032057 5.078199 -0.371523
v -0.155485 3.288237 0.384318
v -0.515033 4.707545 -0.628733
v 0.002325 4.509926 0.044882
v 0.874308 2.777945 -0.415330
v 0.078475 3.117985 0.496453
v 0.335137 3.540537 0.810521
v -0.035598 4.592336 0.319066
v -0.740978 6.867013 -0.310664
v 0.322906 3.782640 -0.499805
v -0.425503 2.523118 0.014671
v -0.229192 1.820961 0.061823
v -0.791644 3.901914 0.023224
v 0.057629 5.793241 0.120543
v -0.279717 4.147320 0.978957
v -0.572768 4.026944 0.435740
v 0.655338 2.647497 -0.398223
v -0.352237 1.798346 -0.029085
v 0.173234 0.597365 0.100425
v -0.479493 4.044405 -0.037874
v -0.158729 0.409515 0.027836
v -0.229628 3.280600 0.877628
v -0.235580 1.153751 -0.068786
v -0.344818 4.194407 0.593033
v 0.221720 0.312910 -0.130300
v -1.158187 5.762513 -0.280422
v 0.554441 1.977976 -0.328829
v 0.003145 0.793943 -0.044646
v -0.329125 2.542355 -0.056736
v -0.730253 5.893756 -0.639575
v 0.808651 4.617535 -0.083315
v 0.376056 1.232005 -0.313766
v -0.063843 0.759380 0.076108
v -0.514056 3.743055 0.074807
v -1.131337 5.596746 0.377700
v -0.473354 3.353713 0.037412
v 1.179258 4.012036 -0.091525
v 0.520328 4.068861 -0.028427
v -0.707677 3.917609 -0.328589
v -0.278743 6.818729 -0.220589
v 0.509344 4.584128 -0.397907
v -0.960801 5.567091 -0.535418
v 0.195278 4.229497 0.610402
v 0.233435 3.426000 0.957072
v -0.247954 5.948213 -0.581566
v -0.590650 3.749718 -0.131193
v -0.063540 5.675754 -0.486016
v 0.827969 3.697775 -0.922628
v 1.334729 4.320274 -0.420595
v 0.045671 1.393395 0.298463
v 0.567759 3.607071 -0.890030
v 0.430150 1.183176 -0.331925
v 1.123800 4.955539 -0.514160
v 0.425323 2.820104 -0.375324
v 0.185117 3.334175 0.450319
v -0.039320 4.269991 0.451416
v 0.574037 1.958647 -0.373201
v 0.296505 3.563723 -0.294405
v 0.256493 0.816196 -0.177755
v -0.068125 0.038064 -0.089026
v 0.823706 4.899805 -0.644251
v 0.058416 1.876036 0.434629
v -0.458286 3.898253 -0.311374
v 1.039346 3.019430 -0.483529
v -0.522893 4.827692 0.662740
v -0.052034 4.414798 -0.162853
v -1.181463 5.035552 0.200417
v -0.156094 4.106627 1.084306
v -0.242229 3.915577 0.053948
v 0.812767 2.804732 -0.263228
v -0.229235 3.905071 0.377385
v 0.170946 0.026144 0.021691
v -0.534649 4.033217 0.003015
v -0.746862 4.520384 0.550182
v 0.645763 2.848898 -0.114987
v -0.185379 3.113773 0.517850
v -0.365938 2.535007 0.058803
v -0.269672 5.327751 0.612338
v -0.887044 6.853158 -0.127336
v 0.372867 3.640681 -0.726759
v 0.338085 3.869983 0.867406
v 0.045272 1.878465 0.475305
v -0.330655 6.517865 -0.480510
v -0.447618 6.852095 0.290206
v 0.980944 5.004596 -0.465118
v -0.607325 6.124604 0.620542
v 0.622451 2.660803 -0.385267
v -0.304404 3.452967 0.435038
v 0.604641 2.662577 -0.412814
v 0.843266 3.596778 0.050086
v 0.145720 0.175773 0.048254
v -0.410401 3.366481 0.037412
v -0.216440 0.740807 -0.032481
v -0.281293 4.103590 0.416561
v 0.462138 1.180127 -0.279897
v -0.728167 6.480854 -0.538817
v 0.836169 4.996354 -0.430087
v -0.441877 3.360097 -0.061435
v 0.775816 4.911355 -0.276749
v -0.446549 3.892904 0.789145
v -0.103585 0.193394 0.088331
v -0.011948 0.038339 0.107293
v -0.933804 6.797030 0.186659
v -1.091614 5.008203 -0.358851
v 0.869956 3.002772 -0.724836
v 0.672154 4.895998 -0.451199
v 0.660583 3.725426 0.056002
v -0.306791 4.091959 0.474929
v -0.745620 4.403714 -0.528842
v 0.408045 1.228956 -0.261738
v 0.499924 3.526415 -0.005099
v -0.259399 3.555940 0.998474
v 0.360328 0.674402 -0.203456
v 0.016735 2.459020 0.528777
v 0.974622 4.573267 -0.067924
v 0.031068 2.925730 0.618006
v -0.013284 4.469140 0.924375
v 1.218186 3.595514 -0.258335
v 0.106610 4.233833 0.496894
v -0.138283 1.171799 -0.069839
v 0.956653 4.560957 -0.826916
v 1.189737 3.430038 -0.516919
v 0.157865 3.094557 0.809619
v -0.110709 0.037894 0.030872
v -1.023166 4.430697 0.095575
v -0.259920 5.215960 -0.645792
v -0.184482 4.370538 -0.356234
v 0.354050 3.416503 -0.132874
v -0.097605 3.587078 1.104584
v 0.134427 0.436139 -0.118589
v 0.264687 3.257030 0.782660
v 0.041399 0.951871 0.215508
v -0.823321 6.521932 0.439640
v 0.106931 1.364812 0.335343
v -0.306374 2.546896 0.014671
v -0.109145 1.176473 0.021066
v -0.524431 6.836145 -0.392506
v -0.182623 4.683757 0.538952
v 0.249124 4.239533 0.767163
v 0.596049 4.563523 -0.743915
v -0.115005 4.457281 0.556570
v -0.271395 3.826536 1.061311
v -1.096756 6.400033 -0.078410
v 0.115194 5.194457 0.174938
v -0.500561 4.040131 0.028285
v -0.432416 3.842471 0.255282
v -0.200619 3.558857 0.354822
v -0.317143 6.839442 0.105321
v 0.006376 2.993439 0.648143
v 1.093611 3.968722 -0.857852
v -0.093032 4.525435 0.694042
v -0.047765 4.521468 0.815391
v -0.614115 7.093499 -0.006952
v -0.440816 3.625634 0.684977
v -0.219602 4.454473 0.660429
v 0.051793 0.520547 0.029000
v -0.391327 6.497114 0.509722
v 0.820333 4.145689 0.054198
v 0.258925 0.309094 -0.062880
v -0.390947 3.370428 -0.023679
v -0.402751 2.527659 -0.056736
v 0.277448 0.728323 -0.242268
v -0.068908 0.414325 0.093767
v 1.126588 4.519517 -0.142074
v -0.392239 3.510935 0.564153
v 0.037516 0.457937 -0.097005
v -0.902196 4.347618 -0.370518
v 0.850671 2.763408 -0.564922
v 1.046732 3.576822 -0.084386
v -0.396420 3.553282 0.838361
v 0.042559 2.450969 0.538132
v 0.003609 2.462470 0.554543
v 0.081698 1.377850 0.311650
v 0.025440 1.395521 0.335423
v 0.032089 2.453456 0.571246
v 0.144744 0.640945 0.072034
v 0.054219 0.675469 0.112833
v 0.064773 1.377169 0.359102
v -0.052173 0.775683 -0.080781
v -0.020360 0.779011 0.017987
v 0.103301 0.618376 0.139077
v 0.569201 1.966082 -0.349297
v 0.501910 1.996316 -0.372582
v 0.259894 0.778662 -0.213206
v 0.320795 0.695498 -0.228280
v 0.526445 1.993964 -0.333515
v 0.544666 1.968433 -0.388365
v -0.130232 0.192683 0.029608
v 0.166625 0.135040 -0.106603
v 0.355845 0.691857 -0.169885
v 0.206035 0.132934 -0.010858
v 0.294945 0.775021 -0.154811
v -0.487756 3.350791 0.008417
v -0.395998 3.369403 0.008417
v -0.470232 3.354346 -0.046615
v -0.441877 3.360097 0.042429
v -0.413522 3.365849 -0.046615
v -0.318529 1.804541 -0.063216
v -0.276191 1.812323 0.069288
v -0.233852 1.820104 -0.063216
v -0.344695 1.799732 0.018676
v -0.207687 1.824914 0.018676
v -0.207271 0.741766 0.025122
v -0.091284 0.193548 -0.084274
v -0.175458 0.745094 -0.073647
v -0.123984 0.750479 0.086164
v -0.035319 0.194946 0.101277
vt 0.1535 0.1641
vt 0.1517 0.2018
vt 0.1385 0.2027
vt 0.1388 0.1654
vt 0.1498 0.2723
vt 0.1480 0.3428
vt 0.1366 0.3423
vt 0.1375 0.2725
vt 0.1004 0.2727
vt 0.1023 0.3426
vt 0.0909 0.3431
vt 0.0880 0.2724
vt 0.0978 0.1650
vt 0.0985 0.2027
vt 0.0851 0.2017
vt 0.0838 0.1637
vt 0.1252 0.2727
vt 0.1252 0.3422
vt 0.1138 0.3422
vt 0.1128 0.2729
vt 0.1661 0.4795
vt 0.1613 0.6151
vt 0.1523 0.6144
vt 0.1558 0.4788
vt 0.1253 0.4772
vt 0.1255 0.6121
vt 0.1165 0.6119
vt 0.1151 0.4771
vt 0.0846 0.4794
vt 0.0897 0.6148
vt 0.0807 0.6158
vt 0.0745 0.4803
vt 0.1457 0.4781
vt 0.1434 0.6134
vt 0.1345 0.6124
vt 0.1355 0.4773
vt 0.1049 0.4777
vt 0.1075 0.6128
vt 0.0986 0.6137
vt 0.0948 0.4784
vt 0.0529 0.6562
vt 0.0617 0.8184
vt 0.0571 0.8190
vt 0.0461 0.6571
vt 0.0937 0.6552
vt 0.0895 0.8176
vt 0.0849 0.8169
vt 0.0870 0.6544
vt 0.0665 0.6547
vt 0.0710 0.8171
vt 0.0663 0.8177
vt 0.0597 0.6554
vt 0.1073 0.6566
vt 0.0987 0.8186
vt 0.0941 0.8182
vt 0.1004 0.6560
vt 0.0801 0.6541
vt 0.0802 0.8167
vt 0.0756 0.8165
vt 0.0733 0.6539
vt 0.0815 0.3827
vt 0.0896 0.3755
vt 0.0925 0.4383
vt 0.0862 0.4416
vt 0.0652 0.2083
vt 0.0645 0.1905
vt 0.2070 0.1485
vt 0.2218 0.1447
vt 0.2267 0.1668
vt 0.2197 0.1733
vt 0.0958 0.3733
vt 0.1020 0.3711
vt 0.1038 0.4350
vt 0.0981 0.4367
vt 0.0463 0.1463
vt 0.0632 0.1525
vt 0.0439 0.1793
vt 0.0346 0.1707
vt 0.1252 0.1658
vt 0.1251 0.2032
vt 0.1118 0.2036
vt 0.1117 0.1663
vt 0.1118 0.5602
vt 0.1176 0.5612
vt 0.1161 0.6833
vt 0.1122 0.6833
vt 0.0928 0.5630
vt 0.0976 0.5610
vt 0.1028 0.6837
vt 0.0994 0.6844
vt 0.1102 0.3741
vt 0.1185 0.3771
vt 0.1190 0.4391
vt 0.1114 0.4370
vt 0.1264 0.3830
vt 0.1343 0.3888
vt 0.1310 0.4437
vt 0.1250 0.4414
vt 0.1221 0.5627
vt 0.1266 0.5641
vt 0.1221 0.6846
vt 0.1191 0.6840
vt 0.1019 0.5601
vt 0.1060 0.5591
vt 0.1083 0.6832
vt 0.1055 0.6834
vt 0.0826 0.1257
vt 0.1649 0.2009
vt 0.1682 0.1628
vt 0.1889 0.1903
vt 0.0771 0.6584
vt 0.0901 0.6515
vt 0.0855 0.6955
vt 0.0760 0.6998
vt 0.1777 0.2757
vt 0.1621 0.2720
vt 0.1846 0.2076
vt 0.0724 0.2761
vt 0.0765 0.7588
vt 0.0849 0.7554
vt 0.0823 0.8270
vt 0.0751 0.8296
vt 0.0523 0.6662
vt 0.0640 0.6653
vt 0.0665 0.7040
vt 0.0584 0.7027
vt 0.0982 0.6593
vt 0.1063 0.6671
vt 0.1003 0.7024
vt 0.0929 0.6990
vt 0.0734 0.9124
vt 0.0793 0.9104
vt 0.0762 0.9938
vt 0.0717 0.9952
vt 0.0612 0.7608
vt 0.0682 0.7622
vt 0.0680 0.8321
vt 0.0622 0.8305
vt 0.0915 0.7578
vt 0.0980 0.7602
vt 0.0939 0.8298
vt 0.0881 0.8284
vt 0.0628 0.9133
vt 0.0676 0.9144
vt 0.0672 0.9967
vt 0.0635 0.9960
vt 0.0839 0.9116
vt 0.0886 0.9128
vt 0.0832 0.9958
vt 0.0797 0.9948
vt 0.5634 0.0336
vt 0.5623 0.0289
vt 0.5695 0.0305
vt 0.5810 0.0340
vt 0.5812 0.0381
vt 0.5751 0.0388
vt 0.5803 0.0106
vt 0.5708 0.0174
vt 0.5688 0.0106
vt 0.5971 0.0647
vt 0.5971 0.0777
vt 0.5912 0.0708
vt 0.5853 0.0769
vt 0.5835 0.0847
vt 0.5810 0.0785
vt 0.5797 0.0688
vt 0.5806 0.0223
vt 0.5780 0.0190
vt 0.5726 0.0906
vt 0.5748 0.0957
vt 0.5676 0.0941
vt 0.5677 0.0872
vt 0.5629 0.0837
vt 0.5654 0.0795
vt 0.5698 0.0820
vt 0.5625 0.0977
vt 0.5698 0.0993
vt 0.5702 0.1056
vt 0.5580 0.0556
vt 0.5607 0.0446
vt 0.5636 0.0496
vt 0.5682 0.0582
vt 0.5538 0.1128
vt 0.5498 0.1032
vt 0.5581 0.1053
vt 0.5459 0.0935
vt 0.5544 0.0886
vt 0.5542 0.0956
vt 0.5925 0.0488
vt 0.5867 0.0414
vt 0.5961 0.0429
vt 0.5998 0.0371
vt 0.5904 0.0355
vt 0.5983 0.0289
vt 0.5567 0.0670
vt 0.5623 0.0712
vt 0.5598 0.0754
vt 0.5514 0.0716
vt 0.5461 0.0762
vt 0.5545 0.0800
vt 0.5460 0.0848
vt 0.5771 0.1008
vt 0.5793 0.0967
vt 0.5871 0.0958
vt 0.5613 0.0243
vt 0.5536 0.0302
vt 0.5756 0.0274
vt 0.5724 0.0355
vt 0.5783 0.0307
vt 0.5912 0.0838
vt 0.5856 0.0627
vt 0.5741 0.0608
vt 0.5754 0.0705
vt 0.5710 0.0680
vt 0.5885 0.0157
vt 0.5746 0.0854
vt 0.5771 0.0916
vt 0.5658 0.1132
vt 0.5519 0.0459
vt 0.5783 0.0608
vt 0.5738 0.0522
vt 0.5798 0.0515
vt 0.5854 0.0548
vt 0.5869 0.0455
vt 0.5654 0.0639
vt 0.5778 0.1135
vt 0.5774 0.1072
vt 0.5875 0.1022
vt 0.5459 0.0361
vt 0.5516 0.0234
vt 0.4285 0.0336
vt 0.4275 0.0289
vt 0.4346 0.0305
vt 0.4461 0.0340
vt 0.4463 0.0381
vt 0.4402 0.0388
vt 0.4455 0.0106
vt 0.4360 0.0174
vt 0.4340 0.0106
vt 0.4622 0.0647
vt 0.4622 0.0777
vt 0.4563 0.0708
vt 0.4504 0.0769
vt 0.4485 0.0847
vt 0.4461 0.0785
vt 0.4448 0.0688
vt 0.4458 0.0223
vt 0.4431 0.0190
vt 0.4377 0.0906
vt 0.4399 0.0957
vt 0.4326 0.0941
vt 0.4329 0.0872
vt 0.4281 0.0837
vt 0.4305 0.0795
vt 0.4349 0.0820
vt 0.4276 0.0977
vt 0.4349 0.0993
vt 0.4353 0.1056
vt 0.4231 0.0556
vt 0.4258 0.0446
vt 0.4287 0.0496
vt 0.4333 0.0582
vt 0.4189 0.1128
vt 0.4150 0.1032
vt 0.4233 0.1053
vt 0.4110 0.0935
vt 0.4196 0.0886
vt 0.4193 0.0956
vt 0.4577 0.0488
vt 0.4519 0.0414
vt 0.4613 0.0429
vt 0.4649 0.0371
vt 0.4555 0.0355
vt 0.4633 0.0289
vt 0.4218 0.0670
vt 0.4274 0.0712
vt 0.4250 0.0754
vt 0.4165 0.0716
vt 0.4112 0.0762
vt 0.4196 0.0800
vt 0.4111 0.0848
vt 0.4422 0.1008
vt 0.4445 0.0967
vt 0.4522 0.0958
vt 0.4265 0.0243
vt 0.4187 0.0302
vt 0.4407 0.0274
vt 0.4375 0.0355
vt 0.4434 0.0307
vt 0.4563 0.0838
vt 0.4507 0.0627
vt 0.4392 0.0608
vt 0.4405 0.0705
vt 0.4361 0.0680
vt 0.4536 0.0157
vt 0.4398 0.0854
vt 0.4422 0.0916
vt 0.4309 0.1132
vt 0.4171 0.0459
vt 0.4434 0.0608
vt 0.4388 0.0522
vt 0.4449 0.0515
vt 0.4506 0.0548
vt 0.4521 0.0455
vt 0.4305 0.0639
vt 0.4430 0.1135
vt 0.4426 0.1072
vt 0.4526 0.1022
vt 0.4110 0.0361
vt 0.4168 0.0234
vt 0.2999 0.0336
vt 0.2988 0.0289
vt 0.3059 0.0305
vt 0.3175 0.0340
vt 0.3176 0.0381
vt 0.3115 0.0388
vt 0.3168 0.0106
vt 0.3073 0.0174
vt 0.3053 0.0106
vt 0.3336 0.0647
vt 0.3336 0.0777
vt 0.3277 0.0708
vt 0.3218 0.0769
vt 0.3199 0.0847
vt 0.3175 0.0785
vt 0.3162 0.0688
vt 0.3171 0.0223
vt 0.3144 0.0190
vt 0.3091 0.0906
vt 0.3113 0.0957
vt 0.3040 0.0941
vt 0.3043 0.0872
vt 0.2994 0.0837
vt 0.3019 0.0795
vt 0.3063 0.0820
vt 0.2990 0.0977
vt 0.3063 0.0993
vt 0.3066 0.1056
vt 0.2944 0.0556
vt 0.2972 0.0446
vt 0.3000 0.0496
vt 0.3045 0.0582
vt 0.2903 0.1128
vt 0.2863 0.1032
vt 0.2947 0.1053
vt 0.2823 0.0935
vt 0.2908 0.0886
vt 0.2907 0.0956
vt 0.3290 0.0488
vt 0.3232 0.0414
vt 0.3326 0.0429
vt 0.3362 0.0371
vt 0.3268 0.0355
vt 0.3346 0.0289
vt 0.2932 0.0670
vt 0.2987 0.0712
vt 0.2963 0.0754
vt 0.2879 0.0716
vt 0.2826 0.0762
vt 0.2910 0.0800
vt 0.2824 0.0848
vt 0.3136 0.1008
vt 0.3158 0.0967
vt 0.3236 0.0958
vt 0.2978 0.0243
vt 0.2900 0.0302
vt 0.3120 0.0274
vt 0.3088 0.0355
vt 0.3148 0.0307
vt 0.3277 0.0838
vt 0.3221 0.0627
vt 0.3106 0.0608
vt 0.3119 0.0705
vt 0.3074 0.0680
vt 0.3249 0.0157
vt 0.3112 0.0854
vt 0.3135 0.0916
vt 0.3023 0.1132
vt 0.2883 0.0459
vt 0.3147 0.0608
vt 0.3101 0.0522
vt 0.3162 0.0515
vt 0.3219 0.0548
vt 0.3234 0.0455
vt 0.3019 0.0639
vt 0.3143 0.1135
vt 0.3140 0.1072
vt 0.3239 0.1022
vt 0.2823 0.0361
vt 0.2880 0.0234
vt 0.2958 0.0174
vt 0.2938 0.0106
vt 0.3336 0.0908
vt 0.3043 0.0753
vt 0.3178 0.0422
vt 0.3117 0.0429
vt 0.3056 0.0436
vt 0.2911 0.0349
vt 0.3132 0.0802
vt 0.3180 0.0926
vt 0.3156 0.0864
vt 0.3253 0.0274
vt 0.3331 0.0207
vt 0.3088 0.0777
vt 0.3258 0.0917
vt 0.3049 0.0258
vt 0.3027 0.0386
vt 0.2992 0.0907
vt 0.4245 0.0174
vt 0.4225 0.0106
vt 0.4622 0.0908
vt 0.4330 0.0753
vt 0.4465 0.0422
vt 0.4404 0.0429
vt 0.4343 0.0436
vt 0.4198 0.0349
vt 0.4418 0.0802
vt 0.4467 0.0926
vt 0.4442 0.0864
vt 0.4539 0.0274
vt 0.4618 0.0207
vt 0.4374 0.0777
vt 0.4545 0.0917
vt 0.4336 0.0258
vt 0.4314 0.0386
vt 0.4279 0.0907
vt 0.5594 0.0174
vt 0.5574 0.0106
vt 0.5971 0.0908
vt 0.5679 0.0753
vt 0.5814 0.0422
vt 0.5753 0.0429
vt 0.5692 0.0436
vt 0.5546 0.0349
vt 0.5767 0.0802
vt 0.5816 0.0926
vt 0.5791 0.0864
vt 0.5889 0.0274
vt 0.5967 0.0207
vt 0.5723 0.0777
vt 0.5893 0.0917
vt 0.5684 0.0258
vt 0.5663 0.0386
vt 0.5627 0.0907
vt 0.0581 0.9122
vt 0.0598 0.9953
vt 0.0564 0.8290
vt 0.0875 0.6838
vt 0.0949 0.6873
vt 0.1022 0.6907
vt 0.0543 0.7594
vt 0.0521 0.6898
vt 0.0602 0.6911
vt 0.0684 0.6923
vt 0.0947 0.6076
vt 0.1035 0.6197
vt 0.1123 0.6318
vt 0.0407 0.6671
vt 0.0502 0.7015
vt 0.0312 0.6327
vt 0.0464 0.6296
vt 0.0615 0.6265
vt 0.0780 0.6881
vt 0.0795 0.3440
vt 0.0682 0.3448
vt 0.0567 0.2798
vt 0.0453 0.2148
vt 0.1933 0.2794
vt 0.2043 0.2142
vt 0.1822 0.3446
vt 0.1708 0.3439
vt 0.1594 0.3432
vt 0.0781 0.6170
vt 0.1921 0.1523
vt 0.2128 0.1798
vt 0.1714 0.1247
vt 0.1180 0.3152
vt 0.1278 0.3246
vt 0.1376 0.3340
vt 0.1002 0.3071
vt 0.1091 0.3112
vt 0.0881 0.5649
vt 0.0961 0.6850
vt 0.0800 0.4449
vt 0.1252 0.1285
vt 0.1115 0.1290
vt 0.1390 0.1281
vt 0.0292 0.1401
vt 0.0253 0.1622
vt 0.0332 0.1180
vt 0.0579 0.1218
vt 0.0866 0.3127
vt 0.0934 0.3099
vt 0.1942 0.1236
vt 0.2170 0.1226
vt 0.0446 0.1971
vt 0.0735 0.3900
vt 0.0670 0.3350
vt 0.0768 0.3239
vt 0.0800 0.4915
vt 0.0710 0.4913
vt 0.0890 0.4918
vt 0.1158 0.4945
vt 0.1068 0.4938
vt 0.1248 0.4952
vt 0.1141 0.6571
vt 0.1034 0.8190
vt 0.0620 0.4922
vt 0.0531 0.4931
vt 0.0979 0.4928
vt 0.0442 0.4941
vt 0.0352 0.4952
vt 0.1763 0.4801
vt 0.1703 0.6157
vt 0.0970 0.1274
vt 0.1552 0.1264
vn -0.0451 0.0167 0.9988
vn -0.0401 0.0205 0.9990
vn -0.5936 -0.0659 0.8021
vn -0.6119 -0.0660 0.7882
vn -0.0175 0.0208 0.9996
vn -0.0024 0.0160 0.9999
vn -0.5866 -0.0679 0.8070
vn -0.5861 -0.0720 0.8070
vn -0.5788 -0.0776 -0.8117
vn -0.5811 -0.0718 -0.8107
vn -0.0461 0.0129 -0.9989
vn -0.1055 0.0149 -0.9943
vn -0.6007 -0.0753 -0.7960
vn -0.5844 -0.0714 -0.8083
vn -0.1869 0.0461 -0.9813
vn -0.2725 -0.0105 -0.9621
vn -0.9428 -0.1330 0.3056
vn -0.9434 -0.1226 0.3081
vn -0.9432 -0.1258 -0.3076
vn -0.9420 -0.1326 -0.3084
vn 0.9368 0.1368 0.3222
vn 0.9438 0.1179 0.3088
vn 0.5795 0.0792 0.8111
vn 0.5748 0.0903 0.8133
vn -0.9450 -0.1092 0.3082
vn -0.9477 -0.0867 0.3071
vn -0.9479 -0.0864 -0.3067
vn -0.9463 -0.1086 -0.3046
vn 0.5699 0.0875 -0.8171
vn 0.5824 0.0769 -0.8092
vn 0.9434 0.1182 -0.3099
vn 0.9407 0.1395 -0.3091
vn -0.0033 0.0158 0.9999
vn -0.0088 0.0160 0.9998
vn -0.5906 -0.0475 0.8055
vn -0.5848 -0.0602 0.8089
vn -0.5859 -0.0609 -0.8081
vn -0.5890 -0.0497 -0.8066
vn -0.0073 0.0149 -0.9999
vn -0.0098 0.0119 -0.9999
vn 0.5844 0.0689 -0.8085
vn 0.5931 0.0688 -0.8022
vn 0.9487 0.1024 -0.2992
vn 0.9455 0.1040 -0.3085
vn -0.0050 0.0223 0.9997
vn 0.0081 0.0223 0.9997
vn -0.5699 -0.0262 0.8213
vn -0.5902 -0.0305 0.8067
vn -0.5908 -0.0359 -0.8060
vn -0.5826 -0.0327 -0.8121
vn 0.0289 0.0216 -0.9993
vn -0.0036 0.0181 -0.9998
vn 0.9457 0.1034 0.3082
vn 0.9472 0.1017 0.3040
vn 0.6052 0.0752 0.7925
vn 0.5850 0.0745 0.8076
vn -0.9496 -0.0657 0.3065
vn -0.9487 -0.0620 0.3099
vn -0.9465 -0.0613 -0.3170
vn -0.9494 -0.0651 -0.3074
vn -0.0355 0.3054 0.9516
vn 0.5175 0.1271 0.8462
vn 0.4464 0.0755 0.8917
vn -0.1997 0.1962 0.9600
vn 0.0852 0.2231 -0.9711
vn -0.1232 0.1059 -0.9867
vn 0.8075 -0.0940 0.5823
vn 0.9204 -0.2666 -0.2859
vn 0.8938 -0.2832 -0.3479
vn 0.8640 -0.0991 0.4937
vn 0.8996 -0.1031 0.4245
vn 0.8605 -0.3011 -0.4110
vn 0.8695 -0.2272 -0.4386
vn 0.9076 -0.0942 0.4092
vn 0.3312 -0.2062 -0.9207
vn 0.0376 -0.0713 -0.9967
vn -0.1068 -0.0528 -0.9929
vn 0.2794 -0.2562 -0.9254
vn -0.9558 -0.1282 0.2645
vn -0.9477 -0.1295 0.2918
vn -0.9414 -0.1308 -0.3109
vn -0.9392 -0.1306 -0.3175
vn 0.3069 -0.1032 -0.9461
vn -0.4222 0.0117 -0.9064
vn -0.4935 0.0295 -0.8693
vn 0.2864 -0.0907 -0.9538
vn -0.2498 0.1200 0.9608
vn 0.3947 0.0278 0.9184
vn 0.3412 0.0301 0.9395
vn -0.2660 0.1132 0.9573
vn 0.2491 -0.2787 -0.9275
vn -0.3582 -0.1045 -0.9278
vn -0.3888 -0.0417 -0.9204
vn 0.2891 -0.1872 -0.9388
vn -0.8548 0.1412 -0.4993
vn -0.8166 0.3796 0.4348
vn -0.8493 0.2360 0.4722
vn -0.9221 0.1405 -0.3606
vn -0.9446 0.1307 -0.3010
vn -0.8467 0.1750 0.5025
vn -0.8476 0.1684 0.5032
vn -0.9552 0.1321 -0.2650
vn 0.9032 -0.0843 0.4209
vn 0.8897 -0.1458 -0.4326
vn 0.8862 -0.1363 -0.4428
vn 0.8942 -0.0806 0.4404
vn -0.1391 -0.0918 -0.9860
vn 0.0567 -0.0248 0.9981
vn 0.2674 0.0452 0.9625
vn 0.4194 -0.0630 0.9056
vn 0.2843 -0.2836 0.9158
vn 0.9064 0.0149 0.4222
vn 0.9590 0.0035 0.2833
vn 0.3067 -0.2570 0.9165
vn 0.8193 0.2217 0.5287
vn 0.4668 0.1255 0.8754
vn -0.1870 0.9164 0.3538
vn 0.3628 0.1286 -0.9229
vn 0.3232 -0.2125 0.9222
vn 0.9801 0.0071 0.1986
vn 0.9841 0.0032 0.1775
vn 0.3359 -0.1746 0.9256
vn -0.8817 0.1817 -0.4355
vn -0.7618 -0.1616 0.6274
vn -0.7162 -0.2016 0.6682
vn -0.9149 0.0908 -0.3934
vn 0.7527 0.4121 -0.5135
vn -0.1762 0.4693 -0.8653
vn -0.2564 0.2978 -0.9196
vn 0.6497 0.2965 -0.7000
vn 0.3500 -0.1411 0.9260
vn 0.9886 0.0079 0.1501
vn 0.9738 -0.0041 0.2274
vn 0.3216 -0.1378 0.9368
vn -0.9402 0.0554 -0.3362
vn -0.6909 -0.1856 0.6987
vn -0.6693 -0.1492 0.7278
vn -0.9514 0.0427 -0.3048
vn 0.5895 0.2348 -0.7729
vn -0.3025 0.2342 -0.9239
vn -0.3347 0.1897 -0.9231
vn 0.5611 0.1936 -0.8048
vn -0.9537 0.0408 -0.2978
vn -0.6643 -0.1204 0.7377
vn -0.7263 -0.1069 0.6790
vn -0.9636 0.0361 -0.2650
vn 0.5476 0.1583 -0.8216
vn -0.3426 0.1601 -0.9257
vn -0.4740 0.1447 -0.8686
vn 0.5241 0.1551 -0.8374
vn 0.4591 0.3689 0.8082
vn -0.0110 0.5137 0.8579
vn 0.0928 0.1412 0.9856
vn -0.2059 -0.4449 0.8716
vn 0.2208 -0.4713 0.8539
vn 0.3368 -0.2132 0.9171
vn -0.8489 0.0245 0.5281
vn -0.6914 0.2873 0.6628
vn -0.8538 0.3599 0.3763
vn -0.9757 0.0911 0.1994
vn -0.9716 0.1812 -0.1521
vn -0.8651 0.3660 -0.3429
vn -0.9029 0.0677 -0.4245
vn -0.9901 -0.1363 -0.0325
vn -0.6167 -0.2845 0.7340
vn -0.6156 -0.0312 0.7874
vn -0.0954 0.2388 -0.9664
vn 0.1786 0.4413 -0.8794
vn 0.2780 0.2222 -0.9345
vn -0.0331 0.0304 -0.9990
vn 0.1353 -0.2584 -0.9565
vn -0.2836 -0.3408 -0.8963
vn -0.3571 -0.0776 -0.9308
vn 0.6371 0.2126 -0.7409
vn 0.5541 0.4521 -0.6990
vn 0.7690 0.4768 -0.4258
vn 0.9680 0.2501 -0.0186
vn 0.8608 0.3206 0.3952
vn 0.9323 0.0684 0.3552
vn 0.9912 -0.0158 -0.1318
vn 0.8753 0.2418 -0.4188
vn 0.9287 -0.2710 -0.2531
vn 0.6060 -0.2970 -0.7380
vn 0.7949 -0.0500 -0.6047
vn 0.4278 -0.9031 -0.0371
vn 0.0206 -0.7751 0.6315
vn 0.0411 -0.9967 -0.0703
vn -0.3153 -0.9441 -0.0958
vn -0.3344 -0.7392 0.5846
vn -0.7086 -0.6787 0.1930
vn -0.5422 -0.6588 -0.5215
vn -0.0292 -0.6568 -0.7535
vn 0.3801 -0.6035 -0.7009
vn 0.7993 -0.5337 -0.2760
vn 0.3899 0.7139 -0.5817
vn -0.1235 0.7485 -0.6515
vn -0.0641 0.9826 -0.1744
vn -0.4162 0.5222 0.7443
vn 0.1036 0.8317 0.5454
vn -0.2034 -0.0364 0.9784
vn 0.3118 -0.0670 0.9478
vn -0.1781 -0.2450 0.9530
vn -0.9138 0.4051 0.0303
vn -0.8715 -0.2412 0.4269
vn -0.8906 -0.4198 0.1750
vn -0.9195 -0.2039 -0.3362
vn -0.8490 -0.4405 -0.2919
vn -0.4214 0.1269 -0.8979
vn -0.2823 0.3783 -0.8816
vn 0.8761 0.4782 -0.0618
vn 0.9492 -0.1601 0.2710
vn 0.8941 -0.3781 0.2401
vn 0.5642 -0.7035 0.4321
vn 0.6555 0.7543 0.0369
vn 0.5825 0.7586 -0.2920
vn 0.0608 0.9758 0.2103
vn 0.8910 0.2066 -0.4042
vn 0.9248 0.3765 -0.0544
vn 0.9979 0.0571 0.0302
vn 0.8320 -0.3839 0.4005
vn 0.8948 -0.4465 0.0019
vn 0.9468 -0.3079 -0.0936
vn 0.3780 0.0493 0.9245
vn 0.5959 0.2428 0.7655
vn 0.2631 0.3204 0.9100
vn -0.0044 0.1366 0.9906
vn -0.3440 0.2468 0.9059
vn -0.5516 0.4018 0.7309
vn -0.5508 0.1837 0.8142
vn -0.1980 0.0084 0.9802
vn 0.6206 -0.2263 0.7508
vn 0.6532 -0.0333 0.7565
vn -0.9597 0.2719 -0.0713
vn -0.8831 0.4017 -0.2425
vn -0.9221 0.2274 -0.3129
vn -0.9858 0.1051 -0.1307
vn -0.9386 -0.1790 -0.2950
vn -0.9694 -0.2079 0.1302
vn -0.9907 0.0341 0.1317
vn -0.6153 0.1522 -0.7735
vn -0.6715 0.4208 -0.6099
vn -0.2364 0.3782 -0.8951
vn 0.2491 0.1124 -0.9619
vn 0.5717 0.1735 -0.8019
vn 0.5183 -0.0257 -0.8548
vn 0.1157 -0.0941 -0.9888
vn -0.1025 0.1101 -0.9886
vn -0.0635 -0.3073 -0.9495
vn -0.6333 -0.2835 -0.7201
vn -0.3901 -0.1138 -0.9137
vn 0.0421 -0.9356 -0.3505
vn 0.7220 -0.6666 0.1853
vn -0.0906 -0.9934 0.0699
vn -0.1933 -0.8736 0.4465
vn 0.5980 -0.5998 0.5317
vn 0.0728 -0.5056 0.8597
vn -0.6947 -0.4708 0.5438
vn -0.8461 -0.5303 -0.0541
vn -0.6998 -0.5295 -0.4795
vn -0.1399 -0.5347 -0.8334
vn -0.5857 0.6754 -0.4481
vn -0.7103 0.7037 -0.0177
vn -0.2714 0.9624 0.0107
vn 0.7640 0.5117 0.3929
vn 0.5403 0.8127 -0.2180
vn 0.9167 -0.0895 0.3893
vn 0.9815 -0.1613 -0.1031
vn 0.8762 -0.2781 0.3935
vn -0.2023 0.4008 0.8935
vn 0.2803 -0.1259 0.9516
vn 0.0362 -0.2469 0.9684
vn -0.4803 -0.0411 0.8762
vn -0.4667 -0.2530 0.8474
vn -0.9665 0.2165 0.1379
vn -0.9253 0.3757 0.0511
vn 0.1978 0.3015 -0.9327
vn 0.4502 -0.2369 -0.8609
vn 0.4288 -0.4239 -0.7978
vn 0.6111 -0.6648 -0.4298
vn 0.1264 0.6583 -0.7420
vn -0.2562 0.7274 -0.6366
vn 0.1202 0.9898 -0.0765
vn 0.1552 -0.3337 0.9298
vn 0.5557 -0.4870 0.6738
vn 0.5672 -0.1566 0.8086
vn 0.7780 0.3070 0.5481
vn 0.4428 0.3483 0.8262
vn 0.3600 0.1329 0.9234
vn 0.9853 -0.0639 -0.1581
vn 0.9598 -0.2777 0.0414
vn 0.8963 -0.3311 -0.2951
vn 0.8636 -0.1020 -0.4937
vn 0.6220 -0.1640 -0.7657
vn 0.4144 -0.2967 -0.8604
vn 0.4006 -0.0518 -0.9148
vn 0.7373 0.0848 -0.6702
vn 0.9714 0.1743 0.1613
vn 0.9808 -0.0244 0.1935
vn -0.5754 -0.1481 -0.8044
vn -0.7585 -0.3081 -0.5743
vn -0.8366 -0.1240 -0.5336
vn -0.6272 0.0203 -0.7786
vn -0.7242 0.2577 -0.6396
vn -0.3568 0.3173 -0.8787
vn -0.3317 0.0987 -0.9382
vn -0.9816 -0.1163 -0.1514
vn -0.9310 -0.3154 -0.1837
vn -0.9222 -0.3458 0.1730
vn -0.7653 -0.1819 0.6174
vn -0.4262 -0.2560 0.8676
vn -0.4780 -0.0503 0.8769
vn -0.8337 0.0380 0.5509
vn -0.9562 -0.1517 0.2505
vn -0.8651 0.2521 0.4336
vn -0.9437 0.2912 -0.1569
vn -0.9942 0.0853 0.0649
vn -0.3094 0.8978 0.3134
vn 0.5023 0.6497 0.5706
vn -0.0040 1.0000 0.0008
vn 0.2737 0.9174 -0.2890
vn 0.7525 0.6016 0.2679
vn 0.7669 0.5533 -0.3250
vn 0.1324 0.5832 -0.8015
vn -0.4614 0.6228 -0.6318
vn -0.7643 0.5761 -0.2897
vn -0.7976 0.4871 0.3557
vn -0.7836 -0.5805 -0.2212
vn -0.4115 -0.6362 -0.6526
vn -0.1651 -0.9556 -0.2439
vn 0.8162 -0.4964 0.2957
vn 0.2480 -0.8095 0.5322
vn 0.7900 -0.0216 0.6127
vn 0.3852 0.0154 0.9227
vn 0.7769 0.1410 0.6137
vn 0.7062 -0.3531 -0.6137
vn 0.9585 0.1505 -0.2421
vn 0.8394 0.3092 -0.4470
vn 0.4952 0.1576 -0.8544
vn 0.5041 0.3551 -0.7872
vn -0.2755 -0.0652 -0.9591
vn -0.3970 -0.2654 -0.8786
vn -0.7635 -0.3661 0.5320
vn -0.5317 0.1335 0.8364
vn -0.5083 0.3134 0.8021
vn -0.0939 0.6060 0.7899
vn -0.5726 -0.6633 0.4818
vn -0.7508 -0.6429 0.1513
vn 0.0237 -0.9778 0.2082
vn 0.7731 -0.6311 0.0634
vn 0.6242 -0.7230 -0.2960
vn 0.0700 0.3542 -0.9325
vn 0.0041 0.4035 0.9150
vn -0.1029 0.1785 0.9786
vn -0.0986 0.0346 0.9945
vn -0.2104 -0.5576 0.8030
vn 0.0939 0.0224 -0.9953
vn -0.0090 -0.4410 -0.8975
vn 0.0517 -0.1842 -0.9815
vn 0.9342 0.3443 0.0929
vn 0.1017 0.1726 -0.9797
vn 0.3347 -0.6424 -0.6894
vn 0.8808 -0.2406 0.4079
vn 0.0126 -0.1064 0.9942
vn -0.9036 0.0813 -0.4207
vn 0.4803 0.6761 0.5588
vn 0.0699 0.7407 0.6682
vn -0.8099 -0.2406 0.5349
vn 0.7647 -0.5012 -0.4050
vn 0.7873 -0.3423 -0.5128
vn 0.8090 -0.1717 -0.5621
vn 0.6021 0.4312 -0.6720
vn -0.8227 0.1259 0.5544
vn -0.7608 0.5410 0.3584
vn -0.8212 0.3309 0.4649
vn 0.5675 -0.3491 0.7457
vn -0.8194 -0.0536 0.5707
vn -0.4338 0.7078 0.5575
vn 0.8485 0.1741 0.4996
vn 0.8712 0.0134 -0.4908
vn -0.8500 -0.0339 -0.5256
vn -0.5242 0.6571 0.5417
vn -0.6309 0.7448 0.2173
vn -0.6238 -0.4045 -0.6688
vn 0.5923 -0.4993 0.6324
vn 0.7199 -0.2440 0.6497
vn 0.7274 -0.0637 0.6832
vn 0.6146 0.6320 0.4720
vn -0.7216 -0.0010 -0.6923
vn -0.5688 0.5499 -0.6116
vn -0.6826 0.2577 -0.6838
vn -0.6106 -0.4809 0.6292
vn -0.7037 -0.1937 -0.6836
vn -0.6684 0.7125 -0.2134
vn -0.4033 0.2378 0.8836
vn 0.6330 0.1066 0.7668
vn 0.4112 -0.0369 -0.9108
vn 0.7089 -0.0112 0.7052
vn 0.6447 0.5135 0.5663
vn 0.0336 0.7938 -0.6073
vn 0.5039 0.1070 -0.8571
vn 0.9322 0.1886 -0.3088
vn 0.9074 0.2855 -0.3084
vn 0.9040 0.1680 0.3930
vn 0.5422 0.1021 0.8340
vn 0.5844 0.0078 0.8114
vn 0.3998 0.0282 0.9162
vn -0.5035 0.2273 -0.8335
vn -0.9582 -0.1327 0.2533
vn -0.9333 -0.1346 -0.3329
vn -0.5986 -0.0689 0.7981
vn 0.9338 -0.2727 -0.2316
vn 0.3312 -0.1933 -0.9235
vn 0.7603 -0.0812 0.6445
vn -0.6001 -0.0864 -0.7953
vn -0.0324 0.0174 0.9993
usemtl None
s 1
f 415/1/1 371/2/2 3/3/3 309/4/4
f 414/5/5 163/6/6 6/7/7 169/8/8
f 413/9/9 231/10/10 9/11/11 140/12/12
f 412/13/13 142/14/14 10/15/15 134/16/16
f 411/17/17 156/18/18 8/19/19 301/20/20
f 410/21/21 343/22/22 15/23/23 220/24/24
f 409/25/25 219/26/26 17/27/27 226/28/28
f 408/29/29 237/30/30 14/31/31 148/32/32
f 407/33/33 285/34/34 16/35/35 152/36/36
f 406/37/37 369/38/38 18/39/39 130/40/40
f 405/41/41 228/42/42 20/43/43 368/44/44
f 404/45/45 353/46/46 22/47/47 244/48/48
f 403/49/49 157/50/50 19/51/51 306/52/52
f 402/53/53 167/54/54 21/55/55 300/56/56
f 401/57/57 281/58/58 23/59/59 155/60/60
f 400/61/61 115/62/62 26/63/63 318/64/64
f 10/15/15 374/65/65 127/66/66
f 399/67/67 121/68/68 30/69/69 367/70/70
f 398/71/71 321/72/72 31/73/73 303/74/74
f 397/75/75 124/76/76 28/77/77 233/78/78
f 396/79/79 229/80/80 7/81/81 207/82/82
f 395/83/83 195/84/84 33/85/85 172/86/86
f 394/87/87 235/88/88 35/89/89 295/90/90
f 393/91/91 370/92/92 32/93/93 260/94/94
f 392/95/95 267/96/96 27/97/97 240/98/98
f 391/99/99 166/100/100 36/101/101 297/102/102
f 390/103/103 265/104/104 34/105/105 225/106/106
f 12/107/107 134/16/16 124/76/76
f 2/108/108 177/109/109 171/110/110
f 389/111/111 227/112/112 37/113/113 151/114/114
f 388/115/115 241/116/116 2/108/108 364/117/117
f 387/118/118 374/65/65 10/15/15 140/12/12
f 386/119/119 342/120/120 39/121/121 290/122/122
f 385/123/123 181/124/124 38/125/125 340/126/126
f 384/127/127 133/128/128 41/129/129 203/130/130
f 383/131/131 119/132/132 42/133/133 188/134/134
f 382/135/135 135/136/136 40/137/137 129/138/138
f 381/139/139 258/140/140 44/141/141 270/142/142
f 380/143/143 193/144/144 43/145/145 180/146/146
f 379/147/147 322/148/148 45/149/149 324/150/150
f 46/151/151 197/152/152 123/153/153
f 49/154/154 192/155/155 117/156/156
f 52/157/157 223/158/158 112/159/159
f 52/160/157 112/161/159 308/162/160
f 54/163/161 232/164/162 165/165/163
f 54/163/161 165/165/163 362/166/164
f 52/157/157 320/167/165 350/168/166
f 58/169/167 264/170/168 191/171/169
f 58/169/167 191/171/169 128/172/170
f 61/173/171 210/174/172 355/175/173
f 60/176/174 327/177/175 251/178/176
f 64/179/177 114/180/178 289/181/179
f 64/179/177 289/181/179 145/182/180
f 64/183/177 145/184/180 185/185/181
f 65/186/182 263/187/183 122/188/184
f 66/189/185 201/190/186 357/191/187
f 67/192/188 132/193/189 139/194/190
f 67/195/188 284/196/191 144/197/192
f 67/195/188 144/197/192 357/198/187
f 66/199/185 214/200/193 159/201/194
f 59/202/195 349/203/196 359/204/197
f 47/205/198 197/152/152 325/206/199
f 48/207/200 147/208/201 123/153/153
f 48/207/200 337/209/202 147/208/201
f 52/157/157 350/168/166 223/158/158
f 54/163/161 175/210/203 232/164/162
f 52/160/157 308/162/160 378/211/204
f 57/212/205 373/213/206 187/214/207
f 52/157/157 378/215/204 320/167/165
f 58/169/167 279/216/208 143/217/209
f 58/169/167 143/217/209 264/170/168
f 58/169/167 128/172/170 279/216/208
f 64/183/177 185/185/181 347/218/210
f 64/179/177 347/219/210 114/180/178
f 65/220/182 215/221/211 339/222/212
f 66/189/185 159/223/194 331/224/213
f 66/189/185 331/224/213 201/190/186
f 67/195/188 139/225/190 284/196/191
f 63/226/214 116/227/215 360/228/216
f 63/229/214 360/230/216 325/206/199
f 68/231/217 205/232/218 257/233/219
f 71/234/220 272/235/221 330/236/222
f 74/237/223 372/238/224 323/239/225
f 74/240/223 323/241/225 366/242/226
f 76/243/227 190/244/228 246/245/229
f 76/243/227 246/245/229 315/246/230
f 74/237/223 377/247/231 245/248/232
f 80/249/233 149/250/234 154/251/235
f 80/249/233 154/251/235 218/252/236
f 83/253/237 202/254/238 266/255/239
f 82/256/240 348/257/241 131/258/242
f 86/259/243 198/260/244 358/261/245
f 86/259/243 358/261/245 256/262/246
f 86/263/243 256/264/246 189/265/247
f 87/266/248 120/267/249 259/268/250
f 88/269/251 213/270/252 164/271/253
f 89/272/254 278/273/255 283/274/256
f 89/275/254 113/276/257 262/277/258
f 89/275/254 262/277/258 164/278/253
f 88/279/251 200/280/259 196/281/260
f 81/282/261 314/283/262 305/284/263
f 69/285/264 205/232/218 261/286/265
f 70/287/266 199/288/267 257/233/219
f 70/287/266 326/289/268 199/288/267
f 74/237/223 245/248/232 372/238/224
f 76/243/227 239/290/269 190/244/228
f 74/240/223 366/242/226 298/291/270
f 79/292/271 319/293/272 206/294/273
f 74/237/223 298/295/270 377/247/231
f 80/249/233 118/296/274 249/297/275
f 80/249/233 249/297/275 149/250/234
f 80/249/233 218/252/236 118/296/274
f 86/263/243 189/265/247 329/298/276
f 86/259/243 329/299/276 198/260/244
f 87/300/248 158/301/277 313/302/278
f 88/269/251 196/303/260 376/304/279
f 88/269/251 376/304/279 213/270/252
f 89/275/254 283/305/256 113/276/257
f 85/306/280 269/307/281 293/308/282
f 85/309/280 293/310/282 261/286/265
f 90/311/283 302/312/284 346/313/285
f 93/314/286 365/315/287 168/316/288
f 96/317/289 212/318/290 274/319/291
f 96/320/289 274/321/291 209/322/292
f 98/323/293 138/324/294 334/325/295
f 98/323/293 334/325/295 255/326/296
f 96/317/289 222/327/297 352/328/298
f 102/329/299 375/330/300 312/331/301
f 102/329/299 312/331/301 250/332/302
f 105/333/303 304/334/304 238/335/305
f 104/336/306 179/337/307 333/338/308
f 108/339/309 282/340/310 136/341/311
f 108/339/309 136/341/311 243/342/312
f 108/343/309 243/344/312 275/345/313
f 109/346/314 351/347/315 204/348/316
f 110/349/317 292/350/318 361/351/319
f 111/352/320 356/353/321 248/354/322
f 111/355/320 345/356/323 217/357/324
f 111/355/320 217/357/324 361/358/319
f 110/359/317 287/360/325 311/361/326
f 103/362/327 247/363/328 254/364/329
f 91/365/330 302/312/284 354/366/331
f 92/367/332 286/368/333 346/313/285
f 92/367/332 170/369/334 286/368/333
f 96/317/289 352/328/298 212/318/290
f 98/323/293 335/370/335 138/324/294
f 96/320/289 209/322/292 141/371/336
f 101/372/337 253/373/338 291/374/339
f 96/317/289 141/375/336 222/327/297
f 102/329/299 174/376/340 317/377/341
f 102/329/299 317/377/341 375/330/300
f 102/329/299 250/332/302 174/376/340
f 108/343/309 275/345/313 176/378/342
f 108/339/309 176/379/342 282/340/310
f 109/380/314 208/381/343 341/382/344
f 110/349/317 311/383/326 153/384/345
f 110/349/317 153/384/345 292/350/318
f 111/355/320 248/385/322 345/356/323
f 107/386/346 221/387/347 242/388/348
f 107/389/346 242/390/348 354/366/331
f 354/366/331 277/391/349 91/365/330
f 354/366/331 242/390/348 277/391/349
f 242/390/348 97/392/350 277/391/349
f 242/388/348 254/364/329 97/393/350
f 242/388/348 221/387/347 254/364/329
f 221/387/347 103/362/327 254/364/329
f 345/356/323 291/374/339 106/394/351
f 345/356/323 248/385/322 291/374/339
f 248/385/322 101/372/337 291/374/339
f 292/350/318 365/315/287 93/314/286
f 292/350/318 153/384/345 365/315/287
f 153/384/345 94/395/352 365/315/287
f 153/384/345 341/382/344 94/395/352
f 153/384/345 311/383/326 341/382/344
f 311/383/326 109/380/314 341/382/344
f 341/382/344 294/396/353 94/395/352
f 341/382/344 208/381/343 294/396/353
f 208/381/343 95/397/354 294/396/353
f 282/340/310 224/398/355 90/311/283
f 282/340/310 176/379/342 224/398/355
f 176/379/342 107/389/346 224/398/355
f 176/378/342 333/338/308 107/386/346
f 176/378/342 275/345/313 333/338/308
f 275/345/313 104/336/306 333/338/308
f 174/376/340 238/335/305 100/399/356
f 174/376/340 250/332/302 238/335/305
f 250/332/302 105/333/303 238/335/305
f 375/330/300 247/363/328 103/362/327
f 375/330/300 317/377/341 247/363/328
f 317/377/341 99/400/357 247/363/328
f 317/377/341 211/401/358 99/400/357
f 317/377/341 174/376/340 211/401/358
f 174/376/340 100/399/356 211/401/358
f 222/327/297 178/402/359 93/314/286
f 222/327/297 141/375/336 178/402/359
f 141/375/336 101/403/337 178/402/359
f 291/374/339 162/404/360 106/394/351
f 291/374/339 253/373/338 162/404/360
f 253/373/338 100/399/356 162/404/360
f 141/371/336 255/326/296 101/372/337
f 141/371/336 209/322/292 255/326/296
f 209/322/292 98/323/293 255/326/296
f 138/324/294 271/405/361 99/400/357
f 138/324/294 335/370/335 271/405/361
f 335/370/335 97/393/350 271/405/361
f 212/318/290 216/406/362 91/365/330
f 212/318/290 352/328/298 216/406/362
f 352/328/298 92/367/332 216/406/362
f 286/368/333 168/316/288 95/397/354
f 286/368/333 170/369/334 168/316/288
f 170/369/334 93/314/286 168/316/288
f 346/313/285 273/407/363 90/311/283
f 346/313/285 286/368/333 273/407/363
f 286/368/333 95/397/354 273/407/363
f 354/366/331 224/398/355 107/389/346
f 354/366/331 302/312/284 224/398/355
f 302/312/284 90/311/283 224/398/355
f 254/364/329 271/405/361 97/393/350
f 254/364/329 247/363/328 271/405/361
f 247/363/328 99/400/357 271/405/361
f 311/361/326 351/347/315 109/346/314
f 311/361/326 287/360/325 351/347/315
f 287/360/325 105/333/303 351/347/315
f 361/358/319 287/360/325 110/359/317
f 361/358/319 217/357/324 287/360/325
f 217/357/324 105/333/303 287/360/325
f 217/357/324 304/334/304 105/333/303
f 217/357/324 345/356/323 304/334/304
f 345/356/323 106/394/351 304/334/304
f 248/354/322 178/402/359 101/403/337
f 248/354/322 356/353/321 178/402/359
f 356/353/321 93/314/286 178/402/359
f 361/351/319 356/353/321 111/352/320
f 361/351/319 292/350/318 356/353/321
f 292/350/318 93/314/286 356/353/321
f 204/348/316 234/408/364 104/336/306
f 204/348/316 351/347/315 234/408/364
f 351/347/315 105/333/303 234/408/364
f 275/345/313 204/348/316 104/336/306
f 275/345/313 243/344/312 204/348/316
f 243/344/312 109/346/314 204/348/316
f 243/342/312 208/381/343 109/380/314
f 243/342/312 136/341/311 208/381/343
f 136/341/311 95/397/354 208/381/343
f 136/341/311 273/407/363 95/397/354
f 136/341/311 282/340/310 273/407/363
f 282/340/310 90/311/283 273/407/363
f 333/338/308 221/387/347 107/386/346
f 333/338/308 179/337/307 221/387/347
f 179/337/307 103/362/327 221/387/347
f 238/335/305 162/404/360 100/399/356
f 238/335/305 304/334/304 162/404/360
f 304/334/304 106/394/351 162/404/360
f 250/332/302 234/408/364 105/333/303
f 250/332/302 312/331/301 234/408/364
f 312/331/301 104/336/306 234/408/364
f 312/331/301 179/337/307 104/336/306
f 312/331/301 375/330/300 179/337/307
f 375/330/300 103/362/327 179/337/307
f 352/328/298 170/369/334 92/367/332
f 352/328/298 222/327/297 170/369/334
f 222/327/297 93/314/286 170/369/334
f 255/326/296 253/373/338 101/372/337
f 255/326/296 334/325/295 253/373/338
f 334/325/295 100/399/356 253/373/338
f 334/325/295 211/401/358 100/399/356
f 334/325/295 138/324/294 211/401/358
f 138/324/294 99/400/357 211/401/358
f 209/322/292 335/370/335 98/323/293
f 209/322/292 274/321/291 335/370/335
f 274/321/291 97/393/350 335/370/335
f 274/319/291 277/391/349 97/392/350
f 274/319/291 212/318/290 277/391/349
f 212/318/290 91/365/330 277/391/349
f 168/316/288 294/396/353 95/397/354
f 168/316/288 365/315/287 294/396/353
f 365/315/287 94/395/352 294/396/353
f 346/313/285 216/406/362 92/367/332
f 346/313/285 302/312/284 216/406/362
f 302/312/284 91/365/330 216/406/362
f 261/286/265 173/409/365 69/285/264
f 261/286/265 293/310/282 173/409/365
f 293/310/282 75/410/366 173/409/365
f 293/308/282 305/284/263 75/411/366
f 293/308/282 269/307/281 305/284/263
f 269/307/281 81/282/261 305/284/263
f 113/276/257 206/294/273 84/412/367
f 113/276/257 283/305/256 206/294/273
f 283/305/256 79/292/271 206/294/273
f 213/270/252 272/235/221 71/234/220
f 213/270/252 376/304/279 272/235/221
f 376/304/279 72/413/368 272/235/221
f 376/304/279 313/302/278 72/413/368
f 376/304/279 196/303/260 313/302/278
f 196/303/260 87/300/248 313/302/278
f 313/302/278 182/414/369 72/413/368
f 313/302/278 158/301/277 182/414/369
f 158/301/277 73/415/370 182/414/369
f 198/260/244 146/416/371 68/231/217
f 198/260/244 329/299/276 146/416/371
f 329/299/276 85/309/280 146/416/371
f 329/298/276 131/258/242 85/306/280
f 329/298/276 189/265/247 131/258/242
f 189/265/247 82/256/240 131/258/242
f 118/296/274 266/255/239 78/417/372
f 118/296/274 218/252/236 266/255/239
f 218/252/236 83/253/237 266/255/239
f 149/250/234 314/283/262 81/282/261
f 149/250/234 249/297/275 314/283/262
f 249/297/275 77/418/373 314/283/262
f 249/297/275 125/419/374 77/418/373
f 249/297/275 118/296/274 125/419/374
f 118/296/274 78/417/372 125/419/374
f 377/247/231 183/420/375 71/234/220
f 377/247/231 298/295/270 183/420/375
f 298/295/270 79/421/271 183/420/375
f 206/294/273 336/422/376 84/412/367
f 206/294/273 319/293/272 336/422/376
f 319/293/272 78/417/372 336/422/376
f 298/291/270 315/246/230 79/292/271
f 298/291/270 366/242/226 315/246/230
f 366/242/226 76/243/227 315/246/230
f 190/244/228 307/423/377 77/418/373
f 190/244/228 239/290/269 307/423/377
f 239/290/269 75/411/366 307/423/377
f 372/238/224 137/424/378 69/285/264
f 372/238/224 245/248/232 137/424/378
f 245/248/232 70/287/266 137/424/378
f 199/288/267 330/236/222 73/415/370
f 199/288/267 326/289/268 330/236/222
f 326/289/268 71/234/220 330/236/222
f 257/233/219 186/425/379 68/231/217
f 257/233/219 199/288/267 186/425/379
f 199/288/267 73/415/370 186/425/379
f 261/286/265 146/416/371 85/309/280
f 261/286/265 205/232/218 146/416/371
f 205/232/218 68/231/217 146/416/371
f 305/284/263 307/423/377 75/411/366
f 305/284/263 314/283/262 307/423/377
f 314/283/262 77/418/373 307/423/377
f 196/281/260 120/267/249 87/266/248
f 196/281/260 200/280/259 120/267/249
f 200/280/259 83/253/237 120/267/249
f 164/278/253 200/280/259 88/279/251
f 164/278/253 262/277/258 200/280/259
f 262/277/258 83/253/237 200/280/259
f 262/277/258 202/254/238 83/253/237
f 262/277/258 113/276/257 202/254/238
f 113/276/257 84/412/367 202/254/238
f 283/274/256 183/420/375 79/421/271
f 283/274/256 278/273/255 183/420/375
f 278/273/255 71/234/220 183/420/375
f 164/271/253 278/273/255 89/272/254
f 164/271/253 213/270/252 278/273/255
f 213/270/252 71/234/220 278/273/255
f 259/268/250 288/426/380 82/256/240
f 259/268/250 120/267/249 288/426/380
f 120/267/249 83/253/237 288/426/380
f 189/265/247 259/268/250 82/256/240
f 189/265/247 256/264/246 259/268/250
f 256/264/246 87/266/248 259/268/250
f 256/262/246 158/301/277 87/300/248
f 256/262/246 358/261/245 158/301/277
f 358/261/245 73/415/370 158/301/277
f 358/261/245 186/425/379 73/415/370
f 358/261/245 198/260/244 186/425/379
f 198/260/244 68/231/217 186/425/379
f 131/258/242 269/307/281 85/306/280
f 131/258/242 348/257/241 269/307/281
f 348/257/241 81/282/261 269/307/281
f 266/255/239 336/422/376 78/417/372
f 266/255/239 202/254/238 336/422/376
f 202/254/238 84/412/367 336/422/376
f 218/252/236 288/426/380 83/253/237
f 218/252/236 154/251/235 288/426/380
f 154/251/235 82/256/240 288/426/380
f 154/251/235 348/257/241 82/256/240
f 154/251/235 149/250/234 348/257/241
f 149/250/234 81/282/261 348/257/241
f 245/248/232 326/289/268 70/287/266
f 245/248/232 377/247/231 326/289/268
f 377/247/231 71/234/220 326/289/268
f 315/246/230 319/293/272 79/292/271
f 315/246/230 246/245/229 319/293/272
f 246/245/229 78/417/372 319/293/272
f 246/245/229 125/419/374 78/417/372
f 246/245/229 190/244/228 125/419/374
f 190/244/228 77/418/373 125/419/374
f 366/242/226 239/290/269 76/243/227
f 366/242/226 323/241/225 239/290/269
f 323/241/225 75/411/366 239/290/269
f 323/239/225 173/409/365 75/410/366
f 323/239/225 372/238/224 173/409/365
f 372/238/224 69/285/264 173/409/365
f 330/236/222 182/414/369 73/415/370
f 330/236/222 272/235/221 182/414/369
f 272/235/221 72/413/368 182/414/369
f 257/233/219 137/424/378 70/287/266
f 257/233/219 205/232/218 137/424/378
f 205/232/218 69/285/264 137/424/378
f 325/206/199 150/427/381 47/205/198
f 325/206/199 360/230/216 150/427/381
f 360/230/216 53/428/382 150/427/381
f 360/228/216 359/204/197 53/429/382
f 360/228/216 116/227/215 359/204/197
f 116/227/215 59/202/195 359/204/197
f 284/196/191 187/214/207 62/430/383
f 284/196/191 139/225/190 187/214/207
f 139/225/190 57/212/205 187/214/207
f 201/190/186 192/155/155 49/154/154
f 201/190/186 331/224/213 192/155/155
f 331/224/213 50/431/384 192/155/155
f 331/224/213 339/222/212 50/431/384
f 331/224/213 159/223/194 339/222/212
f 159/223/194 65/220/182 339/222/212
f 339/222/212 252/432/385 50/431/384
f 339/222/212 215/221/211 252/432/385
f 215/221/211 51/433/386 252/432/385
f 114/180/178 184/434/387 46/151/151
f 114/180/178 347/219/210 184/434/387
f 347/219/210 63/229/214 184/434/387
f 347/218/210 251/178/176 63/226/214
f 347/218/210 185/185/181 251/178/176
f 185/185/181 60/176/174 251/178/176
f 279/216/208 355/175/173 56/435/388
f 279/216/208 128/172/170 355/175/173
f 128/172/170 61/173/171 355/175/173
f 264/170/168 349/203/196 59/202/195
f 264/170/168 143/217/209 349/203/196
f 143/217/209 55/436/389 349/203/196
f 143/217/209 316/437/390 55/436/389
f 143/217/209 279/216/208 316/437/390
f 279/216/208 56/435/388 316/437/390
f 320/167/165 230/438/391 49/154/154
f 320/167/165 378/215/204 230/438/391
f 378/215/204 57/439/205 230/438/391
f 187/214/207 296/440/392 62/430/383
f 187/214/207 373/213/206 296/440/392
f 373/213/206 56/435/388 296/440/392
f 378/211/204 362/166/164 57/212/205
f 378/211/204 308/162/160 362/166/164
f 308/162/160 54/163/161 362/166/164
f 232/164/162 363/441/393 55/436/389
f 232/164/162 175/210/203 363/441/393
f 175/210/203 53/429/382 363/441/393
f 223/158/158 276/442/394 47/205/198
f 223/158/158 350/168/166 276/442/394
f 350/168/166 48/207/200 276/442/394
f 147/208/201 117/156/156 51/433/386
f 147/208/201 337/209/202 117/156/156
f 337/209/202 49/154/154 117/156/156
f 123/153/153 160/443/395 46/151/151
f 123/153/153 147/208/201 160/443/395
f 147/208/201 51/433/386 160/443/395
f 325/206/199 184/434/387 63/229/214
f 325/206/199 197/152/152 184/434/387
f 197/152/152 46/151/151 184/434/387
f 359/204/197 363/441/393 53/429/382
f 359/204/197 349/203/196 363/441/393
f 349/203/196 55/436/389 363/441/393
f 159/201/194 263/187/183 65/186/182
f 159/201/194 214/200/193 263/187/183
f 214/200/193 61/173/171 263/187/183
f 357/198/187 214/200/193 66/199/185
f 357/198/187 144/197/192 214/200/193
f 144/197/192 61/173/171 214/200/193
f 144/197/192 210/174/172 61/173/171
f 144/197/192 284/196/191 210/174/172
f 284/196/191 62/430/383 210/174/172
f 139/194/190 230/438/391 57/439/205
f 139/194/190 132/193/189 230/438/391
f 132/193/189 49/154/154 230/438/391
f 357/191/187 132/193/189 67/192/188
f 357/191/187 201/190/186 132/193/189
f 201/190/186 49/154/154 132/193/189
f 122/188/184 126/444/396 60/176/174
f 122/188/184 263/187/183 126/444/396
f 263/187/183 61/173/171 126/444/396
f 185/185/181 122/188/184 60/176/174
f 185/185/181 145/184/180 122/188/184
f 145/184/180 65/186/182 122/188/184
f 145/182/180 215/221/211 65/220/182
f 145/182/180 289/181/179 215/221/211
f 289/181/179 51/433/386 215/221/211
f 289/181/179 160/443/395 51/433/386
f 289/181/179 114/180/178 160/443/395
f 114/180/178 46/151/151 160/443/395
f 251/178/176 116/227/215 63/226/214
f 251/178/176 327/177/175 116/227/215
f 327/177/175 59/202/195 116/227/215
f 355/175/173 296/440/392 56/435/388
f 355/175/173 210/174/172 296/440/392
f 210/174/172 62/430/383 296/440/392
f 128/172/170 126/444/396 61/173/171
f 128/172/170 191/171/169 126/444/396
f 191/171/169 60/176/174 126/444/396
f 191/171/169 327/177/175 60/176/174
f 191/171/169 264/170/168 327/177/175
f 264/170/168 59/202/195 327/177/175
f 350/168/166 337/209/202 48/207/200
f 350/168/166 320/167/165 337/209/202
f 320/167/165 49/154/154 337/209/202
f 362/166/164 373/213/206 57/212/205
f 362/166/164 165/165/163 373/213/206
f 165/165/163 56/435/388 373/213/206
f 165/165/163 316/437/390 56/435/388
f 165/165/163 232/164/162 316/437/390
f 232/164/162 55/436/389 316/437/390
f 308/162/160 175/210/203 54/163/161
f 308/162/160 112/161/159 175/210/203
f 112/161/159 53/429/382 175/210/203
f 112/159/159 150/427/381 53/428/382
f 112/159/159 223/158/158 150/427/381
f 223/158/158 47/205/198 150/427/381
f 117/156/156 252/432/385 51/433/386
f 117/156/156 192/155/155 252/432/385
f 192/155/155 50/431/384 252/432/385
f 123/153/153 276/442/394 48/207/200
f 123/153/153 197/152/152 276/442/394
f 197/152/152 47/205/198 276/442/394
f 119/132/132 379/147/147 324/150/150 42/133/133
f 39/121/121 270/142/142 379/147/147 119/132/132
f 270/142/142 44/141/141 322/148/148 379/147/147
f 322/445/148 380/143/143 180/146/146 45/446/149
f 44/447/141 129/138/138 380/143/143 322/445/148
f 129/138/138 40/137/137 193/144/144 380/143/143
f 342/120/120 381/139/139 270/142/142 39/121/121
f 37/448/113 203/449/130 381/139/139 342/120/120
f 203/449/130 41/450/129 258/140/140 381/139/139
f 258/451/140 382/135/135 129/138/138 44/447/141
f 41/452/129 340/453/126 382/135/135 258/451/140
f 340/453/126 38/454/125 135/136/136 382/135/135
f 193/144/144 383/131/131 188/134/134 43/145/145
f 40/137/137 290/122/122 383/131/131 193/144/144
f 290/122/122 39/121/121 119/132/132 383/131/131
f 227/112/112 384/127/127 203/130/130 37/113/113
f 25/455/397 161/456/398 384/127/127 227/112/112
f 161/456/398 24/457/399 133/128/128 384/127/127
f 133/458/128 385/123/123 340/126/126 41/459/129
f 24/460/399 364/461/117 385/123/123 133/458/128
f 364/461/117 2/462/108 181/124/124 385/123/123
f 135/136/136 386/119/119 290/122/122 40/137/137
f 38/454/125 151/463/114 386/119/119 135/136/136
f 151/463/114 37/448/113 342/120/120 386/119/119
f 328/464/400 387/118/118 140/12/12 9/11/11
f 13/465/401 236/466/402 387/118/118 328/464/400
f 236/466/402 24/467/399 374/65/65 387/118/118
f 236/468/402 388/115/115 364/117/117 24/469/399
f 13/470/401 344/471/403 388/115/115 236/468/402
f 344/471/403 5/472/404 241/116/116 388/115/115
f 181/124/124 389/111/111 151/114/114 38/125/125
f 2/462/108 171/473/110 389/111/111 181/124/124
f 171/473/110 25/455/397 227/112/112 389/111/111
f 171/110/110 299/474/405 25/475/397
f 171/110/110 177/109/109 299/474/405
f 177/109/109 1/476/406 299/474/405
f 124/76/76 127/66/66 28/77/77
f 124/76/76 134/16/16 127/66/66
f 134/16/16 10/15/15 127/66/66
f 235/88/88 390/103/103 225/106/106 35/89/89
f 26/63/63 303/74/74 390/103/103 235/88/88
f 303/74/74 31/73/73 265/104/104 390/103/103
f 195/84/84 391/99/99 297/102/102 33/85/85
f 32/93/93 240/98/98 391/99/99 195/84/84
f 240/98/98 27/97/97 166/100/100 391/99/99
f 370/92/92 392/95/95 240/98/98 32/93/93
f 28/477/77 338/478/407 392/95/95 370/92/92
f 338/478/407 24/479/399 267/96/96 392/95/95
f 321/72/72 393/91/91 260/94/94 31/73/73
f 30/480/69 233/481/78 393/91/91 321/72/72
f 233/481/78 28/477/77 370/92/92 393/91/91
f 166/482/100 394/87/87 295/90/90 36/483/101
f 27/484/97 318/64/64 394/87/87 166/482/100
f 318/64/64 26/63/63 235/88/88 394/87/87
f 265/104/104 395/83/83 172/86/86 34/105/105
f 31/73/73 260/94/94 395/83/83 265/104/104
f 260/94/94 32/93/93 195/84/84 395/83/83
f 332/485/408 396/79/79 207/82/82 11/486/409
f 4/487/410 309/4/4 396/79/79 332/485/408
f 309/4/4 3/3/3 229/80/80 396/79/79
f 121/488/68 397/75/75 233/78/78 30/489/69
f 29/490/411 194/491/412 397/75/75 121/488/68
f 194/491/412 12/107/107 124/76/76 397/75/75
f 115/62/62 398/71/71 303/74/74 26/63/63
f 25/492/397 367/493/70 398/71/71 115/62/62
f 367/493/70 30/480/69 321/72/72 398/71/71
f 299/474/405 399/67/67 367/70/70 25/475/397
f 1/476/406 280/494/413 399/67/67 299/474/405
f 280/494/413 29/495/411 121/68/68 399/67/67
f 127/66/66 338/496/407 28/77/77
f 127/66/66 374/65/65 338/496/407
f 374/65/65 24/467/399 338/496/407
f 267/497/96 400/61/61 318/64/64 27/484/97
f 24/498/399 161/499/398 400/61/61 267/497/96
f 161/499/398 25/492/397 115/62/62 400/61/61
f 219/500/26 401/57/57 155/60/60 17/501/27
f 16/502/35 244/48/48 401/57/57 219/500/26
f 244/48/48 22/47/47 281/58/58 401/57/57
f 343/503/22 402/53/53 300/56/56 15/504/23
f 14/505/31 368/506/44 402/53/53 343/503/22
f 368/506/44 20/507/43 167/54/54 402/53/53
f 369/508/38 403/49/49 306/52/52 18/509/39
f 17/501/27 155/60/60 403/49/49 369/508/38
f 155/60/60 23/59/59 157/50/50 403/49/49
f 285/510/34 404/45/45 244/48/48 16/502/35
f 15/504/23 300/56/56 404/45/45 285/510/34
f 300/56/56 21/55/55 353/46/46 404/45/45
f 237/511/30 405/41/41 368/44/44 14/512/31
f 18/509/39 306/52/52 405/41/41 237/511/30
f 306/52/52 19/51/51 228/42/42 405/41/41
f 231/10/10 406/37/37 130/40/40 9/11/11
f 8/19/19 226/28/28 406/37/37 231/10/10
f 226/28/28 17/27/27 369/38/38 406/37/37
f 163/6/6 407/33/33 152/36/36 6/7/7
f 5/472/404 220/24/24 407/33/33 163/6/6
f 220/24/24 15/23/23 285/34/34 407/33/33
f 328/464/400 408/29/29 148/32/32 13/465/401
f 9/11/11 130/40/40 408/29/29 328/464/400
f 130/40/40 18/39/39 237/30/30 408/29/29
f 156/18/18 409/25/25 226/28/28 8/19/19
f 6/7/7 152/36/36 409/25/25 156/18/18
f 152/36/36 16/35/35 219/26/26 409/25/25
f 344/471/403 410/21/21 220/24/24 5/472/404
f 13/470/401 148/513/32 410/21/21 344/471/403
f 148/513/32 14/514/31 343/22/22 410/21/21
f 229/80/80 411/17/17 301/20/20 7/81/81
f 3/3/3 169/8/8 411/17/17 229/80/80
f 169/8/8 6/7/7 156/18/18 411/17/17
f 268/515/414 412/13/13 134/16/16 12/107/107
f 11/486/409 207/82/82 412/13/13 268/515/414
f 207/82/82 7/81/81 142/14/14 412/13/13
f 142/14/14 413/9/9 140/12/12 10/15/15
f 7/81/81 301/20/20 413/9/9 142/14/14
f 301/20/20 8/19/19 231/10/10 413/9/9
f 371/2/2 414/5/5 169/8/8 3/3/3
f 2/108/108 241/116/116 414/5/5 371/2/2
f 241/116/116 5/472/404 163/6/6 414/5/5
f 310/516/415 415/1/1 309/4/4 4/487/410
f 1/476/406 177/109/109 415/1/1 310/516/415
f 177/109/109 2/108/108 371/2/2 415/1/1
