# Blender v2.78 (sub 0) OBJ File: ''
# www.blender.org
mtllib Birch_Tree_NoLeaves_l_04.mtl
o Birch_Tree_NoLeaves_l_04
v 0.413453 0.015134 -0.098715
v 0.710324 0.239044 -0.074065
v 0.637119 0.249375 0.140648
v 0.250490 0.015843 0.254749
v -0.278560 0.019489 0.254749
v 0.384041 0.295749 0.140648
v 0.312103 0.305064 -0.074065
v -0.441523 0.020198 -0.098715
v -0.013190 0.016990 -0.317169
v 0.520722 0.264448 -0.206766
v 0.941392 0.721783 -0.169592
v 1.082798 0.698606 -0.065482
v 1.028786 0.707459 0.102973
v 0.852730 0.737121 0.102973
v 0.798719 0.745974 -0.065482
v 1.537544 1.913799 -0.058880
v 1.494866 1.919826 0.073787
v 1.356756 1.939330 0.073787
v 1.314078 1.945357 -0.058880
v 1.425810 1.929578 -0.140873
v 1.787635 3.444378 -0.128327
v 1.886750 3.436088 -0.055983
v 1.848960 3.440050 0.061044
v 1.726664 3.452873 0.061044
v 1.688873 3.456836 -0.055983
v 2.017926 5.249899 -0.068566
v 1.986045 5.229514 0.045441
v 1.883344 5.224361 0.045441
v 1.854655 5.240008 -0.068574
v 1.937568 5.142258 -0.132129
v 1.774811 6.336759 0.017972
v 1.690896 6.330083 0.012845
v 1.672296 6.224683 -0.051418
v 1.722825 6.335811 -0.088507
v 1.913848 5.426908 -0.125940
v 1.795635 6.338033 -0.046235
v 1.775227 8.047258 -0.042102
v 1.761659 8.046428 -0.000267
v 1.667725 6.498415 -0.049828
v 1.404393 6.559015 -0.129663
v 1.363434 6.518442 -0.093814
v 1.739706 8.045085 -0.067958
v 1.717753 8.043740 -0.000267
v 1.704417 8.049395 -0.042085
v 1.241535 9.693311 -0.057233
v 1.265689 9.694560 -0.039632
v 1.256463 9.694081 -0.011153
v 1.226483 9.692574 -0.011547
v 1.217503 9.692025 -0.039238
v 1.349810 11.264956 -0.029837
v 1.361387 11.285596 -0.046111
v 1.375487 11.311218 -0.036833
v 1.368822 11.283784 -0.022388
v 1.348285 6.482597 -0.139093
v 1.386272 6.508718 -0.170207
v 1.021976 7.321399 -0.209443
v 1.050063 7.359584 -0.168963
v 0.983463 7.301177 -0.180671
v 1.003634 7.330328 -0.137082
v 0.415293 8.467204 -0.236719
v 0.379583 8.456962 -0.215599
v 0.359328 8.447468 -0.246072
v 0.387964 8.453618 -0.265459
v 0.325325 9.688311 -0.095583
v 0.317772 9.685207 -0.106603
v 0.328215 9.687196 -0.113605
v 0.338327 9.691666 -0.103182
v 1.785302 5.352358 -0.455151
v 1.851550 5.298871 -0.470149
v 1.910434 5.360822 -0.454027
v 1.829890 5.439595 -0.455421
v 1.969410 5.769116 -0.822666
v 1.899625 5.789261 -0.786476
v 1.882323 5.750246 -0.842057
v 1.938037 5.743920 -0.871503
v 2.025893 6.524220 -0.892696
v 2.016588 6.508282 -0.949873
v 2.064045 6.516496 -0.973092
v 2.086407 6.524510 -0.924964
v 2.334125 7.694343 -1.277357
v 2.283972 7.693192 -1.250689
v 2.276505 7.680942 -1.298423
v 2.315819 7.688393 -1.317472
v 2.503850 8.998131 -1.329677
v 2.482621 8.997608 -1.318400
v 2.479393 8.992443 -1.338619
v 2.496140 8.995571 -1.346747
v 1.554559 6.389577 -0.129083
v 2.006951 5.230618 -0.001862
v 0.340746 9.109954 -0.189916
v 1.237774 6.934159 -0.149381
v 0.940758 0.722290 0.112013
v 1.299772 10.544086 -0.016952
v 1.706469 7.230335 -0.043902
v 1.773958 5.766882 -0.049370
v 1.374860 11.328835 -0.029316
v 1.749006 7.177944 -0.076440
v 1.770550 8.046972 -0.020499
v 1.361618 11.332258 -0.038698
v 1.819502 4.350594 0.053701
v 0.622649 0.250277 -0.149449
v 1.365638 11.331256 -0.025863
v 1.840873 3.439825 -0.097250
v 0.891959 0.443436 -0.069107
v -0.396734 0.019843 0.086309
v 2.152689 7.091708 -1.072220
v 1.543121 6.467591 -0.088995
v 1.908947 5.790271 -0.049266
v 2.057014 6.524974 -0.905887
v 2.078223 6.520792 -0.950560
v 1.517154 8.872067 -0.040824
v 1.967476 4.344812 -0.054331
v 2.327520 7.691613 -1.298716
v 1.787812 3.446462 0.067342
v 0.409920 0.285718 -0.149449
v 2.277691 7.686822 -1.273254
v 1.889075 5.503318 -0.677811
v 0.683579 7.881113 -0.180739
v 1.288706 10.544684 -0.051522
v 1.874470 4.330033 -0.121246
v 1.935803 5.780890 -0.801510
v 0.403453 8.460826 -0.252226
v 1.457832 8.868438 -0.040824
v 1.550461 2.681171 0.067016
v 0.624136 0.493020 0.118987
v 0.031677 0.145066 0.203120
v 1.174461 6.867626 -0.160276
v 1.058627 1.318010 -0.062051
v 1.874949 5.402120 -0.282895
v 1.487493 8.870253 -0.062415
v 1.769695 6.339605 -0.068742
v 1.677328 6.237727 -0.018051
v 1.908894 5.745382 -0.859841
v 0.398813 8.462673 -0.224491
v -0.089253 0.150015 -0.088160
v 2.503353 9.020398 -1.338776
v 2.491043 9.017536 -1.343276
v 0.322547 9.708378 -0.107445
v 1.228620 9.692614 -0.049475
v 1.365835 1.938047 -0.105588
v 1.001360 7.309366 -0.197433
v 2.018243 6.515963 -0.919753
v 0.991149 7.314341 -0.157165
v 2.144378 7.078032 -1.125485
v 1.262531 9.694409 -0.024919
v 0.864814 0.734749 -0.124851
v 1.028208 7.346878 -0.150647
v 1.064273 0.701623 0.021539
v 1.803545 5.399829 -0.454988
v 1.873071 5.404488 -0.454426
v 1.823143 5.301292 -0.257926
v 0.434425 0.119924 0.203120
v 1.192106 6.900836 -0.115938
v 1.694770 6.241624 -0.074008
v 1.983678 5.160804 -0.106764
v 0.733245 0.468633 -0.185356
v 2.414183 8.383286 -1.341846
v 0.372272 8.449953 -0.257434
v 0.510580 0.272562 0.151814
v 2.496549 9.021423 -1.324509
v 0.321519 9.106313 -0.177001
v 1.425811 1.929578 0.080847
v 0.368665 0.015489 0.086309
v 1.859032 5.597248 -0.627476
v 1.262460 1.286400 0.087828
v 1.220325 9.760036 -0.025099
v 1.934695 5.226937 0.050747
v 1.996897 6.112062 -0.923516
v 0.817243 0.742957 0.021539
v 1.815517 5.321336 -0.462947
v 0.359475 9.118238 -0.170684
v 0.555989 0.114468 -0.088160
v 2.391615 8.386687 -1.294523
v 1.212722 6.890996 -0.190284
v 1.268686 10.477072 -0.021034
v 1.671180 6.452376 -0.018476
v 1.880333 5.377356 -0.103196
v 1.798308 5.779500 0.031781
v 0.830944 0.453374 0.118987
v 0.321106 9.708935 -0.098455
v 1.734575 3.451015 -0.097250
v 1.966873 5.310088 -0.257926
v 1.505824 8.871374 -0.005891
v 1.957927 6.135705 -0.838268
v 1.932611 4.346973 0.053701
v 1.873808 3.437408 0.004477
v 1.739706 8.045084 0.001953
v 1.527197 6.393833 -0.041845
v 0.331359 9.712155 -0.096748
v 1.373984 11.399165 -0.033567
v 1.371039 11.329847 -0.041537
v 1.522853 1.915875 0.009635
v 1.688496 6.453106 -0.072028
v 1.514351 6.357749 -0.094166
v 1.384926 6.541049 -0.109378
v 1.306749 10.543674 -0.038364
v 0.336300 0.302977 0.036742
v 1.721500 7.176260 0.008372
v 2.427166 8.387495 -1.313428
v 2.309782 7.694286 -1.261521
v 1.893780 5.156219 -0.106764
v 1.828219 5.534238 -0.656678
v 1.708978 8.046438 -0.020490
v 1.720759 8.047160 -0.056818
v 1.701815 3.455515 0.004477
v 2.295428 7.684149 -1.310449
v 1.967646 5.383539 -0.103190
v 1.793396 7.177425 -0.044053
v 1.741119 6.334697 0.021383
v 1.680157 2.664733 0.067016
v 0.222809 0.016062 -0.229650
v 1.887492 5.770358 -0.812330
v 1.264626 10.476880 -0.033572
v 1.469161 8.869131 -0.005891
v 1.828589 5.838226 -0.097846
v 1.510383 2.686251 -0.057337
v 2.208658 7.092983 -1.101983
v 1.895942 5.254068 -0.290086
v 1.485786 1.921109 -0.105588
v -0.250034 0.018594 -0.229650
v 0.332801 9.711599 -0.105738
v 0.662822 7.861809 -0.218357
v 1.615309 2.672952 -0.134191
v 0.563755 0.502451 -0.069107
v 1.017337 0.709324 -0.124851
v 2.039453 6.511780 -0.964426
v 1.106745 1.310548 0.087828
v 2.188217 7.086355 -1.146722
v 0.725436 7.900861 -0.207585
v 1.758769 8.046251 -0.056826
v 1.328768 1.943281 0.009635
v 1.366265 6.493337 -0.157010
v 1.720235 2.659653 -0.057337
v 1.353596 6.498781 -0.114639
v 1.310578 1.278938 -0.062051
v -0.014035 0.017666 0.281582
v 2.386336 8.377998 -1.328356
v 1.776396 7.176384 0.008364
v 1.788461 6.337595 -0.013077
v 0.684859 0.242146 0.036742
v 2.484240 9.018561 -1.329009
v 2.023057 6.127556 -0.873764
v 0.335408 9.112013 -0.156638
v 1.254511 9.693990 -0.049673
v 0.238756 0.127931 -0.268181
v 1.957205 5.755914 -0.849021
v 1.933757 5.547941 -0.646565
v 1.397596 6.535605 -0.151749
v 1.883313 5.785543 0.031787
v 0.696988 7.874953 -0.242762
v 1.241473 9.693328 -0.009818
v 1.784462 4.350672 -0.054331
v 1.862594 5.222426 -0.001868
v 1.038419 7.341903 -0.190914
v 1.184602 1.298474 -0.154681
v 1.945411 6.109604 -0.896582
v 1.885043 5.325994 -0.462386
v 0.367631 8.451798 -0.229700
v 2.503682 9.090103 -1.335487
v 2.422435 8.385559 -1.328537
v 2.387214 8.382174 -1.310539
v 2.399752 8.380284 -1.336830
v 2.409898 8.387449 -1.302246
v 2.201210 7.089935 -1.125769
v 2.145761 7.084603 -1.097435
v 2.165499 7.081629 -1.138826
v 2.181472 7.092910 -1.084379
v 1.970079 6.109678 -0.913051
v 1.991567 6.132786 -0.853014
v 2.013216 6.119651 -0.900374
v 1.948430 6.122813 -0.865691
v 1.915182 5.523401 -0.663305
v 1.839860 5.567971 -0.640960
v 1.856550 5.515787 -0.668924
v 1.898492 5.575584 -0.635341
v 1.935983 5.278211 -0.274206
v 1.844471 5.355575 -0.270211
v 1.924321 5.360461 -0.270211
v 1.856133 5.273324 -0.274206
v 1.870905 5.816379 -0.077033
v 0.325583 9.776783 -0.094156
v 0.348348 9.115515 -0.162561
v 0.330226 9.107744 -0.184559
v 0.351313 9.114370 -0.181049
v 0.327261 9.108889 -0.166070
v 0.678538 7.867125 -0.232581
v 0.713324 7.888821 -0.226597
v 0.671088 7.870547 -0.198124
v 0.705874 7.892242 -0.192140
v 1.180953 6.882656 -0.136344
v 1.216126 6.919619 -0.130292
v 1.192406 6.877190 -0.177648
v 1.227579 6.914152 -0.171595
v 1.550400 6.431517 -0.111318
v 1.711370 7.204755 -0.016891
v 1.534416 6.370494 -0.114191
v 1.519215 6.372859 -0.065726
v 1.288031 10.544883 -0.017565
v 1.298369 10.544150 -0.045981
v 1.304379 10.543810 -0.027201
v 1.279536 10.545073 -0.044009
v 1.461715 8.868675 -0.022778
v 1.513270 8.871830 -0.022778
v 1.471562 8.869278 -0.053138
v 1.487493 8.870253 -0.004015
v 1.503424 8.871227 -0.053138
v 1.726144 7.205659 -0.062445
v 1.748890 7.174701 0.011179
v 1.772795 7.176165 -0.062529
v 1.535198 6.433882 -0.062853
v 1.787569 7.177069 -0.016975
v 1.782415 5.770963 -0.007497
v 1.900609 5.786601 -0.007439
v 1.798452 5.803541 -0.077091
v 1.840733 5.782937 0.036145
v 1.826026 4.339940 -0.092487
v 1.876057 4.348783 0.059503
v 1.924325 4.336793 -0.092487
v 1.796531 4.351330 0.001482
v 1.955582 4.346237 0.001482
v 1.524121 2.684510 0.006903
v 1.706497 2.661395 0.006903
v 1.558952 2.680095 -0.101168
v 1.615309 2.672952 0.073695
v 1.671666 2.665809 -0.101168
v 1.116939 1.308967 -0.114879
v 1.184602 1.298474 0.095879
v 1.252265 1.287981 -0.114879
v 1.075121 1.315452 0.015376
v 1.294084 1.281496 0.015376
v 0.583819 0.499725 0.028062
v 0.871261 0.446669 0.028062
v 0.642633 0.486458 -0.135405
v 0.727540 0.473197 0.129090
v 0.818786 0.454865 -0.135405
v 0.063002 0.139454 -0.190827
v 0.233051 0.132495 0.218766
v 0.409440 0.120465 -0.190827
v -0.048434 0.148826 0.062315
v 0.514536 0.116164 0.062315
vt 0.1807 0.1221
vt 0.1761 0.1463
vt 0.1629 0.1405
vt 0.1644 0.1113
vt 0.1236 0.0646
vt 0.1232 0.1145
vt 0.1086 0.1120
vt 0.1061 0.0594
vt 0.0671 0.1120
vt 0.0712 0.1416
vt 0.0605 0.1516
vt 0.0564 0.1312
vt 0.1527 0.0905
vt 0.1504 0.1287
vt 0.1379 0.1169
vt 0.1410 0.0697
vt 0.0920 0.0761
vt 0.0953 0.1218
vt 0.0820 0.1315
vt 0.0779 0.0928
vt 0.0751 0.1766
vt 0.0790 0.2116
vt 0.0685 0.2164
vt 0.0645 0.1840
vt 0.1486 0.1673
vt 0.1468 0.2059
vt 0.1362 0.2003
vt 0.1371 0.1586
vt 0.0980 0.1620
vt 0.1007 0.2022
vt 0.0895 0.2069
vt 0.0857 0.1692
vt 0.1723 0.1801
vt 0.1685 0.2140
vt 0.1575 0.2114
vt 0.1602 0.1759
vt 0.1236 0.1567
vt 0.1240 0.1989
vt 0.1119 0.1975
vt 0.1102 0.1548
vt 0.1634 0.2916
vt 0.1583 0.3692
vt 0.1496 0.3684
vt 0.1535 0.2899
vt 0.1238 0.2817
vt 0.1236 0.3645
vt 0.1150 0.3641
vt 0.1135 0.2808
vt 0.0841 0.2900
vt 0.0891 0.3684
vt 0.0806 0.3699
vt 0.0746 0.2932
vt 0.1439 0.2862
vt 0.1409 0.3666
vt 0.1322 0.3649
vt 0.1342 0.2826
vt 0.1035 0.2839
vt 0.1064 0.3655
vt 0.0977 0.3669
vt 0.0936 0.2869
vt 0.0756 0.3124
vt 0.0778 0.4039
vt 0.0674 0.4044
vt 0.0646 0.3134
vt 0.1417 0.3113
vt 0.1406 0.4033
vt 0.1301 0.4029
vt 0.1306 0.3102
vt 0.0976 0.3106
vt 0.0987 0.4031
vt 0.0882 0.4035
vt 0.0865 0.3115
vt 0.1639 0.3129
vt 0.1615 0.4041
vt 0.1511 0.4038
vt 0.1529 0.3124
vt 0.1196 0.3099
vt 0.1196 0.4028
vt 0.1092 0.4027
vt 0.1086 0.3097
vt 0.1628 0.5408
vt 0.1591 0.6490
vt 0.1504 0.6486
vt 0.1532 0.5404
vt 0.1244 0.5387
vt 0.1242 0.6462
vt 0.1156 0.6459
vt 0.1148 0.5385
vt 0.0863 0.5392
vt 0.0899 0.6461
vt 0.0813 0.6495
vt 0.0768 0.5411
vt 0.1436 0.5396
vt 0.1416 0.6475
vt 0.1328 0.6465
vt 0.1339 0.5389
vt 0.1053 0.5379
vt 0.1071 0.6443
vt 0.0985 0.6428
vt 0.0958 0.5373
vt 0.0865 0.7586
vt 0.0843 0.8131
vt 0.0804 0.8132
vt 0.0815 0.7589
vt 0.0658 0.7617
vt 0.0690 0.8110
vt 0.0654 0.8136
vt 0.0608 0.7664
vt 0.0966 0.7584
vt 0.0923 0.8132
vt 0.0882 0.8131
vt 0.0915 0.7582
vt 0.0761 0.7580
vt 0.0765 0.8108
vt 0.0727 0.8084
vt 0.0707 0.7570
vt 0.0920 0.9028
vt 0.0953 0.9028
vt 0.0944 0.9922
vt 0.0918 0.9923
vt 0.1750 0.7773
vt 0.1801 0.7794
vt 0.1802 0.7968
vt 0.1757 0.7968
vt 0.0661 0.9033
vt 0.0694 0.9032
vt 0.0734 0.9929
vt 0.0708 0.9929
vt 0.0855 0.9029
vt 0.0887 0.9028
vt 0.0892 0.9924
vt 0.0867 0.9927
vt 0.0727 0.9067
vt 0.0760 0.9103
vt 0.0787 0.9932
vt 0.0760 0.9930
vt 0.0268 0.3390
vt 0.0290 0.3392
vt 0.0269 0.4371
vt 0.0252 0.4370
vt 0.0399 0.3396
vt 0.0419 0.3396
vt 0.0371 0.4374
vt 0.0354 0.4374
vt 0.0312 0.3394
vt 0.0334 0.3396
vt 0.0303 0.4373
vt 0.0286 0.4372
vt 0.0442 0.3396
vt 0.0465 0.3397
vt 0.0408 0.4375
vt 0.0389 0.4374
vt 0.0356 0.3396
vt 0.0378 0.3397
vt 0.0337 0.4374
vt 0.0320 0.4374
vt 0.0263 0.5308
vt 0.0280 0.5310
vt 0.0256 0.6246
vt 0.0239 0.6244
vt 0.0347 0.5308
vt 0.0364 0.5308
vt 0.0320 0.6241
vt 0.0304 0.6242
vt 0.0229 0.5304
vt 0.0246 0.5307
vt 0.0223 0.6242
vt 0.0207 0.6239
vt 0.0313 0.5309
vt 0.0329 0.5308
vt 0.0288 0.6242
vt 0.0272 0.6244
vt 0.0345 0.9550
vt 0.0333 0.9550
vt 0.0334 0.9541
vt 0.0342 0.9527
vt 0.0344 0.9539
vt 0.0333 0.9529
vt 0.1662 0.7753
vt 0.1700 0.7751
vt 0.1711 0.7967
vt 0.1675 0.7961
vt 0.1940 0.7751
vt 0.1977 0.7759
vt 0.1954 0.7963
vt 0.1920 0.7959
vt 0.0792 0.9067
vt 0.0823 0.9031
vt 0.0842 0.9929
vt 0.0815 0.9930
vt 0.1852 0.7768
vt 0.1904 0.7743
vt 0.1886 0.7955
vt 0.1844 0.7961
vt 0.1816 0.8499
vt 0.1855 0.8490
vt 0.1823 0.9026
vt 0.1788 0.9036
vt 0.1888 0.8492
vt 0.1922 0.8494
vt 0.1890 0.9026
vt 0.1856 0.9026
vt 0.1737 0.8504
vt 0.1777 0.8507
vt 0.1752 0.9046
vt 0.1718 0.9041
vt 0.1663 0.8493
vt 0.1698 0.8501
vt 0.1684 0.9036
vt 0.1651 0.9026
vt 0.0161 0.7309
vt 0.0192 0.7312
vt 0.0174 0.8019
vt 0.0148 0.8019
vt 0.0103 0.7301
vt 0.0131 0.7307
vt 0.0121 0.8019
vt 0.0099 0.8017
vt 0.0222 0.7306
vt 0.0253 0.7299
vt 0.0226 0.8014
vt 0.0200 0.8017
vt 0.0280 0.7301
vt 0.0307 0.7303
vt 0.0267 0.8020
vt 0.0247 0.8017
vt 0.0090 0.8756
vt 0.0107 0.8759
vt 0.0094 0.9498
vt 0.0082 0.9494
vt 0.0164 0.8758
vt 0.0182 0.8755
vt 0.0139 0.9495
vt 0.0128 0.9499
vt 0.0199 0.8756
vt 0.0216 0.8757
vt 0.0166 0.9494
vt 0.0152 0.9495
vt 0.0126 0.8760
vt 0.0146 0.8760
vt 0.0117 0.9502
vt 0.0105 0.9500
vt 0.0281 0.8788
vt 0.0280 0.8780
vt 0.0288 0.8780
vt 0.0289 0.8789
vt 0.0554 0.7631
vt 0.0614 0.8138
vt 0.1574 0.6550
vt 0.1632 0.6542
vt 0.1636 0.6762
vt 0.1582 0.6756
vt 0.1840 0.6573
vt 0.1910 0.6533
vt 0.1909 0.6765
vt 0.1831 0.6794
vt 0.1701 0.6577
vt 0.1770 0.6612
vt 0.1752 0.6823
vt 0.1694 0.6793
vt 0.1959 0.6548
vt 0.2007 0.6562
vt 0.2020 0.6745
vt 0.1964 0.6755
vt 0.1820 0.7140
vt 0.1886 0.7131
vt 0.1863 0.7497
vt 0.1808 0.7487
vt 0.1607 0.7117
vt 0.1653 0.7112
vt 0.1669 0.7463
vt 0.1631 0.7477
vt 0.1703 0.7131
vt 0.1753 0.7150
vt 0.1754 0.7477
vt 0.1711 0.7470
vt 0.1933 0.7126
vt 0.1980 0.7120
vt 0.1939 0.7496
vt 0.1901 0.7497
vt 0.1720 0.7891
vt 0.1758 0.7895
vt 0.1761 0.8314
vt 0.1729 0.8312
vt 0.1883 0.7916
vt 0.1918 0.7916
vt 0.1897 0.8336
vt 0.1866 0.8336
vt 0.1803 0.7906
vt 0.1849 0.7916
vt 0.1835 0.8336
vt 0.1798 0.8325
vt 0.1650 0.7900
vt 0.1683 0.7886
vt 0.1697 0.8310
vt 0.1669 0.8324
vt 0.1791 0.9004
vt 0.1826 0.9014
vt 0.1818 0.9693
vt 0.1784 0.9683
vt 0.1667 0.9001
vt 0.1693 0.8989
vt 0.1690 0.9668
vt 0.1666 0.9679
vt 0.1724 0.8992
vt 0.1755 0.8994
vt 0.1750 0.9674
vt 0.1720 0.9671
vt 0.1855 0.9014
vt 0.1884 0.9014
vt 0.1871 0.9691
vt 0.1845 0.9692
vt 0.1367 0.8964
vt 0.1384 0.8967
vt 0.1375 0.9527
vt 0.1365 0.9526
vt 0.1304 0.8961
vt 0.1318 0.8954
vt 0.1337 0.9520
vt 0.1328 0.9524
vt 0.1333 0.8957
vt 0.1349 0.8959
vt 0.1355 0.9525
vt 0.1346 0.9523
vt 0.1399 0.8967
vt 0.1414 0.8965
vt 0.1394 0.9525
vt 0.1384 0.9526
vt 0.0267 0.9171
vt 0.0255 0.9170
vt 0.0252 0.9158
vt 0.0266 0.9159
vt 0.0280 0.9171
vt 0.0280 0.9160
vt 0.0279 0.9182
vt 0.0269 0.9182
vt 0.0258 0.9182
vt 0.1394 0.8408
vt 0.1414 0.8407
vt 0.1434 0.8406
vt 0.1298 0.8389
vt 0.1321 0.8392
vt 0.1343 0.8394
vt 0.1290 0.8967
vt 0.1318 0.9527
vt 0.1262 0.8406
vt 0.1280 0.8398
vt 0.1368 0.8401
vt 0.1641 0.9014
vt 0.1642 0.9690
vt 0.1640 0.8338
vt 0.1617 0.7915
vt 0.1594 0.7491
vt 0.1561 0.7121
vt 0.1528 0.6750
vt 0.1911 0.6302
vt 0.1953 0.6341
vt 0.1995 0.6379
vt 0.1628 0.6321
vt 0.1708 0.6362
vt 0.1788 0.6402
vt 0.1849 0.6352
vt 0.1516 0.6558
vt 0.1504 0.6365
vt 0.1566 0.6343
vt 0.0500 0.7600
vt 0.0575 0.8140
vt 0.0425 0.7059
vt 0.0494 0.7125
vt 0.0562 0.7191
vt 0.0281 0.8796
vt 0.0290 0.8798
vt 0.0273 0.8794
vt 0.0273 0.8787
vt 0.0273 0.8780
vt 0.0072 0.8752
vt 0.0069 0.9490
vt 0.0076 0.8015
vt 0.0280 0.6584
vt 0.0314 0.6585
vt 0.0347 0.6585
vt 0.0209 0.6605
vt 0.0245 0.6594
vt 0.0076 0.7296
vt 0.0075 0.6576
vt 0.0108 0.6586
vt 0.0141 0.6595
vt 0.0175 0.6600
vt 0.1628 0.8486
vt 0.1618 0.9017
vt 0.1638 0.7954
vt 0.1800 0.7620
vt 0.1861 0.7575
vt 0.1922 0.7530
vt 0.0734 0.8273
vt 0.0769 0.8203
vt 0.1961 0.7543
vt 0.1999 0.7556
vt 0.1625 0.7754
vt 0.1612 0.7555
vt 0.1650 0.7545
vt 0.1688 0.7535
vt 0.0323 0.9531
vt 0.0323 0.9541
vt 0.0322 0.9550
vt 0.0296 0.5310
vt 0.0212 0.5303
vt 0.0191 0.6236
vt 0.0234 0.4369
vt 0.0364 0.2419
vt 0.0391 0.2419
vt 0.0419 0.2419
vt 0.0468 0.2417
vt 0.0494 0.2418
vt 0.0521 0.2418
vt 0.0311 0.2413
vt 0.0338 0.2416
vt 0.0443 0.2418
vt 0.0247 0.3388
vt 0.0259 0.2408
vt 0.0285 0.2411
vt 0.0694 0.8205
vt 0.0629 0.9034
vt 0.0683 0.9928
vt 0.1744 0.7578
vt 0.0963 0.8133
vt 0.0756 0.7051
vt 0.0687 0.7055
vt 0.0826 0.7047
vt 0.1010 0.7035
vt 0.0947 0.7034
vt 0.1072 0.7037
vt 0.1018 0.7585
vt 0.0624 0.7123
vt 0.0887 0.7041
vt 0.1036 0.4314
vt 0.0931 0.4318
vt 0.1141 0.4310
vt 0.1455 0.4317
vt 0.1350 0.4312
vt 0.1560 0.4322
vt 0.0827 0.4323
vt 0.0723 0.4328
vt 0.1245 0.4311
vt 0.1664 0.4325
vt 0.1768 0.4328
vt 0.1723 0.5411
vt 0.1678 0.6495
vt 0.1196 0.2171
vt 0.1080 0.2166
vt 0.1311 0.2175
vt 0.1663 0.2217
vt 0.1546 0.2209
vt 0.1780 0.2226
vt 0.1750 0.3135
vt 0.1719 0.4044
vt 0.0964 0.2180
vt 0.0848 0.2194
vt 0.1428 0.2192
vt 0.0733 0.2210
vt 0.0618 0.2225
vt 0.1795 0.2165
vt 0.1732 0.2933
vt 0.1670 0.3701
vt 0.1894 0.1521
vt 0.1845 0.1843
vt 0.0887 0.0304
vt 0.0738 0.0540
vt 0.1036 0.0068
vt 0.1551 0.0523
vt 0.1442 0.0225
vt 0.1659 0.0821
vt 0.0631 0.0824
vt 0.0523 0.1108
vt 0.1239 0.0147
vt 0.1852 0.0979
vt 0.2045 0.1137
vt 0.1970 0.1329
vn 0.5811 -0.7735 0.2531
vn 0.6620 -0.7025 0.2613
vn 0.4665 -0.4114 0.7830
vn 0.4337 -0.3120 0.8453
vn -0.3462 0.9243 0.1608
vn -0.4780 0.8558 0.1977
vn -0.4358 0.8626 -0.2570
vn -0.3317 0.9219 -0.2000
vn 0.4238 -0.4806 -0.7677
vn 0.4649 -0.4523 -0.7611
vn 0.6759 -0.6834 -0.2759
vn 0.5935 -0.7507 -0.2901
vn 0.0343 0.3849 0.9223
vn 0.0336 0.2216 0.9746
vn -0.2826 0.6679 0.6885
vn -0.2145 0.7815 0.5858
vn -0.2515 0.7849 -0.5663
vn -0.3269 0.6534 -0.6828
vn 0.0853 0.0558 -0.9948
vn 0.0876 0.2383 -0.9672
vn 0.5007 -0.3926 -0.7714
vn 0.5402 -0.2948 -0.7882
vn 0.8424 -0.4540 -0.2904
vn 0.7477 -0.5989 -0.2870
vn 0.0160 0.0735 0.9972
vn 0.0154 0.0336 0.9993
vn -0.4651 0.3423 0.8164
vn -0.3980 0.4917 0.7745
vn -0.4274 0.4789 -0.7668
vn -0.5001 0.3464 -0.7937
vn 0.0507 -0.0089 -0.9987
vn 0.0446 0.0295 -0.9986
vn 0.7445 -0.6084 0.2749
vn 0.8366 -0.4641 0.2910
vn 0.5503 -0.2934 0.7818
vn 0.4896 -0.3630 0.7928
vn -0.6469 0.7216 0.2464
vn -0.7897 0.5437 0.2841
vn -0.7723 0.5507 -0.3167
vn -0.6283 0.7153 -0.3059
vn 0.8924 -0.3345 0.3029
vn 0.9122 -0.2737 0.3049
vn 0.5777 -0.1663 0.7991
vn 0.5601 -0.1968 0.8047
vn -0.8760 0.3773 0.3005
vn -0.9028 0.3026 0.3055
vn -0.8996 0.3054 -0.3120
vn -0.8732 0.3789 -0.3066
vn 0.5598 -0.2041 -0.8031
vn 0.5699 -0.1678 -0.8044
vn 0.9137 -0.2714 -0.3026
vn 0.8926 -0.3322 -0.3049
vn 0.0049 0.0237 0.9997
vn 0.0058 0.0141 0.9999
vn -0.5472 0.1918 0.8147
vn -0.5390 0.2459 0.8056
vn -0.5482 0.2415 -0.8007
vn -0.5602 0.1913 -0.8059
vn 0.0199 0.0058 -0.9998
vn 0.0101 0.0186 -0.9998
vn 0.5760 -0.1304 -0.8070
vn 0.5852 -0.0868 -0.8062
vn 0.9426 -0.1409 -0.3028
vn 0.9278 -0.2122 -0.3068
vn 0.0020 0.0084 1.0000
vn 0.0047 0.0075 1.0000
vn -0.5669 0.1000 0.8177
vn -0.5680 0.1457 0.8100
vn -0.5720 0.1440 -0.8075
vn -0.5775 0.0994 -0.8103
vn 0.0205 0.0035 -0.9998
vn 0.0061 0.0063 -1.0000
vn 0.9275 -0.2130 0.3073
vn 0.9409 -0.1421 0.3073
vn 0.5943 -0.0859 0.7996
vn 0.5776 -0.1281 0.8062
vn -0.9236 0.2292 0.3073
vn -0.9377 0.1582 0.3092
vn -0.9357 0.1591 -0.3148
vn -0.9226 0.2301 -0.3096
vn 0.9516 -0.0687 0.2994
vn 0.9531 0.0544 0.2976
vn 0.6091 0.0500 0.7915
vn 0.5904 -0.0381 0.8062
vn -0.9505 0.0879 0.2982
vn -0.9587 -0.0225 0.2834
vn -0.9933 -0.1069 -0.0435
vn -0.9440 0.0843 -0.3189
vn 0.6053 -0.0530 -0.7943
vn 0.7247 -0.2180 -0.6537
vn 0.9921 0.0471 -0.1164
vn 0.9555 -0.0729 -0.2860
vn 0.0013 0.0092 1.0000
vn 0.0068 0.0184 0.9998
vn -0.5634 -0.0084 0.8262
vn -0.5831 0.0586 0.8103
vn -0.5845 0.0494 -0.8099
vn -0.7145 -0.2814 -0.6405
vn 0.0669 -0.4359 -0.8975
vn 0.0038 -0.0024 -1.0000
vn -0.0099 0.0254 0.9996
vn -0.0284 0.0174 0.9994
vn -0.3486 -0.0480 0.9361
vn -0.5460 -0.0754 0.8344
vn -0.5664 -0.0916 -0.8191
vn -0.3546 -0.2620 -0.8975
vn 0.2171 -0.0099 -0.9761
vn 0.0111 0.0308 -0.9995
vn 0.9333 0.1872 0.3066
vn 0.9455 0.0983 0.3105
vn 0.5638 0.0697 0.8230
vn 0.5779 0.1303 0.8057
vn -0.9291 -0.1625 0.3321
vn -0.7837 -0.3201 0.5323
vn -0.8277 -0.4867 -0.2795
vn -0.9312 -0.1582 -0.3282
vn 0.9512 0.0112 0.3085
vn 0.9507 0.0120 -0.3099
vn 0.9432 0.1513 -0.2958
vn 0.9400 0.1531 0.3050
vn -0.0988 0.4809 0.8712
vn 0.2583 0.9661 -0.0034
vn 0.7811 0.6171 0.0952
vn 0.2973 0.4023 0.8659
vn 0.5697 0.0087 -0.8218
vn 0.0237 0.0172 -0.9996
vn 0.0387 0.0225 -0.9990
vn 0.5879 0.0991 -0.8028
vn -0.0100 0.0112 0.9999
vn 0.5898 0.0130 0.8075
vn 0.6074 0.1054 0.7874
vn 0.0087 0.0100 0.9999
vn -0.5839 0.0202 -0.8116
vn -0.9497 0.0134 -0.3129
vn -0.9330 -0.1534 -0.3256
vn -0.5888 -0.0842 -0.8039
vn 0.5719 0.1785 -0.8007
vn -0.0067 0.0042 -1.0000
vn -0.0779 -0.0028 -0.9970
vn 0.5764 0.0742 -0.8138
vn -0.0034 0.0061 1.0000
vn 0.5643 0.1797 0.8057
vn 0.5263 0.0735 0.8471
vn -0.0553 0.0074 0.9984
vn -0.5820 -0.1706 -0.7951
vn -0.9398 -0.2749 -0.2030
vn -0.9790 -0.1783 -0.0986
vn -0.6161 -0.0638 -0.7851
vn 0.9110 0.2818 0.3010
vn 0.9096 0.2820 -0.3051
vn 0.9377 0.1212 -0.3256
vn 0.9426 0.1185 0.3123
vn -0.9296 -0.2706 0.2503
vn -0.6641 -0.1895 0.7233
vn -0.7940 -0.1816 0.5802
vn -0.9595 0.0290 0.2801
vn -0.7541 0.0751 -0.6525
vn -0.9691 0.0765 -0.2345
vn -0.9442 0.1120 0.3097
vn -0.7876 0.1922 -0.5855
vn 0.9504 -0.0656 0.3042
vn 0.9487 -0.0645 -0.3095
vn 0.9492 -0.0697 -0.3068
vn 0.8172 0.0423 0.5748
vn 0.5921 -0.0390 -0.8049
vn -0.0869 0.0159 -0.9961
vn -0.1218 0.0265 -0.9922
vn 0.3306 0.0916 -0.9393
vn -0.2271 0.0321 0.9733
vn 0.5168 -0.0286 0.8556
vn 0.4836 -0.0315 0.8747
vn -0.2880 0.1445 0.9467
vn 0.0832 0.9965 0.0046
vn -0.5882 -0.5268 0.6135
vn -0.3795 -0.0537 0.9236
vn -0.3471 -0.0645 0.9356
vn -0.7038 -0.4499 0.5498
vn -0.1762 -0.5258 -0.8322
vn -0.5870 -0.7914 -0.1708
vn -0.7432 -0.6410 -0.1916
vn -0.3743 -0.4438 -0.8142
vn -0.9489 0.0231 0.3148
vn -0.5441 0.0219 0.8387
vn -0.5612 -0.0690 0.8248
vn -0.9472 -0.1402 0.2883
vn 0.3563 0.4070 -0.8411
vn 0.1565 -0.0738 -0.9849
vn 0.0738 -0.0862 -0.9935
vn 0.5855 0.3567 -0.7280
vn 0.6774 0.2684 -0.6849
vn 0.1230 0.0066 -0.9924
vn 0.1327 0.0107 -0.9911
vn 0.6440 0.2913 -0.7074
vn -0.4928 -0.2618 -0.8298
vn -0.8899 -0.4074 -0.2052
vn -0.8749 -0.4465 -0.1876
vn -0.4757 -0.2860 -0.8318
vn 0.4567 0.2461 0.8549
vn 0.9025 0.4077 0.1392
vn 0.8745 0.4683 0.1263
vn 0.4302 0.2738 0.8602
vn -0.7774 -0.3172 0.5431
vn -0.2129 -0.0427 0.9761
vn -0.1859 -0.0379 0.9818
vn -0.7455 -0.3423 0.5719
vn 0.4159 0.2916 0.8614
vn 0.8592 0.4993 0.1118
vn 0.9550 0.2799 0.0984
vn 0.4711 0.1168 0.8743
vn -0.7266 -0.3611 0.5845
vn -0.2091 -0.0475 0.9767
vn -0.2711 -0.0899 0.9583
vn -0.7855 -0.2293 0.5748
vn 0.6156 0.3100 -0.7245
vn 0.0956 0.0041 -0.9954
vn 0.0187 0.0459 -0.9988
vn 0.6454 0.2189 -0.7318
vn -0.4749 -0.3058 -0.8252
vn -0.8613 -0.4788 -0.1698
vn -0.9480 -0.2556 -0.1895
vn -0.5438 -0.1251 -0.8298
vn -0.8118 -0.0895 0.5770
vn -0.2041 -0.1009 0.9737
vn -0.1906 -0.0976 0.9768
vn -0.8152 0.0477 0.5772
vn 0.6887 0.1222 -0.7147
vn 0.0716 0.1277 -0.9892
vn 0.0841 0.1398 -0.9866
vn 0.7588 0.2289 -0.6097
vn -0.5685 0.0754 -0.8192
vn -0.9842 -0.0137 -0.1768
vn -0.9851 0.0222 -0.1703
vn -0.6006 0.2026 -0.7735
vn 0.5178 -0.0607 0.8533
vn 0.9925 0.0465 0.1130
vn 0.9924 0.0347 0.1183
vn 0.5765 0.0591 0.8150
vn -0.0724 0.9944 0.0771
vn 0.5872 0.1503 -0.7954
vn 0.5426 0.0595 -0.8379
vn -0.6689 -0.7262 -0.1591
vn -0.9815 -0.1639 0.0988
vn -0.9671 -0.2221 -0.1242
vn -0.6024 -0.7105 -0.3637
vn 0.7560 0.6390 -0.1419
vn 0.9538 0.0588 -0.2946
vn 0.9888 -0.0057 -0.1494
vn 0.6613 0.6798 0.3173
vn -0.8665 0.4447 0.2268
vn -0.1121 0.9899 0.0867
vn -0.2762 0.8300 0.4845
vn -0.8762 0.4254 0.2268
vn 0.7278 -0.5357 -0.4283
vn 0.0608 -0.9013 -0.4288
vn 0.0125 -0.8826 -0.4699
vn 0.7022 -0.5965 -0.3888
vn 0.5256 0.5289 0.6663
vn 0.9798 0.0366 0.1967
vn 0.9745 -0.0682 0.2136
vn 0.5103 0.2726 0.8157
vn -0.5109 -0.5261 -0.6799
vn -0.9283 -0.1170 -0.3529
vn -0.8708 -0.0645 -0.4874
vn -0.4745 -0.2892 -0.8314
vn -0.9138 0.3717 0.1638
vn -0.3063 0.6900 0.6558
vn -0.4214 0.4464 0.7894
vn -0.9575 0.2603 0.1243
vn 0.7733 -0.4930 -0.3987
vn 0.1543 -0.6810 -0.7159
vn 0.2276 -0.4106 -0.8830
vn 0.8440 -0.3267 -0.4253
vn -0.9724 0.1898 0.1358
vn -0.4241 0.2025 0.8827
vn -0.4242 0.2722 0.8637
vn -0.9698 0.2170 0.1111
vn 0.8882 -0.1959 -0.4157
vn 0.3007 -0.1715 -0.9382
vn 0.3402 -0.2674 -0.9015
vn 0.8930 -0.2498 -0.3743
vn 0.4752 0.0463 0.8787
vn 0.9358 -0.1001 0.3381
vn 0.9191 -0.0799 0.3859
vn 0.4649 0.1087 0.8786
vn -0.4559 -0.0441 -0.8889
vn -0.8810 0.0886 -0.4648
vn -0.8841 0.0845 -0.4595
vn -0.4300 -0.1078 -0.8964
vn 0.4596 0.1661 0.8725
vn 0.9283 -0.0889 0.3611
vn 0.9423 -0.1135 0.3149
vn 0.4696 0.0692 0.8802
vn -0.4010 -0.1781 -0.8986
vn -0.8666 0.0429 -0.4971
vn -0.8535 0.0630 -0.5172
vn -0.4155 -0.0745 -0.9065
vn -0.9660 0.2419 0.0916
vn -0.4345 0.3513 0.8293
vn -0.4535 0.2452 0.8569
vn -0.9748 0.2007 0.0971
vn 0.8843 -0.2957 -0.3612
vn 0.3440 -0.3308 -0.8788
vn 0.3363 -0.1902 -0.9223
vn 0.8969 -0.2145 -0.3866
vn 0.4699 -0.0252 0.8823
vn 0.9337 -0.1074 0.3415
vn 0.9346 -0.0899 0.3440
vn 0.3674 0.1533 0.9173
vn -0.4369 0.0417 -0.8985
vn -0.8712 0.1200 -0.4760
vn -0.8713 0.1360 -0.4716
vn -0.3762 0.1868 -0.9075
vn -0.9805 0.1567 0.1182
vn -0.4495 0.1147 0.8859
vn -0.4375 0.1213 0.8910
vn -0.9054 0.3087 0.2916
vn 0.9093 -0.1319 -0.3947
vn 0.3342 -0.0652 -0.9403
vn 0.3430 -0.0373 -0.9386
vn 0.9165 0.0512 -0.3967
vn 0.0786 0.9956 -0.0507
vn -0.8932 0.1893 -0.4080
vn -0.0074 0.5186 -0.8550
vn 0.7973 0.3535 -0.4893
vn 0.9487 0.2055 -0.2402
vn 0.9409 0.1021 -0.3231
vn -0.8749 0.3839 -0.2953
vn -0.1512 0.2157 -0.9647
vn -0.6540 0.2373 0.7183
vn -0.6693 0.0606 0.7405
vn -0.2706 0.8278 -0.4914
vn -0.1496 0.6686 -0.7284
vn -0.3346 0.9364 -0.1056
vn -0.0370 0.5073 0.8610
vn -0.2916 0.8873 0.3574
vn 0.2457 0.0627 0.9673
vn 0.3706 -0.3964 -0.8400
vn 0.5579 -0.7453 -0.3652
vn -0.3387 0.9301 0.1423
vn 0.5598 -0.7771 0.2876
usemtl None
s 1
f 340/1/1 240/2/2 3/3/3 152/4/4
f 339/5/5 197/6/6 7/7/7 135/8/8
f 338/9/9 101/10/10 2/11/11 172/12/12
f 337/13/13 159/14/14 6/15/15 126/16/16
f 336/17/17 115/18/18 10/19/19 245/20/20
f 335/21/21 225/22/22 12/23/23 104/24/24
f 334/25/25 92/26/26 14/27/27 125/28/28
f 333/29/29 146/30/30 11/31/31 156/32/32
f 332/33/33 148/34/34 13/35/35 179/36/36
f 331/37/37 169/38/38 15/39/39 224/40/40
f 330/41/41 192/42/42 17/43/43 165/44/44
f 329/45/45 231/46/46 19/47/47 128/48/48
f 328/49/49 219/50/50 16/51/51 235/52/52
f 327/53/53 162/54/54 18/55/55 227/56/56
f 326/57/57 140/58/58 20/59/59 255/60/60
f 325/61/61 103/62/62 22/63/63 233/64/64
f 324/65/65 114/66/66 24/67/67 124/68/68
f 323/69/69 181/70/70 21/71/71 223/72/72
f 322/73/73 186/74/74 23/75/75 210/76/76
f 321/77/77 205/78/78 25/79/79 216/80/80
f 320/81/81 89/82/82 27/83/83 185/84/84
f 319/85/85 253/86/86 29/87/87 252/88/88
f 318/89/89 155/90/90 26/91/91 112/92/92
f 317/93/93 167/94/94 28/95/95 100/96/96
f 316/97/97 201/98/98 30/99/99 120/100/100
f 315/101/101 209/102/102 32/103/103 178/104/104
f 314/105/105 154/106/106 34/107/107 215/108/108
f 313/109/109 239/110/110 31/111/111 249/112/112
f 312/113/113 132/114/114 33/115/115 95/116/116
f 311/117/117 208/118/118 37/119/119 98/120/120
f 310/121/121 107/122/122 40/123/123 195/124/124
f 309/125/125 97/126/126 42/127/127 230/128/128
f 308/129/129 238/130/130 38/131/131 187/132/132
f 307/133/133 94/134/134 44/135/135 204/136/136
f 306/137/137 130/138/138 45/139/139 244/140/140
f 305/141/141 183/142/142 47/143/143 251/144/144
f 304/145/145 123/146/146 49/147/147 139/148/148
f 303/149/149 111/150/150 46/151/151 145/152/152
f 302/153/153 214/154/154 48/155/155 166/156/156
f 301/157/157 213/158/158 50/159/159 99/160/160
f 300/161/161 196/162/162 52/163/163 96/164/164
f 49/147/147 166/156/156 213/158/158
f 299/165/165 119/166/166 51/167/167 191/168/168
f 298/169/169 93/170/170 53/171/171 102/172/172
f 50/173/159 102/174/172 190/175/173
f 51/176/167 99/177/160 191/178/168
f 297/179/174 188/180/175 41/181/176 234/182/177
f 296/183/178 194/184/179 54/185/180 232/186/181
f 295/187/182 198/188/183 43/189/184 203/190/185
f 294/191/186 88/192/187 55/193/188 248/194/189
f 293/195/190 174/196/191 56/197/192 254/198/193
f 292/199/194 127/200/195 58/201/196 141/202/197
f 291/203/198 91/204/199 57/205/200 147/206/201
f 290/207/202 153/208/203 59/209/204 143/210/205
f 289/211/206 229/212/207 60/213/208 134/214/209
f 288/215/210 118/216/211 61/217/212 258/218/213
f 287/219/214 250/220/215 63/221/216 122/222/217
f 286/223/218 222/224/219 62/225/220 158/226/221
f 285/227/222 243/228/223 64/229/224 180/230/225
f 284/231/226 90/232/227 66/233/228 221/234/229
f 283/235/230 161/236/231 65/237/232 138/238/233
f 282/239/234 171/240/235 67/241/236 189/242/237
f 281/243/238 180/244/225 64/245/224 189/246/237
f 280/247/239 215/108/108 34/107/107 131/248/240
f 279/249/241 151/250/242 68/251/243 170/252/244
f 278/253/245 182/254/246 70/255/247 150/256/248
f 277/257/249 129/258/250 71/259/251 149/260/252
f 276/261/253 218/262/254 69/263/255 257/264/256
f 275/265/257 247/266/258 72/267/259 121/268/260
f 274/269/261 202/270/262 74/271/263 133/272/264
f 273/273/265 164/274/266 73/275/267 212/276/268
f 272/277/269 117/278/270 75/279/271 246/280/272
f 271/281/273 184/282/274 76/283/275 142/284/276
f 270/285/277 168/286/278 78/287/279 110/288/280
f 269/289/281 242/290/282 79/291/283 109/292/284
f 268/293/285 256/294/286 77/295/287 226/296/288
f 267/297/289 217/298/290 80/299/291 200/300/292
f 266/301/293 144/302/294 82/303/295 206/304/296
f 265/305/297 106/306/298 81/307/299 116/308/300
f 264/309/301 228/310/302 83/311/303 113/312/304
f 263/313/305 199/314/306 84/315/307 160/316/308
f 262/317/309 237/318/310 86/319/311 137/320/312
f 261/321/313 173/322/314 85/323/315 241/324/316
f 260/325/317 157/326/318 87/327/319 136/328/320
f 259/329/321 241/330/316 85/331/315 160/332/308
f 136/333/320 259/329/321 160/332/308 84/334/307
f 87/335/319 137/336/312 259/329/321 136/333/320
f 137/336/312 86/337/311 241/330/316 259/329/321
f 199/314/306 260/325/317 136/328/320 84/315/307
f 80/338/291 113/339/304 260/325/317 199/314/306
f 113/339/304 83/340/303 157/326/318 260/325/317
f 237/318/310 261/321/313 241/324/316 86/319/311
f 82/341/295 116/342/300 261/321/313 237/318/310
f 116/342/300 81/343/299 173/322/314 261/321/313
f 157/344/318 262/317/309 137/320/312 87/345/319
f 83/346/303 206/347/296 262/317/309 157/344/318
f 206/347/296 82/341/295 237/318/310 262/317/309
f 173/322/314 263/313/305 160/316/308 85/323/315
f 81/343/299 200/348/292 263/313/305 173/322/314
f 200/348/292 80/338/291 199/314/306 263/313/305
f 217/298/290 264/309/301 113/312/304 80/299/291
f 79/291/283 110/288/280 264/309/301 217/298/290
f 110/288/280 78/287/279 228/310/302 264/309/301
f 144/302/294 265/305/297 116/308/300 82/303/295
f 77/295/287 142/284/276 265/305/297 144/302/294
f 142/284/276 76/283/275 106/306/298 265/305/297
f 228/349/302 266/301/293 206/304/296 83/350/303
f 78/351/279 226/296/288 266/301/293 228/349/302
f 226/296/288 77/295/287 144/302/294 266/301/293
f 106/306/298 267/297/289 200/300/292 81/307/299
f 76/283/275 109/292/284 267/297/289 106/306/298
f 109/292/284 79/291/283 217/298/290 267/297/289
f 168/352/278 268/293/285 226/296/288 78/351/279
f 75/353/271 133/272/264 268/293/285 168/352/278
f 133/272/264 74/271/263 256/294/286 268/293/285
f 184/282/274 269/289/281 109/292/284 76/283/275
f 73/275/267 121/268/260 269/289/281 184/282/274
f 121/268/260 72/267/259 242/290/282 269/289/281
f 242/290/282 270/285/277 110/288/280 79/291/283
f 72/267/259 246/280/272 270/285/277 242/290/282
f 246/280/272 75/279/271 168/286/278 270/285/277
f 256/294/286 271/281/273 142/284/276 77/295/287
f 74/271/263 212/276/268 271/281/273 256/294/286
f 212/276/268 73/275/267 184/282/274 271/281/273
f 247/266/258 272/277/269 246/280/272 72/267/259
f 70/255/247 257/264/256 272/277/269 247/266/258
f 257/264/256 69/263/255 117/278/270 272/277/269
f 202/270/262 273/273/265 212/276/268 74/271/263
f 68/251/243 149/260/252 273/273/265 202/270/262
f 149/260/252 71/259/251 164/274/266 273/273/265
f 117/354/270 274/269/261 133/272/264 75/353/271
f 69/355/255 170/252/244 274/269/261 117/354/270
f 170/252/244 68/251/243 202/270/262 274/269/261
f 164/274/266 275/265/257 121/268/260 73/275/267
f 71/259/251 150/256/248 275/265/257 164/274/266
f 150/256/248 70/255/247 247/266/258 275/265/257
f 182/254/246 276/261/253 257/264/256 70/255/247
f 26/356/91 155/357/90 276/261/253 182/254/246
f 155/357/90 30/358/99 218/262/254 276/261/253
f 151/250/242 277/257/249 149/260/252 68/251/243
f 29/359/87 177/360/322 277/257/249 151/250/242
f 177/360/322 35/361/323 129/258/250 277/257/249
f 129/258/250 278/253/245 150/256/248 71/259/251
f 35/361/323 207/362/324 278/253/245 129/258/250
f 207/362/324 26/356/91 182/254/246 278/253/245
f 218/363/254 279/249/241 170/252/244 69/355/255
f 30/364/99 201/365/98 279/249/241 218/363/254
f 201/365/98 29/359/87 151/250/242 279/249/241
f 108/366/325 280/247/239 131/248/240 36/367/326
f 26/368/91 207/369/324 280/247/239 108/366/325
f 207/369/324 35/370/323 215/108/108 280/247/239
f 221/371/229 281/243/238 189/246/237 67/372/236
f 66/373/228 138/374/233 281/243/238 221/371/229
f 138/374/233 65/375/232 180/244/225 281/243/238
f 243/228/223 282/239/234 189/242/237 64/229/224
f 61/217/212 134/214/209 282/239/234 243/228/223
f 134/214/209 60/213/208 171/240/235 282/239/234
f 90/232/227 283/235/230 138/238/233 66/233/228
f 63/221/216 158/226/221 283/235/230 90/232/227
f 158/226/221 62/225/220 161/236/231 283/235/230
f 171/240/235 284/231/226 221/234/229 67/241/236
f 60/213/208 122/222/217 284/231/226 171/240/235
f 122/222/217 63/221/216 90/232/227 284/231/226
f 161/376/231 285/227/222 180/230/225 65/377/232
f 62/378/220 258/218/213 285/227/222 161/376/231
f 258/218/213 61/217/212 243/228/223 285/227/222
f 250/220/215 286/223/218 158/226/221 63/221/216
f 56/379/192 141/380/197 286/223/218 250/220/215
f 141/380/197 58/381/196 222/224/219 286/223/218
f 229/212/207 287/219/214 122/222/217 60/213/208
f 57/382/200 254/383/193 287/219/214 229/212/207
f 254/383/193 56/379/192 250/220/215 287/219/214
f 222/384/219 288/215/210 258/218/213 62/378/220
f 58/385/196 143/386/205 288/215/210 222/384/219
f 143/386/205 59/387/204 118/216/211 288/215/210
f 118/216/211 289/211/206 134/214/209 61/217/212
f 59/387/204 147/388/201 289/211/206 118/216/211
f 147/388/201 57/382/200 229/212/207 289/211/206
f 127/389/195 290/207/202 143/210/205 58/390/196
f 54/391/180 234/182/177 290/207/202 127/389/195
f 234/182/177 41/181/176 153/208/203 290/207/202
f 153/208/203 291/203/198 147/206/201 59/209/204
f 41/181/176 195/124/124 291/203/198 153/208/203
f 195/124/124 40/123/123 91/204/199 291/203/198
f 174/196/191 292/199/194 141/202/197 56/197/192
f 55/193/188 232/186/181 292/199/194 174/196/191
f 232/186/181 54/185/180 127/200/195 292/199/194
f 91/204/199 293/195/190 254/198/193 57/205/200
f 40/123/123 248/194/189 293/195/190 91/204/199
f 248/194/189 55/193/188 174/196/191 293/195/190
f 107/122/122 294/191/186 248/194/189 40/123/123
f 39/392/327 193/393/328 294/191/186 107/122/122
f 193/393/328 34/394/107 88/192/187 294/191/186
f 94/134/134 295/187/182 203/190/185 44/135/135
f 39/395/327 176/396/329 295/187/182 94/134/134
f 176/396/329 32/103/103 198/188/183 295/187/182
f 88/192/187 296/183/178 232/186/181 55/193/188
f 34/394/107 154/397/106 296/183/178 88/192/187
f 154/397/106 33/398/115 194/184/179 296/183/178
f 194/399/179 297/179/174 234/182/177 54/391/180
f 33/400/115 132/401/114 297/179/174 194/399/179
f 132/401/114 32/402/103 188/180/175 297/179/174
f 191/178/168 190/175/173 52/403/163
f 191/178/168 99/177/160 190/175/173
f 99/177/160 50/173/159 190/175/173
f 190/175/173 96/404/164 52/403/163
f 190/175/173 102/174/172 96/404/164
f 102/174/172 53/405/171 96/404/164
f 175/406/330 298/169/169 102/172/172 50/159/159
f 48/155/155 251/144/144 298/169/169 175/406/330
f 251/144/144 47/143/143 93/170/170 298/169/169
f 196/407/162 299/165/165 191/168/168 52/408/163
f 46/409/151 244/140/140 299/165/165 196/407/162
f 244/140/140 45/139/139 119/166/166 299/165/165
f 213/158/158 175/406/330 50/159/159
f 213/158/158 166/156/156 175/406/330
f 166/156/156 48/155/155 175/406/330
f 93/170/170 300/161/161 96/164/164 53/171/171
f 47/143/143 145/152/152 300/161/161 93/170/170
f 145/152/152 46/151/151 196/162/162 300/161/161
f 119/166/166 301/157/157 99/160/160 51/167/167
f 45/139/139 139/148/148 301/157/157 119/166/166
f 139/148/148 49/147/147 213/158/158 301/157/157
f 123/146/146 302/153/153 166/156/156 49/147/147
f 44/410/135 203/411/185 302/153/153 123/146/146
f 203/411/185 43/412/184 214/154/154 302/153/153
f 183/142/142 303/149/149 145/152/152 47/143/143
f 38/413/131 98/414/120 303/149/149 183/142/142
f 98/414/120 37/415/119 111/150/150 303/149/149
f 130/138/138 304/145/145 139/148/148 45/139/139
f 42/416/127 204/417/136 304/145/145 130/138/138
f 204/417/136 44/410/135 123/146/146 304/145/145
f 214/154/154 305/141/141 251/144/144 48/155/155
f 43/412/184 187/418/132 305/141/141 214/154/154
f 187/418/132 38/413/131 183/142/142 305/141/141
f 111/419/150 306/137/137 244/140/140 46/409/151
f 37/420/119 230/421/128 306/137/137 111/419/150
f 230/421/128 42/416/127 130/138/138 306/137/137
f 97/126/126 307/133/133 204/136/136 42/127/127
f 34/107/107 193/422/328 307/133/133 97/126/126
f 193/422/328 39/395/327 94/134/134 307/133/133
f 198/188/183 308/129/129 187/132/132 43/189/184
f 32/103/103 209/102/102 308/129/129 198/188/183
f 209/102/102 31/111/111 238/130/130 308/129/129
f 208/423/118 309/125/125 230/128/128 37/424/119
f 36/367/326 131/248/240 309/125/125 208/423/118
f 131/248/240 34/107/107 97/126/126 309/125/125
f 188/180/175 310/121/121 195/124/124 41/181/176
f 32/402/103 176/425/329 310/121/121 188/180/175
f 176/425/329 39/392/327 107/122/122 310/121/121
f 238/130/130 311/117/117 98/120/120 38/131/131
f 31/111/111 239/110/110 311/117/117 238/130/130
f 239/110/110 36/426/326 208/118/118 311/117/117
f 253/427/86 312/113/113 95/116/116 29/428/87
f 28/429/95 178/104/104 312/113/113 253/427/86
f 178/104/104 32/103/103 132/114/114 312/113/113
f 89/430/82 313/109/109 249/112/112 27/431/83
f 26/432/91 108/433/325 313/109/109 89/430/82
f 108/433/325 36/426/326 239/110/110 313/109/109
f 177/434/322 314/105/105 215/108/108 35/370/323
f 29/428/87 95/116/116 314/105/105 177/434/322
f 95/116/116 33/115/115 154/106/106 314/105/105
f 167/435/94 315/101/101 178/104/104 28/429/95
f 27/431/83 249/112/112 315/101/101 167/435/94
f 249/112/112 31/111/111 209/102/102 315/101/101
f 181/436/70 316/97/97 120/100/100 21/437/71
f 25/438/79 252/88/88 316/97/97 181/436/70
f 252/88/88 29/87/87 201/98/98 316/97/97
f 114/439/66 317/93/93 100/96/96 24/440/67
f 23/441/75 185/84/84 317/93/93 114/439/66
f 185/84/84 27/83/83 167/94/94 317/93/93
f 103/442/62 318/89/89 112/92/92 22/443/63
f 21/437/71 120/100/100 318/89/89 103/442/62
f 120/100/100 30/99/99 155/90/90 318/89/89
f 205/444/78 319/85/85 252/88/88 25/438/79
f 24/440/67 100/96/96 319/85/85 205/444/78
f 100/96/96 28/95/95 253/86/86 319/85/85
f 186/445/74 320/81/81 185/84/84 23/441/75
f 22/446/63 112/447/92 320/81/81 186/445/74
f 112/447/92 26/448/91 89/82/82 320/81/81
f 231/449/46 321/77/77 216/80/80 19/450/47
f 18/451/55 124/68/68 321/77/77 231/449/46
f 124/68/68 24/67/67 205/78/78 321/77/77
f 192/452/42 322/73/73 210/76/76 17/453/43
f 16/454/51 233/455/64 322/73/73 192/452/42
f 233/455/64 22/456/63 186/74/74 322/73/73
f 140/457/58 323/69/69 223/72/72 20/458/59
f 19/450/47 216/80/80 323/69/69 140/457/58
f 216/80/80 25/79/79 181/70/70 323/69/69
f 162/459/54 324/65/65 124/68/68 18/451/55
f 17/453/43 210/76/76 324/65/65 162/459/54
f 210/76/76 23/75/75 114/66/66 324/65/65
f 219/460/50 325/61/61 233/64/64 16/461/51
f 20/458/59 223/72/72 325/61/61 219/460/50
f 223/72/72 21/71/71 103/62/62 325/61/61
f 146/30/30 326/57/57 255/60/60 11/31/31
f 15/39/39 128/48/48 326/57/57 146/30/30
f 128/48/48 19/47/47 140/58/58 326/57/57
f 92/26/26 327/53/53 227/56/56 14/27/27
f 13/35/35 165/44/44 327/53/53 92/26/26
f 165/44/44 17/43/43 162/54/54 327/53/53
f 225/22/22 328/49/49 235/52/52 12/23/23
f 11/31/31 255/60/60 328/49/49 225/22/22
f 255/60/60 20/59/59 219/50/50 328/49/49
f 169/38/38 329/45/45 128/48/48 15/39/39
f 14/27/27 227/56/56 329/45/45 169/38/38
f 227/56/56 18/55/55 231/46/46 329/45/45
f 148/34/34 330/41/41 165/44/44 13/35/35
f 12/462/23 235/463/52 330/41/41 148/34/34
f 235/463/52 16/464/51 192/42/42 330/41/41
f 197/6/6 331/37/37 224/40/40 7/7/7
f 6/15/15 125/28/28 331/37/37 197/6/6
f 125/28/28 14/27/27 169/38/38 331/37/37
f 240/2/2 332/33/33 179/36/36 3/3/3
f 2/465/11 104/466/24 332/33/33 240/2/2
f 104/466/24 12/462/23 148/34/34 332/33/33
f 115/18/18 333/29/29 156/32/32 10/19/19
f 7/7/7 224/40/40 333/29/29 115/18/18
f 224/40/40 15/39/39 146/30/30 333/29/29
f 159/14/14 334/25/25 125/28/28 6/15/15
f 3/3/3 179/36/36 334/25/25 159/14/14
f 179/36/36 13/35/35 92/26/26 334/25/25
f 101/10/10 335/21/21 104/24/24 2/11/11
f 10/19/19 156/32/32 335/21/21 101/10/10
f 156/32/32 11/31/31 225/22/22 335/21/21
f 220/467/331 336/17/17 245/20/20 9/468/332
f 8/469/333 135/8/8 336/17/17 220/467/331
f 135/8/8 7/7/7 115/18/18 336/17/17
f 236/470/334 337/13/13 126/16/16 5/471/335
f 4/472/336 152/4/4 337/13/13 236/470/334
f 152/4/4 3/3/3 159/14/14 337/13/13
f 211/473/337 338/9/9 172/12/12 1/474/338
f 9/468/332 245/20/20 338/9/9 211/473/337
f 245/20/20 10/19/19 101/10/10 338/9/9
f 105/475/339 339/5/5 135/8/8 8/469/333
f 5/471/335 126/16/16 339/5/5 105/475/339
f 126/16/16 6/15/15 197/6/6 339/5/5
f 163/476/340 340/1/1 152/4/4 4/472/336
f 1/477/338 172/478/12 340/1/1 163/476/340
f 172/478/12 2/465/11 240/2/2 340/1/1
