# Blender v2.78 (sub 0) OBJ File: ''
# www.blender.org
mtllib Birch_Tree_l_02.mtl
o Birch_Tree_l_02
v -0.210549 0.059774 0.232232
v -0.170889 0.854383 0.224976
v -0.274338 0.854396 -0.084634
v -0.343691 0.059774 -0.075694
v 0.004879 0.059774 -0.266004
v -0.003507 0.854361 -0.276052
v 0.267325 0.854326 -0.084744
v 0.353449 0.059774 -0.075694
v 0.220307 0.059774 0.232232
v 0.163877 0.854340 0.224908
v 0.123929 4.019159 -0.174500
v 0.211299 5.775939 -0.212644
v 0.142456 5.781152 -0.000017
v 0.045920 4.019712 0.065875
v -0.206522 4.021508 0.066648
v -0.080324 5.798022 0.000182
v -0.149167 5.803236 -0.212361
v -0.284531 4.022062 -0.173249
v -0.080301 4.020611 -0.322287
v 0.031067 5.789589 -0.343894
v -0.114633 7.727575 -0.282382
v 0.060126 9.832376 -0.221048
v 0.198831 9.789183 -0.115244
v 0.050662 7.705188 -0.161697
v -0.012475 7.713739 0.035422
v 0.115320 9.838237 0.095015
v -0.096137 9.611605 0.106157
v -0.218190 7.727256 0.036824
v -0.279929 7.749958 -0.159645
v -0.102565 9.905354 -0.073060
v 0.536475 11.729363 -0.133684
v 0.492851 11.729027 0.001471
v -0.481479 10.356144 0.736872
v -0.499190 10.485665 0.616910
v 0.391777 11.733980 -0.217023
v 0.327294 11.744022 -0.004874
v -0.004391 10.193237 0.094086
v 0.227819 11.529050 -0.128072
v 0.871514 13.912735 -0.288649
v 1.014548 14.035358 -0.263443
v 0.986175 14.035092 -0.165857
v 0.884973 14.026601 -0.168791
v -0.129498 12.080956 -0.220004
v -0.036224 12.129967 -0.299607
v 0.366711 12.026001 -0.156031
v -0.353294 10.446702 0.764558
v -0.388140 10.585099 0.651224
v -0.730759 11.904908 1.040617
v -0.745512 11.856759 1.164569
v -0.855487 11.825225 1.157822
v -0.835134 11.868178 1.041381
v -0.906320 13.270070 1.028208
v -0.844150 13.288746 1.026489
v -0.920467 13.248746 1.098106
v -0.855431 13.264589 1.100751
v -0.082652 12.152405 -0.120183
v 0.002257 12.210215 -0.204994
v -0.343079 13.233422 -0.443840
v -0.409465 13.215230 -0.402755
v -0.375467 13.203716 -0.510901
v -0.441853 13.185523 -0.469815
v -0.028497 14.689055 2.062574
v -0.396460 13.946836 2.513704
v -0.053366 12.944953 1.696201
v 0.179324 14.021593 1.028563
v -0.197112 13.086700 0.599244
v -0.401659 14.433935 0.201806
v -0.166147 15.394829 0.970592
v -0.334460 15.641645 1.726622
v -1.006983 13.337558 0.056834
v -1.284078 12.368641 0.595952
v -2.174747 13.876393 0.218829
v -1.532225 14.648699 -0.017060
v -2.169210 15.717431 0.873407
v -1.214484 15.774306 0.463843
v -2.672116 14.448801 0.779286
v -2.726627 13.589275 1.380488
v -2.000232 12.421693 1.767922
v -2.119596 14.211357 2.513764
v -2.597232 15.206146 1.597734
v -1.181831 12.742133 2.433382
v -1.247873 13.782125 2.755726
v -1.012927 15.243448 2.500930
v -1.703180 15.811474 2.067707
v -1.046940 16.109005 1.445200
v -0.999705 12.137626 1.679294
v -2.253063 12.647978 0.966759
v -0.524930 12.295767 1.125924
v 0.847880 16.453526 0.190641
v 0.442911 15.531477 0.719214
v 0.877126 14.329303 -0.263390
v 1.108030 15.657830 -1.043098
v 0.691683 14.510956 -1.558947
v 0.397858 16.153147 -2.011697
v 0.649616 17.323425 -1.092434
v 0.448624 17.610434 -0.193067
v -0.281052 14.798934 -2.190804
v -0.569559 13.602016 -1.561563
v -1.681155 15.419008 -1.982219
v -0.950220 16.383514 -2.258109
v -1.734052 17.657471 -1.185710
v -0.609666 17.760670 -1.678421
v -2.285109 16.095608 -1.307572
v -2.313432 15.038150 -0.605546
v -1.408323 13.631072 -0.167200
v -1.606398 15.801985 0.737856
v -2.215796 17.012093 -0.330480
v -0.444685 14.038879 0.616975
v -0.556892 15.301844 1.011400
v -0.333165 17.094839 0.724907
v -1.174568 17.772091 0.224968
v -0.414092 18.162388 -0.514301
v -0.214585 13.315875 -0.284434
v -1.723156 13.909030 -1.110639
v 0.336675 13.529792 -0.941878
v 2.994256 17.828529 0.799054
v 2.487792 16.341068 1.382690
v 2.660594 14.403520 0.408032
v 3.153686 16.393808 -0.393659
v 2.509779 14.701156 -0.893325
v 2.526619 17.352375 -1.311484
v 2.855122 19.234135 -0.332364
v 2.699863 19.707281 0.394585
v 1.596906 15.348691 -1.510658
v 1.083782 13.602969 -0.862550
v 0.344262 16.575117 -1.303079
v 1.297377 17.982836 -1.493717
v 1.003794 20.030571 -0.398749
v 1.921281 19.997927 -0.757108
v -0.066019 17.774837 -0.620748
v -0.367724 16.126743 0.070931
v 0.270196 13.809355 0.526929
v 0.518083 17.200241 1.399855
v 0.379662 19.250166 0.313337
v 1.305742 14.223549 1.305691
v 1.445376 16.186459 1.687750
v 2.027123 19.085602 1.191986
v 1.493291 20.135427 0.710394
v 2.130792 20.491728 0.144514
v 1.385635 13.106758 0.407573
v -0.000462 14.276703 -0.422000
v 1.962447 13.316072 -0.250865
v 2.510377 20.058180 -0.133274
v -1.090413 18.083010 -0.825996
v 0.129972 6.723646 -0.190244
v -0.815668 17.137373 -1.997649
v 0.620171 15.296249 -1.835081
v -1.573181 13.542745 0.060698
v 0.062737 10.103289 0.113113
v 0.758258 12.974023 -0.084950
v 2.941851 16.097744 0.645915
v -2.427807 12.979687 1.649945
v 2.018600 20.391294 -0.321813
v -1.600417 14.806713 2.604114
v 0.972632 15.842866 -1.497171
v -0.719703 13.280183 2.491003
v 0.638461 12.973569 -0.086706
v 2.115197 20.039965 0.676944
v -1.321885 15.980423 -2.174781
v 1.678546 17.518497 1.523419
v -2.504272 13.033824 1.147079
v -0.902917 12.606265 1.142576
v -0.568555 11.208769 0.867248
v 0.067369 17.333597 -0.928913
v 0.960647 14.024988 -0.290217
v -0.588839 15.855853 1.154931
v -0.127096 9.691507 0.025201
v 2.224798 13.864794 -0.545640
v 0.266120 14.088489 0.237864
v 0.101637 4.019397 -0.048944
v 0.116452 17.456617 0.242670
v -0.193778 13.457691 2.175184
v -0.009720 12.174078 -0.258807
v -2.542557 13.668151 0.757834
v -0.032389 12.977080 1.116361
v -0.211643 4.964230 -0.198122
v -0.152716 0.854379 -0.199328
v 0.047538 8.755417 0.049306
v -2.309243 16.561165 -0.859891
v -0.414647 13.330805 -0.879561
v -0.801873 15.167857 0.277874
v 0.201785 0.332076 0.238823
v 0.851044 16.912855 -0.460188
v -0.193587 0.332076 0.238823
v 1.945926 16.258923 1.571594
v -1.395712 16.018345 1.788558
v 0.927682 19.779451 0.553929
v 0.087302 15.418705 -2.159161
v 1.832153 14.012725 -0.964334
v -1.467337 17.889730 -0.428186
v 0.967419 15.076833 -1.317698
v -1.631724 12.550968 2.171512
v 0.096886 10.766423 -0.117093
v -1.274705 13.973151 -0.038013
v -2.513099 13.871632 1.974621
v 0.794865 12.975385 -0.201583
v -1.014829 13.439878 -0.857975
v -2.733913 14.067019 1.016575
v 1.711168 13.163895 0.041316
v -0.225741 15.575039 1.397566
v -0.119748 10.106933 0.429948
v 2.412546 19.711720 -0.586686
v 1.896634 17.686546 -1.470435
v -0.531343 14.728339 0.888009
v -2.097420 16.830046 -1.284351
v -1.395920 17.051939 -1.820753
v 2.777802 17.076559 1.132965
v 0.644931 12.843416 -0.252894
v 1.356809 15.290077 1.579791
v 0.354581 10.743025 -0.117456
v 1.356877 14.482639 -1.277164
v 0.327206 13.684162 -0.215050
v -0.729531 11.883169 1.102656
v 1.011939 14.036880 -0.213105
v -0.828792 12.276504 0.866934
v -0.036490 12.187317 -0.154768
v 0.137110 13.501440 1.357464
v -1.723948 14.535853 -1.539470
v 0.032943 7.707737 -0.058697
v 0.115780 15.231590 -0.859518
v -0.190687 15.258338 1.908361
v 0.842967 15.909053 -1.560455
v 0.119584 11.890533 -0.052951
v -0.129698 5.801808 -0.101216
v 2.464132 20.108019 0.286186
v 2.585611 18.543222 1.062272
v 3.063220 17.813084 -0.379958
v 0.328114 0.059774 0.088062
v 1.043308 16.021044 -0.432729
v 1.966782 15.132189 1.372860
v 0.576632 17.536390 -0.584347
v -0.291962 16.278580 -2.212392
v 0.879382 14.028474 -0.229670
v -2.421949 14.792014 2.070183
v 0.058735 14.706633 0.990385
v -1.086190 14.747336 0.750528
v -1.735376 13.036159 0.315970
v -0.415376 10.390867 0.759993
v 0.735285 13.969580 1.000408
v -0.490681 16.117630 0.945558
v -0.578233 12.764719 2.117467
v -1.172381 17.818077 -1.468400
v -0.654348 14.588291 2.571255
v 0.227602 10.763124 -0.212332
v 2.611095 15.387417 0.982661
v 1.819161 20.419052 0.449151
v -0.629945 15.879394 1.608723
v 0.680359 14.925694 -1.196298
v -0.250230 17.052830 -0.356357
v 0.331883 16.829708 0.533796
v 0.083774 14.708622 0.687382
v 1.991826 13.542939 0.469427
v -0.352283 13.220156 -0.481366
v -2.235508 13.157733 0.599549
v -0.003506 0.854361 0.248409
v -0.068291 5.797141 -0.290886
v -0.115333 7.720498 0.050834
v 0.106446 8.749103 -0.136102
v 1.608361 20.509140 -0.092470
v 0.089257 17.892946 -0.327177
v -0.010319 15.059695 1.509217
v -0.024772 13.500171 -1.245958
v 0.524203 11.729596 -0.063004
v 0.940526 16.490391 -1.079134
v -0.138986 4.961433 0.025681
v -0.318356 0.059774 0.088062
v 0.323961 0.332076 -0.078428
v 1.601149 13.343185 -0.550442
v -0.679143 11.142125 0.855796
v -1.171421 14.448294 2.694049
v -0.979512 14.549389 0.026737
v 0.697111 14.944885 0.310909
v -1.706645 13.336867 2.536306
v 0.833024 13.293501 0.471534
v -1.689363 15.834846 0.637064
v 3.126947 17.046316 0.206647
v 0.073054 11.818964 -0.164586
v -0.236311 13.729002 0.359280
v -0.047092 2.405179 -0.298223
v 1.424688 16.632351 -1.582350
v -1.989142 16.506525 0.222325
v -0.205840 7.739833 -0.232865
v 2.920741 16.862844 -0.889412
v -0.841576 13.859738 2.669599
v -1.130194 14.406064 -1.881073
v -1.943204 15.908443 1.513155
v -0.216067 6.758570 -0.189070
v 0.395642 18.393076 0.863461
v 1.607492 19.098972 -1.144193
v 2.805587 19.571510 0.087977
v 0.383552 18.854372 -0.549969
v -2.032601 14.370010 -0.890384
v -0.276443 12.527115 1.367850
v -0.079474 15.409870 0.906720
v -1.164388 12.149029 1.175183
v 2.436396 19.545973 0.761409
v -0.853915 11.844368 1.099539
v -0.269017 9.997544 0.407208
v -0.372889 13.227000 -0.416315
v 1.290967 20.346016 0.201065
v 0.521498 13.927830 -1.225337
v 0.439988 13.950468 -0.656045
v -0.192745 4.021360 -0.261947
v -2.065166 15.382020 0.099172
v -0.004610 9.650674 0.120440
v -1.668410 12.251077 1.188584
v 0.483686 11.728439 -0.182407
v -0.244932 0.854389 0.077423
v -2.683853 14.834350 1.153547
v -0.262239 4.021824 -0.047809
v 3.013654 18.560892 0.217952
v -2.495710 15.046557 0.794286
v -0.680975 13.837698 0.081053
v 2.015712 14.154127 0.920270
v -1.239682 13.310870 2.656243
v -1.012137 16.542982 0.847170
v 0.673603 15.988153 0.509438
v -1.894704 15.209113 0.344081
v 0.075911 13.947171 -0.007668
v 0.130424 5.782034 -0.291027
v -0.972914 13.795145 0.308768
v -2.104138 15.147381 -1.343330
v 0.048052 13.546402 0.800325
v -0.820547 18.037119 -0.105792
v -0.621503 15.567387 -2.293184
v -2.342460 15.625126 -1.030628
v -0.149979 6.751899 0.015505
v 0.176153 11.879016 -0.248837
v -0.101348 17.035513 -1.909411
v -0.281559 2.405411 -0.127504
v 0.183859 9.793324 -0.025307
v 2.904722 15.510407 -0.663157
v 0.246292 11.557524 -0.057551
v 0.808841 15.450837 1.438602
v 2.082758 16.254021 -1.475111
v -1.617747 16.055508 1.178096
v -0.456925 15.010808 2.346013
v -0.919820 13.257664 1.063110
v 1.103779 19.064913 -1.021294
v 0.115313 16.305561 0.797214
v 1.488248 20.168837 -0.598170
v -0.086569 12.099455 -0.267625
v 0.618204 13.443957 -0.159090
v 0.283378 15.324749 1.028091
v -1.855353 12.505007 0.768545
v 0.237919 0.854333 0.077334
v -0.621413 15.526281 2.093697
v 0.307645 10.758198 0.036281
v 0.134527 17.870878 -0.864999
v -0.883673 12.634993 1.048216
v -0.799706 12.660363 1.045722
v -0.045946 8.784155 -0.249838
v 1.187901 13.168984 -0.181491
v 2.306796 13.681152 0.027527
v -0.199037 8.812126 -0.134630
v -2.032340 17.437235 -0.712099
v 0.096135 4.952380 0.025226
v -0.299040 10.164146 0.273706
v 0.004099 0.332077 -0.274500
v 1.337356 13.495642 0.857780
v -1.736326 17.443291 -0.018638
v 0.965320 15.402736 0.004488
v -2.075930 15.853348 -1.616173
v -1.401707 15.265464 0.197817
v 0.032143 4.019861 -0.262648
v -0.316542 13.568758 0.168171
v -1.856412 14.327047 0.054081
v -1.022914 15.518198 0.956710
v -0.034886 14.228525 0.587829
v -1.935464 14.300285 -0.296442
v 0.107729 18.535868 -0.183675
v -1.924814 15.148690 2.350752
v -0.195594 10.289800 0.360650
v 0.352511 11.964890 -0.081171
v -0.958601 15.032063 -2.178734
v 1.024663 16.636265 1.622182
v 0.104563 13.395979 -0.651099
v -1.481985 12.193028 1.726923
v 2.588794 15.945676 -1.166633
v -0.533760 12.428504 1.738541
v -0.562548 11.118252 0.992738
v -1.610686 13.701940 -0.700144
v -0.814851 12.627581 1.146322
v 0.187376 2.404946 -0.128239
v -0.136957 14.926374 0.389892
v -0.843363 13.278411 1.063667
v 0.167166 10.862307 0.034422
v 0.129760 14.325541 1.540786
v -0.873950 13.281707 1.020065
v -2.238567 14.837620 0.436143
v -0.412043 13.191944 -0.497340
v -0.043047 6.741110 -0.316226
v -0.262909 7.740334 -0.056752
v 0.634169 17.144981 0.016258
v 0.191830 5.777365 -0.101457
v -0.194891 0.059774 -0.196488
v -0.544165 18.057274 -1.140179
v -1.393027 15.582548 2.320170
v -0.224556 12.693987 -0.412153
v 2.065292 14.956112 -1.263478
v 1.079644 15.018033 -0.659516
v -0.583729 13.176135 0.276997
v -0.681420 11.057938 0.974169
v -2.719899 14.414503 1.540663
v -0.226641 15.039476 -0.207626
v -0.364149 17.790524 0.149228
v 0.114729 13.972787 -1.647764
v -0.249915 14.962849 0.542987
v 2.688063 14.456081 -0.282437
v -1.583734 14.595280 0.339831
v 0.039151 17.611515 -1.434126
v 1.260890 18.296885 1.397160
v 0.604341 18.397575 -0.972615
v -0.409260 14.212154 -1.962309
v 0.283658 11.550136 -0.179041
v -2.165875 12.479478 1.315873
v -1.155317 16.020372 0.916535
v 2.745948 18.378319 -0.855156
v -0.026813 16.629486 0.776748
v -0.016819 9.854342 -0.178143
v 0.933446 14.031514 -0.155759
v 0.045868 13.824475 1.914490
v -0.781227 11.889620 1.031248
v -0.499636 10.413332 0.674610
v -0.802220 11.837915 1.170946
v -0.023426 7.715314 -0.233998
v -0.184537 12.745333 -0.328492
v 0.177446 11.998159 -0.165361
v 0.097817 2.405034 0.147534
v -0.021426 4.956908 -0.336894
v -0.149090 8.715140 0.049870
v -2.333357 16.043242 -0.406270
v 0.031066 5.789587 0.015853
v -0.672103 15.640648 0.675658
v 0.168792 4.949584 -0.198857
v 0.204649 0.059774 -0.196488
v 0.423651 11.735145 0.011360
v -0.315764 0.332076 -0.078428
v 0.227806 14.612194 -1.935885
v -1.018215 15.808999 2.008939
v -0.787049 13.368288 -0.223075
v 0.895410 14.376043 -0.949582
v -0.304688 12.660810 -0.351259
v 2.842825 18.972805 0.607515
v 1.029816 18.949850 1.103925
v 0.561845 16.798964 -1.602952
v -0.696805 12.657266 0.524705
v 0.063884 6.730317 0.014646
v -1.410704 16.953394 0.554195
v -2.183887 15.551887 1.860859
v -2.127720 13.219282 2.187340
v -1.131148 12.861606 0.253660
v -0.445676 10.545938 0.624788
v 0.616135 12.904049 -0.223750
v 2.228605 18.814953 -1.085731
v -0.264670 12.712154 -0.267598
v -1.635521 13.968593 2.704732
v -0.065772 17.735197 0.255769
v -0.796896 17.499186 0.518339
v 0.416447 12.060061 -0.201985
v -1.788907 16.587198 -1.713071
v 3.002005 15.414955 -0.008153
v 1.722906 19.711493 0.982648
v 0.844081 17.398981 -1.454081
v -0.357289 12.615499 0.884549
v -0.361415 10.523473 0.710171
v -0.192000 2.405323 0.147989
v -0.148052 16.241831 -0.669641
v -0.889234 13.254370 1.106712
v 0.678518 19.815432 -0.012946
v -0.432649 13.198788 -0.432289
v -0.189127 14.314254 2.334401
v -2.499568 14.243431 0.521940
v -0.113338 12.112692 -0.163586
v 0.136597 9.808241 -0.178571
v 0.004879 0.059774 0.263923
v 0.624858 13.816685 -0.655000
v -1.249095 13.749020 -1.350525
v -0.080301 4.020611 0.083833
v -0.726007 12.193476 1.371061
v -1.082411 12.350667 2.058896
v -2.429447 15.547282 1.273225
v 0.145703 0.854344 -0.199383
v -0.057105 10.140412 0.020150
v 2.315542 17.698103 1.362241
v -0.267745 12.673391 -0.388234
v -0.290932 12.683891 -0.304676
v -0.198293 12.722248 -0.375074
v -0.221481 12.732750 -0.291516
v 0.150381 11.951788 -0.101543
v 0.183080 11.945130 -0.214773
v 0.090038 11.848207 -0.101095
v -0.860226 12.614523 1.152056
v -0.800567 12.645793 1.096071
v -0.900007 12.618809 1.095347
v -0.840348 12.650078 1.039362
v -0.689234 11.095078 0.913811
v -0.623994 11.182264 0.852007
v -0.621839 11.081278 0.992969
v -0.556599 11.168464 0.931164
v -0.147811 10.207537 0.399579
v -0.251448 10.240608 0.309265
v 0.121952 10.818466 -0.037864
v -0.190252 10.038603 0.426491
v 0.082203 2.405050 -0.229851
v 0.162112 2.404971 0.015958
v -0.197424 6.756688 -0.082017
v -0.176387 2.405307 -0.229445
v -0.256295 2.405386 0.016614
v -0.047091 2.405178 0.168281
v -0.138457 6.750738 -0.264953
v 0.111329 6.725528 -0.083142
v 0.052363 6.731480 -0.265594
v -0.043047 6.741108 0.030317
v 0.635282 13.012528 -0.154922
v 0.785673 12.975525 -0.141135
v 0.122737 11.841549 -0.214325
v 0.696468 12.970638 -0.076120
v 0.739890 12.968250 -0.237720
v 0.154808 10.761501 -0.173873
v 0.238335 10.814671 0.046709
v 0.297836 10.753015 -0.174176
v -0.293889 10.071674 0.336177
v 0.340949 10.745425 -0.036975
v -0.187097 8.763012 -0.038071
v 0.090025 8.752880 -0.039184
v -0.129981 8.803481 -0.203333
v -0.051126 8.731741 0.063356
v 0.038089 8.764826 -0.204162
v -0.126319 4.960946 -0.280976
v -0.021426 4.956907 0.042125
v 0.083468 4.952869 -0.281381
v -0.191147 4.963441 -0.081038
v 0.148296 4.950373 -0.081694
v 0.289495 0.332076 0.087496
v -0.172286 0.332077 -0.195571
v 0.004099 0.332076 0.262441
v 0.180483 0.332077 -0.195571
v -0.281298 0.332076 0.087496
vt 0.1840 0.0351
vt 0.1809 0.0613
vt 0.1661 0.0599
vt 0.1694 0.0331
vt 0.1207 0.0319
vt 0.1212 0.0584
vt 0.1063 0.0579
vt 0.1045 0.0310
vt 0.0585 0.0360
vt 0.0624 0.0614
vt 0.0480 0.0633
vt 0.0417 0.0384
vt 0.1532 0.0329
vt 0.1511 0.0595
vt 0.1361 0.0590
vt 0.1369 0.0327
vt 0.0899 0.0323
vt 0.0916 0.0587
vt 0.0768 0.0596
vt 0.0753 0.0335
vt 0.1028 0.4081
vt 0.1046 0.4720
vt 0.0952 0.4724
vt 0.0925 0.4083
vt 0.1643 0.4090
vt 0.1619 0.4741
vt 0.1521 0.4741
vt 0.1540 0.4089
vt 0.1233 0.4082
vt 0.1234 0.4721
vt 0.1140 0.4716
vt 0.1130 0.4079
vt 0.0822 0.4090
vt 0.0856 0.4736
vt 0.0761 0.4747
vt 0.0719 0.4096
vt 0.1438 0.4086
vt 0.1425 0.4734
vt 0.1328 0.4727
vt 0.1336 0.4084
vt 0.1245 0.3205
vt 0.1268 0.4015
vt 0.1153 0.4002
vt 0.1123 0.3199
vt 0.0751 0.3185
vt 0.0803 0.3957
vt 0.0685 0.3900
vt 0.0626 0.3160
vt 0.1491 0.3220
vt 0.1497 0.4040
vt 0.1383 0.4027
vt 0.1367 0.3212
vt 0.1000 0.3205
vt 0.1037 0.4008
vt 0.0921 0.4015
vt 0.0877 0.3210
vt 0.1740 0.3187
vt 0.1729 0.3971
vt 0.1611 0.4054
vt 0.1614 0.3228
vt 0.1045 0.4725
vt 0.1053 0.5441
vt 0.0964 0.5436
vt 0.0943 0.4726
vt 0.2032 0.5895
vt 0.2113 0.5885
vt 0.2090 0.6201
vt 0.2024 0.6219
vt 0.1248 0.4726
vt 0.1229 0.5437
vt 0.1141 0.5447
vt 0.1147 0.4725
vt 0.0844 0.4765
vt 0.0876 0.5425
vt 0.0788 0.5413
vt 0.0746 0.4804
vt 0.1452 0.4717
vt 0.1407 0.5393
vt 0.1316 0.5426
vt 0.1350 0.4726
vt 0.1268 0.6416
vt 0.1307 0.7397
vt 0.1229 0.7414
vt 0.1185 0.6431
vt 0.0955 0.6413
vt 0.1034 0.7401
vt 0.0969 0.7394
vt 0.0879 0.6403
vt 0.1357 0.6859
vt 0.1399 0.6864
vt 0.1398 0.7006
vt 0.1357 0.7007
vt 0.1108 0.6427
vt 0.1164 0.7412
vt 0.1099 0.7409
vt 0.1031 0.6423
vt 0.1513 0.6431
vt 0.1468 0.7384
vt 0.1385 0.7379
vt 0.1425 0.6467
vt 0.0872 0.5508
vt 0.0887 0.6281
vt 0.0799 0.6303
vt 0.0780 0.5525
vt 0.1240 0.5487
vt 0.1247 0.6253
vt 0.1157 0.6239
vt 0.1148 0.5477
vt 0.1056 0.5484
vt 0.1066 0.6249
vt 0.0975 0.6259
vt 0.0963 0.5491
vt 0.1424 0.5510
vt 0.1424 0.6285
vt 0.1337 0.6268
vt 0.1332 0.5497
vt 0.0706 0.2029
vt 0.0787 0.3443
vt 0.0677 0.3446
vt 0.0578 0.2039
vt 0.1737 0.2025
vt 0.1666 0.3438
vt 0.1558 0.3436
vt 0.1610 0.2018
vt 0.1481 0.2017
vt 0.1451 0.3439
vt 0.1344 0.3441
vt 0.1353 0.2016
vt 0.1610 0.5521
vt 0.1599 0.6301
vt 0.1511 0.6303
vt 0.1516 0.5522
vt 0.0962 0.2015
vt 0.1010 0.3442
vt 0.0898 0.3441
vt 0.0833 0.2018
vt 0.1222 0.2013
vt 0.1232 0.3442
vt 0.1121 0.3443
vt 0.1092 0.2011
vt 0.1612 0.5882
vt 0.1682 0.5888
vt 0.1681 0.6227
vt 0.1620 0.6212
vt 0.1650 0.4761
vt 0.1747 0.4815
vt 0.1671 0.5423
vt 0.1584 0.5391
vt 0.1890 0.5945
vt 0.1952 0.5904
vt 0.1957 0.6237
vt 0.1894 0.6259
vt 0.1756 0.5936
vt 0.1829 0.5985
vt 0.1831 0.6282
vt 0.1756 0.6255
vt 0.1747 0.6833
vt 0.1812 0.6852
vt 0.1793 0.7422
vt 0.1738 0.7411
vt 0.1628 0.6804
vt 0.1682 0.6813
vt 0.1684 0.7399
vt 0.1635 0.7395
vt 0.1866 0.6839
vt 0.1919 0.6826
vt 0.1882 0.7414
vt 0.1838 0.7418
vt 0.1979 0.6815
vt 0.2038 0.6804
vt 0.1986 0.7407
vt 0.1934 0.7411
vt 0.1801 0.7965
vt 0.1834 0.7964
vt 0.1787 0.8513
vt 0.1764 0.8512
vt 0.1874 0.7960
vt 0.1914 0.7957
vt 0.1843 0.8506
vt 0.1815 0.8510
vt 0.1726 0.7957
vt 0.1767 0.7967
vt 0.1741 0.8511
vt 0.1713 0.8504
vt 0.1647 0.7947
vt 0.1684 0.7948
vt 0.1685 0.8497
vt 0.1660 0.8498
vt 0.1101 0.6859
vt 0.1143 0.6856
vt 0.1146 0.7012
vt 0.1105 0.7009
vt 0.1277 0.6877
vt 0.1316 0.6854
vt 0.1316 0.7008
vt 0.1272 0.7012
vt 0.1390 0.5490
vt 0.1350 0.6402
vt 0.1190 0.6878
vt 0.1238 0.6899
vt 0.1228 0.7017
vt 0.1187 0.7014
vt 0.1196 0.7348
vt 0.1226 0.7350
vt 0.1225 0.7684
vt 0.1206 0.7682
vt 0.1258 0.7348
vt 0.1289 0.7345
vt 0.1261 0.7682
vt 0.1243 0.7683
vt 0.1132 0.7345
vt 0.1167 0.7347
vt 0.1187 0.7681
vt 0.1160 0.7681
vt 0.1323 0.7344
vt 0.1357 0.7344
vt 0.1315 0.7681
vt 0.1288 0.7681
vt 0.3518 0.0646
vt 0.3522 0.0685
vt 0.3456 0.0676
vt 0.3399 0.0604
vt 0.3356 0.0611
vt 0.3372 0.0556
vt 0.3393 0.0706
vt 0.3354 0.0662
vt 0.3396 0.0655
vt 0.3431 0.0563
vt 0.3462 0.0522
vt 0.3501 0.0538
vt 0.3490 0.0584
vt 0.3346 0.0507
vt 0.3330 0.0562
vt 0.3277 0.0523
vt 0.3209 0.0539
vt 0.3262 0.0578
vt 0.3187 0.0610
vt 0.2864 0.0358
vt 0.2934 0.0389
vt 0.2846 0.0442
vt 0.2708 0.0486
vt 0.2742 0.0589
vt 0.2673 0.0581
vt 0.3263 0.0358
vt 0.3354 0.0358
vt 0.3304 0.0433
vt 0.2858 0.0614
vt 0.2843 0.0570
vt 0.2900 0.0627
vt 0.2941 0.0640
vt 0.2997 0.0632
vt 0.2965 0.0712
vt 0.2901 0.0681
vt 0.2862 0.0722
vt 0.2818 0.0707
vt 0.2860 0.0668
vt 0.2817 0.0654
vt 0.2990 0.0783
vt 0.3022 0.0703
vt 0.3077 0.0748
vt 0.3602 0.0847
vt 0.3529 0.0865
vt 0.3564 0.0786
vt 0.3527 0.0725
vt 0.3600 0.0689
vt 0.2908 0.0949
vt 0.2873 0.0899
vt 0.2949 0.0866
vt 0.2839 0.0849
vt 0.2771 0.0851
vt 0.3593 0.0452
vt 0.3528 0.0487
vt 0.3519 0.0405
vt 0.2775 0.0693
vt 0.2807 0.0771
vt 0.3165 0.0560
vt 0.3165 0.0636
vt 0.3109 0.0592
vt 0.3053 0.0623
vt 0.3016 0.0591
vt 0.3029 0.0522
vt 0.3297 0.0720
vt 0.3306 0.0668
vt 0.3345 0.0713
vt 0.3307 0.0775
vt 0.3318 0.0830
vt 0.3356 0.0768
vt 0.3387 0.0856
vt 0.3458 0.0625
vt 0.3236 0.0448
vt 0.2786 0.0422
vt 0.2767 0.0506
vt 0.2827 0.0526
vt 0.2916 0.0474
vt 0.2903 0.0543
vt 0.3396 0.0433
vt 0.3404 0.0514
vt 0.2884 0.0583
vt 0.2959 0.0600
vt 0.3107 0.0868
vt 0.3048 0.0826
vt 0.3136 0.0791
vt 0.3492 0.0804
vt 0.3460 0.0715
vt 0.3637 0.0750
vt 0.3672 0.0654
vt 0.3595 0.0650
vt 0.3606 0.0604
vt 0.3008 0.0908
vt 0.2914 0.0816
vt 0.2926 0.0752
vt 0.3632 0.0553
vt 0.3566 0.0503
vt 0.2702 0.0852
vt 0.2670 0.0764
vt 0.2739 0.0773
vt 0.3085 0.0491
vt 0.3242 0.0756
vt 0.3231 0.0701
vt 0.4788 0.0646
vt 0.4792 0.0685
vt 0.4725 0.0676
vt 0.4668 0.0604
vt 0.4625 0.0611
vt 0.4642 0.0556
vt 0.4662 0.0706
vt 0.4622 0.0662
vt 0.4665 0.0655
vt 0.4700 0.0563
vt 0.4732 0.0522
vt 0.4771 0.0538
vt 0.4760 0.0584
vt 0.4616 0.0507
vt 0.4600 0.0562
vt 0.4547 0.0523
vt 0.4478 0.0539
vt 0.4531 0.0578
vt 0.4457 0.0610
vt 0.4134 0.0358
vt 0.4205 0.0389
vt 0.4115 0.0442
vt 0.3977 0.0486
vt 0.4011 0.0589
vt 0.3942 0.0581
vt 0.4532 0.0358
vt 0.4624 0.0358
vt 0.4574 0.0433
vt 0.4128 0.0614
vt 0.4112 0.0570
vt 0.4169 0.0627
vt 0.4211 0.0640
vt 0.4267 0.0632
vt 0.4235 0.0712
vt 0.4171 0.0681
vt 0.4131 0.0722
vt 0.4088 0.0707
vt 0.4130 0.0668
vt 0.4087 0.0654
vt 0.4259 0.0783
vt 0.4291 0.0703
vt 0.4347 0.0748
vt 0.4871 0.0847
vt 0.4798 0.0865
vt 0.4834 0.0786
vt 0.4796 0.0725
vt 0.4869 0.0689
vt 0.4178 0.0949
vt 0.4143 0.0899
vt 0.4219 0.0866
vt 0.4108 0.0849
vt 0.4040 0.0851
vt 0.4862 0.0452
vt 0.4797 0.0487
vt 0.4789 0.0405
vt 0.4045 0.0693
vt 0.4076 0.0771
vt 0.4435 0.0560
vt 0.4435 0.0636
vt 0.4379 0.0592
vt 0.4323 0.0623
vt 0.4286 0.0591
vt 0.4299 0.0522
vt 0.4567 0.0720
vt 0.4575 0.0668
vt 0.4614 0.0713
vt 0.4577 0.0775
vt 0.4588 0.0830
vt 0.4625 0.0768
vt 0.4656 0.0856
vt 0.4728 0.0625
vt 0.4505 0.0448
vt 0.4056 0.0422
vt 0.4037 0.0506
vt 0.4097 0.0526
vt 0.4186 0.0474
vt 0.4173 0.0543
vt 0.4666 0.0433
vt 0.4674 0.0514
vt 0.4154 0.0583
vt 0.4229 0.0600
vt 0.4376 0.0868
vt 0.4317 0.0826
vt 0.4405 0.0791
vt 0.4761 0.0804
vt 0.4729 0.0715
vt 0.4906 0.0750
vt 0.4941 0.0654
vt 0.4865 0.0650
vt 0.4876 0.0604
vt 0.4277 0.0908
vt 0.4184 0.0816
vt 0.4195 0.0752
vt 0.4902 0.0553
vt 0.4836 0.0503
vt 0.3972 0.0852
vt 0.3939 0.0764
vt 0.4008 0.0773
vt 0.4355 0.0491
vt 0.4512 0.0756
vt 0.4501 0.0701
vt 0.6018 0.0646
vt 0.6022 0.0685
vt 0.5956 0.0676
vt 0.5899 0.0604
vt 0.5856 0.0611
vt 0.5872 0.0556
vt 0.5893 0.0706
vt 0.5853 0.0662
vt 0.5896 0.0655
vt 0.5931 0.0563
vt 0.5962 0.0522
vt 0.6001 0.0538
vt 0.5990 0.0584
vt 0.5846 0.0507
vt 0.5830 0.0562
vt 0.5777 0.0523
vt 0.5709 0.0539
vt 0.5762 0.0578
vt 0.5688 0.0610
vt 0.5364 0.0358
vt 0.5434 0.0389
vt 0.5346 0.0442
vt 0.5208 0.0486
vt 0.5242 0.0589
vt 0.5173 0.0581
vt 0.5763 0.0358
vt 0.5855 0.0358
vt 0.5804 0.0433
vt 0.5358 0.0614
vt 0.5343 0.0570
vt 0.5400 0.0627
vt 0.5441 0.0640
vt 0.5497 0.0632
vt 0.5466 0.0712
vt 0.5401 0.0681
vt 0.5362 0.0722
vt 0.5318 0.0707
vt 0.5360 0.0668
vt 0.5316 0.0654
vt 0.5490 0.0783
vt 0.5522 0.0703
vt 0.5577 0.0748
vt 0.6102 0.0847
vt 0.6029 0.0865
vt 0.6064 0.0786
vt 0.6027 0.0725
vt 0.6100 0.0689
vt 0.5408 0.0949
vt 0.5373 0.0899
vt 0.5449 0.0866
vt 0.5339 0.0849
vt 0.5271 0.0851
vt 0.6093 0.0452
vt 0.6028 0.0487
vt 0.6020 0.0405
vt 0.5275 0.0693
vt 0.5307 0.0771
vt 0.5665 0.0560
vt 0.5665 0.0636
vt 0.5609 0.0592
vt 0.5553 0.0623
vt 0.5516 0.0591
vt 0.5529 0.0522
vt 0.5797 0.0720
vt 0.5805 0.0668
vt 0.5845 0.0713
vt 0.5807 0.0775
vt 0.5818 0.0830
vt 0.5855 0.0768
vt 0.5887 0.0856
vt 0.5958 0.0625
vt 0.5736 0.0448
vt 0.5286 0.0422
vt 0.5267 0.0506
vt 0.5327 0.0526
vt 0.5416 0.0474
vt 0.5403 0.0543
vt 0.5896 0.0433
vt 0.5904 0.0514
vt 0.5384 0.0583
vt 0.5459 0.0600
vt 0.5607 0.0868
vt 0.5548 0.0826
vt 0.5636 0.0791
vt 0.5992 0.0804
vt 0.5960 0.0715
vt 0.6137 0.0750
vt 0.6172 0.0654
vt 0.6095 0.0650
vt 0.6106 0.0604
vt 0.5508 0.0908
vt 0.5415 0.0816
vt 0.5426 0.0752
vt 0.6133 0.0553
vt 0.6066 0.0503
vt 0.5202 0.0852
vt 0.5170 0.0764
vt 0.5238 0.0773
vt 0.5585 0.0491
vt 0.5742 0.0756
vt 0.5732 0.0701
vt 0.5740 0.0650
vt 0.5814 0.0617
vt 0.5666 0.0682
vt 0.5505 0.0421
vt 0.5206 0.0685
vt 0.5137 0.0676
vt 0.6040 0.0554
vt 0.5351 0.0785
vt 0.6029 0.0600
vt 0.5925 0.0794
vt 0.5956 0.0883
vt 0.5665 0.0713
vt 0.5478 0.0559
vt 0.5954 0.0440
vt 0.5946 0.0358
vt 0.5301 0.0610
vt 0.5491 0.0490
vt 0.5609 0.0668
vt 0.5305 0.0900
vt 0.4509 0.0650
vt 0.4583 0.0617
vt 0.4435 0.0682
vt 0.4275 0.0421
vt 0.3976 0.0685
vt 0.3907 0.0676
vt 0.4810 0.0554
vt 0.4119 0.0785
vt 0.4799 0.0600
vt 0.4693 0.0794
vt 0.4725 0.0883
vt 0.4435 0.0713
vt 0.4248 0.0559
vt 0.4724 0.0440
vt 0.4716 0.0358
vt 0.4071 0.0610
vt 0.4262 0.0490
vt 0.4379 0.0668
vt 0.4075 0.0900
vt 0.3240 0.0650
vt 0.3314 0.0617
vt 0.3166 0.0682
vt 0.3005 0.0421
vt 0.2706 0.0685
vt 0.2637 0.0676
vt 0.3540 0.0554
vt 0.2850 0.0785
vt 0.3529 0.0600
vt 0.3425 0.0794
vt 0.3456 0.0883
vt 0.3165 0.0713
vt 0.2978 0.0559
vt 0.3454 0.0440
vt 0.3446 0.0358
vt 0.2801 0.0610
vt 0.2991 0.0490
vt 0.3109 0.0668
vt 0.2805 0.0900
vt 0.1098 0.7343
vt 0.1132 0.7680
vt 0.1064 0.7006
vt 0.1140 0.6701
vt 0.1194 0.6741
vt 0.1247 0.6781
vt 0.1464 0.5555
vt 0.1282 0.6741
vt 0.1316 0.6701
vt 0.1058 0.6861
vt 0.1052 0.6715
vt 0.1096 0.6708
vt 0.1610 0.7946
vt 0.1634 0.8499
vt 0.1586 0.7392
vt 0.1573 0.6794
vt 0.1559 0.6196
vt 0.1684 0.5548
vt 0.1755 0.5618
vt 0.1827 0.5689
vt 0.1887 0.5630
vt 0.1947 0.5571
vt 0.1554 0.4707
vt 0.1497 0.5359
vt 0.1717 0.4130
vt 0.1823 0.4207
vt 0.1542 0.5877
vt 0.1524 0.5559
vt 0.1604 0.5553
vt 0.1718 0.4741
vt 0.1703 0.5519
vt 0.1688 0.6298
vt 0.1957 0.0626
vt 0.1865 0.2033
vt 0.1774 0.3440
vt 0.1558 0.5479
vt 0.1652 0.5402
vt 0.1601 0.6395
vt 0.1550 0.7389
vt 0.1358 0.6711
vt 0.1400 0.6722
vt 0.0812 0.4104
vt 0.0703 0.4194
vt 0.2041 0.5570
vt 0.2136 0.5570
vt 0.1750 0.2404
vt 0.1617 0.2402
vt 0.1883 0.2405
vt 0.1865 0.3146
vt 0.1848 0.3887
vt 0.0962 0.2401
vt 0.0832 0.2406
vt 0.1093 0.2396
vt 0.1484 0.2399
vt 0.1352 0.2396
vt 0.0700 0.2413
vt 0.0568 0.2420
vt 0.1222 0.2396
vt 0.1746 0.4090
vt 0.0883 0.0058
vt 0.0738 0.0075
vt 0.1028 0.0041
vt 0.1553 0.0065
vt 0.1378 0.0065
vt 0.1728 0.0064
vt 0.0545 0.0105
vt 0.0353 0.0135
vt 0.1203 0.0053
vt 0.1872 0.0089
vt 0.2016 0.0114
vt 0.1987 0.0370
vn -0.9305 0.0838 0.3567
vn -0.9443 0.0373 0.3270
vn -0.9473 0.0240 -0.3193
vn -0.9381 0.0816 -0.3366
vn 0.5264 0.0317 -0.8496
vn 0.5653 0.0196 -0.8247
vn 0.9458 0.0646 -0.3184
vn 0.9370 0.0977 -0.3353
vn 0.0005 0.0127 0.9999
vn 0.0011 0.0411 0.9992
vn -0.5675 0.0415 0.8223
vn -0.5427 0.0436 0.8388
vn -0.5260 0.0222 -0.8502
vn -0.5651 -0.0045 -0.8250
vn 0.0018 -0.0030 -1.0000
vn 0.0016 0.0052 -1.0000
vn 0.9292 0.1000 0.3559
vn 0.9422 0.0775 0.3259
vn 0.5696 0.0656 0.8193
vn 0.5446 0.0534 0.8370
vn 0.9505 -0.0397 0.3082
vn 0.9526 0.0157 0.3038
vn 0.6063 0.0152 0.7951
vn 0.5899 -0.0026 0.8075
vn -0.9479 0.0797 0.3083
vn -0.9514 0.0012 0.3080
vn -0.9474 0.0022 -0.3201
vn -0.9485 0.0652 -0.3099
vn 0.5854 -0.0455 -0.8095
vn 0.5926 0.0138 -0.8054
vn 0.9513 0.0155 -0.3079
vn 0.9490 -0.0540 -0.3107
vn 0.0033 0.0379 0.9993
vn 0.0085 0.0087 0.9999
vn -0.5769 0.0052 0.8168
vn -0.5848 0.0714 0.8080
vn -0.5882 0.0283 -0.8082
vn -0.5851 0.0051 -0.8110
vn 0.0205 0.0123 -0.9997
vn -0.0020 -0.0119 -0.9999
vn 0.5927 -0.0241 -0.8051
vn 0.5886 -0.0660 -0.8057
vn 0.9450 -0.1145 -0.3065
vn 0.9497 -0.0602 -0.3074
vn 0.0269 -0.0333 0.9991
vn 0.2164 -0.2584 0.9415
vn -0.6214 -0.2608 0.7388
vn -0.5963 0.0131 0.8026
vn -0.5994 0.0756 -0.7969
vn -0.6062 0.0999 -0.7890
vn -0.0098 0.0182 -0.9998
vn -0.0034 0.0289 -0.9996
vn 0.9452 -0.0722 0.3184
vn 0.9348 -0.1171 0.3354
vn 0.7361 -0.1335 0.6635
vn 0.6055 -0.0641 0.7933
vn -0.9627 0.0575 0.2645
vn -0.9954 -0.0957 -0.0086
vn -0.8459 0.1028 -0.5234
vn -0.9362 0.0869 -0.3405
vn 0.9334 -0.1593 0.3214
vn 0.9376 -0.1720 0.3021
vn 0.5827 -0.0741 0.8093
vn 0.6090 -0.0758 0.7896
vn -0.9295 -0.2945 -0.2223
vn -0.5441 -0.6850 0.4845
vn -0.5982 -0.5966 0.5351
vn -0.9446 -0.2874 -0.1582
vn 0.5670 -0.1026 -0.8173
vn 0.5135 -0.1236 -0.8491
vn 0.9246 -0.1928 -0.3285
vn 0.9369 -0.1655 -0.3080
vn 0.0369 0.0546 0.9978
vn -0.0052 0.0560 0.9984
vn -0.2988 0.0856 0.9505
vn -0.5395 0.1583 0.8270
vn -0.5876 0.1029 -0.8026
vn -0.4817 -0.0843 -0.8723
vn 0.1326 -0.0842 -0.9876
vn -0.0103 0.0012 -0.9999
vn 0.3933 -0.1238 -0.9110
vn 0.4506 -0.1390 -0.8818
vn 0.9027 -0.2089 -0.3762
vn 0.8939 -0.2068 -0.3978
vn -0.0218 0.0785 0.9967
vn 0.0070 0.0751 0.9971
vn -0.6828 0.2141 0.6986
vn -0.6488 0.2142 0.7302
vn -0.3588 -0.3989 -0.8439
vn -0.8133 -0.5533 -0.1798
vn -0.8570 -0.4907 -0.1572
vn -0.4571 -0.4082 -0.7902
vn 0.9398 -0.1788 0.2912
vn 0.9462 -0.1817 0.2679
vn 0.6487 -0.0830 0.7565
vn 0.5868 -0.0672 0.8070
vn -0.9699 0.2428 0.0204
vn -0.9702 0.2368 0.0506
vn -0.5396 0.0991 -0.8361
vn -0.8524 0.1965 -0.4845
vn 0.0020 -0.0149 0.9999
vn -0.0077 -0.0168 0.9998
vn -0.6033 -0.0193 0.7973
vn -0.5873 -0.0578 0.8073
vn 0.5917 0.0708 -0.8031
vn 0.5891 0.0298 -0.8075
vn 0.9498 0.0238 -0.3118
vn 0.9479 0.0869 -0.3065
vn 0.9500 0.0716 0.3039
vn 0.9517 0.0058 0.3069
vn 0.5786 -0.0130 0.8155
vn 0.5910 0.0327 0.8060
vn -0.5933 -0.0180 -0.8047
vn -0.5974 0.0245 -0.8016
vn -0.0211 0.0298 -0.9993
vn -0.0013 0.0316 -0.9995
vn 0.0011 0.0550 0.9985
vn -0.0038 0.0484 0.9988
vn -0.5937 0.0524 0.8030
vn -0.5832 0.0341 0.8116
vn -0.9503 0.0070 0.3112
vn -0.9503 0.0455 0.3079
vn -0.9518 0.0274 -0.3053
vn -0.9509 -0.0120 -0.3092
vn -0.5859 -0.0235 -0.8101
vn -0.5914 0.0017 -0.8064
vn -0.0146 -0.0148 -0.9998
vn -0.0022 -0.0143 -0.9999
vn -0.9507 -0.0722 0.3015
vn -0.9544 -0.0024 0.2984
vn -0.9529 0.0166 -0.3028
vn -0.9496 -0.0557 -0.3083
vn 0.9491 0.0533 0.3106
vn 0.9508 0.0057 0.3096
vn 0.5811 0.0325 0.8132
vn 0.5851 0.0627 0.8085
vn 0.5839 0.0047 -0.8118
vn 0.5837 -0.0234 -0.8116
vn 0.9494 -0.0130 -0.3139
vn 0.9498 0.0342 -0.3109
vn 0.3199 -0.5231 0.7900
vn 0.7410 -0.1118 0.6622
vn 0.6717 -0.0887 0.7355
vn 0.1334 -0.4577 0.8790
vn -0.9313 0.2148 0.2941
vn -0.8529 -0.0273 0.5213
vn -0.3561 0.6572 -0.6643
vn -0.8198 0.1449 -0.5540
vn -0.7903 0.0970 -0.6051
vn -0.1494 0.4797 -0.8646
vn 0.8556 0.4127 0.3124
vn 0.4556 0.8426 -0.2870
vn 0.6432 0.5598 -0.5225
vn 0.9293 0.3354 0.1544
vn 0.9659 0.2305 0.1182
vn 0.7036 0.3629 -0.6110
vn 0.7616 0.1895 -0.6197
vn 0.9755 0.1473 0.1634
vn -0.0045 -0.2761 0.9611
vn 0.6646 -0.0222 0.7469
vn 0.6099 0.0309 0.7919
vn -0.0480 -0.1098 0.9928
vn -0.0547 0.2779 -0.9591
vn -0.6982 0.0529 -0.7140
vn -0.6965 0.0038 -0.7176
vn -0.0437 0.1211 -0.9917
vn -0.9687 -0.1958 -0.1523
vn -0.7211 -0.3603 0.5918
vn -0.7678 -0.1871 0.6128
vn -0.9773 -0.1137 -0.1785
vn -0.0152 -0.0105 -0.9998
vn -0.6542 -0.0396 -0.7553
vn -0.5594 -0.0475 -0.8275
vn 0.0186 -0.0280 -0.9994
vn -0.9787 -0.0487 -0.1992
vn -0.8016 -0.0123 0.5977
vn -0.8307 0.0140 0.5565
vn -0.9706 -0.0408 -0.2374
vn 0.9819 0.0852 0.1692
vn 0.7739 0.0520 -0.6312
vn 0.7438 0.0303 -0.6677
vn 0.9878 0.0752 0.1366
vn -0.0652 0.0436 0.9969
vn 0.6270 0.0864 0.7742
vn 0.7182 0.0935 0.6895
vn -0.0422 0.0702 0.9966
vn -0.6797 -0.3488 0.6452
vn -0.2709 0.0750 0.9597
vn -0.2948 0.1065 0.9496
vn -0.7911 -0.2801 0.5438
vn 0.3260 0.4689 -0.8209
vn 0.0242 -0.0903 -0.9956
vn 0.1440 -0.0968 -0.9848
vn 0.7552 0.3059 -0.5797
vn -0.4837 0.2093 -0.8499
vn -0.1562 0.0047 -0.9877
vn 0.1777 0.5576 0.8109
vn 0.3256 0.9347 0.1425
vn 0.8500 0.4971 0.1740
vn 0.4509 0.4377 0.7778
vn 0.4691 0.3562 0.8081
vn 0.9096 0.3561 0.2140
vn 0.9122 0.3463 0.2192
vn 0.4584 0.3488 0.8174
vn 0.8471 0.1702 -0.5034
vn 0.2608 -0.1074 -0.9594
vn 0.3138 -0.0937 -0.9448
vn 0.8560 0.1623 -0.4908
vn -0.8618 -0.1304 0.4901
vn -0.2880 0.1621 0.9438
vn -0.2703 0.1728 0.9471
vn -0.8663 -0.1158 0.4859
vn -0.4854 -0.3149 -0.8156
vn -0.9244 -0.3122 -0.2194
vn -0.9212 -0.2986 -0.2496
vn -0.4602 -0.3015 -0.8351
vn 0.8616 0.2073 0.4633
vn 0.7127 0.0620 0.6987
vn 0.9180 -0.0882 0.3867
vn 0.9834 0.0132 -0.1807
vn 0.9043 -0.1762 -0.3889
vn 0.8379 0.0793 -0.5401
vn 0.8449 -0.4192 0.3324
vn 0.8964 -0.4060 -0.1778
vn 0.9843 -0.1711 0.0438
vn 0.9457 0.2236 -0.2360
vn 0.7995 0.4983 -0.3355
vn 0.7990 0.6013 0.0082
vn 0.9476 0.3071 0.0877
vn 0.5450 0.1438 -0.8260
vn 0.6717 -0.1206 -0.7309
vn 0.3565 -0.0791 -0.9309
vn 0.1341 -0.2754 -0.9519
vn 0.4418 -0.3429 -0.8290
vn 0.0308 -0.4860 -0.8734
vn -0.2362 -0.2416 -0.9412
vn -0.1516 0.2029 -0.9674
vn -0.4526 0.3939 -0.8000
vn -0.0685 0.4120 -0.9086
vn 0.2114 0.1714 -0.9623
vn -0.8990 0.1027 -0.4258
vn -0.7578 0.0157 -0.6523
vn -0.9726 -0.0718 -0.2211
vn -0.9743 -0.2114 0.0777
vn -0.8405 -0.4170 0.3460
vn -0.8423 -0.1245 0.5244
vn -0.9710 0.0517 0.2334
vn -0.8883 0.3713 0.2703
vn -0.7959 0.6044 -0.0356
vn -0.9666 0.2235 -0.1257
vn -0.7979 0.3455 -0.4939
vn -0.5893 0.0123 0.8078
vn -0.6559 -0.3320 0.6779
vn -0.4079 -0.3072 0.8598
vn 0.0170 -0.0889 0.9959
vn 0.0038 -0.2920 0.9564
vn 0.2788 -0.0738 0.9575
vn 0.5473 -0.0881 0.8323
vn 0.3553 0.1699 0.9192
vn 0.1773 0.4284 0.8860
vn -0.0554 0.5835 0.8102
vn -0.2194 0.2511 0.9428
vn -0.3180 0.7288 0.6065
vn -0.0616 0.9203 0.3863
vn 0.1986 0.9754 0.0958
vn 0.5317 0.8175 -0.2214
vn 0.1539 0.9218 -0.3558
vn -0.6126 0.6752 -0.4107
vn -0.4924 0.8550 0.1626
vn 0.1701 -0.9471 0.2723
vn 0.1532 -0.7589 0.6329
vn -0.2307 -0.9315 0.2811
vn -0.5735 -0.7254 0.3807
vn -0.6590 -0.7516 -0.0268
vn -0.3337 -0.9266 -0.1735
vn 0.5471 -0.8100 -0.2109
vn 0.6759 -0.5965 -0.4328
vn 0.7590 -0.6492 0.0491
vn 0.3735 -0.9269 0.0379
vn 0.5654 -0.7062 0.4261
vn 0.9873 0.0932 0.1284
vn 0.0019 -0.0526 -0.9986
vn -0.3999 0.0665 -0.9142
vn -0.5746 -0.1379 -0.8067
vn -0.3754 -0.4359 -0.8180
vn -0.6691 -0.3771 -0.6404
vn 0.3594 0.3982 -0.8440
vn 0.7001 0.3403 -0.6277
vn -0.8497 -0.2371 -0.4710
vn -0.8987 -0.3979 -0.1845
vn -0.2687 -0.0409 0.9624
vn 0.4220 -0.3254 0.8462
vn 0.7201 -0.2686 0.6397
vn 0.0606 0.1393 0.9884
vn 0.5354 0.3617 0.7633
vn 0.4450 0.6113 0.6545
vn -0.4781 0.3727 0.7954
vn -0.7720 0.2029 0.6024
vn 0.2459 0.7632 0.5976
vn 0.4745 0.8401 0.2628
vn -0.2507 0.9611 -0.1161
vn -0.0355 -0.9834 -0.1781
vn 0.2743 -0.8472 -0.4550
vn 0.8600 0.2226 0.4592
vn 0.7161 0.0745 0.6940
vn 0.9232 -0.0624 0.3793
vn 0.9812 0.0431 -0.1881
vn 0.9065 -0.1413 -0.3979
vn 0.8311 0.1066 -0.5457
vn 0.8624 -0.3890 0.3240
vn 0.9099 -0.3689 -0.1898
vn 0.9898 -0.1382 0.0344
vn 0.9385 0.2469 -0.2412
vn 0.7880 0.5139 -0.3391
vn 0.7898 0.6134 0.0077
vn 0.9418 0.3257 0.0836
vn 0.5350 0.1634 -0.8289
vn 0.6690 -0.0907 -0.7377
vn 0.3510 -0.0575 -0.9346
vn 0.1334 -0.2554 -0.9576
vn 0.4451 -0.3136 -0.8388
vn 0.0365 -0.4657 -0.8842
vn -0.2379 -0.2330 -0.9429
vn -0.1646 0.2029 -0.9653
vn -0.4709 0.3789 -0.7967
vn -0.0864 0.4085 -0.9087
vn 0.1997 0.1818 -0.9628
vn -0.9051 0.0786 -0.4179
vn -0.7627 -0.0008 -0.6467
vn -0.9720 -0.0957 -0.2147
vn -0.9684 -0.2351 0.0826
vn -0.8301 -0.4347 0.3493
vn -0.8348 -0.1506 0.5296
vn -0.9702 0.0197 0.2413
vn -0.8991 0.3349 0.2819
vn -0.8198 0.5721 -0.0226
vn -0.9748 0.1904 -0.1166
vn -0.8136 0.3185 -0.4865
vn -0.5830 -0.0125 0.8124
vn -0.6436 -0.3486 0.6813
vn -0.3943 -0.3187 0.8620
vn 0.0268 -0.0960 0.9950
vn 0.0187 -0.2931 0.9559
vn 0.2881 -0.0726 0.9548
vn 0.5564 -0.0775 0.8273
vn 0.3584 0.1667 0.9186
vn 0.1742 0.4153 0.8928
vn -0.0635 0.5632 0.8239
vn -0.2186 0.2287 0.9486
vn -0.3354 0.7056 0.6242
vn -0.0841 0.9106 0.4047
vn 0.1787 0.9782 0.1062
vn 0.5183 0.8262 -0.2209
vn 0.1303 0.9254 -0.3559
vn -0.6407 0.6534 -0.4032
vn -0.5232 0.8333 0.1783
vn 0.2000 -0.9427 0.2672
vn 0.1793 -0.7517 0.6347
vn -0.2102 -0.9369 0.2793
vn -0.5581 -0.7371 0.3811
vn -0.6478 -0.7612 -0.0308
vn -0.3192 -0.9296 -0.1843
vn 0.5757 -0.7856 -0.2267
vn 0.6949 -0.5616 -0.4491
vn 0.7857 -0.6175 0.0377
vn 0.4064 -0.9133 0.0258
vn 0.5952 -0.6845 0.4210
vn 0.9855 0.1183 0.1220
vn -0.0047 -0.0414 -0.9991
vn -0.4087 0.0614 -0.9106
vn -0.5771 -0.1438 -0.8039
vn -0.3724 -0.4282 -0.8234
vn -0.6666 -0.3805 -0.6410
vn 0.3442 0.4066 -0.8463
vn 0.6880 0.3576 -0.6316
vn -0.8478 -0.2509 -0.4672
vn -0.8927 -0.4122 -0.1822
vn -0.2600 -0.0566 0.9640
vn 0.4383 -0.3125 0.8427
vn 0.7333 -0.2466 0.6336
vn 0.0646 0.1273 0.9898
vn 0.5336 0.3606 0.7650
vn 0.4385 0.6059 0.6638
vn -0.4828 0.3420 0.8062
vn -0.7729 0.1690 0.6116
vn 0.2350 0.7546 0.6127
vn 0.4643 0.8427 0.2724
vn -0.2828 0.9532 -0.1074
vn -0.0126 -0.9812 -0.1927
vn 0.2970 -0.8287 -0.4745
vn 0.8890 0.0911 0.4488
vn 0.7435 0.0047 0.6687
vn 0.9192 -0.1263 0.3730
vn 0.9801 -0.0700 -0.1857
vn 0.8850 -0.2076 -0.4168
vn 0.8333 0.0084 -0.5528
vn 0.8526 -0.3918 0.3457
vn 0.8975 -0.3925 -0.2011
vn 0.9755 -0.2131 0.0552
vn 0.9655 0.1019 -0.2396
vn 0.8885 0.2847 -0.3600
vn 0.9324 0.3613 -0.0021
vn 0.9856 0.1531 0.0719
vn 0.5477 0.0846 -0.8324
vn 0.6371 -0.1281 -0.7601
vn 0.3208 -0.0585 -0.9453
vn 0.0898 -0.1812 -0.9793
vn 0.3963 -0.2701 -0.8775
vn -0.0366 -0.3375 -0.9406
vn -0.2624 -0.1091 -0.9588
vn -0.1437 0.2277 -0.9631
vn -0.4201 0.3843 -0.8221
vn -0.0129 0.3513 -0.9362
vn 0.2110 0.1434 -0.9669
vn -0.8741 0.2605 -0.4099
vn -0.7248 0.1545 -0.6714
vn -0.9754 0.1213 -0.1838
vn -0.9954 -0.0078 0.0957
vn -0.9073 -0.1882 0.3760
vn -0.8479 0.0500 0.5278
vn -0.9439 0.2113 0.2538
vn -0.8554 0.4282 0.2914
vn -0.7948 0.6063 -0.0282
vn -0.9355 0.3388 -0.1007
vn -0.7482 0.4042 -0.5261
vn -0.5685 0.1243 0.8132
vn -0.6959 -0.1363 0.7050
vn -0.4445 -0.1443 0.8841
vn 0.0193 -0.0396 0.9990
vn -0.0180 -0.1890 0.9818
vn 0.2814 -0.0402 0.9587
vn 0.5809 -0.0840 0.8096
vn 0.3814 0.1228 0.9162
vn 0.2371 0.3022 0.9233
vn 0.0085 0.4438 0.8961
vn -0.1632 0.2361 0.9579
vn -0.2572 0.6411 0.7231
vn 0.0380 0.8457 0.5323
vn 0.4178 0.8994 0.1284
vn 0.7618 0.5853 -0.2775
vn 0.3160 0.8085 -0.4964
vn -0.6036 0.6426 -0.4719
vn -0.5184 0.8294 0.2082
vn 0.0814 -0.9377 0.3379
vn 0.0861 -0.6408 0.7629
vn -0.4449 -0.8216 0.3563
vn -0.7369 -0.5206 0.4312
vn -0.8480 -0.5281 -0.0455
vn -0.5771 -0.7819 -0.2358
vn 0.5608 -0.7825 -0.2705
vn 0.6786 -0.5329 -0.5055
vn 0.7991 -0.5994 0.0454
vn 0.3711 -0.9285 0.0137
vn 0.5946 -0.6398 0.4869
vn 0.9914 -0.0029 0.1308
vn -0.0115 0.0085 -0.9999
vn -0.3890 0.1454 -0.9097
vn -0.5722 0.0054 -0.8201
vn -0.4408 -0.2469 -0.8630
vn -0.7257 -0.1709 -0.6664
vn 0.4066 0.2847 -0.8681
vn 0.7482 0.2030 -0.6317
vn -0.8799 -0.0373 -0.4736
vn -0.9687 -0.1659 -0.1847
vn -0.2433 0.0366 0.9693
vn 0.4231 -0.2620 0.8674
vn 0.7432 -0.2441 0.6230
vn 0.0988 0.1309 0.9865
vn 0.5906 0.2163 0.7775
vn 0.5628 0.3922 0.7276
vn -0.4230 0.3598 0.8316
vn -0.7401 0.2815 0.6107
vn 0.3855 0.5621 0.7318
vn 0.7181 0.6135 0.3285
vn -0.2159 0.9611 -0.1721
vn -0.1986 -0.9421 -0.2702
vn 0.2072 -0.7815 -0.5885
vn 0.3520 -0.4810 -0.8029
vn 0.6955 -0.3451 -0.6302
vn -0.2138 -0.6245 -0.7512
vn -0.2494 0.6705 -0.6987
vn 0.2147 0.5363 -0.8162
vn 0.8077 0.4418 0.3905
vn -0.6222 0.5431 0.5639
vn 0.8559 0.2544 0.4502
vn 0.5355 -0.4303 0.7267
vn 0.0225 -0.3854 0.9225
vn -0.8291 -0.3635 -0.4247
vn 0.6217 0.4258 -0.6574
vn -0.5705 0.3096 -0.7607
vn -0.5913 -0.4975 -0.6347
vn -0.4490 -0.4125 0.7926
vn 0.4081 -0.5574 -0.7230
vn 0.7289 -0.3445 -0.5916
vn -0.0786 -0.7562 -0.6496
vn -0.3263 0.7341 -0.5955
vn 0.0874 0.6848 -0.7235
vn 0.6573 0.6650 0.3545
vn -0.6663 0.5438 0.5103
vn 0.7765 0.4437 0.4475
vn 0.5526 -0.4911 0.6734
vn 0.0842 -0.5178 0.8513
vn -0.6909 -0.6074 -0.3921
vn 0.4794 0.6523 -0.5871
vn -0.6293 0.2455 -0.7374
vn -0.4315 -0.7047 -0.5633
vn -0.3341 -0.6189 0.7109
vn 0.3950 -0.5868 -0.7069
vn 0.7208 -0.3799 -0.5797
vn -0.0922 -0.7678 -0.6341
vn -0.2985 0.7445 -0.5972
vn 0.1092 0.6838 -0.7214
vn 0.6657 0.6595 0.3491
vn -0.6490 0.5777 0.4950
vn 0.7811 0.4358 0.4471
vn 0.5301 -0.5109 0.6767
vn 0.0636 -0.5222 0.8504
vn -0.6978 -0.6017 -0.3886
vn 0.4950 0.6435 -0.5839
vn -0.6156 0.2638 -0.7426
vn -0.4397 -0.7074 -0.5534
vn -0.3525 -0.6126 0.7074
vn -0.6429 0.5143 0.5675
vn -0.6815 0.7206 -0.1278
vn -0.9494 -0.1150 -0.2924
vn 0.5385 0.2092 0.8163
vn -0.2378 0.7752 0.5852
vn -0.8496 0.4687 -0.2417
vn -0.9161 0.1852 -0.3556
vn 0.9251 0.1050 0.3648
vn 0.5457 0.0440 0.8368
vn 0.9375 0.1070 -0.3312
vn -0.5108 0.0304 -0.8592
vn 0.0007 0.0030 -1.0000
vn -0.9378 0.1016 -0.3319
vn 0.0002 -0.0050 1.0000
vn -0.5448 0.0408 0.8376
vn 0.5111 0.0334 -0.8589
vn -0.9255 0.0997 0.3653
usemtl None
s 1
f 539/1/1 308/2/2 3/3/3 438/4/4
f 538/5/5 483/6/6 7/7/7 267/8/8
f 537/9/9 255/10/10 2/11/11 184/12/12
f 536/13/13 177/14/14 6/15/15 359/16/16
f 535/17/17 346/18/18 10/19/19 182/20/20
f 534/21/21 395/22/22 13/23/23 357/24/24
f 533/25/25 224/26/26 17/27/27 176/28/28
f 532/29/29 320/30/30 12/31/31 435/32/32
f 531/33/33 433/34/34 16/35/35 265/36/36
f 530/37/37 256/38/38 20/39/39 430/40/40
f 529/41/41 475/42/42 23/43/43 258/44/44
f 528/45/45 305/46/46 27/47/47 431/48/48
f 527/49/49 420/50/50 22/51/51 352/52/52
f 526/53/53 331/54/54 26/55/55 178/56/56
f 525/57/57 167/58/58 30/59/59 355/60/60
f 524/61/61 263/62/62 32/63/63 348/64/64
f 523/65/65 298/66/66 33/67/67 424/68/68
f 522/69/69 307/70/70 31/71/71 210/72/72
f 521/73/73 437/74/74 36/75/75 387/76/76
f 520/77/77 415/78/78 35/79/79 244/80/80
f 519/81/81 165/82/82 40/83/83 196/84/84
f 518/85/85 421/86/86 42/87/87 157/88/88
f 517/89/89 277/90/90 43/91/91 342/92/92
f 516/93/93 214/94/94 41/95/95 150/96/96
f 515/97/97 233/98/98 39/99/99 454/100/100
f 514/101/101 257/102/102 28/103/103 327/104/104
f 513/105/105 426/106/106 24/107/107 145/108/108
f 512/109/109 219/110/110 25/111/111 448/112/112
f 511/113/113 282/114/114 21/115/115 392/116/116
f 510/117/117 479/118/118 15/119/119 467/120/120
f 509/121/121 310/122/122 18/123/123 330/124/124
f 508/125/125 303/126/126 19/127/127 279/128/128
f 507/129/129 393/130/130 29/131/131 287/132/132
f 506/133/133 170/134/134 14/135/135 429/136/136
f 505/137/137 365/138/138 11/139/139 384/140/140
f 504/141/141 201/142/142 46/143/143 238/144/144
f 503/145/145 387/146/76 36/147/75 333/148/146
f 502/149/147 358/150/148 34/151/149 453/152/150
f 501/153/151 373/154/152 47/155/153 466/156/154
f 500/157/155 163/158/156 48/159/157 213/160/158
f 499/161/159 381/162/160 49/163/161 425/164/162
f 498/165/163 269/166/164 51/167/165 423/168/166
f 497/169/167 403/170/168 50/171/169 297/172/170
f 496/173/171 350/174/172 52/175/173 389/176/174
f 495/177/175 162/178/176 54/179/177 338/180/178
f 494/181/179 351/182/180 53/183/181 386/184/182
f 493/185/183 383/186/184 55/187/185 469/188/186
f 492/189/187 223/190/188 56/191/189 474/192/190
f 491/193/191 328/194/192 44/195/193 173/196/194
f 35/79/79 460/197/195 208/198/196
f 490/199/197 428/200/198 57/201/199 216/202/200
f 489/203/201 427/204/202 58/205/203 299/206/204
f 488/207/205 399/208/206 60/209/207 253/210/208
f 487/211/209 456/212/210 59/213/211 471/214/212
f 486/215/213 443/216/214 61/217/215 391/218/216
f 62/219/217 472/220/218 422/221/219
f 65/222/220 323/223/221 369/224/222
f 64/225/223 175/226/224 217/227/225
f 65/222/220 369/224/222 235/228/226
f 68/229/227 200/230/228 261/231/229
f 67/232/230 278/233/231 313/234/232
f 70/235/233 402/236/234 452/237/235
f 70/238/233 452/239/235 148/240/236
f 73/241/237 318/242/238 364/243/239
f 73/244/237 364/245/239 271/246/240
f 76/247/241 473/248/242 198/249/243
f 77/250/244 152/251/245 195/252/246
f 77/250/244 195/252/246 404/253/247
f 80/254/248 482/255/249 309/256/250
f 76/247/241 312/257/251 473/248/242
f 79/258/252 451/259/253 273/260/254
f 82/261/255 315/262/256 284/263/257
f 63/264/258 472/220/218 243/265/259
f 83/266/260 398/267/261 154/268/262
f 84/269/263 398/267/261 186/270/264
f 85/271/265 166/272/266 417/273/267
f 74/274/268 482/255/249 286/275/269
f 86/276/270 481/277/271 378/278/272
f 78/279/273 416/280/274 306/281/275
f 88/282/276 465/283/277 293/284/278
f 88/282/276 293/284/278 480/285/279
f 86/286/270 380/287/280 481/288/271
f 65/222/220 388/289/281 217/227/225
f 65/222/220 235/228/226 388/289/281
f 73/244/237 271/246/240 194/290/282
f 73/241/237 194/291/282 367/292/283
f 72/293/284 237/294/285 254/295/286
f 73/241/237 367/292/283 318/242/238
f 67/232/230 181/296/287 408/297/288
f 77/250/244 174/298/289 161/299/290
f 77/250/244 161/299/290 152/251/245
f 77/250/244 404/253/247 198/249/243
f 82/300/255 457/301/291 315/302/256
f 63/264/258 156/303/292 172/304/293
f 82/261/255 284/263/257 270/305/294
f 83/306/260 337/307/295 347/308/296
f 82/300/255 270/309/294 457/301/291
f 79/258/252 372/310/297 234/311/298
f 85/271/265 440/312/299 247/313/300
f 85/271/265 247/313/300 166/272/266
f 85/314/265 417/315/267 336/316/301
f 85/314/265 336/316/301 186/270/264
f 86/276/270 378/278/272 295/317/302
f 86/286/270 295/318/302 480/285/279
f 88/282/276 215/319/303 465/283/277
f 89/320/304 317/321/305 362/322/306
f 92/323/307 191/324/308 222/325/309
f 91/326/310 442/327/311 401/328/312
f 92/323/307 222/325/309 264/329/313
f 95/330/314 231/331/315 183/332/316
f 94/333/317 147/334/318 188/335/319
f 97/336/320 439/337/321 414/338/322
f 97/339/320 414/340/322 375/341/323
f 100/342/324 206/343/325 146/344/326
f 100/345/324 146/346/326 232/347/327
f 103/348/328 363/349/329 326/350/330
f 104/351/331 370/352/332 304/353/333
f 104/351/331 304/353/333 432/354/334
f 107/355/335 356/356/336 179/357/337
f 103/348/328 205/358/338 363/349/329
f 106/359/339 410/360/340 236/361/341
f 109/362/342 204/363/343 294/364/344
f 90/365/345 317/321/305 340/366/346
f 110/367/347 459/368/348 316/369/349
f 111/370/350 459/368/348 324/371/351
f 112/372/352 349/373/353 397/374/354
f 101/375/355 356/356/336 190/376/356
f 113/377/357 366/378/358 441/379/359
f 105/380/360 382/381/361 197/382/362
f 115/383/363 301/384/364 477/385/365
f 115/383/363 477/385/365 377/386/366
f 113/387/357 212/388/367 366/389/358
f 92/323/307 229/390/368 401/328/312
f 92/323/307 264/329/313 229/390/368
f 100/345/324 232/347/327 325/391/369
f 100/342/324 325/392/369 159/393/370
f 99/394/371 285/395/372 218/396/373
f 100/342/324 159/393/370 206/343/325
f 94/333/317 329/397/374 446/398/375
f 104/351/331 322/399/376 292/400/377
f 104/351/331 292/400/377 370/352/332
f 104/351/331 432/354/334 326/350/330
f 109/401/342 368/402/378 204/403/343
f 90/365/345 251/404/379 272/405/380
f 109/362/342 294/364/344 240/406/381
f 110/407/347 250/408/382 171/409/383
f 109/401/342 240/410/381 368/402/378
f 106/359/339 449/411/384 281/412/385
f 112/372/352 406/413/386 260/414/387
f 112/372/352 260/414/387 349/373/353
f 112/415/352 397/416/354 144/417/388
f 112/415/352 144/417/388 324/371/351
f 113/377/357 441/379/359 180/418/389
f 113/387/357 180/419/389 377/386/366
f 115/383/363 262/420/390 301/384/364
f 116/421/391 207/422/392 151/423/393
f 119/424/394 332/425/395 283/426/396
f 118/427/397 409/428/398 462/429/399
f 119/424/394 283/426/396 227/430/400
f 122/431/401 290/432/402 311/433/403
f 121/434/404 379/435/405 335/436/406
f 124/437/407 400/438/408 211/439/409
f 124/440/407 211/441/409 155/442/410
f 127/443/411 339/444/412 289/445/413
f 127/446/411 289/447/413 203/448/414
f 130/449/415 164/450/416 249/451/417
f 131/452/418 385/453/419 419/454/420
f 131/452/418 419/454/420 458/455/421
f 134/456/422 470/457/423 371/458/424
f 130/449/415 291/459/425 164/450/416
f 133/460/426 344/461/427 334/462/428
f 136/463/429 209/464/430 185/465/431
f 117/466/432 207/422/392 485/467/433
f 137/468/434 463/469/435 412/470/436
f 138/471/437 463/469/435 246/472/438
f 139/473/439 143/474/440 153/475/441
f 128/476/442 470/457/423 300/477/443
f 140/478/444 360/479/445 274/480/446
f 132/481/447 319/482/448 343/483/449
f 142/484/450 168/485/451 354/486/452
f 142/484/450 354/486/452 199/487/453
f 140/488/444 252/489/454 360/490/445
f 119/424/394 276/491/455 462/429/399
f 119/424/394 227/430/400 276/491/455
f 127/446/411 203/448/414 280/492/456
f 127/443/411 280/493/456 464/494/457
f 126/495/458 248/496/459 220/497/460
f 127/443/411 464/494/457 339/444/412
f 121/434/404 455/498/461 418/499/462
f 131/452/418 468/500/463 405/501/464
f 131/452/418 405/501/464 385/453/419
f 131/452/418 458/455/421 249/451/417
f 136/502/429 376/503/465 209/504/430
f 117/466/432 230/505/466 245/506/467
f 136/463/429 185/465/431 160/507/468
f 137/508/434 226/509/469 296/510/470
f 136/502/429 160/511/468 376/503/465
f 133/460/426 445/512/471 288/513/472
f 139/473/439 158/514/473 225/515/474
f 139/473/439 225/515/474 143/474/440
f 139/516/439 153/517/441 259/518/475
f 139/516/439 259/518/475 246/472/438
f 140/478/444 274/480/446 353/519/476
f 140/488/444 353/520/476 199/487/453
f 142/484/450 268/521/477 168/485/451
f 168/485/451 189/522/478 120/523/479
f 168/485/451 268/521/477 189/522/478
f 268/521/477 125/524/480 189/522/478
f 199/487/453 268/521/477 142/484/450
f 199/487/453 353/520/476 268/521/477
f 353/520/476 125/524/480 268/521/477
f 353/519/476 343/483/449 125/525/480
f 353/519/476 274/480/446 343/483/449
f 274/480/446 132/481/447 343/483/449
f 246/472/438 300/477/443 138/471/437
f 246/472/438 259/518/475 300/477/443
f 259/518/475 128/476/442 300/477/443
f 259/518/475 341/526/481 128/476/442
f 259/518/475 153/517/441 341/526/481
f 153/517/441 129/527/482 341/526/481
f 143/474/440 290/432/402 122/431/401
f 143/474/440 225/515/474 290/432/402
f 225/515/474 123/528/483 290/432/402
f 225/515/474 296/510/470 123/528/483
f 225/515/474 158/514/473 296/510/470
f 158/514/473 137/508/434 296/510/470
f 288/513/472 187/529/484 134/456/422
f 288/513/472 445/512/471 187/529/484
f 445/512/471 138/471/437 187/529/484
f 376/503/465 412/470/436 133/460/426
f 376/503/465 160/511/468 412/470/436
f 160/511/468 137/468/434 412/470/436
f 296/510/470 444/530/485 123/528/483
f 296/510/470 226/509/469 444/530/485
f 226/509/469 116/421/391 444/530/485
f 160/507/468 485/467/433 137/508/434
f 160/507/468 185/465/431 485/467/433
f 185/465/431 117/466/432 485/467/433
f 245/506/467 314/531/486 118/427/397
f 245/506/467 230/505/466 314/531/486
f 230/505/466 135/532/487 314/531/486
f 209/504/430 334/462/428 135/533/487
f 209/504/430 376/503/465 334/462/428
f 376/503/465 133/460/426 334/462/428
f 249/451/417 371/458/424 130/449/415
f 249/451/417 458/455/421 371/458/424
f 458/455/421 134/456/422 371/458/424
f 385/453/419 319/482/448 132/481/447
f 385/453/419 405/501/464 319/482/448
f 405/501/464 141/534/488 319/482/448
f 405/501/464 220/497/460 141/534/488
f 405/501/464 468/500/463 220/497/460
f 468/500/463 126/495/458 220/497/460
f 418/499/462 202/535/489 122/431/401
f 418/499/462 455/498/461 202/535/489
f 455/498/461 129/536/482 202/535/489
f 339/444/412 413/537/490 128/476/442
f 339/444/412 464/494/457 413/537/490
f 464/494/457 126/495/458 413/537/490
f 220/497/460 302/538/491 141/534/488
f 220/497/460 248/496/459 302/538/491
f 248/496/459 125/525/480 302/538/491
f 464/494/457 155/442/410 126/495/458
f 464/494/457 280/493/456 155/442/410
f 280/493/456 124/440/407 155/442/410
f 280/492/456 335/436/406 124/437/407
f 280/492/456 203/448/414 335/436/406
f 203/448/414 121/434/404 335/436/406
f 276/491/455 311/433/403 116/421/391
f 276/491/455 227/430/400 311/433/403
f 227/430/400 122/431/401 311/433/403
f 462/429/399 151/423/393 118/427/397
f 462/429/399 276/491/455 151/423/393
f 276/491/455 116/421/391 151/423/393
f 360/490/445 314/531/486 135/532/487
f 360/490/445 252/489/454 314/531/486
f 252/489/454 118/427/397 314/531/486
f 199/487/453 252/489/454 140/488/444
f 199/487/453 354/486/452 252/489/454
f 354/486/452 118/427/397 252/489/454
f 354/486/452 409/428/398 118/427/397
f 354/486/452 168/485/451 409/428/398
f 168/485/451 120/523/479 409/428/398
f 343/483/449 302/538/491 125/525/480
f 343/483/449 319/482/448 302/538/491
f 319/482/448 141/534/488 302/538/491
f 274/480/446 239/539/492 132/481/447
f 274/480/446 360/479/445 239/539/492
f 360/479/445 135/533/487 239/539/492
f 300/477/443 187/529/484 138/471/437
f 300/477/443 470/457/423 187/529/484
f 470/457/423 134/456/422 187/529/484
f 153/475/441 202/535/489 129/536/482
f 153/475/441 143/474/440 202/535/489
f 143/474/440 122/431/401 202/535/489
f 246/472/438 158/540/473 139/516/439
f 246/472/438 463/469/435 158/540/473
f 463/469/435 137/468/434 158/540/473
f 412/470/436 445/512/471 133/460/426
f 412/470/436 463/469/435 445/512/471
f 463/469/435 138/471/437 445/512/471
f 485/467/433 226/509/469 137/508/434
f 485/467/433 207/422/392 226/509/469
f 207/422/392 116/421/391 226/509/469
f 185/465/431 230/505/466 117/466/432
f 185/465/431 209/464/430 230/505/466
f 209/464/430 135/532/487 230/505/466
f 334/462/428 239/539/492 135/533/487
f 334/462/428 344/461/427 239/539/492
f 344/461/427 132/481/447 239/539/492
f 164/450/416 413/537/490 126/495/458
f 164/450/416 291/459/425 413/537/490
f 291/459/425 128/476/442 413/537/490
f 371/458/424 291/459/425 130/449/415
f 371/458/424 470/457/423 291/459/425
f 470/457/423 128/476/442 291/459/425
f 458/455/421 288/513/472 134/456/422
f 458/455/421 419/454/420 288/513/472
f 419/454/420 133/460/426 288/513/472
f 419/454/420 344/461/427 133/460/426
f 419/454/420 385/453/419 344/461/427
f 385/453/419 132/481/447 344/461/427
f 249/451/417 468/500/463 131/452/418
f 249/451/417 164/450/416 468/500/463
f 164/450/416 126/495/458 468/500/463
f 203/448/414 455/498/461 121/434/404
f 203/448/414 289/447/413 455/498/461
f 289/447/413 129/536/482 455/498/461
f 289/445/413 341/526/481 129/527/482
f 289/445/413 339/444/412 341/526/481
f 339/444/412 128/476/442 341/526/481
f 155/442/410 248/496/459 126/495/458
f 155/442/410 211/441/409 248/496/459
f 211/441/409 125/525/480 248/496/459
f 211/439/409 189/522/478 125/524/480
f 211/439/409 400/438/408 189/522/478
f 400/438/408 120/523/479 189/522/478
f 335/436/406 400/438/408 124/437/407
f 335/436/406 379/435/405 400/438/408
f 379/435/405 120/523/479 400/438/408
f 311/433/403 444/530/485 116/421/391
f 311/433/403 290/432/402 444/530/485
f 290/432/402 123/528/483 444/530/485
f 227/430/400 418/499/462 122/431/401
f 227/430/400 283/426/396 418/499/462
f 283/426/396 121/434/404 418/499/462
f 462/429/399 332/425/395 119/424/394
f 462/429/399 409/428/398 332/425/395
f 409/428/398 120/523/479 332/425/395
f 283/426/396 379/435/405 121/434/404
f 283/426/396 332/425/395 379/435/405
f 332/425/395 120/523/479 379/435/405
f 151/423/393 245/506/467 118/427/397
f 151/423/393 207/422/392 245/506/467
f 207/422/392 117/466/432 245/506/467
f 301/384/364 407/541/493 93/542/494
f 301/384/364 262/420/390 407/541/493
f 262/420/390 98/543/495 407/541/493
f 377/386/366 262/420/390 115/383/363
f 377/386/366 180/419/389 262/420/390
f 180/419/389 98/543/495 262/420/390
f 180/418/389 197/382/362 98/544/495
f 180/418/389 441/379/359 197/382/362
f 441/379/359 105/380/360 197/382/362
f 324/371/351 190/376/356 111/370/350
f 324/371/351 144/417/388 190/376/356
f 144/417/388 101/375/355 190/376/356
f 144/417/388 242/545/496 101/375/355
f 144/417/388 397/416/354 242/545/496
f 397/416/354 102/546/497 242/545/496
f 349/373/353 231/331/315 95/330/314
f 349/373/353 260/414/387 231/331/315
f 260/414/387 96/547/498 231/331/315
f 260/414/387 171/409/383 96/547/498
f 260/414/387 406/413/386 171/409/383
f 406/413/386 110/407/347 171/409/383
f 281/412/385 361/548/499 107/355/335
f 281/412/385 449/411/384 361/548/499
f 449/411/384 111/370/350 361/548/499
f 368/402/378 316/369/349 106/359/339
f 368/402/378 240/410/381 316/369/349
f 240/410/381 110/367/347 316/369/349
f 171/409/383 394/549/500 96/547/498
f 171/409/383 250/408/382 394/549/500
f 250/408/382 89/320/304 394/549/500
f 240/406/381 340/366/346 110/407/347
f 240/406/381 294/364/344 340/366/346
f 294/364/344 90/365/345 340/366/346
f 272/405/380 169/550/501 91/326/310
f 272/405/380 251/404/379 169/550/501
f 251/404/379 108/551/502 169/550/501
f 204/403/343 236/361/341 108/552/502
f 204/403/343 368/402/378 236/361/341
f 368/402/378 106/359/339 236/361/341
f 326/350/330 179/357/337 103/348/328
f 326/350/330 432/354/334 179/357/337
f 432/354/334 107/355/335 179/357/337
f 370/352/332 382/381/361 105/380/360
f 370/352/332 292/400/377 382/381/361
f 292/400/377 114/553/503 382/381/361
f 292/400/377 218/396/373 114/553/503
f 292/400/377 322/399/376 218/396/373
f 322/399/376 99/394/371 218/396/373
f 446/398/375 411/554/504 95/330/314
f 446/398/375 329/397/374 411/554/504
f 329/397/374 102/555/497 411/554/504
f 206/343/325 461/556/505 101/375/355
f 206/343/325 159/393/370 461/556/505
f 159/393/370 99/394/371 461/556/505
f 218/396/373 478/557/506 114/553/503
f 218/396/373 285/395/372 478/557/506
f 285/395/372 98/544/495 478/557/506
f 159/393/370 375/341/323 99/394/371
f 159/393/370 325/392/369 375/341/323
f 325/392/369 97/339/320 375/341/323
f 325/391/369 188/335/319 97/336/320
f 325/391/369 232/347/327 188/335/319
f 232/347/327 94/333/317 188/335/319
f 229/390/368 183/332/316 89/320/304
f 229/390/368 264/329/313 183/332/316
f 264/329/313 95/330/314 183/332/316
f 401/328/312 362/322/306 91/326/310
f 401/328/312 229/390/368 362/322/306
f 229/390/368 89/320/304 362/322/306
f 366/389/358 169/550/501 108/551/502
f 366/389/358 212/388/367 169/550/501
f 212/388/367 91/326/310 169/550/501
f 377/386/366 212/388/367 113/387/357
f 377/386/366 477/385/365 212/388/367
f 477/385/365 91/326/310 212/388/367
f 477/385/365 442/327/311 91/326/310
f 477/385/365 301/384/364 442/327/311
f 301/384/364 93/542/494 442/327/311
f 197/382/362 478/557/506 98/544/495
f 197/382/362 382/381/361 478/557/506
f 382/381/361 114/553/503 478/557/506
f 441/379/359 321/558/507 105/380/360
f 441/379/359 366/378/358 321/558/507
f 366/378/358 108/552/502 321/558/507
f 190/376/356 361/548/499 111/370/350
f 190/376/356 356/356/336 361/548/499
f 356/356/336 107/355/335 361/548/499
f 397/374/354 411/554/504 102/555/497
f 397/374/354 349/373/353 411/554/504
f 349/373/353 95/330/314 411/554/504
f 324/371/351 406/559/386 112/415/352
f 324/371/351 459/368/348 406/559/386
f 459/368/348 110/367/347 406/559/386
f 316/369/349 449/411/384 106/359/339
f 316/369/349 459/368/348 449/411/384
f 459/368/348 111/370/350 449/411/384
f 340/366/346 250/408/382 110/407/347
f 340/366/346 317/321/305 250/408/382
f 317/321/305 89/320/304 250/408/382
f 294/364/344 251/404/379 90/365/345
f 294/364/344 204/363/343 251/404/379
f 204/363/343 108/551/502 251/404/379
f 236/361/341 321/558/507 108/552/502
f 236/361/341 410/360/340 321/558/507
f 410/360/340 105/380/360 321/558/507
f 363/349/329 461/556/505 99/394/371
f 363/349/329 205/358/338 461/556/505
f 205/358/338 101/375/355 461/556/505
f 179/357/337 205/358/338 103/348/328
f 179/357/337 356/356/336 205/358/338
f 356/356/336 101/375/355 205/358/338
f 432/354/334 281/412/385 107/355/335
f 432/354/334 304/353/333 281/412/385
f 304/353/333 106/359/339 281/412/385
f 304/353/333 410/360/340 106/359/339
f 304/353/333 370/352/332 410/360/340
f 370/352/332 105/380/360 410/360/340
f 326/350/330 322/399/376 104/351/331
f 326/350/330 363/349/329 322/399/376
f 363/349/329 99/394/371 322/399/376
f 232/347/327 329/397/374 94/333/317
f 232/347/327 146/346/326 329/397/374
f 146/346/326 102/555/497 329/397/374
f 146/344/326 242/545/496 102/546/497
f 146/344/326 206/343/325 242/545/496
f 206/343/325 101/375/355 242/545/496
f 375/341/323 285/395/372 99/394/371
f 375/341/323 414/340/322 285/395/372
f 414/340/322 98/544/495 285/395/372
f 414/338/322 407/541/493 98/543/495
f 414/338/322 439/337/321 407/541/493
f 439/337/321 93/542/494 407/541/493
f 188/335/319 439/337/321 97/336/320
f 188/335/319 147/334/318 439/337/321
f 147/334/318 93/542/494 439/337/321
f 183/332/316 394/549/500 89/320/304
f 183/332/316 231/331/315 394/549/500
f 231/331/315 96/547/498 394/549/500
f 264/329/313 446/398/375 95/330/314
f 264/329/313 222/325/309 446/398/375
f 222/325/309 94/333/317 446/398/375
f 401/328/312 191/324/308 92/323/307
f 401/328/312 442/327/311 191/324/308
f 442/327/311 93/542/494 191/324/308
f 222/325/309 147/334/318 94/333/317
f 222/325/309 191/324/308 147/334/318
f 191/324/308 93/542/494 147/334/318
f 362/322/306 272/405/380 91/326/310
f 362/322/306 317/321/305 272/405/380
f 317/321/305 90/365/345 272/405/380
f 465/283/277 447/560/508 66/561/509
f 465/283/277 215/319/303 447/560/508
f 215/319/303 71/562/510 447/560/508
f 480/285/279 215/319/303 88/282/276
f 480/285/279 295/318/302 215/319/303
f 295/318/302 71/562/510 215/319/303
f 295/317/302 306/281/275 71/563/510
f 295/317/302 378/278/272 306/281/275
f 378/278/272 78/279/273 306/281/275
f 186/270/264 286/275/269 84/269/263
f 186/270/264 336/316/301 286/275/269
f 336/316/301 74/274/268 286/275/269
f 336/316/301 275/564/511 74/274/268
f 336/316/301 417/315/267 275/564/511
f 417/315/267 75/565/512 275/564/511
f 166/272/266 200/230/228 68/229/227
f 166/272/266 247/313/300 200/230/228
f 247/313/300 69/566/513 200/230/228
f 247/313/300 347/308/296 69/566/513
f 247/313/300 440/312/299 347/308/296
f 440/312/299 83/306/260 347/308/296
f 234/311/298 450/567/514 80/254/248
f 234/311/298 372/310/297 450/567/514
f 372/310/297 84/269/263 450/567/514
f 457/301/291 154/268/262 79/258/252
f 457/301/291 270/309/294 154/268/262
f 270/309/294 83/266/260 154/268/262
f 347/308/296 221/568/515 69/566/513
f 347/308/296 337/307/295 221/568/515
f 337/307/295 62/219/217 221/568/515
f 270/305/294 243/265/259 83/306/260
f 270/305/294 284/263/257 243/265/259
f 284/263/257 63/264/258 243/265/259
f 172/304/293 241/569/516 64/225/223
f 172/304/293 156/303/292 241/569/516
f 156/303/292 81/570/517 241/569/516
f 315/302/256 273/260/254 81/571/517
f 315/302/256 457/301/291 273/260/254
f 457/301/291 79/258/252 273/260/254
f 198/249/243 309/256/250 76/247/241
f 198/249/243 404/253/247 309/256/250
f 404/253/247 80/254/248 309/256/250
f 152/251/245 416/280/274 78/279/273
f 152/251/245 161/299/290 416/280/274
f 161/299/290 87/572/518 416/280/274
f 161/299/290 254/295/286 87/572/518
f 161/299/290 174/298/289 254/295/286
f 174/298/289 72/293/284 254/295/286
f 408/297/288 434/573/519 68/229/227
f 408/297/288 181/296/287 434/573/519
f 181/296/287 75/574/512 434/573/519
f 318/242/238 390/575/520 74/274/268
f 318/242/238 367/292/283 390/575/520
f 367/292/283 72/293/284 390/575/520
f 254/295/286 345/576/521 87/572/518
f 254/295/286 237/294/285 345/576/521
f 237/294/285 71/563/510 345/576/521
f 367/292/283 148/240/236 72/293/284
f 367/292/283 194/291/282 148/240/236
f 194/291/282 70/238/233 148/240/236
f 194/290/282 313/234/232 70/235/233
f 194/290/282 271/246/240 313/234/232
f 271/246/240 67/232/230 313/234/232
f 388/289/281 261/231/229 62/219/217
f 388/289/281 235/228/226 261/231/229
f 235/228/226 68/229/227 261/231/229
f 217/227/225 422/221/219 64/225/223
f 217/227/225 388/289/281 422/221/219
f 388/289/281 62/219/217 422/221/219
f 481/288/271 241/569/516 81/570/517
f 481/288/271 380/287/280 241/569/516
f 380/287/280 64/225/223 241/569/516
f 480/285/279 380/287/280 86/286/270
f 480/285/279 293/284/278 380/287/280
f 293/284/278 64/225/223 380/287/280
f 293/284/278 175/226/224 64/225/223
f 293/284/278 465/283/277 175/226/224
f 465/283/277 66/561/509 175/226/224
f 306/281/275 345/576/521 71/563/510
f 306/281/275 416/280/274 345/576/521
f 416/280/274 87/572/518 345/576/521
f 378/278/272 192/577/522 78/279/273
f 378/278/272 481/277/271 192/577/522
f 481/277/271 81/571/517 192/577/522
f 286/275/269 450/567/514 84/269/263
f 286/275/269 482/255/249 450/567/514
f 482/255/249 80/254/248 450/567/514
f 417/273/267 434/573/519 75/574/512
f 417/273/267 166/272/266 434/573/519
f 166/272/266 68/229/227 434/573/519
f 186/270/264 440/578/299 85/314/265
f 186/270/264 398/267/261 440/578/299
f 398/267/261 83/266/260 440/578/299
f 154/268/262 372/310/297 79/258/252
f 154/268/262 398/267/261 372/310/297
f 398/267/261 84/269/263 372/310/297
f 243/265/259 337/307/295 83/306/260
f 243/265/259 472/220/218 337/307/295
f 472/220/218 62/219/217 337/307/295
f 284/263/257 156/303/292 63/264/258
f 284/263/257 315/262/256 156/303/292
f 315/262/256 81/570/517 156/303/292
f 273/260/254 192/577/522 81/571/517
f 273/260/254 451/259/253 192/577/522
f 451/259/253 78/279/273 192/577/522
f 473/248/242 390/575/520 72/293/284
f 473/248/242 312/257/251 390/575/520
f 312/257/251 74/274/268 390/575/520
f 309/256/250 312/257/251 76/247/241
f 309/256/250 482/255/249 312/257/251
f 482/255/249 74/274/268 312/257/251
f 404/253/247 234/311/298 80/254/248
f 404/253/247 195/252/246 234/311/298
f 195/252/246 79/258/252 234/311/298
f 195/252/246 451/259/253 79/258/252
f 195/252/246 152/251/245 451/259/253
f 152/251/245 78/279/273 451/259/253
f 198/249/243 174/298/289 77/250/244
f 198/249/243 473/248/242 174/298/289
f 473/248/242 72/293/284 174/298/289
f 271/246/240 181/296/287 67/232/230
f 271/246/240 364/245/239 181/296/287
f 364/245/239 75/574/512 181/296/287
f 364/243/239 275/564/511 75/565/512
f 364/243/239 318/242/238 275/564/511
f 318/242/238 74/274/268 275/564/511
f 148/240/236 237/294/285 72/293/284
f 148/240/236 452/239/235 237/294/285
f 452/239/235 71/563/510 237/294/285
f 452/237/235 447/560/508 71/562/510
f 452/237/235 402/236/234 447/560/508
f 402/236/234 66/561/509 447/560/508
f 313/234/232 402/236/234 70/235/233
f 313/234/232 278/233/231 402/236/234
f 278/233/231 66/561/509 402/236/234
f 261/231/229 221/568/515 62/219/217
f 261/231/229 200/230/228 221/568/515
f 200/230/228 69/566/513 221/568/515
f 235/228/226 408/297/288 68/229/227
f 235/228/226 369/224/222 408/297/288
f 369/224/222 67/232/230 408/297/288
f 217/227/225 323/223/221 65/222/220
f 217/227/225 175/226/224 323/223/221
f 175/226/224 66/561/509 323/223/221
f 369/224/222 278/233/231 67/232/230
f 369/224/222 323/223/221 278/233/231
f 323/223/221 66/561/509 278/233/231
f 422/221/219 172/304/293 64/225/223
f 422/221/219 472/220/218 172/304/293
f 472/220/218 63/264/258 172/304/293
f 399/208/206 486/215/213 391/218/216 60/209/207
f 44/195/193 342/92/92 486/215/213 399/208/206
f 342/92/92 43/91/91 443/216/214 486/215/213
f 443/579/214 487/211/209 471/214/212 61/580/215
f 43/581/91 474/192/190 487/211/209 443/579/214
f 474/192/190 56/191/189 456/212/210 487/211/209
f 427/204/202 488/207/205 253/210/208 58/205/203
f 57/201/199 173/196/194 488/207/205 427/204/202
f 173/196/194 44/195/193 399/208/206 488/207/205
f 456/212/210 489/203/201 299/206/204 59/213/211
f 56/191/189 216/202/200 489/203/201 456/212/210
f 216/202/200 57/201/199 427/204/202 489/203/201
f 223/190/188 490/199/197 216/202/200 56/191/189
f 36/582/75 374/583/523 490/199/197 223/190/188
f 374/583/523 45/584/524 428/200/198 490/199/197
f 208/198/196 454/100/100 39/99/99
f 208/198/196 460/197/195 454/100/100
f 460/197/195 45/585/524 454/100/100
f 428/200/198 491/193/191 173/196/194 57/201/199
f 45/584/524 460/586/195 491/193/191 428/200/198
f 460/586/195 35/587/79 328/194/192 491/193/191
f 277/588/90 492/189/187 474/192/190 43/581/91
f 38/589/525 333/590/146 492/189/187 277/588/90
f 333/590/146 36/582/75 223/190/188 492/189/187
f 162/591/176 493/185/183 469/188/186 54/592/177
f 50/593/169 425/164/162 493/185/183 162/591/176
f 425/164/162 49/163/161 383/186/184 493/185/183
f 383/186/184 494/181/179 386/184/182 55/187/185
f 49/163/161 213/160/158 494/181/179 383/186/184
f 213/160/158 48/159/157 351/182/180 494/181/179
f 350/174/172 495/177/175 338/180/178 52/175/173
f 51/167/165 297/172/170 495/177/175 350/174/172
f 297/172/170 50/171/169 162/178/176 495/177/175
f 351/182/180 496/173/171 389/176/174 53/183/181
f 48/159/157 423/168/166 496/173/171 351/182/180
f 423/168/166 51/167/165 350/174/172 496/173/171
f 269/166/164 497/169/167 297/172/170 51/167/165
f 34/151/149 424/68/68 497/169/167 269/166/164
f 424/68/68 33/67/67 403/170/168 497/169/167
f 163/158/156 498/165/163 423/168/166 48/159/157
f 47/155/153 453/152/150 498/165/163 163/158/156
f 453/152/150 34/151/149 269/166/164 498/165/163
f 403/594/168 499/161/159 425/164/162 50/593/169
f 33/595/67 238/144/144 499/161/159 403/594/168
f 238/144/144 46/143/143 381/162/160 499/161/159
f 381/162/160 500/157/155 213/160/158 49/163/161
f 46/143/143 466/156/154 500/157/155 381/162/160
f 466/156/154 47/155/153 163/158/156 500/157/155
f 201/142/142 501/153/151 466/156/154 46/143/143
f 26/596/55 149/597/526 501/153/151 201/142/142
f 149/597/526 37/598/527 373/154/152 501/153/151
f 373/154/152 502/149/147 453/152/150 47/155/153
f 37/598/527 484/599/528 502/149/147 373/154/152
f 484/599/528 30/600/59 358/150/148 502/149/147
f 193/601/529 503/145/145 333/148/146 38/602/525
f 30/59/59 484/603/528 503/145/145 193/601/529
f 484/603/528 37/604/527 387/146/76 503/145/145
f 298/605/66 504/141/141 238/144/144 33/595/67
f 27/606/47 305/607/46 504/141/141 298/605/66
f 305/607/46 26/596/55 201/142/142 504/141/141
f 483/6/6 505/137/137 384/140/140 7/7/7
f 6/15/15 279/128/128 505/137/137 483/6/6
f 279/128/128 19/127/127 365/138/138 505/137/137
f 346/18/18 506/133/133 429/136/136 10/19/19
f 7/7/7 384/140/140 506/133/133 346/18/18
f 384/140/140 11/139/139 170/134/134 506/133/133
f 224/26/26 507/129/129 287/132/132 17/27/27
f 16/608/35 327/609/104 507/129/129 224/26/26
f 327/609/104 28/610/103 393/130/130 507/129/129
f 177/14/14 508/125/125 279/128/128 6/15/15
f 3/3/3 330/124/124 508/125/125 177/14/14
f 330/124/124 18/123/123 303/126/126 508/125/125
f 308/2/2 509/121/121 330/124/124 3/3/3
f 2/611/11 467/612/120 509/121/121 308/2/2
f 467/612/120 15/613/119 310/122/122 509/121/121
f 255/10/10 510/117/117 467/120/120 2/11/11
f 10/19/19 429/136/136 510/117/117 255/10/10
f 429/136/136 14/135/135 479/118/118 510/117/117
f 256/38/38 511/113/113 392/116/116 20/39/39
f 17/27/27 287/132/132 511/113/113 256/38/38
f 287/132/132 29/131/131 282/114/114 511/113/113
f 395/22/22 512/109/109 448/112/112 13/23/23
f 12/31/31 145/108/108 512/109/109 395/22/22
f 145/108/108 24/107/107 219/110/110 512/109/109
f 320/30/30 513/105/105 145/108/108 12/31/31
f 20/39/39 392/116/116 513/105/105 320/30/30
f 392/116/116 21/115/115 426/106/106 513/105/105
f 433/34/34 514/101/101 327/104/104 16/35/35
f 13/23/23 448/112/112 514/101/101 433/34/34
f 448/112/112 25/111/111 257/102/102 514/101/101
f 374/614/523 515/97/97 454/100/100 45/585/524
f 36/615/75 157/616/88 515/97/97 374/614/523
f 157/616/88 42/617/87 233/98/98 515/97/97
f 263/62/62 516/93/93 150/96/96 32/63/63
f 31/71/71 196/84/84 516/93/93 263/62/62
f 196/84/84 40/83/83 214/94/94 516/93/93
f 328/194/192 517/89/89 342/92/92 44/195/193
f 35/587/79 415/618/78 517/89/89 328/194/192
f 415/618/78 38/619/525 277/90/90 517/89/89
f 437/74/74 518/85/85 157/88/88 36/75/75
f 32/63/63 150/96/96 518/85/85 437/74/74
f 150/96/96 41/95/95 421/86/86 518/85/85
f 307/70/70 519/81/81 196/84/84 31/71/71
f 35/79/79 208/198/196 519/81/81 307/70/70
f 208/198/196 39/99/99 165/82/82 519/81/81
f 420/50/50 520/77/77 244/80/80 22/51/51
f 30/59/59 193/601/529 520/77/77 420/50/50
f 193/601/529 38/602/525 415/78/78 520/77/77
f 149/620/526 521/73/73 387/76/76 37/621/527
f 26/55/55 348/64/64 521/73/73 149/620/526
f 348/64/64 32/63/63 437/74/74 521/73/73
f 475/42/42 522/69/69 210/72/72 23/43/43
f 22/51/51 244/80/80 522/69/69 475/42/42
f 244/80/80 35/79/79 307/70/70 522/69/69
f 358/150/148 523/65/65 424/68/68 34/151/149
f 30/600/59 167/622/58 523/65/65 358/150/148
f 167/622/58 27/623/47 298/66/66 523/65/65
f 331/54/54 524/61/61 348/64/64 26/55/55
f 23/43/43 210/72/72 524/61/61 331/54/54
f 210/72/72 31/71/71 263/62/62 524/61/61
f 393/624/130 525/57/57 355/60/60 29/625/131
f 28/626/103 431/627/48 525/57/57 393/624/130
f 431/627/48 27/628/47 167/58/58 525/57/57
f 219/629/110 526/53/53 178/56/56 25/630/111
f 24/631/107 258/44/44 526/53/53 219/629/110
f 258/44/44 23/43/43 331/54/54 526/53/53
f 282/632/114 527/49/49 352/52/52 21/633/115
f 29/625/131 355/60/60 527/49/49 282/632/114
f 355/60/60 30/59/59 420/50/50 527/49/49
f 257/634/102 528/45/45 431/48/48 28/635/103
f 25/630/111 178/56/56 528/45/45 257/634/102
f 178/56/56 26/55/55 305/46/46 528/45/45
f 426/636/106 529/41/41 258/44/44 24/631/107
f 21/633/115 352/52/52 529/41/41 426/636/106
f 352/52/52 22/51/51 475/42/42 529/41/41
f 303/126/126 530/37/37 430/40/40 19/127/127
f 18/123/123 176/28/28 530/37/37 303/126/126
f 176/28/28 17/27/27 256/38/38 530/37/37
f 479/118/118 531/33/33 265/36/36 15/119/119
f 14/135/135 357/24/24 531/33/33 479/118/118
f 357/24/24 13/23/23 433/34/34 531/33/33
f 365/138/138 532/29/29 435/32/32 11/139/139
f 19/127/127 430/40/40 532/29/29 365/138/138
f 430/40/40 20/39/39 320/30/30 532/29/29
f 310/122/122 533/25/25 176/28/28 18/123/123
f 15/613/119 265/637/36 533/25/25 310/122/122
f 265/637/36 16/608/35 224/26/26 533/25/25
f 170/134/134 534/21/21 357/24/24 14/135/135
f 11/139/139 435/32/32 534/21/21 170/134/134
f 435/32/32 12/31/31 395/22/22 534/21/21
f 228/638/530 535/17/17 182/20/20 9/639/531
f 8/640/532 267/8/8 535/17/17 228/638/530
f 267/8/8 7/7/7 346/18/18 535/17/17
f 396/641/533 536/13/13 359/16/16 5/642/534
f 4/643/535 438/4/4 536/13/13 396/641/533
f 438/4/4 3/3/3 177/14/14 536/13/13
f 476/644/536 537/9/9 184/12/12 1/645/537
f 9/639/531 182/20/20 537/9/9 476/644/536
f 182/20/20 10/19/19 255/10/10 537/9/9
f 436/646/538 538/5/5 267/8/8 8/640/532
f 5/642/534 359/16/16 538/5/5 436/646/538
f 359/16/16 6/15/15 483/6/6 538/5/5
f 266/647/539 539/1/1 438/4/4 4/643/535
f 1/648/537 184/649/12 539/1/1 266/647/539
f 184/649/12 2/611/11 308/2/2 539/1/1
