# Blender v2.78 (sub 0) OBJ File: ''
# www.blender.org
mtllib Birch_Tree_crk_l_03.mtl
o Birch_Tree_crk_l_03
v -0.163586 0.078194 0.190714
v -0.153888 0.708354 0.177744
v -0.246736 0.708360 -0.090625
v -0.290246 0.078194 -0.067731
v 0.041355 0.078194 -0.227460
v -0.003656 0.708342 -0.256537
v 0.239424 0.708324 -0.090706
v 0.372955 0.078194 -0.067731
v 0.246295 0.078194 0.190714
v 0.146575 0.708331 0.177694
v 0.366122 2.145279 -0.138431
v 0.240056 3.790408 -0.200768
v 0.157419 3.841444 -0.041487
v 0.296073 2.145672 0.077331
v 0.070209 2.134339 0.078448
v 0.005590 3.716478 -0.020839
v -0.040520 3.850684 -0.185609
v -0.000659 2.147335 -0.137832
v 0.182732 2.146307 -0.271410
v 0.091738 3.797205 -0.308751
v 2.491339 0.118623 2.233878
v 3.341329 0.160819 3.509922
v 3.572093 0.282999 3.582724
v 2.534687 0.237529 2.058329
v 2.649242 0.217139 2.005158
v 3.692761 0.254852 3.396781
v 3.697092 0.113671 3.400251
v 2.630277 0.091359 1.995537
v 3.572896 0.057805 3.588217
v 2.585785 -0.007462 2.193396
v 4.837176 0.247244 4.327646
v 4.754526 0.208577 4.401598
v 3.199326 0.134377 4.452241
v 3.289943 0.215151 4.458545
v 4.819198 0.363050 4.316370
v 4.695951 0.297340 4.439361
v 3.687850 0.167221 3.836781
v 4.733501 0.391993 4.374938
v 5.970195 0.809565 5.802104
v 5.970533 0.694786 5.722491
v 6.061577 0.726010 5.958581
v 6.010496 0.800021 5.992062
v 7.793355 1.353648 8.116066
v 7.811460 1.366052 8.095728
v 6.245882 0.809959 6.079392
v 7.832663 1.348990 8.102470
v 7.809039 1.338509 8.111074
v 3.277310 0.048501 4.476665
v 3.356171 0.135572 4.496605
v 3.423951 0.242060 5.431663
v 3.351248 0.189640 5.463698
v 3.296906 0.253186 5.467020
v 3.367646 0.298972 5.434762
v 3.652122 0.849628 6.365566
v 3.691937 0.809122 6.359796
v 3.601417 0.818899 6.393496
v 3.639700 0.774355 6.387854
v 6.503756 0.558307 6.138785
v 6.451838 0.514929 6.145415
v 7.439651 0.382340 6.887228
v 7.458650 0.403627 6.879486
v 6.484745 0.517821 6.102460
v 7.455605 0.380190 6.867398
v 5.000099 1.324856 5.754055
v 4.121066 1.255286 5.566381
v 4.566721 2.247440 6.328236
v 5.648414 2.181834 6.755515
v 5.419909 2.621051 7.541822
v 6.162095 2.073555 7.915180
v 6.037855 1.426484 6.857065
v 5.453007 0.875796 6.133317
v 5.569762 2.324262 8.564830
v 4.590589 2.382460 8.243732
v 5.021046 1.424726 8.989509
v 5.867717 1.507846 8.775579
v 5.255294 0.394336 8.125513
v 6.081748 1.056578 7.959802
v 4.575464 0.630357 8.651426
v 3.756814 0.756278 8.169962
v 3.356299 1.484521 7.468965
v 3.408106 0.291730 6.571930
v 4.249548 0.006513 7.683258
v 3.361616 1.446864 6.244897
v 3.466986 0.779990 5.814492
v 4.362480 0.382862 5.798833
v 4.562863 -0.035384 6.627260
v 5.509528 0.533796 6.814679
v 3.809110 2.178119 7.006093
v 3.947976 1.610734 8.440170
v 4.546024 2.595188 7.273239
v 8.423545 1.275601 5.946673
v 7.145372 1.267687 5.946790
v 8.091743 2.535079 6.888343
v 9.706763 2.320316 7.158330
v 9.669741 2.927492 8.325501
v 10.747391 2.071758 8.613607
v 10.191645 1.209209 7.170231
v 9.111599 0.635142 6.330502
v 10.147821 2.461352 9.696414
v 8.704954 2.643808 9.543167
v 9.418661 1.315167 10.434516
v 10.533712 1.336826 9.886448
v 9.369724 0.176164 9.146652
v 10.530821 0.690656 8.680916
v 8.617895 0.493652 10.084537
v 7.357941 0.665043 9.662111
v 6.674083 1.567217 8.820137
v 6.354317 0.232652 7.539366
v 7.814240 -0.028275 8.826817
v 6.315808 1.559145 7.118291
v 6.263823 0.740591 6.478235
v 7.454482 0.228680 6.183017
v 7.929620 -0.150192 7.266299
v 9.345045 0.185537 7.252540
v 7.236925 2.475518 8.054055
v 7.792640 1.639508 9.994535
v 8.379101 2.983035 8.212422
v 7.271752 1.651437 9.571707
v 8.975410 0.339294 9.788061
v 3.326015 0.282897 5.451806
v 3.404050 0.275766 5.428723
v 3.101434 0.234145 2.636505
v 9.914822 1.997509 10.199690
v 4.856764 2.011004 8.770275
v 6.030262 0.830345 5.964176
v 0.164557 3.853484 -0.261896
v 5.545412 2.541803 8.118927
v 3.018013 0.014257 2.786599
v 7.447905 0.395187 6.885532
v 4.977347 0.356677 6.222617
v 7.015649 0.469232 6.532099
v 0.352698 2.145455 -0.023577
v 3.775945 0.546902 5.754749
v 6.027721 0.767819 5.991240
v 7.887150 0.707036 5.849167
v 5.889643 1.838927 6.776201
v 5.500979 0.727069 6.388594
v 7.459573 0.393209 6.871146
v 7.076458 1.104727 7.148859
v 6.199564 1.774602 7.413373
v 5.073140 2.546253 6.909344
v 3.384091 0.094122 3.512387
v 0.194751 0.314874 0.194702
v 4.866494 0.417991 4.442821
v 3.316874 0.146952 4.001806
v 0.221014 0.708328 0.052596
v 7.887344 2.809580 8.147133
v 6.709183 1.512719 6.433163
v 4.523036 1.278376 5.572991
v 3.197169 0.879672 6.385611
v 3.280716 0.083772 4.961957
v 0.250000 3.061447 0.022034
v 8.506582 1.538211 10.274183
v 3.227931 0.872421 7.024685
v 9.233152 0.425771 6.667503
v 5.864457 0.765295 7.451227
v 4.403810 1.563272 8.739914
v 4.293451 1.721338 5.815713
v 2.560632 0.225060 1.961800
v 5.428354 0.479104 5.036908
v 0.008299 0.314875 -0.247641
v 6.069954 0.898529 7.353257
v 3.620694 0.840879 6.380418
v 10.009327 1.805190 7.109385
v 3.735445 1.431913 5.831838
v 8.995398 2.880021 7.549339
v -0.142511 0.708351 -0.197412
v 8.421373 0.097430 6.586962
v 7.506742 1.857370 6.249372
v 3.236053 0.184091 4.451777
v 4.265689 0.156468 3.868096
v 6.648796 0.457939 6.299398
v 6.084342 1.821498 8.451373
v 6.907109 2.101362 8.441391
v 3.519988 0.587655 5.961924
v 6.300541 0.870766 8.231339
v 3.458734 0.550756 5.995716
v 3.409874 0.049534 4.031008
v -0.178154 0.314874 0.194702
v 6.463673 0.510254 6.121942
v 10.074936 0.372716 8.929165
v 6.150535 1.254119 7.445300
v 0.287777 2.145781 -0.223323
v 4.919011 2.646347 7.384239
v 6.259105 0.793367 6.141906
v 5.176982 2.404382 8.497976
v 10.497910 0.940153 7.949784
v 5.079489 2.625634 7.974687
v 6.992945 1.111717 7.165654
v 4.374422 -0.084436 7.135196
v 5.755017 0.705015 8.072723
v 3.361576 0.154087 4.948894
v 6.191017 0.850124 6.040923
v 8.554882 2.934824 8.786135
v 4.226035 2.448001 7.159338
v 4.724467 0.083578 7.874016
v 7.822437 1.342274 8.106489
v 4.420747 0.304773 8.259142
v 3.470028 0.144559 4.094422
v 3.539091 1.875205 6.629081
v 0.209281 3.851337 -0.123891
v 3.354161 1.024465 5.951831
v 3.377422 0.543397 6.054049
v 5.864919 2.433862 7.741241
v 4.562492 2.518910 6.868760
v 4.935754 0.063553 7.296291
v 0.299878 1.366517 -0.111959
v 5.266903 0.560107 4.944763
v 3.680854 0.105824 3.799873
v 10.770800 1.720044 9.376975
v 6.613959 0.961050 6.180921
v 9.593349 2.612999 9.721901
v 6.221630 0.627416 5.928684
v 2.488110 0.179417 2.133070
v 7.705680 1.275704 5.836628
v 4.084022 2.308301 7.605290
v 4.678870 0.825186 5.620883
v 7.443858 0.227048 9.228340
v 3.233167 1.411604 6.791756
v -0.017938 3.845874 -0.091744
v 3.738343 0.984598 5.656134
v 5.359293 1.975400 8.886305
v 3.003439 0.272038 2.743052
v 7.096413 -0.095243 7.263064
v 3.867644 2.004615 7.891890
v 4.763116 0.910216 8.837790
v 0.146873 3.070390 -0.294802
v 0.019827 3.860433 -0.261855
v 0.368406 0.078194 0.073433
v 8.792009 0.848560 6.090351
v 10.324293 2.613766 8.466754
v 3.680037 0.834470 6.358326
v 2.592302 0.028507 2.074478
v 4.257901 0.286443 3.861514
v 8.933135 3.016120 8.256303
v 3.671894 0.785123 6.372937
v 3.568287 0.538923 5.954931
v 3.216487 0.158415 4.950747
v -0.160774 0.078194 -0.178858
v 7.563349 1.200399 9.927628
v 8.274305 2.890430 7.644627
v 5.639351 0.962293 8.607276
v 7.057057 -0.008232 8.211919
v 7.823886 1.358374 8.097291
v 3.504956 0.496554 5.988897
v 3.117454 0.088171 2.657669
v 4.877966 0.496421 8.504768
v 2.598109 0.167510 1.936896
v 3.681540 0.234618 3.800167
v 4.178034 0.110678 3.956393
v 9.593182 0.711807 10.054721
v 7.446427 0.377762 6.877433
v 3.393860 0.209032 5.446765
v 3.228205 0.081535 4.463092
v 9.189333 2.094651 10.188850
v 5.017509 0.180099 6.681672
v 7.800822 1.361326 8.106177
v 3.417995 0.242772 4.024037
v 0.220580 1.366549 0.132168
v 3.411298 1.042302 7.766201
v 5.910285 2.272390 8.299227
v 4.800525 0.216906 4.364079
v 5.013775 0.632109 5.938153
v 6.476744 0.539514 6.147455
v 0.313073 3.066117 -0.174069
v 3.795938 0.195465 6.058749
v 7.030274 1.138953 7.128801
v 7.006539 0.434935 6.509164
v 10.617437 1.652729 7.900433
v 5.903368 0.970884 6.882252
v 4.718478 0.245727 4.427212
v 5.433058 0.370620 7.427595
v 0.061936 3.842140 -0.033586
v 6.296003 1.513988 7.915288
v 10.534797 2.365157 9.225339
v 9.404697 1.296843 6.444999
v 5.585608 2.455030 7.121998
v 5.302155 0.523339 5.127477
v 8.260441 1.947474 6.235344
v 4.220249 1.944547 8.434397
v 4.705874 0.351205 4.411853
v -0.003656 0.708342 0.207176
v 9.959107 0.634413 7.236806
v 7.204546 0.736616 5.888709
v 8.420964 0.415827 6.186337
v 3.384674 0.228205 3.509077
v 3.825148 1.244961 8.370001
v 4.201749 0.813645 5.547127
v 0.047734 3.017965 0.025160
v 9.403029 0.063430 8.123644
v 5.351767 1.815875 6.220896
v 5.935469 0.754747 5.711398
v 0.243483 0.078194 -0.178858
v 8.358175 0.970112 10.271839
v 5.769260 1.952702 8.763037
v 3.543844 1.898781 7.231480
v 7.076078 2.107835 6.890281
v 8.202792 2.062919 9.910956
v 9.757300 2.694981 7.690466
v 7.625583 -0.058708 6.688798
v 6.728815 0.088348 6.709689
v 4.335013 1.089938 8.729116
v 0.092273 1.366601 -0.262603
v 0.309985 0.314874 -0.078681
v 6.708068 0.398907 8.687994
v 8.121445 0.555964 10.010388
v 5.255931 1.018412 5.916159
v 0.077686 2.146833 -0.222968
v 3.889233 1.893468 6.188531
v 6.013227 1.244835 8.420536
v 3.296103 0.220523 4.936484
v -0.293388 0.314874 -0.078681
v 3.651811 0.072162 3.447901
v -0.285696 0.078194 0.073433
v 10.596952 0.973670 9.344939
v 10.005426 2.780270 9.088126
v 7.025524 1.079633 7.158823
v 10.442954 1.929136 9.906047
v 7.799373 1.345225 8.115376
v 3.705449 0.184944 3.387944
v 6.720068 2.092976 7.605975
v 4.239422 0.673073 8.525316
v 6.223434 1.558807 8.002965
v 6.183640 0.618495 5.979749
v 3.315825 0.216163 5.469847
v 3.333169 0.185265 4.478936
v 10.112005 1.313218 10.219275
v 4.165414 0.320850 3.945754
v 3.471737 0.461174 7.410794
v 5.530662 1.452909 8.943567
v 6.499922 0.541288 6.117267
v 5.739159 1.104548 6.393214
v 6.982051 0.435835 6.540287
v -0.036034 1.366654 0.132403
v 4.427928 0.095158 6.180768
v 3.913255 0.291633 7.896729
v 6.079201 0.758023 5.860353
v 0.039481 4.019115 -0.113165
v 9.607463 0.857717 6.609800
v 3.984278 -0.017875 6.500318
v 3.648094 0.287895 3.442796
v 2.476214 0.167197 1.863089
v 9.099701 1.869417 6.498273
v 5.990647 2.196349 7.311332
v 3.325323 0.082709 4.490252
v 4.837836 0.305573 4.314940
v 0.183141 2.140005 0.100602
v 10.798599 1.338553 8.707901
v 4.063234 2.249022 6.616591
v 4.809658 1.819848 5.915164
v 5.304263 0.547526 4.920052
v 2.500454 0.048884 2.171981
v 3.813492 0.037575 7.146371
v 5.928730 0.660104 5.723388
v 7.807920 2.608946 8.806328
v 8.252725 0.215145 9.580397
v 2.910079 0.141038 2.812090
v 0.041355 0.078194 0.229356
v 3.651618 1.588384 8.072348
v 0.135198 0.708333 -0.197453
v 7.561225 2.194029 9.263693
v 4.146661 0.208647 4.031074
v 6.185706 0.491840 6.833618
v 7.814615 -0.144271 8.027003
v 5.175794 2.258122 6.483801
v 5.361906 0.448496 5.105083
v 7.480795 2.567652 7.438715
v 8.592129 -0.054424 7.209206
v 8.532389 -0.021423 8.951019
v 10.345663 2.280003 7.828380
v 5.598873 1.423635 6.240326
v 6.174228 1.042315 6.706586
v 0.013174 2.140857 -0.022628
v 8.981158 2.488642 6.923116
v 5.237211 0.899693 8.769037
v 6.251686 0.662825 5.975418
v 6.791179 1.019091 9.209147
v 8.961880 0.752013 10.292024
v -0.018917 3.068362 -0.173315
v -0.228327 0.708357 0.052662
v 3.612551 0.791532 6.395029
v 8.649540 -0.100447 8.085225
v 10.047255 0.379398 8.034330
v 10.106195 0.726991 9.711067
v 9.327322 2.947747 9.028008
v -0.115332 1.366686 -0.111578
v 4.584526 2.575836 7.694913
v 0.100412 4.035841 -0.200293
v 2.432616 0.098895 1.955112
v 3.056993 0.267671 2.685317
v 6.991536 0.431011 6.523772
v 7.014846 0.454183 6.518091
v 6.196296 0.617803 5.951477
v 6.243509 0.648561 5.948472
v 6.217150 0.642372 5.983902
v 7.058416 1.124834 7.136152
v 6.997856 0.454808 6.539686
v 3.474715 0.519120 5.996184
v 3.542030 0.511849 5.971125
v 3.483952 0.575096 5.979610
v 3.551266 0.567825 5.954551
v 3.248874 0.197541 4.942264
v 3.338022 0.194882 4.941125
v 3.239419 0.113516 4.957915
v 3.328568 0.110857 4.956777
v 3.448250 0.085852 4.068412
v 3.453239 0.204585 4.064131
v 4.149560 0.271805 3.997030
v 3.354146 0.087323 4.011507
v 7.004184 1.092681 7.164918
v 7.055497 1.088386 7.154598
v 7.007102 1.129130 7.146471
v 5.319943 0.565669 5.100185
v 5.400032 0.454271 5.069792
v 5.325632 0.480413 5.123442
v 5.421799 0.530451 5.029067
v 4.211872 0.316633 3.898398
v 4.156803 0.151204 4.003135
v 4.271881 0.222010 3.855985
v 3.359136 0.206056 4.007224
v 4.223582 0.121435 3.908281
v 2.953463 0.066558 2.809884
v 3.074898 0.036641 2.722164
v 3.119401 0.163219 2.634120
v 2.945665 0.215561 2.784431
v 0.211408 1.366553 -0.208398
v 0.285037 1.366523 0.018142
v -0.026862 1.366650 -0.208179
v -0.100491 1.366680 0.018496
v 0.092273 1.366601 0.158370
v 0.051499 3.072843 -0.251149
v 0.149072 3.036554 0.044695
v 0.242248 3.067938 -0.251368
v -0.005247 3.040523 -0.067406
v 0.301192 3.066423 -0.069765
v 0.288418 0.314874 0.067040
v -0.164825 0.314875 -0.186800
v 0.008299 0.314874 0.223922
v 0.181422 0.314875 -0.186800
v -0.271821 0.314874 0.067040
vt 0.1971 0.0482
vt 0.1922 0.0784
vt 0.1762 0.0762
vt 0.1807 0.0457
vt 0.1224 0.0431
vt 0.1249 0.0766
vt 0.1067 0.0764
vt 0.1030 0.0410
vt 0.0486 0.0492
vt 0.0525 0.0803
vt 0.0353 0.0824
vt 0.0284 0.0534
vt 0.1612 0.0455
vt 0.1596 0.0765
vt 0.1431 0.0768
vt 0.1418 0.0452
vt 0.0859 0.0430
vt 0.0882 0.0773
vt 0.0696 0.0783
vt 0.0688 0.0451
vt 0.1023 0.3280
vt 0.1050 0.4238
vt 0.0940 0.4244
vt 0.0908 0.3282
vt 0.1723 0.3255
vt 0.1687 0.4194
vt 0.1579 0.4260
vt 0.1603 0.3285
vt 0.1253 0.3280
vt 0.1266 0.4239
vt 0.1160 0.4233
vt 0.1138 0.3278
vt 0.0791 0.3258
vt 0.0830 0.4190
vt 0.0720 0.4135
vt 0.0674 0.3234
vt 0.1486 0.3284
vt 0.1476 0.4252
vt 0.1372 0.4245
vt 0.1367 0.3282
vt 0.0638 0.1565
vt 0.0751 0.2327
vt 0.0627 0.2333
vt 0.0490 0.1578
vt 0.1840 0.1550
vt 0.1759 0.2316
vt 0.1628 0.2311
vt 0.1695 0.1537
vt 0.1546 0.1540
vt 0.1495 0.2315
vt 0.1363 0.2319
vt 0.1397 0.1544
vt 0.0939 0.1548
vt 0.0996 0.2323
vt 0.0876 0.2321
vt 0.0786 0.1552
vt 0.1244 0.1544
vt 0.1240 0.2322
vt 0.1117 0.2324
vt 0.1092 0.1544
vt 0.1631 0.5314
vt 0.1608 0.6283
vt 0.1519 0.6344
vt 0.1524 0.5325
vt 0.1281 0.5282
vt 0.1270 0.6299
vt 0.1188 0.6288
vt 0.1199 0.5287
vt 0.1092 0.5314
vt 0.1107 0.6299
vt 0.1025 0.6310
vt 0.0985 0.5340
vt 0.0890 0.5325
vt 0.0939 0.6270
vt 0.0853 0.6230
vt 0.0794 0.5310
vt 0.0646 0.6887
vt 0.0650 0.7516
vt 0.0592 0.7506
vt 0.0578 0.6873
vt 0.1948 0.6746
vt 0.2027 0.6755
vt 0.2011 0.7172
vt 0.1945 0.7170
vt 0.0785 0.6905
vt 0.0768 0.7526
vt 0.0709 0.7527
vt 0.0714 0.6900
vt 0.0510 0.6898
vt 0.0532 0.7499
vt 0.0473 0.7491
vt 0.0443 0.6923
vt 0.0923 0.6901
vt 0.0888 0.7515
vt 0.0828 0.7525
vt 0.0855 0.6910
vt 0.0761 0.8421
vt 0.0754 0.9317
vt 0.0697 0.9312
vt 0.0703 0.8419
vt 0.0547 0.8413
vt 0.0560 0.9328
vt 0.0514 0.9326
vt 0.0494 0.8408
vt 0.0948 0.7506
vt 0.0879 0.8414
vt 0.0651 0.8419
vt 0.0652 0.9321
vt 0.0607 0.9330
vt 0.0600 0.8418
vt 0.0938 0.8416
vt 0.0867 0.9327
vt 0.0810 0.9322
vt 0.1406 0.8326
vt 0.1447 0.8332
vt 0.1333 0.9850
vt 0.1307 0.9847
vt 0.1246 0.8344
vt 0.1282 0.8363
vt 0.1229 0.9850
vt 0.1204 0.9848
vt 0.1335 0.6785
vt 0.1391 0.6791
vt 0.1335 0.6831
vt 0.1175 0.8321
vt 0.1211 0.8324
vt 0.1178 0.9846
vt 0.1152 0.9843
vt 0.1509 0.6757
vt 0.1587 0.6751
vt 0.1591 0.7196
vt 0.1524 0.7191
vt 0.1061 0.6914
vt 0.1132 0.6937
vt 0.1070 0.7503
vt 0.1009 0.7505
vt 0.1804 0.6775
vt 0.1868 0.6737
vt 0.1878 0.7169
vt 0.1815 0.7183
vt 0.1663 0.6782
vt 0.1739 0.6813
vt 0.1753 0.7196
vt 0.1672 0.7196
vt 0.1680 0.7666
vt 0.1746 0.7664
vt 0.1739 0.8131
vt 0.1687 0.8135
vt 0.1556 0.7671
vt 0.1613 0.7667
vt 0.1635 0.8139
vt 0.1589 0.8151
vt 0.1799 0.7661
vt 0.1852 0.7659
vt 0.1826 0.8150
vt 0.1782 0.8140
vt 0.1912 0.7665
vt 0.1972 0.7671
vt 0.1932 0.8169
vt 0.1879 0.8160
vt 0.1768 0.8787
vt 0.1806 0.8794
vt 0.1785 0.9438
vt 0.1754 0.9434
vt 0.1850 0.8797
vt 0.1894 0.8800
vt 0.1856 0.9431
vt 0.1820 0.9434
vt 0.1685 0.8779
vt 0.1731 0.8780
vt 0.1723 0.9430
vt 0.1684 0.9423
vt 0.1600 0.8786
vt 0.1640 0.8777
vt 0.1645 0.9415
vt 0.1611 0.9421
vt 0.0385 0.3380
vt 0.0419 0.3378
vt 0.0418 0.4145
vt 0.0399 0.4143
vt 0.1323 0.8342
vt 0.1364 0.8320
vt 0.1280 0.9843
vt 0.1255 0.9847
vt 0.0372 0.2370
vt 0.0424 0.2356
vt 0.0420 0.2610
vt 0.0371 0.2617
vt 0.0281 0.2369
vt 0.0320 0.2384
vt 0.0323 0.2623
vt 0.0283 0.2618
vt 0.0465 0.2355
vt 0.0508 0.2354
vt 0.0494 0.2612
vt 0.0457 0.2611
vt 0.0323 0.3381
vt 0.0351 0.3382
vt 0.0380 0.4141
vt 0.0363 0.4145
vt 0.0445 0.3379
vt 0.0471 0.3379
vt 0.0448 0.4147
vt 0.0433 0.4146
vt 0.1443 0.5301
vt 0.1436 0.6327
vt 0.1353 0.6309
vt 0.1362 0.5277
vt 0.3496 0.0666
vt 0.3500 0.0701
vt 0.3440 0.0693
vt 0.3390 0.0629
vt 0.3352 0.0635
vt 0.3367 0.0586
vt 0.3385 0.0720
vt 0.3350 0.0680
vt 0.3388 0.0675
vt 0.3418 0.0593
vt 0.3446 0.0557
vt 0.3480 0.0571
vt 0.3471 0.0611
vt 0.3343 0.0543
vt 0.3329 0.0592
vt 0.3282 0.0557
vt 0.3222 0.0572
vt 0.3268 0.0606
vt 0.3203 0.0635
vt 0.2917 0.0411
vt 0.2979 0.0439
vt 0.2901 0.0486
vt 0.2779 0.0525
vt 0.2809 0.0617
vt 0.2748 0.0609
vt 0.3270 0.0411
vt 0.3351 0.0411
vt 0.3307 0.0477
vt 0.2912 0.0638
vt 0.2898 0.0599
vt 0.2948 0.0650
vt 0.2985 0.0661
vt 0.3035 0.0653
vt 0.3007 0.0724
vt 0.2950 0.0697
vt 0.2915 0.0734
vt 0.2877 0.0721
vt 0.2914 0.0686
vt 0.2876 0.0673
vt 0.3028 0.0787
vt 0.3056 0.0716
vt 0.3106 0.0756
vt 0.3569 0.0844
vt 0.3505 0.0860
vt 0.3536 0.0790
vt 0.3503 0.0736
vt 0.3567 0.0705
vt 0.2957 0.0934
vt 0.2926 0.0890
vt 0.2993 0.0861
vt 0.2895 0.0846
vt 0.2835 0.0847
vt 0.3561 0.0495
vt 0.3503 0.0526
vt 0.3496 0.0453
vt 0.2839 0.0708
vt 0.2867 0.0777
vt 0.3184 0.0591
vt 0.3184 0.0658
vt 0.3134 0.0618
vt 0.3085 0.0646
vt 0.3052 0.0618
vt 0.3063 0.0557
vt 0.3300 0.0732
vt 0.3307 0.0686
vt 0.3343 0.0726
vt 0.3310 0.0781
vt 0.3319 0.0829
vt 0.3352 0.0774
vt 0.3379 0.0853
vt 0.3443 0.0648
vt 0.3246 0.0491
vt 0.2848 0.0468
vt 0.2832 0.0543
vt 0.2885 0.0560
vt 0.2964 0.0514
vt 0.2952 0.0575
vt 0.3388 0.0477
vt 0.3395 0.0550
vt 0.2935 0.0611
vt 0.3002 0.0626
vt 0.3132 0.0863
vt 0.3080 0.0825
vt 0.3158 0.0794
vt 0.3472 0.0806
vt 0.3444 0.0728
vt 0.3600 0.0759
vt 0.3631 0.0674
vt 0.3564 0.0670
vt 0.3573 0.0630
vt 0.3045 0.0899
vt 0.2961 0.0817
vt 0.2972 0.0760
vt 0.3596 0.0584
vt 0.3538 0.0540
vt 0.2774 0.0848
vt 0.2745 0.0771
vt 0.2806 0.0778
vt 0.3113 0.0529
vt 0.3252 0.0764
vt 0.3242 0.0715
vt 0.4707 0.0666
vt 0.4710 0.0701
vt 0.4651 0.0693
vt 0.4601 0.0629
vt 0.4563 0.0635
vt 0.4577 0.0586
vt 0.4596 0.0720
vt 0.4561 0.0680
vt 0.4599 0.0675
vt 0.4629 0.0593
vt 0.4657 0.0557
vt 0.4692 0.0571
vt 0.4682 0.0611
vt 0.4554 0.0543
vt 0.4540 0.0592
vt 0.4493 0.0557
vt 0.4433 0.0572
vt 0.4480 0.0606
vt 0.4414 0.0635
vt 0.4128 0.0411
vt 0.4191 0.0439
vt 0.4112 0.0486
vt 0.3990 0.0525
vt 0.4020 0.0617
vt 0.3959 0.0609
vt 0.4481 0.0411
vt 0.4562 0.0411
vt 0.4517 0.0477
vt 0.4123 0.0638
vt 0.4110 0.0599
vt 0.4160 0.0650
vt 0.4196 0.0661
vt 0.4246 0.0653
vt 0.4218 0.0724
vt 0.4161 0.0697
vt 0.4126 0.0734
vt 0.4088 0.0721
vt 0.4125 0.0686
vt 0.4086 0.0673
vt 0.4239 0.0787
vt 0.4268 0.0716
vt 0.4317 0.0756
vt 0.4780 0.0844
vt 0.4715 0.0860
vt 0.4747 0.0790
vt 0.4714 0.0736
vt 0.4778 0.0705
vt 0.4167 0.0934
vt 0.4137 0.0890
vt 0.4203 0.0861
vt 0.4106 0.0846
vt 0.4046 0.0847
vt 0.4772 0.0495
vt 0.4715 0.0526
vt 0.4708 0.0453
vt 0.4050 0.0708
vt 0.4078 0.0777
vt 0.4395 0.0591
vt 0.4395 0.0658
vt 0.4345 0.0618
vt 0.4296 0.0646
vt 0.4262 0.0618
vt 0.4275 0.0557
vt 0.4511 0.0732
vt 0.4518 0.0686
vt 0.4553 0.0726
vt 0.4521 0.0781
vt 0.4530 0.0829
vt 0.4563 0.0774
vt 0.4590 0.0853
vt 0.4654 0.0648
vt 0.4457 0.0491
vt 0.4059 0.0468
vt 0.4043 0.0543
vt 0.4096 0.0560
vt 0.4175 0.0514
vt 0.4162 0.0575
vt 0.4599 0.0477
vt 0.4606 0.0550
vt 0.4146 0.0611
vt 0.4212 0.0626
vt 0.4343 0.0863
vt 0.4291 0.0825
vt 0.4369 0.0794
vt 0.4682 0.0806
vt 0.4655 0.0728
vt 0.4811 0.0759
vt 0.4842 0.0674
vt 0.4775 0.0670
vt 0.4784 0.0630
vt 0.4255 0.0899
vt 0.4173 0.0817
vt 0.4183 0.0760
vt 0.4807 0.0584
vt 0.4749 0.0540
vt 0.3985 0.0848
vt 0.3956 0.0771
vt 0.4017 0.0778
vt 0.4324 0.0529
vt 0.4463 0.0764
vt 0.4453 0.0715
vt 0.3063 0.9590
vt 0.2969 0.9624
vt 0.2912 0.9541
vt 0.2955 0.9403
vt 0.2760 0.9491
vt 0.2818 0.9359
vt 0.3158 0.9321
vt 0.3286 0.9268
vt 0.3365 0.9358
vt 0.3344 0.9480
vt 0.3573 0.9395
vt 0.3512 0.9510
vt 0.3322 0.9602
vt 0.3450 0.9625
vt 0.3194 0.9579
vt 0.3176 0.9450
vt 0.3493 0.9305
vt 0.3413 0.9215
vt 0.2998 0.9266
vt 0.2876 0.9227
vt 0.3121 0.9306
vt 0.3092 0.9448
vt 0.2817 0.9574
vt 0.2875 0.9657
vt 0.4460 0.0669
vt 0.4526 0.0640
vt 0.4395 0.0698
vt 0.4253 0.0468
vt 0.3989 0.0701
vt 0.3928 0.0693
vt 0.4726 0.0585
vt 0.4116 0.0790
vt 0.4717 0.0626
vt 0.4624 0.0798
vt 0.4651 0.0876
vt 0.4395 0.0726
vt 0.4229 0.0590
vt 0.4650 0.0484
vt 0.4643 0.0411
vt 0.4073 0.0634
vt 0.4241 0.0529
vt 0.4345 0.0686
vt 0.4076 0.0891
vt 0.3249 0.0669
vt 0.3315 0.0640
vt 0.3184 0.0698
vt 0.3042 0.0468
vt 0.2778 0.0701
vt 0.2717 0.0693
vt 0.3515 0.0585
vt 0.2905 0.0790
vt 0.3505 0.0626
vt 0.3413 0.0798
vt 0.3440 0.0876
vt 0.3184 0.0726
vt 0.3018 0.0590
vt 0.3439 0.0484
vt 0.3432 0.0411
vt 0.2862 0.0634
vt 0.3030 0.0529
vt 0.3134 0.0686
vt 0.2865 0.0891
vt 0.1450 0.4276
vt 0.1372 0.4245
vt 0.1529 0.4307
vt 0.0295 0.3381
vt 0.0346 0.4149
vt 0.0244 0.2613
vt 0.0427 0.2102
vt 0.0474 0.2099
vt 0.0521 0.2096
vt 0.0242 0.2354
vt 0.0240 0.2096
vt 0.0279 0.2120
vt 0.0317 0.2144
vt 0.0372 0.2123
vt 0.1334 0.6877
vt 0.1391 0.6837
vt 0.1448 0.6798
vt 0.1560 0.8795
vt 0.1577 0.9427
vt 0.1543 0.8162
vt 0.1499 0.7674
vt 0.1456 0.7185
vt 0.1584 0.6305
vt 0.1655 0.6367
vt 0.1725 0.6430
vt 0.1792 0.6367
vt 0.1858 0.6305
vt 0.0990 0.6892
vt 0.1032 0.6279
vt 0.1113 0.6324
vt 0.1194 0.6370
vt 0.1431 0.6764
vt 0.1405 0.6343
vt 0.1495 0.6324
vt 0.1138 0.8318
vt 0.1126 0.9840
vt 0.1151 0.6795
vt 0.1197 0.6798
vt 0.1244 0.6802
vt 0.1289 0.6839
vt 0.1505 0.6805
vt 0.1561 0.6813
vt 0.0997 0.8418
vt 0.0924 0.9333
vt 0.0819 0.8424
vt 0.0958 0.6287
vt 0.0883 0.6294
vt 0.0488 0.6297
vt 0.0413 0.6354
vt 0.0563 0.6240
vt 0.0801 0.6284
vt 0.0720 0.6273
vt 0.1951 0.6322
vt 0.2043 0.6339
vt 0.0641 0.6257
vt 0.0840 0.4381
vt 0.0735 0.4390
vt 0.0946 0.4371
vt 0.1078 0.4329
vt 0.1210 0.4286
vt 0.1291 0.4266
vt 0.1655 0.4345
vt 0.1782 0.4384
vt 0.1739 0.5303
vt 0.1696 0.6221
vt 0.2082 0.0806
vt 0.1986 0.1564
vt 0.1890 0.2322
vt 0.1842 0.3225
vt 0.1794 0.4129
vt 0.0836 0.0088
vt 0.0680 0.0119
vt 0.0992 0.0056
vt 0.1628 0.0144
vt 0.1404 0.0135
vt 0.1853 0.0153
vt 0.0448 0.0181
vt 0.0215 0.0243
vt 0.1198 0.0095
vt 0.2021 0.0180
vt 0.2188 0.0207
vt 0.2135 0.0507
vn -0.9255 0.0615 0.3737
vn -0.9309 0.1516 0.3323
vn -0.9376 0.1301 -0.3225
vn -0.9344 0.0398 -0.3541
vn 0.4922 0.0527 -0.8689
vn 0.5414 -0.0199 -0.8405
vn 0.9409 0.0207 -0.3380
vn 0.9113 0.1941 -0.3630
vn -0.0059 0.0293 0.9996
vn -0.0101 0.0638 0.9979
vn -0.5667 0.1170 0.8156
vn -0.5238 0.0342 0.8511
vn -0.5046 -0.0247 -0.8630
vn -0.5558 0.0498 -0.8298
vn -0.0222 -0.0045 -0.9997
vn -0.0087 -0.0264 -0.9996
vn 0.9022 0.2128 0.3753
vn 0.9385 0.0448 0.3424
vn 0.5407 0.0520 0.8396
vn 0.5025 0.1144 0.8570
vn 0.9380 0.0994 0.3321
vn 0.8830 0.4084 0.2315
vn 0.5044 0.3283 0.7986
vn 0.5708 0.1065 0.8142
vn -0.9544 -0.0105 0.2985
vn -0.8439 0.2128 0.4924
vn -0.9481 0.2098 -0.2390
vn -0.9584 -0.0301 -0.2840
vn 0.5880 0.0223 -0.8085
vn 0.5578 0.3599 -0.7479
vn 0.9334 0.2016 -0.2967
vn 0.9512 0.0685 -0.3009
vn 0.0154 0.0754 0.9970
vn -0.1927 0.2851 0.9389
vn -0.5876 0.0716 0.8060
vn -0.5806 0.0346 0.8135
vn -0.6117 -0.0402 -0.7900
vn -0.5140 0.2957 -0.8052
vn -0.0203 0.1129 -0.9934
vn 0.0001 -0.0165 -0.9999
vn 0.0027 0.0740 0.9973
vn 0.0113 0.0672 0.9977
vn -0.5695 0.0878 0.8173
vn -0.5718 0.1472 0.8071
vn -0.9337 0.1756 0.3122
vn -0.9456 0.0764 0.3161
vn -0.9491 0.0481 -0.3114
vn -0.9384 0.1521 -0.3104
vn -0.5784 0.0748 -0.8123
vn -0.5826 0.0103 -0.8127
vn 0.0191 -0.0197 -0.9996
vn 0.0023 -0.0095 -1.0000
vn 0.9472 -0.0709 0.3126
vn 0.9521 0.0009 0.3057
vn 0.6020 0.0370 0.7976
vn 0.5863 -0.0044 0.8101
vn 0.5801 -0.0764 -0.8109
vn 0.5932 -0.0341 -0.8043
vn 0.9527 -0.0235 -0.3031
vn 0.9462 -0.0950 -0.3094
vn -0.6004 0.7064 0.3748
vn -0.5974 0.7790 0.1906
vn -0.1489 0.9851 0.0866
vn -0.2423 0.9614 0.1301
vn 0.7969 -0.0044 -0.6041
vn 0.7174 0.0026 -0.6967
vn 0.6018 -0.5804 -0.5486
vn 0.6757 -0.5380 -0.5040
vn 0.3584 -0.9015 -0.2427
vn 0.2775 -0.9396 -0.2004
vn -0.0113 -0.9993 0.0357
vn -0.1190 -0.9861 0.1160
vn -0.6113 -0.6607 0.4357
vn -0.5803 -0.7928 0.1865
vn -0.9591 0.0303 0.2814
vn -0.8327 0.0429 0.5520
vn 0.2737 -0.9416 -0.1963
vn 0.3542 -0.9286 -0.1111
vn -0.0462 -0.9492 0.3114
vn -0.0157 -0.9782 0.2072
vn -0.6285 0.7741 -0.0762
vn -0.9884 0.0250 -0.1495
vn -0.9922 0.0458 -0.1158
vn -0.6667 0.7411 -0.0792
vn 0.6329 0.0016 -0.7742
vn 0.6954 0.0585 -0.7162
vn 0.6570 -0.5455 -0.5204
vn 0.5553 -0.5803 -0.5958
vn -0.3129 -0.6861 0.6568
vn -0.4475 -0.6108 0.6532
vn -0.6780 0.0059 0.7350
vn -0.5042 -0.0136 0.8635
vn 0.0925 0.9687 -0.2304
vn 0.0951 0.9339 -0.3447
vn 0.4963 0.5830 -0.6433
vn 0.4760 0.5861 -0.6557
vn 0.7097 0.2851 -0.6442
vn 0.6619 0.3943 -0.6376
vn 0.6808 -0.2557 -0.6864
vn 0.7622 -0.4419 -0.4731
vn -0.5118 -0.5878 0.6266
vn -0.5323 -0.5834 0.6134
vn -0.7813 0.1854 0.5959
vn -0.7711 0.0897 0.6304
vn -0.3152 0.9360 0.1569
vn -0.2229 0.9715 -0.0805
vn 0.4032 -0.9145 -0.0338
vn 0.3149 -0.9467 -0.0671
vn -0.4163 -0.7315 0.5400
vn -0.0747 -0.9261 0.3699
vn -0.5922 0.7593 0.2697
vn -0.4968 0.8488 0.1809
vn 0.0662 0.9465 -0.3159
vn -0.4612 0.8720 0.1642
vn -0.7735 0.2274 0.5915
vn -0.7742 0.1708 0.6095
vn -0.4622 0.8700 0.1714
vn 0.4485 -0.8868 -0.1113
vn 0.7858 -0.3058 -0.5376
vn 0.7647 -0.4040 -0.5020
vn 0.4474 -0.8856 -0.1248
vn 0.6459 0.3988 -0.6509
vn -0.5196 -0.6093 0.5990
vn -0.0490 -0.9493 0.3106
vn 0.0180 -0.9685 0.2484
vn -0.4891 -0.6500 0.5816
vn -0.6269 -0.7674 -0.1345
vn 0.0008 -0.9999 0.0158
vn -0.0519 -0.9980 0.0365
vn -0.7337 -0.6758 -0.0710
vn -0.4426 0.6404 0.6278
vn -0.5918 0.6374 0.4934
vn 0.6016 0.7166 0.3530
vn -0.0579 0.9946 0.0856
vn -0.0113 0.9995 0.0286
vn 0.7357 0.6679 0.1124
vn 0.6275 -0.7245 0.2851
vn 0.8928 -0.0252 0.4497
vn 0.9903 -0.0513 0.1290
vn 0.7036 -0.7003 0.1204
vn 0.6597 -0.7495 0.0550
vn 0.9934 -0.1011 -0.0536
vn 0.9785 -0.1675 -0.1205
vn 0.6264 -0.7628 0.1605
vn -0.7516 -0.6427 0.1483
vn -0.0617 -0.9875 0.1447
vn -0.0308 -0.9348 0.3537
vn -0.6892 -0.6125 0.3871
vn 0.7321 0.6713 -0.1157
vn 0.0326 0.9957 -0.0867
vn -0.0100 0.9449 -0.3271
vn 0.6722 0.6470 -0.3599
vn -0.6299 0.7763 -0.0227
vn -0.9925 0.0928 0.0801
vn -0.9758 0.1029 0.1931
vn -0.6176 0.7741 -0.1390
vn 0.5838 0.6060 -0.5403
vn -0.0648 0.8630 -0.5011
vn -0.1011 0.8480 -0.5203
vn 0.5148 0.6327 -0.5785
vn -0.6144 0.7464 -0.2557
vn -0.9610 0.1660 0.2210
vn -0.9467 0.2900 0.1400
vn -0.6017 0.7457 -0.2862
vn 0.6356 -0.7255 0.2641
vn 0.9714 -0.1387 -0.1927
vn 0.9597 -0.0265 -0.2797
vn 0.6543 -0.7058 0.2716
vn -0.6087 -0.5675 0.5546
vn 0.0493 -0.8518 0.5216
vn 0.0537 -0.8295 0.5559
vn -0.6321 -0.5182 0.5761
vn -0.4257 0.6007 0.6767
vn -0.5803 -0.4149 0.7008
vn -0.5994 -0.2996 0.7423
vn -0.4148 0.6360 0.6507
vn 0.6106 0.5060 -0.6092
vn 0.0823 0.9517 -0.2957
vn 0.1462 0.9302 -0.3366
vn 0.6609 0.4124 -0.6270
vn -0.1752 0.0061 0.9845
vn -0.5106 -0.6582 0.5533
vn -0.5619 -0.5063 0.6542
vn -0.3654 0.5504 0.7507
vn 0.6306 0.3566 -0.6893
vn 0.7827 0.5997 -0.1664
vn 0.2331 0.9716 0.0411
vn 0.6198 0.3453 -0.7047
vn -0.2026 -0.9664 -0.1580
vn 0.4755 -0.3583 -0.8034
vn 0.3760 -0.5563 -0.7410
vn -0.1520 -0.9713 -0.1828
vn 0.6149 0.3300 -0.7162
vn 0.1765 0.9839 -0.0264
vn 0.1786 0.9830 -0.0435
vn 0.6103 0.3590 -0.7062
vn -0.0961 -0.9941 -0.0494
vn 0.4460 -0.5928 -0.6706
vn 0.4865 -0.5333 -0.6921
vn -0.1042 -0.9944 -0.0146
vn 0.1688 0.9723 -0.1617
vn 0.1329 0.9761 -0.1718
vn 0.5482 0.6208 -0.5604
vn 0.6204 0.6156 -0.4859
vn 0.4535 0.1972 -0.8692
vn 0.1578 0.2346 -0.9592
vn 0.2280 0.5745 -0.7861
vn 0.5816 0.6039 -0.5450
vn 0.4571 0.8223 -0.3390
vn 0.7741 0.5607 -0.2939
vn -0.0710 0.8089 -0.5837
vn 0.1454 0.9193 -0.3657
vn 0.3105 0.7311 -0.6076
vn 0.7795 0.3388 -0.5269
vn 0.9132 -0.0265 -0.4067
vn 0.8141 -0.2097 -0.5416
vn 0.6984 0.1818 -0.6923
vn 0.9077 0.4121 0.0787
vn 0.6044 0.7964 -0.0195
vn 0.6566 0.6590 0.3669
vn 0.2779 0.7462 0.6049
vn 0.2823 0.9241 0.2576
vn -0.0911 0.8090 0.5807
vn 0.0605 0.4209 0.9051
vn 0.6583 -0.1366 0.7403
vn 0.5131 -0.5930 0.6206
vn 0.8162 -0.3770 0.4378
vn 0.8739 0.1810 0.4511
vn -0.1700 -0.5757 0.7998
vn -0.1037 -0.3842 0.9174
vn -0.4751 -0.4600 0.7501
vn -0.7047 -0.3561 0.6137
vn -0.9030 -0.0979 0.4184
vn -0.8040 -0.5098 0.3060
vn -0.5461 -0.6836 0.4843
vn -0.1953 -0.9262 0.3226
vn 0.1921 -0.9231 0.3332
vn -0.1901 -0.7848 0.5899
vn 0.1767 -0.7483 0.6394
vn -0.7592 -0.6484 -0.0558
vn -0.9752 -0.1602 0.1530
vn -0.9854 -0.0828 -0.1485
vn -0.6430 -0.1784 -0.7448
vn -0.8139 0.1611 -0.5582
vn -0.4233 0.0581 -0.9041
vn -0.1852 0.2831 -0.9410
vn -0.0474 -0.2427 -0.9689
vn 0.1372 -0.6548 -0.7432
vn 0.1902 -0.8590 -0.4753
vn -0.3278 -0.7956 -0.5095
vn 0.2434 -0.9477 -0.2063
vn 0.5199 -0.8214 -0.2343
vn 0.6685 -0.7086 -0.2259
vn 0.8411 -0.4674 -0.2722
vn 0.7662 -0.6398 -0.0600
vn 0.4267 -0.8234 0.3741
vn 0.4009 -0.9153 0.0384
vn -0.6170 0.7857 -0.0450
vn -0.7153 0.6611 -0.2263
vn -0.7829 0.6078 0.1329
vn -0.9186 0.2991 0.2585
vn -0.8085 0.3416 0.4792
vn -0.6794 0.6387 0.3612
vn -0.2664 0.9622 -0.0568
vn -0.0308 0.9971 -0.0692
vn -0.1797 0.9326 -0.3129
vn -0.4627 0.8850 -0.0516
vn -0.4193 0.8349 -0.3566
vn 0.5286 0.4592 -0.7139
vn 0.5155 0.3759 0.7700
vn 0.2961 -0.1426 0.9444
vn -0.1015 -0.0240 0.9945
vn -0.2959 0.4976 0.8154
vn -0.4469 0.2071 0.8703
vn 0.9865 -0.0778 0.1442
vn 0.9664 0.1538 -0.2059
vn -0.4681 -0.1354 0.8733
vn -0.7069 -0.0357 0.7064
vn -0.7719 -0.4614 -0.4373
vn -0.4935 0.4935 -0.7162
vn -0.1395 0.6184 -0.7734
vn -0.3122 -0.4847 -0.8170
vn 0.3294 -0.2824 -0.9010
vn 0.5010 -0.5490 -0.6690
vn -0.2302 -0.9540 -0.1922
vn -0.4729 -0.8683 0.1500
vn 0.5005 -0.7282 -0.4682
vn 0.6878 -0.6065 -0.3988
vn 0.5895 -0.8076 0.0152
vn -0.5753 0.7891 0.2154
vn -0.3329 0.9253 0.1818
vn 0.2786 0.1956 -0.9403
vn -0.0318 0.2681 -0.9629
vn 0.1001 0.5972 -0.7958
vn 0.5027 0.5769 -0.6438
vn 0.4358 0.7991 -0.4141
vn 0.7374 0.5096 -0.4434
vn -0.1346 0.8353 -0.5331
vn 0.1302 0.9197 -0.3705
vn 0.2299 0.7318 -0.6415
vn 0.6799 0.2952 -0.6713
vn 0.8034 -0.0987 -0.5872
vn 0.6535 -0.2857 -0.7009
vn 0.5548 0.1506 -0.8183
vn 0.9328 0.3425 -0.1122
vn 0.6424 0.7540 -0.1373
vn 0.7626 0.6073 0.2229
vn 0.4481 0.7187 0.5317
vn 0.3925 0.8977 0.2002
vn 0.0892 0.8059 0.5853
vn 0.2788 0.4068 0.8700
vn 0.7730 -0.2375 0.5882
vn 0.4946 -0.7197 0.4872
vn 0.8183 -0.5032 0.2779
vn 0.9615 0.0993 0.2562
vn -0.0530 -0.7040 0.7082
vn 0.0574 -0.4952 0.8669
vn -0.3075 -0.5744 0.7586
vn -0.5590 -0.4238 0.7127
vn -0.7995 -0.0706 0.5965
vn -0.6922 -0.5796 0.4301
vn -0.3756 -0.7956 0.4753
vn -0.1368 -0.9547 0.2641
vn 0.0753 -0.9706 0.2287
vn -0.1061 -0.8808 0.4614
vn 0.1718 -0.8636 0.4741
vn -0.7187 -0.6849 0.1196
vn -0.9280 -0.1250 0.3511
vn -0.9980 -0.0161 0.0615
vn -0.7910 -0.1478 -0.5937
vn -0.8929 0.2542 -0.3717
vn -0.5948 0.1127 -0.7959
vn -0.3572 0.3423 -0.8691
vn -0.2632 -0.2533 -0.9309
vn -0.0803 -0.7361 -0.6721
vn -0.0111 -0.9415 -0.3367
vn -0.4064 -0.8500 -0.3350
vn 0.0396 -0.9945 -0.0969
vn 0.2183 -0.9576 -0.1881
vn 0.4255 -0.8571 -0.2905
vn 0.6877 -0.5831 -0.4325
vn 0.5855 -0.7921 -0.1723
vn 0.2622 -0.9270 0.2682
vn 0.1436 -0.9891 0.0316
vn -0.5507 0.8292 0.0957
vn -0.6796 0.7311 -0.0596
vn -0.6775 0.6737 0.2951
vn -0.8113 0.3814 0.4431
vn -0.6561 0.4045 0.6371
vn -0.5331 0.6871 0.4937
vn -0.2035 0.9790 0.0143
vn 0.0255 0.9986 -0.0465
vn -0.1742 0.9522 -0.2510
vn -0.3974 0.9158 0.0590
vn -0.4216 0.8735 -0.2432
vn 0.4063 0.4484 -0.7961
vn 0.6920 0.3283 0.6430
vn 0.4679 -0.2205 0.8558
vn 0.1110 -0.0681 0.9915
vn -0.0853 0.5121 0.8547
vn -0.2392 0.2313 0.9430
vn 0.9834 -0.1712 -0.0601
vn 0.9125 0.0814 -0.4010
vn -0.2861 -0.1714 0.9428
vn -0.5443 -0.0174 0.8387
vn -0.8515 -0.4674 -0.2377
vn -0.5800 0.5748 -0.5773
vn -0.2544 0.6686 -0.6987
vn -0.4863 -0.5236 -0.6996
vn 0.1021 -0.3208 -0.9416
vn 0.2622 -0.6358 -0.7259
vn -0.2318 -0.9717 -0.0446
vn -0.3491 -0.9134 0.2094
vn 0.2371 -0.8564 -0.4587
vn 0.4761 -0.7168 -0.5094
vn 0.3178 -0.9479 -0.0214
vn -0.4573 0.8227 0.3378
vn -0.2204 0.9408 0.2574
vn -0.4256 0.9048 0.0177
vn 0.0787 0.8870 -0.4550
vn -0.3705 0.1565 -0.9156
vn -0.8352 -0.3769 -0.4004
vn 0.5241 -0.5812 -0.6226
vn 0.0802 -0.9363 -0.3419
vn -0.3250 0.8661 0.3799
vn 0.1759 0.9302 -0.3220
vn -0.7671 -0.6136 0.1871
vn -0.1876 -0.9811 0.0470
vn -0.8737 0.0620 0.4826
vn -0.8401 0.4784 0.2558
vn 0.5915 0.0916 -0.8011
vn 0.5995 0.6113 -0.5166
vn 0.0574 0.9661 0.2517
vn 0.2959 0.9486 -0.1118
vn -0.2341 0.8026 0.5486
vn 0.4794 -0.8585 0.1822
vn 0.7849 -0.6196 -0.0060
vn 0.4786 -0.4674 -0.7433
vn -0.0490 -0.9959 0.0757
vn 0.3944 -0.1881 -0.8995
vn -0.4864 0.7653 -0.4216
vn -0.8088 0.5516 -0.2041
vn -0.4555 0.3395 0.8230
vn 0.8604 -0.4022 -0.3130
vn 0.3216 -0.6776 0.6614
vn -0.3519 0.5934 0.7239
vn -0.8973 0.3975 0.1922
vn -0.0615 0.9700 0.2351
vn 0.2498 0.9654 -0.0751
vn -0.3983 0.7848 0.4748
vn 0.6428 -0.7171 0.2696
vn 0.8662 -0.4787 0.1434
vn 0.6826 -0.3932 -0.6160
vn 0.0194 -0.9986 0.0501
vn 0.5923 -0.1416 -0.7932
vn -0.4419 0.7099 -0.5485
vn -0.8024 0.4514 -0.3903
vn -0.6434 0.2988 0.7049
vn 0.9472 -0.2963 -0.1227
vn 0.2542 -0.5548 0.7922
vn -0.5380 0.5591 0.6308
vn -0.9540 0.2996 -0.0105
vn 0.8983 0.0904 -0.4300
vn 0.4952 -0.8683 0.0309
vn 0.5925 0.5413 -0.5966
vn 0.1455 -0.8698 0.4715
vn 0.2385 -0.0226 0.9709
vn -0.0010 0.8433 0.5374
vn -0.2286 0.9486 0.2189
vn 0.4326 0.7091 -0.5568
vn 0.8928 0.2644 0.3646
vn 0.5172 0.1392 0.8444
vn 0.9096 0.2488 -0.3327
vn -0.4735 -0.0608 -0.8787
vn 0.0251 -0.0380 -0.9990
vn -0.9298 -0.0073 -0.3679
vn 0.0150 0.0119 0.9998
vn -0.4796 -0.0066 0.8775
vn 0.5000 0.0818 -0.8622
vn -0.9183 0.0148 0.3955
usemtl None
s 1
f 440/1/1 380/2/2 3/3/3 312/4/4
f 439/5/5 360/6/6 7/7/7 304/8/8
f 438/9/9 282/10/10 2/11/11 179/12/12
f 437/13/13 167/14/14 6/15/15 161/16/16
f 436/17/17 146/18/18 10/19/19 143/20/20
f 435/21/21 201/22/22 13/23/23 152/24/24
f 434/25/25 220/26/26 17/27/27 379/28/28
f 433/29/29 126/30/30 12/31/31 265/32/32
f 432/33/33 273/34/34 16/35/35 289/36/36
f 431/37/37 228/38/38 20/39/39 227/40/40
f 430/41/41 347/42/42 15/43/43 334/44/44
f 429/45/45 373/46/46 18/47/47 386/48/48
f 428/49/49 308/50/50 19/51/51 303/52/52
f 427/53/53 132/54/54 14/55/55 259/56/56
f 426/57/57 183/58/58 11/59/59 207/60/60
f 425/61/61 286/62/62 23/63/63 223/64/64
f 424/65/65 320/66/66 27/67/67 246/68/68
f 423/69/69 313/70/70 29/71/71 128/72/72
f 422/73/73 142/74/74 22/75/75 357/76/76
f 421/77/77 262/78/78 32/79/79 250/80/80
f 420/81/81 145/82/82 33/83/83 170/84/84
f 419/85/85 346/86/86 31/87/87 171/88/88
f 418/89/89 271/90/90 36/91/91 362/92/92
f 417/93/93 144/94/94 35/95/95 234/96/96
f 416/97/97 292/98/98 40/99/99 160/100/100
f 415/101/101 134/102/102 42/103/103 278/104/104
f 38/105/105 208/106/106 144/94/94
f 414/107/107 354/108/108 41/109/109 366/110/110
f 413/111/111 125/112/112 39/113/113 208/106/106
f 412/114/114 189/115/115 43/116/116 257/117/117
f 411/118/118 139/119/119 46/120/120 197/121/121
f 40/122/99 292/123/98 337/124/122
f 410/125/123 317/126/124 47/127/125 319/128/126
f 409/129/127 178/130/128 48/131/129 254/132/130
f 408/133/131 362/134/92 36/135/91 281/136/132
f 407/137/133 258/138/134 34/139/135 326/140/136
f 406/141/137 199/142/138 49/143/139 345/144/140
f 405/145/141 192/146/142 50/147/143 253/148/144
f 404/149/145 151/150/146 51/151/147 325/152/148
f 403/153/149 311/154/150 53/155/151 121/156/152
f 402/157/153 238/158/154 52/159/155 120/160/156
f 401/161/157 175/162/158 54/163/159 232/164/160
f 400/165/161 177/166/162 56/167/163 163/168/164
f 399/169/165 237/170/166 55/171/167 236/172/168
f 398/173/169 245/174/170 57/175/171 381/176/172
f 397/177/173 333/178/174 60/179/175 129/180/176
f 396/181/177 267/182/178 44/183/179 244/184/180
f 395/185/181 324/186/182 59/187/183 264/188/184
f 394/189/185 376/190/186 58/191/187 331/192/188
f 393/193/189 213/194/190 62/195/191 180/196/192
f 392/197/193 131/198/194 61/199/195 138/200/196
f 391/201/197 268/202/198 63/203/199 252/204/200
f 390/205/201 341/206/202 26/207/203 122/208/204
f 64/209/205 149/210/206 350/211/207
f 67/212/208 277/213/209 344/214/210
f 66/215/211 141/216/212 365/217/213
f 67/212/208 344/214/210 136/218/214
f 70/219/215 332/220/216 371/221/217
f 69/222/218 204/223/219 261/224/220
f 72/225/221 127/226/222 186/227/223
f 72/228/221 186/229/223 222/230/224
f 75/231/225 242/232/226 310/233/227
f 75/234/225 310/235/227 173/236/228
f 78/237/229 226/238/230 322/239/231
f 79/240/232 260/241/233 329/242/234
f 79/240/232 329/242/234 336/243/235
f 82/244/236 196/245/237 198/246/238
f 78/237/229 247/247/239 226/238/230
f 81/248/240 154/249/241 150/250/242
f 84/251/243 202/252/244 221/253/245
f 65/254/246 149/210/206 288/255/247
f 85/256/248 335/257/249 266/258/250
f 86/259/251 335/257/249 256/260/252
f 87/261/253 270/262/254 156/263/255
f 76/264/256 196/245/237 206/265/257
f 88/266/258 200/267/259 296/268/260
f 80/269/261 359/270/262 225/271/263
f 90/272/264 184/273/265 205/274/266
f 90/272/264 205/274/266 195/275/267
f 88/276/258 349/277/268 200/278/259
f 67/212/208 291/279/269 365/217/213
f 67/212/208 136/218/214 291/279/269
f 75/234/225 173/236/228 295/280/270
f 75/231/225 295/281/270 330/282/271
f 74/283/272 124/284/273 157/285/274
f 75/231/225 330/282/271 242/232/226
f 69/222/218 323/286/275 140/287/276
f 79/240/232 302/288/277 287/289/278
f 79/240/232 287/289/278 260/241/233
f 79/240/232 336/243/235 322/239/231
f 84/290/243 203/291/279 202/292/244
f 65/254/246 165/293/280 158/294/281
f 84/251/243 221/253/245 133/295/282
f 85/296/248 217/297/283 263/298/284
f 84/290/243 133/299/282 203/291/279
f 81/248/240 340/300/285 353/301/286
f 87/261/253 130/302/287 137/303/288
f 87/261/253 137/303/288 270/262/254
f 87/304/253 156/305/255 272/306/289
f 87/304/253 272/306/289 256/260/252
f 88/266/258 296/268/260 216/307/290
f 88/276/258 216/308/290 195/275/267
f 90/272/264 387/309/291 184/273/265
f 91/310/292 215/311/293 279/312/294
f 94/313/295 299/314/296 370/315/297
f 93/316/298 166/317/299 374/318/300
f 94/313/295 370/315/297 164/319/301
f 97/320/302 339/321/303 276/322/304
f 96/323/305 231/324/306 275/325/307
f 99/326/308 316/327/309 212/328/310
f 99/329/308 212/330/310 123/331/311
f 102/332/312 384/333/313 315/334/314
f 102/335/312 315/336/314 210/337/315
f 105/338/316 378/339/317 306/340/318
f 106/341/319 377/342/320 305/343/321
f 106/341/319 305/343/321 218/344/322
f 109/345/323 369/346/324 356/347/325
f 105/338/316 119/348/326 378/339/317
f 108/349/327 176/350/328 162/351/329
f 111/352/330 372/353/331 211/354/332
f 92/355/333 215/311/293 284/356/334
f 112/357/335 300/358/336 301/359/337
f 113/360/338 300/358/336 368/361/339
f 114/362/340 283/363/341 383/364/342
f 103/365/343 369/346/324 382/366/344
f 115/367/345 321/368/346 174/369/347
f 107/370/348 118/371/349 361/372/350
f 117/373/351 235/374/352 241/375/353
f 117/373/351 241/375/353 147/376/354
f 115/377/345 367/378/355 321/379/346
f 94/313/295 343/380/356 374/318/300
f 94/313/295 164/319/301 343/380/356
f 102/335/312 210/337/315 318/381/357
f 102/332/312 318/382/357 327/383/358
f 101/384/359 255/385/360 153/386/361
f 102/332/312 327/383/358 384/333/313
f 96/323/305 348/387/362 269/388/363
f 106/341/319 294/389/364 240/390/365
f 106/341/319 240/390/365 377/342/320
f 106/341/319 218/344/322 306/340/318
f 111/391/330 363/392/366 372/393/331
f 92/355/333 148/394/367 169/395/368
f 111/352/330 211/354/332 172/396/369
f 112/397/335 135/398/370 285/399/371
f 111/391/330 172/400/369 363/392/366
f 108/349/327 224/401/372 243/402/373
f 114/362/340 168/403/374 155/404/375
f 114/362/340 155/404/375 283/363/341
f 114/405/340 383/406/342 290/407/376
f 114/405/340 290/407/376 368/361/339
f 115/367/345 174/369/347 355/408/377
f 115/377/345 355/409/377 147/376/354
f 117/373/351 194/410/378 235/374/352
f 24/411/379 159/412/380 342/413/381
f 389/414/382 342/413/381 28/415/383 233/416/384
f 17/417/27 220/418/26 338/419/385
f 388/420/386 338/419/385 13/421/23 201/422/22
f 126/423/30 388/420/386 201/422/22 12/424/31
f 20/425/39 228/426/38 388/420/386 126/423/30
f 228/426/38 17/417/27 338/419/385 388/420/386
f 338/419/385 273/427/34 13/421/23
f 338/419/385 220/418/26 273/427/34
f 220/418/26 16/428/35 273/427/34
f 352/429/387 389/414/382 233/416/384 30/430/388
f 21/431/389 214/432/390 389/414/382 352/429/387
f 214/432/390 24/411/379 342/413/381 389/414/382
f 342/413/381 248/433/391 28/415/383
f 342/413/381 159/412/380 248/433/391
f 159/412/380 25/434/392 248/433/391
f 235/374/352 385/435/393 95/436/394
f 235/374/352 194/410/378 385/435/393
f 194/410/378 100/437/395 385/435/393
f 147/376/354 194/410/378 117/373/351
f 147/376/354 355/409/377 194/410/378
f 355/409/377 100/437/395 194/410/378
f 355/408/377 361/372/350 100/438/395
f 355/408/377 174/369/347 361/372/350
f 174/369/347 107/370/348 361/372/350
f 368/361/339 382/366/344 113/360/338
f 368/361/339 290/407/376 382/366/344
f 290/407/376 103/365/343 382/366/344
f 290/407/376 181/439/396 103/365/343
f 290/407/376 383/406/342 181/439/396
f 383/406/342 104/440/397 181/439/396
f 283/363/341 339/321/303 97/320/302
f 283/363/341 155/404/375 339/321/303
f 155/404/375 98/441/398 339/321/303
f 155/404/375 285/399/371 98/441/398
f 155/404/375 168/403/374 285/399/371
f 168/403/374 112/397/335 285/399/371
f 243/402/373 364/442/399 109/345/323
f 243/402/373 224/401/372 364/442/399
f 224/401/372 113/360/338 364/442/399
f 363/392/366 301/359/337 108/349/327
f 363/392/366 172/400/369 301/359/337
f 172/400/369 112/357/335 301/359/337
f 285/399/371 230/443/400 98/441/398
f 285/399/371 135/398/370 230/443/400
f 135/398/370 91/310/292 230/443/400
f 172/396/369 284/356/334 112/397/335
f 172/396/369 211/354/332 284/356/334
f 211/354/332 92/355/333 284/356/334
f 169/395/368 297/444/401 93/316/298
f 169/395/368 148/394/367 297/444/401
f 148/394/367 110/445/402 297/444/401
f 372/393/331 162/351/329 110/446/402
f 372/393/331 363/392/366 162/351/329
f 363/392/366 108/349/327 162/351/329
f 306/340/318 356/347/325 105/338/316
f 306/340/318 218/344/322 356/347/325
f 218/344/322 109/345/323 356/347/325
f 377/342/320 118/371/349 107/370/348
f 377/342/320 240/390/365 118/371/349
f 240/390/365 116/447/403 118/371/349
f 240/390/365 153/386/361 116/447/403
f 240/390/365 294/389/364 153/386/361
f 294/389/364 101/384/359 153/386/361
f 269/388/363 187/448/404 97/320/302
f 269/388/363 348/387/362 187/448/404
f 348/387/362 104/449/397 187/448/404
f 384/333/313 251/450/405 103/365/343
f 384/333/313 327/383/358 251/450/405
f 327/383/358 101/384/359 251/450/405
f 153/386/361 298/451/406 116/447/403
f 153/386/361 255/385/360 298/451/406
f 255/385/360 100/438/395 298/451/406
f 327/383/358 123/331/311 101/384/359
f 327/383/358 318/382/357 123/331/311
f 318/382/357 99/329/308 123/331/311
f 318/381/357 275/325/307 99/326/308
f 318/381/357 210/337/315 275/325/307
f 210/337/315 96/323/305 275/325/307
f 343/380/356 276/322/304 91/310/292
f 343/380/356 164/319/301 276/322/304
f 164/319/301 97/320/302 276/322/304
f 374/318/300 279/312/294 93/316/298
f 374/318/300 343/380/356 279/312/294
f 343/380/356 91/310/292 279/312/294
f 321/379/346 297/444/401 110/445/402
f 321/379/346 367/378/355 297/444/401
f 367/378/355 93/316/298 297/444/401
f 147/376/354 367/378/355 115/377/345
f 147/376/354 241/375/353 367/378/355
f 241/375/353 93/316/298 367/378/355
f 241/375/353 166/317/299 93/316/298
f 241/375/353 235/374/352 166/317/299
f 235/374/352 95/436/394 166/317/299
f 361/372/350 298/451/406 100/438/395
f 361/372/350 118/371/349 298/451/406
f 118/371/349 116/447/403 298/451/406
f 174/369/347 274/452/407 107/370/348
f 174/369/347 321/368/346 274/452/407
f 321/368/346 110/446/402 274/452/407
f 382/366/344 364/442/399 113/360/338
f 382/366/344 369/346/324 364/442/399
f 369/346/324 109/345/323 364/442/399
f 383/364/342 187/448/404 104/449/397
f 383/364/342 283/363/341 187/448/404
f 283/363/341 97/320/302 187/448/404
f 368/361/339 168/453/374 114/405/340
f 368/361/339 300/358/336 168/453/374
f 300/358/336 112/357/335 168/453/374
f 301/359/337 224/401/372 108/349/327
f 301/359/337 300/358/336 224/401/372
f 300/358/336 113/360/338 224/401/372
f 284/356/334 135/398/370 112/397/335
f 284/356/334 215/311/293 135/398/370
f 215/311/293 91/310/292 135/398/370
f 211/354/332 148/394/367 92/355/333
f 211/354/332 372/353/331 148/394/367
f 372/353/331 110/445/402 148/394/367
f 162/351/329 274/452/407 110/446/402
f 162/351/329 176/350/328 274/452/407
f 176/350/328 107/370/348 274/452/407
f 378/339/317 251/450/405 101/384/359
f 378/339/317 119/348/326 251/450/405
f 119/348/326 103/365/343 251/450/405
f 356/347/325 119/348/326 105/338/316
f 356/347/325 369/346/324 119/348/326
f 369/346/324 103/365/343 119/348/326
f 218/344/322 243/402/373 109/345/323
f 218/344/322 305/343/321 243/402/373
f 305/343/321 108/349/327 243/402/373
f 305/343/321 176/350/328 108/349/327
f 305/343/321 377/342/320 176/350/328
f 377/342/320 107/370/348 176/350/328
f 306/340/318 294/389/364 106/341/319
f 306/340/318 378/339/317 294/389/364
f 378/339/317 101/384/359 294/389/364
f 210/337/315 348/387/362 96/323/305
f 210/337/315 315/336/314 348/387/362
f 315/336/314 104/449/397 348/387/362
f 315/334/314 181/439/396 104/440/397
f 315/334/314 384/333/313 181/439/396
f 384/333/313 103/365/343 181/439/396
f 123/331/311 255/385/360 101/384/359
f 123/331/311 212/330/310 255/385/360
f 212/330/310 100/438/395 255/385/360
f 212/328/310 385/435/393 100/437/395
f 212/328/310 316/327/309 385/435/393
f 316/327/309 95/436/394 385/435/393
f 275/325/307 316/327/309 99/326/308
f 275/325/307 231/324/306 316/327/309
f 231/324/306 95/436/394 316/327/309
f 276/322/304 230/443/400 91/310/292
f 276/322/304 339/321/303 230/443/400
f 339/321/303 98/441/398 230/443/400
f 164/319/301 269/388/363 97/320/302
f 164/319/301 370/315/297 269/388/363
f 370/315/297 96/323/305 269/388/363
f 374/318/300 299/314/296 94/313/295
f 374/318/300 166/317/299 299/314/296
f 166/317/299 95/436/394 299/314/296
f 370/315/297 231/324/306 96/323/305
f 370/315/297 299/314/296 231/324/306
f 299/314/296 95/436/394 231/324/306
f 279/312/294 169/395/368 93/316/298
f 279/312/294 215/311/293 169/395/368
f 215/311/293 92/355/333 169/395/368
f 184/273/265 188/454/408 68/455/409
f 184/273/265 387/309/291 188/454/408
f 387/309/291 73/456/410 188/454/408
f 195/275/267 387/309/291 90/272/264
f 195/275/267 216/308/290 387/309/291
f 216/308/290 73/456/410 387/309/291
f 216/307/290 225/271/263 73/457/410
f 216/307/290 296/268/260 225/271/263
f 296/268/260 80/269/261 225/271/263
f 256/260/252 206/265/257 86/259/251
f 256/260/252 272/306/289 206/265/257
f 272/306/289 76/264/256 206/265/257
f 272/306/289 191/458/411 76/264/256
f 272/306/289 156/305/255 191/458/411
f 156/305/255 77/459/412 191/458/411
f 270/262/254 332/220/216 70/219/215
f 270/262/254 137/303/288 332/220/216
f 137/303/288 71/460/413 332/220/216
f 137/303/288 263/298/284 71/460/413
f 137/303/288 130/302/287 263/298/284
f 130/302/287 85/296/248 263/298/284
f 353/301/286 190/461/414 82/244/236
f 353/301/286 340/300/285 190/461/414
f 340/300/285 86/259/251 190/461/414
f 203/291/279 266/258/250 81/248/240
f 203/291/279 133/299/282 266/258/250
f 133/299/282 85/256/248 266/258/250
f 263/298/284 307/462/415 71/460/413
f 263/298/284 217/297/283 307/462/415
f 217/297/283 64/209/205 307/462/415
f 133/295/282 288/255/247 85/296/248
f 133/295/282 221/253/245 288/255/247
f 221/253/245 65/254/246 288/255/247
f 158/294/281 309/463/416 66/215/211
f 158/294/281 165/293/280 309/463/416
f 165/293/280 83/464/417 309/463/416
f 202/292/244 150/250/242 83/465/417
f 202/292/244 203/291/279 150/250/242
f 203/291/279 81/248/240 150/250/242
f 322/239/231 198/246/238 78/237/229
f 322/239/231 336/243/235 198/246/238
f 336/243/235 82/244/236 198/246/238
f 260/241/233 359/270/262 80/269/261
f 260/241/233 287/289/278 359/270/262
f 287/289/278 89/466/418 359/270/262
f 287/289/278 157/285/274 89/466/418
f 287/289/278 302/288/277 157/285/274
f 302/288/277 74/283/272 157/285/274
f 140/287/276 182/467/419 70/219/215
f 140/287/276 323/286/275 182/467/419
f 323/286/275 77/468/412 182/467/419
f 242/232/226 375/469/420 76/264/256
f 242/232/226 330/282/271 375/469/420
f 330/282/271 74/283/272 375/469/420
f 157/285/274 280/470/421 89/466/418
f 157/285/274 124/284/273 280/470/421
f 124/284/273 73/457/410 280/470/421
f 330/282/271 222/230/224 74/283/272
f 330/282/271 295/281/270 222/230/224
f 295/281/270 72/228/221 222/230/224
f 295/280/270 261/224/220 72/225/221
f 295/280/270 173/236/228 261/224/220
f 173/236/228 69/222/218 261/224/220
f 291/279/269 371/221/217 64/209/205
f 291/279/269 136/218/214 371/221/217
f 136/218/214 70/219/215 371/221/217
f 365/217/213 350/211/207 66/215/211
f 365/217/213 291/279/269 350/211/207
f 291/279/269 64/209/205 350/211/207
f 200/278/259 309/463/416 83/464/417
f 200/278/259 349/277/268 309/463/416
f 349/277/268 66/215/211 309/463/416
f 195/275/267 349/277/268 88/276/258
f 195/275/267 205/274/266 349/277/268
f 205/274/266 66/215/211 349/277/268
f 205/274/266 141/216/212 66/215/211
f 205/274/266 184/273/265 141/216/212
f 184/273/265 68/455/409 141/216/212
f 225/271/263 280/470/421 73/457/410
f 225/271/263 359/270/262 280/470/421
f 359/270/262 89/466/418 280/470/421
f 296/268/260 219/471/422 80/269/261
f 296/268/260 200/267/259 219/471/422
f 200/267/259 83/465/417 219/471/422
f 206/265/257 190/461/414 86/259/251
f 206/265/257 196/245/237 190/461/414
f 196/245/237 82/244/236 190/461/414
f 156/263/255 182/467/419 77/468/412
f 156/263/255 270/262/254 182/467/419
f 270/262/254 70/219/215 182/467/419
f 256/260/252 130/472/287 87/304/253
f 256/260/252 335/257/249 130/472/287
f 335/257/249 85/256/248 130/472/287
f 266/258/250 340/300/285 81/248/240
f 266/258/250 335/257/249 340/300/285
f 335/257/249 86/259/251 340/300/285
f 288/255/247 217/297/283 85/296/248
f 288/255/247 149/210/206 217/297/283
f 149/210/206 64/209/205 217/297/283
f 221/253/245 165/293/280 65/254/246
f 221/253/245 202/252/244 165/293/280
f 202/252/244 83/464/417 165/293/280
f 150/250/242 219/471/422 83/465/417
f 150/250/242 154/249/241 219/471/422
f 154/249/241 80/269/261 219/471/422
f 226/238/230 375/469/420 74/283/272
f 226/238/230 247/247/239 375/469/420
f 247/247/239 76/264/256 375/469/420
f 198/246/238 247/247/239 78/237/229
f 198/246/238 196/245/237 247/247/239
f 196/245/237 76/264/256 247/247/239
f 336/243/235 353/301/286 82/244/236
f 336/243/235 329/242/234 353/301/286
f 329/242/234 81/248/240 353/301/286
f 329/242/234 154/249/241 81/248/240
f 329/242/234 260/241/233 154/249/241
f 260/241/233 80/269/261 154/249/241
f 322/239/231 302/288/277 79/240/232
f 322/239/231 226/238/230 302/288/277
f 226/238/230 74/283/272 302/288/277
f 173/236/228 323/286/275 69/222/218
f 173/236/228 310/235/227 323/286/275
f 310/235/227 77/468/412 323/286/275
f 310/233/227 191/458/411 77/459/412
f 310/233/227 242/232/226 191/458/411
f 242/232/226 76/264/256 191/458/411
f 222/230/224 124/284/273 74/283/272
f 222/230/224 186/229/223 124/284/273
f 186/229/223 73/457/410 124/284/273
f 186/227/223 188/454/408 73/456/410
f 186/227/223 127/226/222 188/454/408
f 127/226/222 68/455/409 188/454/408
f 261/224/220 127/226/222 72/225/221
f 261/224/220 204/223/219 127/226/222
f 204/223/219 68/455/409 127/226/222
f 371/221/217 307/462/415 64/209/205
f 371/221/217 332/220/216 307/462/415
f 332/220/216 71/460/413 307/462/415
f 136/218/214 140/287/276 70/219/215
f 136/218/214 344/214/210 140/287/276
f 344/214/210 69/222/218 140/287/276
f 365/217/213 277/213/209 67/212/208
f 365/217/213 141/216/212 277/213/209
f 141/216/212 68/455/409 277/213/209
f 344/214/210 204/223/219 69/222/218
f 344/214/210 277/213/209 204/223/219
f 277/213/209 68/455/409 204/223/219
f 350/211/207 158/294/281 66/215/211
f 350/211/207 149/210/206 158/294/281
f 149/210/206 65/254/246 158/294/281
f 159/473/380 390/205/201 122/208/204 25/474/392
f 24/475/379 223/64/64 390/205/201 159/473/380
f 223/64/64 23/63/63 341/206/202 390/205/201
f 333/178/174 391/201/197 252/204/200 60/179/175
f 59/187/183 180/196/192 391/201/197 333/178/174
f 180/196/192 62/195/191 268/202/198 391/201/197
f 268/476/198 392/197/193 138/200/196 63/477/199
f 62/478/191 331/192/188 392/197/193 268/476/198
f 331/192/188 58/191/187 131/198/194 392/197/193
f 324/186/182 393/193/189 180/196/192 59/187/183
f 41/479/109 354/480/108 393/193/189 324/186/182
f 354/480/108 40/481/99 213/194/190 393/193/189
f 213/482/190 394/189/185 331/192/188 62/478/191
f 40/483/99 337/484/122 394/189/185 213/482/190
f 337/484/122 45/485/423 376/190/186 394/189/185
f 376/190/186 395/185/181 264/188/184 58/191/187
f 45/485/423 185/486/424 395/185/181 376/190/186
f 185/486/424 41/479/109 324/186/182 395/185/181
f 139/119/119 396/181/177 244/184/180 46/120/120
f 45/487/423 193/488/425 396/181/177 139/119/119
f 193/488/425 39/489/113 267/182/178 396/181/177
f 131/198/194 397/177/173 129/180/176 61/199/195
f 58/191/187 264/188/184 397/177/173 131/198/194
f 264/188/184 59/187/183 333/178/174 397/177/173
f 177/490/162 398/173/169 381/176/172 56/491/163
f 52/492/155 325/152/148 398/173/169 177/490/162
f 325/152/148 51/151/147 245/174/170 398/173/169
f 245/174/170 399/169/165 236/172/168 57/175/171
f 51/151/147 253/148/144 399/169/165 245/174/170
f 253/148/144 50/147/143 237/170/166 399/169/165
f 175/162/158 400/165/161 163/168/164 54/163/159
f 53/155/151 120/160/156 400/165/161 175/162/158
f 120/160/156 52/159/155 177/166/162 400/165/161
f 237/170/166 401/161/157 232/164/160 55/171/167
f 50/147/143 121/156/152 401/161/157 237/170/166
f 121/156/152 53/155/151 175/162/158 401/161/157
f 311/154/150 402/157/153 120/160/156 53/155/151
f 34/139/135 170/84/84 402/157/153 311/154/150
f 170/84/84 33/83/83 238/158/154 402/157/153
f 192/146/142 403/153/149 121/156/152 50/147/143
f 49/143/139 326/140/136 403/153/149 192/146/142
f 326/140/136 34/139/135 311/154/150 403/153/149
f 238/493/154 404/149/145 325/152/148 52/492/155
f 33/494/83 254/132/130 404/149/145 238/493/154
f 254/132/130 48/131/129 151/150/146 404/149/145
f 151/150/146 405/145/141 253/148/144 51/151/147
f 48/131/129 345/144/140 405/145/141 151/150/146
f 345/144/140 49/143/139 192/146/142 405/145/141
f 178/130/128 406/141/137 345/144/140 48/131/129
f 29/495/71 209/496/426 406/141/137 178/130/128
f 209/496/426 37/497/427 199/142/138 406/141/137
f 199/142/138 407/137/133 326/140/136 49/143/139
f 37/497/427 249/498/428 407/137/133 199/142/138
f 249/498/428 23/499/63 258/138/134 407/137/133
f 328/500/429 408/133/131 281/136/132 38/105/105
f 23/501/63 249/502/428 408/133/131 328/500/429
f 249/502/428 37/503/427 362/134/92 408/133/131
f 145/504/82 409/129/127 254/132/130 33/494/83
f 22/505/75 142/506/74 409/129/127 145/504/82
f 142/506/74 29/495/71 178/130/128 409/129/127
f 189/507/115 410/125/123 319/128/126 43/508/116
f 42/509/103 134/510/102 410/125/123 189/507/115
f 134/510/102 41/511/109 317/126/124 410/125/123
f 337/124/122 193/488/425 45/487/423
f 337/124/122 292/123/98 193/488/425
f 292/123/98 39/489/113 193/488/425
f 317/126/124 411/118/118 197/121/121 47/127/125
f 41/511/109 185/512/424 411/118/118 317/126/124
f 185/512/424 45/487/423 139/119/119 411/118/118
f 267/182/178 412/114/114 257/117/117 44/183/179
f 39/489/113 125/513/112 412/114/114 267/182/178
f 125/513/112 42/514/103 189/115/115 412/114/114
f 281/136/132 413/111/111 208/106/106 38/105/105
f 36/135/91 278/515/104 413/111/111 281/136/132
f 278/515/104 42/516/103 125/112/112 413/111/111
f 262/78/78 414/107/107 366/110/110 32/79/79
f 31/87/87 160/100/100 414/107/107 262/78/78
f 160/100/100 40/99/99 354/108/108 414/107/107
f 144/94/94 351/517/430 35/95/95
f 144/94/94 208/106/106 351/517/430
f 208/106/106 39/113/113 351/517/430
f 271/90/90 415/101/101 278/104/104 36/91/91
f 32/79/79 366/110/110 415/101/101 271/90/90
f 366/110/110 41/109/109 134/102/102 415/101/101
f 346/86/86 416/97/97 160/100/100 31/87/87
f 35/95/95 351/517/430 416/97/97 346/86/86
f 351/517/430 39/113/113 292/98/98 416/97/97
f 341/518/202 417/93/93 234/96/96 26/519/203
f 23/501/63 328/500/429 417/93/93 341/518/202
f 328/500/429 38/105/105 144/94/94 417/93/93
f 209/520/426 418/89/89 362/92/92 37/521/427
f 29/522/71 250/80/80 418/89/89 209/520/426
f 250/80/80 32/79/79 271/90/90 418/89/89
f 320/523/66 419/85/85 171/88/88 27/524/67
f 26/519/203 234/96/96 419/85/85 320/523/66
f 234/96/96 35/95/95 346/86/86 419/85/85
f 258/138/134 420/81/81 170/84/84 34/139/135
f 23/499/63 286/525/62 420/81/81 258/138/134
f 286/525/62 22/526/75 145/82/82 420/81/81
f 313/527/70 421/77/77 250/80/80 29/522/71
f 27/524/67 171/88/88 421/77/77 313/527/70
f 171/88/88 31/87/87 262/78/78 421/77/77
f 352/528/387 422/73/73 357/76/76 21/529/389
f 30/530/388 128/72/72 422/73/73 352/528/387
f 128/72/72 29/71/71 142/74/74 422/73/73
f 233/531/384 423/69/69 128/72/72 30/530/388
f 28/532/383 246/68/68 423/69/69 233/531/384
f 246/68/68 27/67/67 313/70/70 423/69/69
f 248/533/391 424/65/65 246/68/68 28/532/383
f 25/474/392 122/208/204 424/65/65 248/533/391
f 122/208/204 26/207/203 320/66/66 424/65/65
f 214/534/390 425/61/61 223/64/64 24/475/379
f 21/535/389 357/536/76 425/61/61 214/534/390
f 357/536/76 22/537/75 286/62/62 425/61/61
f 360/6/6 426/57/57 207/60/60 7/7/7
f 6/15/15 303/52/52 426/57/57 360/6/6
f 303/52/52 19/51/51 183/58/58 426/57/57
f 146/18/18 427/53/53 259/56/56 10/19/19
f 7/7/7 207/60/60 427/53/53 146/18/18
f 207/60/60 11/59/59 132/54/54 427/53/53
f 167/14/14 428/49/49 303/52/52 6/15/15
f 3/3/3 386/48/48 428/49/49 167/14/14
f 386/48/48 18/47/47 308/50/50 428/49/49
f 380/2/2 429/45/45 386/48/48 3/3/3
f 2/538/11 334/539/44 429/45/45 380/2/2
f 334/539/44 15/540/43 373/46/46 429/45/45
f 282/10/10 430/41/41 334/44/44 2/11/11
f 10/19/19 259/56/56 430/41/41 282/10/10
f 259/56/56 14/55/55 347/42/42 430/41/41
f 308/50/50 431/37/37 227/40/40 19/51/51
f 18/47/47 379/28/28 431/37/37 308/50/50
f 379/28/28 17/27/27 228/38/38 431/37/37
f 347/42/42 432/33/33 289/36/36 15/43/43
f 14/55/55 152/24/24 432/33/33 347/42/42
f 152/24/24 13/23/23 273/34/34 432/33/33
f 183/58/58 433/29/29 265/32/32 11/59/59
f 19/51/51 227/40/40 433/29/29 183/58/58
f 227/40/40 20/39/39 126/30/30 433/29/29
f 373/46/46 434/25/25 379/28/28 18/47/47
f 15/540/43 289/541/36 434/25/25 373/46/46
f 289/541/36 16/542/35 220/26/26 434/25/25
f 132/54/54 435/21/21 152/24/24 14/55/55
f 11/59/59 265/32/32 435/21/21 132/54/54
f 265/32/32 12/31/31 201/22/22 435/21/21
f 229/543/431 436/17/17 143/20/20 9/544/432
f 8/545/433 304/8/8 436/17/17 229/543/431
f 304/8/8 7/7/7 146/18/18 436/17/17
f 239/546/434 437/13/13 161/16/16 5/547/435
f 4/548/436 312/4/4 437/13/13 239/546/434
f 312/4/4 3/3/3 167/14/14 437/13/13
f 358/549/437 438/9/9 179/12/12 1/550/438
f 9/544/432 143/20/20 438/9/9 358/549/437
f 143/20/20 10/19/19 282/10/10 438/9/9
f 293/551/439 439/5/5 304/8/8 8/545/433
f 5/547/435 161/16/16 439/5/5 293/551/439
f 161/16/16 6/15/15 360/6/6 439/5/5
f 314/552/440 440/1/1 312/4/4 4/548/436
f 1/553/438 179/554/12 440/1/1 314/552/440
f 179/554/12 2/538/11 380/2/2 440/1/1
