# Blender v2.78 (sub 0) OBJ File: ''
# www.blender.org
mtllib Birch_Tree_NoLeaves_m_07.mtl
o Birch_Tree_NoLeaves_m_07
v 0.083532 0.039728 0.096115
v 0.011988 0.407746 0.081728
v -0.131628 0.405589 0.085823
v -0.083731 0.029627 0.091567
v -0.133692 1.158918 0.071875
v -0.241022 1.141565 0.071875
v -0.169659 0.403518 -0.034737
v -0.274189 1.136204 -0.031602
v -0.187357 1.150241 -0.095554
v -0.052920 0.404919 -0.114168
v -0.113627 0.029463 -0.036401
v 0.009514 0.040013 -0.128842
v -0.095847 1.168838 -0.033243
v -0.295252 2.543883 -0.027553
v -0.321207 2.538689 0.053912
v -0.405195 2.521883 0.053912
v -0.431148 2.516690 -0.027553
v -0.363200 2.530286 -0.077900
v -0.450861 4.235384 -0.047207
v -0.414996 4.242660 -0.020166
v -0.428507 4.239920 0.022262
v -0.473099 4.230874 0.022629
v -0.486844 4.228087 -0.020532
v -0.441946 6.199996 -0.008365
v -0.457599 6.230435 -0.001673
v -0.460725 6.271819 -0.014760
v -0.450711 6.231832 -0.023302
v 0.122537 0.507571 -0.070175
v 0.225266 0.332145 -0.020553
v 0.442897 1.197313 -0.254037
v 0.371874 1.248913 -0.281041
v 0.157962 0.338752 -0.144651
v 0.215083 0.017953 -0.051937
v 0.266244 0.278177 -0.098496
v 0.467820 1.163076 -0.313424
v 0.386084 1.202713 -0.346418
v 0.600459 2.993986 -0.431889
v 0.645372 2.984288 -0.418071
v 0.630023 2.991026 -0.386343
v 0.590364 3.004822 -0.396228
v 0.687433 4.492459 -0.379200
v 0.690218 4.459953 -0.396899
v 0.712642 4.488282 -0.389736
v 0.704592 4.458463 -0.375361
v 0.673637 3.793535 -0.384447
v -0.324365 1.803468 0.063467
v -0.455045 6.298180 -0.018802
v -0.446750 6.299862 -0.016640
v -0.470385 4.231425 -0.036022
v -0.380271 3.366641 0.038518
v -0.108695 1.164903 0.021318
v -0.105504 0.193355 0.090441
v 0.710025 4.506583 -0.381473
v 0.127769 0.020706 -0.099698
v -0.137847 1.160173 -0.069640
v 0.685018 3.790896 -0.407285
v 0.540380 2.073148 -0.327669
v 0.238316 0.120971 -0.069000
v -0.451446 6.399749 -0.011965
v -0.450469 6.299108 -0.004959
v -0.198243 1.826649 -0.029713
v -0.263681 1.137860 0.022138
v 0.373922 1.228636 -0.315691
v 0.592730 3.000058 -0.414775
v 0.496953 2.077310 -0.396818
v 0.074199 0.173138 -0.135924
v -0.276191 1.812323 -0.087301
v 0.702623 4.507351 -0.392544
v -0.430923 5.206990 -0.012367
v -0.187357 1.150241 0.078353
v 0.036291 0.452295 -0.096040
v 0.136924 0.426056 -0.115355
v -0.453221 5.303307 -0.034195
v 0.428225 1.180424 -0.334102
v -0.482451 4.228978 0.001870
v -0.400148 2.522884 -0.056903
v -0.436616 5.205836 0.005512
v -0.363201 2.530286 0.059075
v -0.475808 5.298727 -0.017591
v -0.458425 6.297494 -0.008185
v -0.067917 0.408941 0.093772
v 0.704553 4.580518 -0.382635
v 0.362357 0.672625 -0.203860
v 0.148475 0.169827 0.048716
v -0.354138 1.797997 -0.029713
v -0.218752 0.740565 -0.033239
v 0.623738 2.988671 -0.427107
v -0.157805 0.404194 0.027880
v -0.021451 0.205034 -0.126738
v -0.010687 0.029892 0.107618
v -0.109656 0.029545 0.030940
v 0.219693 0.303473 -0.126876
v -0.467099 5.300493 0.009389
v -0.464738 3.349509 -0.024101
v -0.431396 4.239333 -0.035839
v -0.422984 2.518310 0.014775
v 0.698296 4.508485 -0.376567
v 0.460416 1.177371 -0.281769
v 0.406113 1.225583 -0.263358
v 0.051319 0.330990 -0.126172
v -0.121645 0.752758 -0.103516
v -0.234528 1.142589 -0.068819
v 0.644570 3.801411 -0.390764
v 0.652496 3.795693 -0.416528
v -0.063075 0.758885 0.078323
v -0.421182 4.336709 0.001358
v -0.182553 0.744351 0.079144
v -0.326252 2.537688 -0.056903
v -0.450803 4.235397 0.025105
v -0.303417 2.542262 0.014775
v 0.118338 0.328889 0.037214
v 0.176833 0.422603 -0.038686
v -0.444798 3.353553 0.038518
v -0.139567 0.192371 -0.036081
v 0.609370 2.998390 -0.389159
v -0.066876 0.029677 -0.089282
v 0.485264 2.102565 -0.345668
v 0.256896 0.299570 -0.060345
v 0.169053 0.020383 0.023447
v 0.640379 2.987004 -0.401490
v 0.052597 0.205799 0.093346
v 0.074152 0.453237 0.011525
v 0.276259 0.727516 -0.244252
v 0.254564 0.819824 -0.177178
v 0.690894 4.509255 -0.387638
v 0.560943 2.053214 -0.373604
v -0.360331 3.370686 -0.024101
v -0.228017 1.821177 0.063467
v -0.123162 0.406007 -0.078497
v -0.412534 3.360097 -0.062801
v 0.006779 0.795473 -0.045868
v 0.338299 0.721072 -0.140892
v -0.052173 0.775683 -0.080781
v -0.020360 0.779011 0.017987
v 0.658476 3.797745 -0.386027
v 0.681328 3.791804 -0.395361
v 0.669384 3.793023 -0.413486
v 0.646532 3.798964 -0.404152
v 0.554531 2.061443 -0.349297
v 0.487239 2.091676 -0.372582
v 0.259894 0.778662 -0.213206
v 0.320795 0.695498 -0.228280
v 0.511774 2.089325 -0.333515
v 0.529996 2.063794 -0.388365
v -0.130232 0.192683 0.029608
v 0.166625 0.135040 -0.106603
v 0.355845 0.691857 -0.169885
v 0.206035 0.132934 -0.010858
v 0.294945 0.775021 -0.154811
v -0.465463 5.300825 -0.027357
v -0.452655 5.303422 0.009675
v -0.441370 5.305711 -0.025763
v -0.473064 5.299283 -0.003485
v -0.458414 3.350791 0.008417
v -0.366655 3.369403 0.008417
v -0.440889 3.354346 -0.046615
v -0.412535 3.360097 0.042429
v -0.384179 3.365849 -0.046615
v -0.318529 1.804541 -0.063216
v -0.276191 1.812323 0.069288
v -0.233853 1.820104 -0.063216
v -0.344695 1.799732 0.018676
v -0.207687 1.824914 0.018676
v -0.207271 0.741766 0.025122
v -0.091284 0.193548 -0.084274
v -0.175458 0.745094 -0.073647
v -0.123984 0.750479 0.086164
v -0.035319 0.194946 0.101277
vt 0.1396 0.1677
vt 0.1482 0.1804
vt 0.1386 0.1840
vt 0.1347 0.1698
vt 0.1503 0.2450
vt 0.1523 0.3097
vt 0.1406 0.3094
vt 0.1396 0.2467
vt 0.1082 0.2445
vt 0.1055 0.3092
vt 0.0937 0.3094
vt 0.0974 0.2427
vt 0.1204 0.1674
vt 0.1109 0.1797
vt 0.1011 0.1760
vt 0.1154 0.1653
vt 0.1293 0.2465
vt 0.1289 0.3092
vt 0.1172 0.3091
vt 0.1190 0.2463
vt 0.1709 0.4528
vt 0.1655 0.5954
vt 0.1561 0.5946
vt 0.1601 0.4523
vt 0.1284 0.4505
vt 0.1279 0.5918
vt 0.1185 0.5914
vt 0.1179 0.4503
vt 0.0858 0.4523
vt 0.0903 0.5947
vt 0.0809 0.5959
vt 0.0749 0.4531
vt 0.1495 0.4515
vt 0.1468 0.5934
vt 0.1374 0.5921
vt 0.1390 0.4507
vt 0.1073 0.4509
vt 0.1091 0.5925
vt 0.0997 0.5935
vt 0.0967 0.4514
vt 0.0581 0.7642
vt 0.0635 0.8709
vt 0.0604 0.8714
vt 0.0536 0.7649
vt 0.0849 0.7635
vt 0.0817 0.8703
vt 0.0787 0.8697
vt 0.0805 0.7628
vt 0.0670 0.7630
vt 0.0695 0.8699
vt 0.0665 0.8704
vt 0.0626 0.7636
vt 0.0938 0.7646
vt 0.0878 0.8712
vt 0.0847 0.8709
vt 0.0894 0.7642
vt 0.0760 0.7626
vt 0.0756 0.8695
vt 0.0725 0.8694
vt 0.0714 0.7624
vt 0.1462 0.6697
vt 0.1420 0.8084
vt 0.1432 0.6695
vt 0.1308 0.8069
vt 0.1305 0.9460
vt 0.1281 0.9458
vt 0.1280 0.8067
vt 0.1198 0.8080
vt 0.1209 0.9469
vt 0.1185 0.9472
vt 0.1172 0.8084
vt 0.1362 0.8076
vt 0.1354 0.9466
vt 0.1330 0.9461
vt 0.1336 0.8070
vt 0.1253 0.8072
vt 0.1257 0.9462
vt 0.1233 0.9466
vt 0.1225 0.8076
vt 0.0240 0.6633
vt 0.0238 0.6624
vt 0.0249 0.6622
vt 0.1348 0.1863
vt 0.1425 0.1795
vt 0.1447 0.2387
vt 0.1388 0.2418
vt 0.0770 0.1678
vt 0.0963 0.1434
vt 0.1382 0.1338
vt 0.1306 0.1357
vt 0.1307 0.1180
vt 0.1454 0.1135
vt 0.1484 0.1775
vt 0.1542 0.1754
vt 0.1554 0.2356
vt 0.1500 0.2371
vt 0.1206 0.1342
vt 0.1106 0.1327
vt 0.0916 0.1107
vt 0.1112 0.1143
vt 0.1300 0.1696
vt 0.1296 0.1837
vt 0.1207 0.1834
vt 0.1253 0.1695
vt 0.1617 0.3654
vt 0.1671 0.3666
vt 0.1644 0.4934
vt 0.1608 0.4931
vt 0.1439 0.3679
vt 0.1484 0.3660
vt 0.1520 0.4933
vt 0.1489 0.4941
vt 0.1621 0.1784
vt 0.1698 0.1814
vt 0.1697 0.2398
vt 0.1626 0.2377
vt 0.1772 0.1870
vt 0.1845 0.1926
vt 0.1808 0.2443
vt 0.1752 0.2420
vt 0.1712 0.3681
vt 0.1754 0.3695
vt 0.1700 0.4948
vt 0.1672 0.4941
vt 0.1523 0.3651
vt 0.1563 0.3641
vt 0.1572 0.4927
vt 0.1546 0.4930
vt 0.0362 0.8396
vt 0.0386 0.8400
vt 0.0366 0.9468
vt 0.0347 0.9466
vt 0.0312 0.8389
vt 0.0339 0.8391
vt 0.0329 0.9463
vt 0.0310 0.9463
vt 0.0262 0.8388
vt 0.0284 0.8387
vt 0.0291 0.9462
vt 0.0272 0.9462
vt 0.0215 0.8395
vt 0.0239 0.8390
vt 0.0254 0.9462
vt 0.0236 0.9465
vt 0.0272 0.5585
vt 0.0255 0.5585
vt 0.0254 0.5572
vt 0.1296 0.1547
vt 0.1578 0.1767
vt 0.1445 0.1656
vt 0.1590 0.1428
vt 0.2033 0.1608
vt 0.1806 0.1687
vt 0.1817 0.1349
vt 0.1784 0.2395
vt 0.1609 0.2433
vt 0.0791 0.2388
vt 0.0266 0.5560
vt 0.0269 0.5573
vt 0.0251 0.5559
vt 0.0258 0.6634
vt 0.0249 0.6633
vt 0.0258 0.6623
vt 0.0258 0.6612
vt 0.0236 0.5558
vt 0.0813 0.3098
vt 0.0689 0.3102
vt 0.0609 0.2349
vt 0.0529 0.1595
vt 0.1960 0.2357
vt 0.1886 0.3105
vt 0.1763 0.3102
vt 0.1640 0.3100
vt 0.1602 0.1090
vt 0.1458 0.1318
vt 0.1313 0.1546
vt 0.0237 0.5572
vt 0.0237 0.5585
vt 0.0191 0.8400
vt 0.0217 0.9468
vt 0.0164 0.7333
vt 0.0195 0.7325
vt 0.0225 0.7317
vt 0.0251 0.7314
vt 0.0277 0.7312
vt 0.0313 0.7315
vt 0.0349 0.7319
vt 0.0377 0.7326
vt 0.0405 0.7332
vt 0.1700 0.1230
vt 0.1791 0.1320
vt 0.1882 0.1410
vt 0.1531 0.1152
vt 0.1616 0.1191
vt 0.1394 0.3699
vt 0.1459 0.4949
vt 0.1329 0.2449
vt 0.1304 0.1556
vt 0.1300 0.1556
vt 0.1308 0.1556
vt 0.1305 0.1535
vt 0.1301 0.1541
vt 0.1402 0.1204
vt 0.1467 0.1178
vt 0.1309 0.1540
vt 0.0723 0.1351
vt 0.1272 0.1930
vt 0.1215 0.1412
vt 0.1309 0.1308
vt 0.0247 0.6614
vt 0.0236 0.6615
vt 0.1249 0.6681
vt 0.1218 0.6686
vt 0.1279 0.6676
vt 0.1371 0.6686
vt 0.1341 0.6680
vt 0.1401 0.6692
vt 0.1389 0.8081
vt 0.1377 0.9471
vt 0.1188 0.6691
vt 0.1158 0.6696
vt 0.1310 0.6678
vt 0.0764 0.6557
vt 0.0704 0.6555
vt 0.0823 0.6559
vt 0.0999 0.6580
vt 0.0940 0.6575
vt 0.1058 0.6584
vt 0.0983 0.7650
vt 0.0908 0.8715
vt 0.0645 0.6561
vt 0.0586 0.6567
vt 0.0881 0.6567
vt 0.0527 0.6575
vt 0.0468 0.6583
vt 0.1818 0.4534
vt 0.1750 0.5962
vt 0.1298 0.1551
vt 0.1310 0.1551
vn -0.0282 0.0289 0.9992
vn -0.0015 0.0294 0.9996
vn -0.5929 -0.0647 0.8026
vn -0.6146 -0.0628 0.7863
vn 0.0035 0.0205 0.9998
vn -0.0023 0.0162 0.9999
vn -0.5870 -0.0677 0.8068
vn -0.5857 -0.0719 0.8074
vn -0.5788 -0.0780 -0.8118
vn -0.5810 -0.0720 -0.8107
vn -0.0463 0.0137 -0.9988
vn -0.1095 0.0142 -0.9939
vn -0.6026 -0.0728 -0.7947
vn -0.5844 -0.0715 -0.8083
vn -0.2005 0.0476 -0.9785
vn -0.2916 -0.0094 -0.9565
vn -0.9425 -0.1338 0.3061
vn -0.9434 -0.1229 0.3082
vn -0.9432 -0.1258 -0.3075
vn -0.9419 -0.1328 -0.3084
vn 0.9381 0.1345 0.3191
vn 0.9458 0.1011 0.3086
vn 0.5771 0.0737 0.8133
vn 0.5756 0.0894 0.8128
vn -0.9452 -0.1077 0.3082
vn -0.9493 -0.0701 0.3063
vn -0.9498 -0.0699 -0.3050
vn -0.9465 -0.1068 -0.3044
vn 0.5728 0.0861 -0.8152
vn 0.5838 0.0666 -0.8092
vn 0.9449 0.1015 -0.3112
vn 0.9410 0.1370 -0.3093
vn -0.0032 0.0157 0.9999
vn -0.0094 0.0152 0.9998
vn -0.5949 -0.0370 0.8029
vn -0.5852 -0.0591 0.8088
vn -0.5860 -0.0601 -0.8081
vn -0.5911 -0.0394 -0.8056
vn -0.0123 0.0156 -0.9998
vn -0.0090 0.0121 -0.9999
vn 0.5897 0.0465 -0.8063
vn 0.6211 0.0280 -0.7833
vn 0.9498 0.0473 -0.3092
vn 0.9437 0.0671 -0.3240
vn -0.0028 0.0178 0.9998
vn 0.0317 0.0176 0.9993
vn -0.5877 0.0049 0.8090
vn -0.5928 -0.0088 0.8053
vn -0.5937 -0.0147 -0.8046
vn -0.5956 -0.0004 -0.8033
vn 0.0025 0.0163 -0.9999
vn -0.0048 0.0182 -0.9998
vn 0.9496 0.0664 0.3065
vn 0.9521 0.0177 0.3054
vn 0.5852 0.0403 0.8099
vn 0.5718 0.0508 0.8188
vn -0.9518 -0.0311 0.3051
vn -0.9525 -0.0072 0.3043
vn -0.9525 -0.0069 -0.3044
vn -0.9515 -0.0302 -0.3061
vn 0.9810 0.0157 -0.1935
vn -0.9533 0.0124 0.3019
vn -0.8130 0.0803 0.5767
vn -0.9519 0.0207 -0.3056
vn -0.9523 0.0132 -0.3049
vn 0.7458 0.0107 -0.6660
vn 0.7813 0.0698 -0.6203
vn 0.9504 0.0193 0.3104
vn 0.2061 0.0138 0.9784
vn 0.2633 0.0736 0.9619
vn -0.5166 0.0188 0.8560
vn -0.5532 0.0154 0.8329
vn -0.5967 0.0110 -0.8024
vn -0.3208 0.0787 -0.9439
vn 0.0884 0.0148 -0.9960
vn 0.0462 0.0130 -0.9988
vn 0.0109 0.9999 0.0018
vn -0.0559 0.2879 0.9560
vn 0.5022 0.1189 0.8566
vn 0.4601 0.0795 0.8843
vn -0.2019 0.1886 0.9611
vn 0.1063 0.2194 -0.9698
vn -0.1030 0.1258 -0.9867
vn 0.7963 -0.0762 0.6001
vn 0.9281 -0.2438 -0.2814
vn 0.8993 -0.2735 -0.3412
vn 0.8568 -0.0889 0.5079
vn 0.8933 -0.0974 0.4387
vn 0.8642 -0.3010 -0.4032
vn 0.8764 -0.2149 -0.4310
vn 0.9075 -0.0808 0.4121
vn 0.3278 -0.1961 -0.9242
vn 0.0571 -0.0696 -0.9959
vn -0.0761 -0.0509 -0.9958
vn 0.2821 -0.2536 -0.9253
vn -0.9569 -0.1259 0.2617
vn -0.9476 -0.1292 0.2922
vn -0.9416 -0.1303 -0.3106
vn -0.9397 -0.1287 -0.3168
vn 0.3123 -0.0829 -0.9464
vn -0.4364 0.0104 -0.8997
vn -0.4330 0.0324 -0.9008
vn 0.2952 -0.0355 -0.9548
vn -0.2585 0.0981 0.9610
vn 0.4015 0.0271 0.9154
vn 0.4135 -0.0004 0.9105
vn -0.2366 0.0478 0.9704
vn 0.2494 -0.2818 -0.9265
vn -0.3669 -0.1078 -0.9240
vn -0.3933 -0.0408 -0.9185
vn 0.2929 -0.1798 -0.9391
vn -0.8626 0.1356 -0.4874
vn -0.8202 0.3647 0.4407
vn -0.8542 0.2144 0.4736
vn -0.9304 0.1263 -0.3440
vn -0.9545 0.1026 -0.2801
vn -0.8535 0.1376 0.5026
vn -0.8572 0.0871 0.5076
vn -0.9528 0.0835 -0.2918
vn 0.9030 -0.0616 0.4251
vn 0.9000 -0.1132 -0.4210
vn 0.8992 -0.0726 -0.4315
vn 0.8996 -0.0538 0.4333
vn -0.9541 0.0667 -0.2919
vn -0.8569 0.0499 0.5131
vn -0.8555 0.0670 0.5135
vn -0.8095 0.1884 -0.5560
vn 0.2825 0.0071 -0.9592
vn -0.4466 0.0498 -0.8933
vn -0.4583 0.0608 -0.8867
vn 0.0615 0.1295 -0.9897
vn 0.8971 -0.0471 0.4393
vn 0.9032 -0.0317 -0.4281
vn 0.9045 -0.0043 -0.4266
vn 0.7949 0.0634 0.6034
vn -0.2240 0.0043 0.9746
vn 0.4162 -0.0272 0.9089
vn 0.4211 -0.0257 0.9066
vn -0.0057 0.0780 0.9969
vn 0.0570 0.9980 0.0254
vn -0.1526 -0.0893 -0.9842
vn 0.3867 0.1524 0.9095
vn 0.2894 0.0947 0.9525
vn 0.4828 0.2361 0.8433
vn 0.1675 0.9846 0.0506
vn 0.6465 0.3189 0.6930
vn 0.2716 0.3727 0.8873
vn 0.8218 0.2061 0.5312
vn 0.4809 0.1147 0.8693
vn 0.3544 0.1263 -0.9265
vn 0.5062 0.1083 -0.8556
vn 0.9315 0.1921 -0.3090
vn 0.9085 0.2803 -0.3100
vn 0.9049 0.1694 0.3904
vn 0.5421 0.1032 0.8339
vn 0.6010 0.1217 0.7899
vn 0.5865 0.0478 0.8085
vn 0.3898 0.0297 0.9204
vn -0.4965 0.2356 -0.8354
vn -0.9604 -0.1292 0.2467
vn -0.9338 -0.1314 -0.3329
vn -0.6020 -0.0643 0.7959
vn 0.9457 -0.2410 -0.2180
vn 0.3237 -0.1826 -0.9284
vn 0.7509 -0.0664 0.6571
vn 0.6785 0.0166 0.7344
vn -0.6044 -0.0814 -0.7925
vn -0.0332 0.0220 0.9992
usemtl None
s 1
f 168/1/1 81/2/2 3/3/3 52/4/4
f 167/5/5 70/6/6 6/7/7 107/8/8
f 166/9/9 102/10/10 9/11/11 101/12/12
f 165/13/13 129/14/14 10/15/15 89/16/16
f 164/17/17 62/18/18 8/19/19 86/20/20
f 163/21/21 110/22/22 15/23/23 128/24/24
f 162/25/25 96/26/26 17/27/27 85/28/28
f 161/29/29 108/30/30 14/31/31 61/32/32
f 160/33/33 78/34/34 16/35/35 46/36/36
f 159/37/37 76/38/38 18/39/39 67/40/40
f 158/41/41 95/42/42 20/43/43 127/44/44
f 157/45/45 109/46/46 22/47/47 113/48/48
f 156/49/49 49/50/50 19/51/51 130/52/52
f 155/53/53 106/54/54 21/55/55 50/56/56
f 154/57/57 75/58/58 23/59/59 94/60/60
f 20/61/43 69/62/61 106/63/54
f 153/64/62 80/65/63 26/66/64 79/67/65
f 152/68/66 48/69/67 24/70/68 69/71/61
f 151/72/69 60/73/70 25/74/71 93/75/72
f 150/76/73 47/77/74 27/78/75 73/79/76
f 26/80/64 80/81/63 59/82/77
f 149/83/78 132/84/79 30/85/80 99/86/81
f 10/15/15 71/87/82 100/88/83
f 148/89/84 58/90/85 34/91/86 118/92/87
f 147/93/88 83/94/89 35/95/90 98/96/91
f 146/97/92 66/98/93 32/99/94 92/100/95
f 145/101/96 88/102/97 7/103/98 114/104/99
f 144/105/100 65/106/101 37/107/102 87/108/103
f 143/109/104 57/110/105 39/111/106 115/112/107
f 142/113/108 123/114/109 36/115/110 74/116/111
f 141/117/112 124/118/113 31/119/114 63/120/115
f 140/121/116 117/122/117 40/123/118 64/124/119
f 139/125/120 126/126/121 38/127/122 120/128/123
f 138/129/124 103/130/125 41/131/126 125/132/127
f 137/133/128 104/134/129 42/135/130 68/136/131
f 136/137/132 56/138/133 43/139/134 53/140/135
f 135/141/136 45/142/137 44/143/138 97/144/139
f 43/145/134 68/146/131 82/147/140
f 12/148/141 89/16/16 66/98/93
f 2/149/142 121/150/143 111/151/144
f 28/152/145 122/153/146 112/154/147
f 134/155/148 105/156/149 2/149/142 122/153/146
f 133/157/150 71/87/82 10/15/15 101/12/12
f 44/158/138 53/159/135 97/160/139
f 27/161/75 47/162/74 48/163/67
f 48/163/67 59/82/77 24/164/68
f 48/163/67 47/162/74 59/82/77
f 47/162/74 26/80/64 59/82/77
f 97/160/139 82/147/140 41/165/126
f 97/160/139 53/159/135 82/147/140
f 53/159/135 43/145/134 82/147/140
f 55/166/151 133/157/150 101/12/12 9/11/11
f 13/167/152 131/168/153 133/157/150 55/166/151
f 131/168/153 28/169/145 71/87/82 133/157/150
f 131/170/153 134/155/148 122/153/146 28/152/145
f 13/171/152 51/172/154 134/155/148 131/170/153
f 51/172/154 5/173/155 105/156/149 134/155/148
f 112/154/147 111/151/144 29/174/156
f 112/154/147 122/153/146 111/151/144
f 122/153/146 2/149/142 111/151/144
f 111/151/144 84/175/157 29/174/156
f 111/151/144 121/150/143 84/175/157
f 121/150/143 1/176/158 84/175/157
f 66/98/93 100/88/83 32/99/94
f 66/98/93 89/16/16 100/88/83
f 89/16/16 10/15/15 100/88/83
f 82/147/140 125/177/127 41/165/126
f 82/147/140 68/146/131 125/177/127
f 68/146/131 42/178/130 125/177/127
f 103/179/125 135/141/136 97/144/139 41/180/126
f 40/181/118 115/182/107 135/141/136 103/179/125
f 115/182/107 39/183/106 45/142/137 135/141/136
f 45/142/137 136/137/132 53/140/135 44/143/138
f 39/183/106 120/184/123 136/137/132 45/142/137
f 120/184/123 38/185/122 56/138/133 136/137/132
f 56/138/133 137/133/128 68/136/131 43/139/134
f 38/185/122 87/186/103 137/133/128 56/138/133
f 87/186/103 37/187/102 104/134/129 137/133/128
f 104/134/129 138/129/124 125/132/127 42/135/130
f 37/187/102 64/188/119 138/129/124 104/134/129
f 64/188/119 40/189/118 103/130/125 138/129/124
f 57/110/105 139/125/120 120/128/123 39/111/106
f 30/85/80 98/96/91 139/125/120 57/110/105
f 98/96/91 35/95/90 126/126/121 139/125/120
f 65/106/101 140/121/116 64/124/119 37/107/102
f 36/115/110 63/120/115 140/121/116 65/106/101
f 63/120/115 31/119/114 117/122/117 140/121/116
f 123/114/109 141/117/112 63/120/115 36/115/110
f 32/190/94 72/191/159 141/117/112 123/114/109
f 72/191/159 28/192/145 124/118/113 141/117/112
f 83/94/89 142/113/108 74/116/111 35/95/90
f 34/193/86 92/194/95 142/113/108 83/94/89
f 92/194/95 32/190/94 123/114/109 142/113/108
f 117/195/117 143/109/104 115/112/107 40/196/118
f 31/197/114 99/86/81 143/109/104 117/195/117
f 99/86/81 30/85/80 57/110/105 143/109/104
f 126/126/121 144/105/100 87/108/103 38/127/122
f 35/95/90 74/116/111 144/105/100 126/126/121
f 74/116/111 36/115/110 65/106/101 144/105/100
f 91/198/160 145/101/96 114/104/99 11/199/161
f 4/200/162 52/4/4 145/101/96 91/198/160
f 52/4/4 3/3/3 88/102/97 145/101/96
f 58/90/85 146/97/92 92/100/95 34/91/86
f 33/201/163 54/202/164 146/97/92 58/90/85
f 54/202/164 12/148/141 66/98/93 146/97/92
f 132/84/79 147/93/88 98/96/91 30/85/80
f 29/203/156 118/204/87 147/93/88 132/84/79
f 118/204/87 34/193/86 83/94/89 147/93/88
f 84/175/157 148/89/84 118/92/87 29/174/156
f 1/176/158 119/205/165 148/89/84 84/175/157
f 119/205/165 33/201/163 58/90/85 148/89/84
f 100/88/83 72/206/159 32/99/94
f 100/88/83 71/87/82 72/206/159
f 71/87/82 28/169/145 72/206/159
f 124/207/113 149/83/78 99/86/81 31/197/114
f 28/208/145 112/209/147 149/83/78 124/207/113
f 112/209/147 29/203/156 132/84/79 149/83/78
f 59/82/77 60/210/70 24/164/68
f 59/82/77 80/81/63 60/210/70
f 80/81/63 25/211/71 60/210/70
f 49/212/50 150/76/73 73/79/76 19/213/51
f 23/214/59 79/67/65 150/76/73 49/212/50
f 79/67/65 26/66/64 47/77/74 150/76/73
f 109/215/46 151/72/69 93/75/72 22/216/47
f 21/217/55 77/218/166 151/72/69 109/215/46
f 77/218/166 24/219/68 60/73/70 151/72/69
f 95/220/42 152/68/66 69/71/61 20/221/43
f 19/213/51 73/79/76 152/68/66 95/220/42
f 73/79/76 27/78/75 48/69/67 152/68/66
f 75/222/58 153/64/62 79/67/65 23/214/59
f 22/216/47 93/75/72 153/64/62 75/222/58
f 93/75/72 25/74/71 80/65/63 153/64/62
f 106/63/54 77/218/166 21/217/55
f 106/63/54 69/62/61 77/218/166
f 69/62/61 24/219/68 77/218/166
f 96/223/26 154/57/57 94/60/60 17/224/27
f 16/225/35 113/48/48 154/57/57 96/223/26
f 113/48/48 22/47/47 75/58/58 154/57/57
f 110/226/22 155/53/53 50/56/56 15/227/23
f 14/228/31 127/229/44 155/53/53 110/226/22
f 127/229/44 20/230/43 106/54/54 155/53/53
f 76/231/38 156/49/49 130/52/52 18/232/39
f 17/224/27 94/60/60 156/49/49 76/231/38
f 94/60/60 23/59/59 49/50/50 156/49/49
f 78/233/34 157/45/45 113/48/48 16/225/35
f 15/227/23 50/56/56 157/45/45 78/233/34
f 50/56/56 21/55/55 109/46/46 157/45/45
f 108/234/30 158/41/41 127/44/44 14/235/31
f 18/232/39 130/52/52 158/41/41 108/234/30
f 130/52/52 19/51/51 95/42/42 158/41/41
f 102/10/10 159/37/37 67/40/40 9/11/11
f 8/19/19 85/28/28 159/37/37 102/10/10
f 85/28/28 17/27/27 76/38/38 159/37/37
f 70/6/6 160/33/33 46/36/36 6/7/7
f 5/173/155 128/24/24 160/33/33 70/6/6
f 128/24/24 15/23/23 78/34/34 160/33/33
f 55/166/151 161/29/29 61/32/32 13/167/152
f 9/11/11 67/40/40 161/29/29 55/166/151
f 67/40/40 18/39/39 108/30/30 161/29/29
f 62/18/18 162/25/25 85/28/28 8/19/19
f 6/7/7 46/36/36 162/25/25 62/18/18
f 46/36/36 16/35/35 96/26/26 162/25/25
f 51/172/154 163/21/21 128/24/24 5/173/155
f 13/171/152 61/236/32 163/21/21 51/172/154
f 61/236/32 14/237/31 110/22/22 163/21/21
f 88/102/97 164/17/17 86/20/20 7/103/98
f 3/3/3 107/8/8 164/17/17 88/102/97
f 107/8/8 6/7/7 62/18/18 164/17/17
f 116/238/167 165/13/13 89/16/16 12/148/141
f 11/199/161 114/104/99 165/13/13 116/238/167
f 114/104/99 7/103/98 129/14/14 165/13/13
f 129/14/14 166/9/9 101/12/12 10/15/15
f 7/103/98 86/20/20 166/9/9 129/14/14
f 86/20/20 8/19/19 102/10/10 166/9/9
f 81/2/2 167/5/5 107/8/8 3/3/3
f 2/149/142 105/156/149 167/5/5 81/2/2
f 105/156/149 5/173/155 70/6/6 167/5/5
f 90/239/168 168/1/1 52/4/4 4/200/162
f 1/176/158 121/150/143 168/1/1 90/239/168
f 121/150/143 2/149/142 81/2/2 168/1/1
