# Blender v2.78 (sub 0) OBJ File: ''
# www.blender.org
mtllib Birch_Tree_crk_m_05.mtl
o Birch_Tree_crk_m_05
v -0.877865 0.122259 -0.276273
v -0.783575 0.010215 -0.239835
v -1.632796 0.042307 -0.421550
v -1.667347 0.123541 -0.434544
v -0.763350 -0.004051 -0.157959
v -1.634813 0.030379 -0.353009
v -1.657730 0.119054 -0.356823
v -3.135316 0.269011 -1.008402
v -3.133016 0.223606 -1.007768
v -3.122696 0.229914 -1.041350
v -3.128047 0.270757 -1.045758
v -0.813061 0.095009 -0.166567
v -3.540316 0.670651 -1.152065
v -3.276973 0.459291 -1.225918
v -3.887341 0.792915 -1.759269
v -4.696776 0.829921 -2.090266
v -5.013949 0.894937 -1.925190
v -4.338991 0.911402 -1.439730
v -3.823433 0.416771 -1.914489
v -3.257082 0.166044 -1.253913
v -3.837210 0.093429 -1.785457
v -3.533239 -0.037485 -1.213019
v -4.291450 -0.017155 -1.821911
v -4.684253 0.389102 -2.305171
v -4.112648 -0.017476 -1.307966
v -3.542797 0.072123 -0.953364
v -4.371943 0.202386 -1.057332
v -5.036863 0.202420 -1.804531
v -4.969527 0.197806 -2.156780
v -3.466407 0.331426 -0.893454
v -4.147495 0.587739 -1.036734
v -5.042137 0.656427 -1.567824
v -5.366223 0.711805 -2.112309
v -5.272986 0.534769 -2.320076
v -0.006913 0.051387 -0.123841
v 0.039377 0.411971 -0.069026
v 0.154129 0.411211 0.020348
v 0.119319 0.038321 -0.015404
v 0.149276 1.170070 0.033986
v 0.229366 1.153409 0.101189
v 0.106818 0.409158 0.133834
v 0.189334 1.148261 0.199159
v 0.084503 1.161739 0.192505
v -0.034520 0.409329 0.118220
v 0.062709 0.038110 0.098886
v -0.090990 0.051756 0.087294
v 0.053748 1.181114 0.088160
v 0.209168 2.548320 0.210639
v 0.279251 2.543303 0.166290
v 0.341671 2.527073 0.218666
v 0.310165 2.522058 0.295386
v 0.228274 2.535188 0.290425
v 0.312103 4.038721 0.324352
v 0.301425 4.046202 0.279702
v 0.340652 4.043344 0.254869
v 0.375572 4.034097 0.284171
v 0.357928 4.031240 0.327113
v -0.118703 0.483095 -0.022088
v -0.189844 0.296684 0.010711
v -0.190432 0.023222 -0.093619
v -0.243297 0.224355 -0.095979
v -0.158879 0.291025 -0.125091
v 0.625571 4.268926 -0.225938
v 0.225048 4.043903 -0.100301
v 0.202179 5.188684 -0.405073
v 0.311682 6.340379 -0.242024
v 0.707115 6.592288 -0.091543
v 0.875256 5.485018 -0.178667
v -0.251951 5.137917 -0.033769
v 0.101544 3.842205 0.248352
v -0.324879 4.980937 0.437838
v 0.086271 4.078651 0.684238
v -0.172976 5.466775 0.787187
v -0.205495 6.370084 0.276774
v 0.276685 4.857808 0.949519
v 0.452373 3.930233 0.614578
v 0.814232 5.105738 0.808704
v 0.402888 6.355054 0.899676
v -0.011358 6.531775 0.722774
v 0.646655 3.909730 0.222129
v 1.035643 4.921152 0.284766
v 0.959055 6.309095 0.442653
v 0.593527 7.075015 0.307832
v 0.208129 7.076910 0.387245
v 0.305620 3.749871 0.427606
v -0.163779 0.026783 -0.006801
v 0.276564 3.360097 0.312195
v -4.706552 0.616070 -2.250023
v -3.816316 0.014905 -1.087781
v -0.246516 5.947885 0.552403
v -5.030483 0.495005 -2.353185
v 0.644274 5.762253 0.906336
v -0.222843 0.122112 -0.098089
v -5.251103 0.377264 -2.119543
v 0.379109 3.743266 0.220583
v 0.144874 0.740816 0.163928
v 0.088107 3.899287 0.480615
v 0.656184 4.027712 -0.017985
v -0.004994 0.038387 0.112011
v -0.127445 4.414868 0.105732
v 0.599920 5.919889 -0.291112
v -4.872658 0.281756 -2.258329
v -3.464360 0.508080 -0.988879
v -2.431765 0.139507 -0.746691
v -3.127741 0.222094 -1.024321
v 0.078149 0.038664 -0.074470
v 0.169579 4.592402 -0.273934
v -3.787540 -0.046095 -1.243125
v -3.370695 0.570827 -1.174473
v 0.870395 4.389245 0.266122
v 0.136020 0.193395 -0.001067
v -4.050467 0.030550 -1.816397
v 0.244142 5.721876 -0.362158
v -0.035316 4.509847 -0.088579
v -1.122443 0.002397 -0.223090
v -3.856958 0.628508 -1.858551
v -3.509248 0.118230 -1.530036
v 0.661196 6.860470 0.080393
v 0.364129 3.353719 0.256760
v -1.631545 0.028790 -0.386651
v -5.330480 0.625268 -2.220848
v -4.286875 0.404591 -1.024473
v -0.096923 6.102949 0.762515
v -0.120073 0.326014 0.062379
v 0.302354 4.042997 0.303171
v -5.297822 0.482581 -1.991668
v -5.016361 0.178593 -2.019685
v 0.251093 1.798360 0.248629
v -0.811633 0.066958 -0.257834
v -4.271689 0.068471 -1.183208
v 0.053195 5.135702 0.904237
v 0.082281 0.192437 0.115141
v 1.001484 5.183557 0.056656
v -0.072307 4.707970 0.760028
v -0.142056 0.179050 0.056240
v -5.066898 0.815075 -1.774168
v 0.136281 1.154181 0.204147
v 0.634661 4.431287 0.726502
v -0.066562 0.324025 -0.103557
v 0.314753 2.535188 0.187362
v -3.281834 0.240151 -1.027866
v -3.332602 0.108894 -1.046866
v -5.276993 0.678269 -1.877262
v 0.727109 6.399613 0.712224
v 0.403194 7.092099 0.347415
v -0.325557 5.078256 0.211441
v 0.139512 0.409719 0.080730
v -3.804726 0.642334 -1.057554
v -4.662726 0.045230 -1.810735
v 0.086719 6.835436 0.585245
v -0.029423 5.793475 -0.181867
v -0.117109 0.026365 -0.126493
v 0.215303 1.820953 0.100041
v -3.489544 0.007134 -1.061218
v -0.212053 0.255355 -0.113634
v -5.120985 0.800470 -2.152746
v -3.678897 0.752907 -1.439063
v -5.060946 0.695139 -2.264673
v -4.238511 0.222781 -2.072484
v 0.097795 0.759399 -0.017180
v -0.051565 0.458866 -0.057455
v -4.885395 0.897036 -1.992032
v -3.363255 0.045568 -1.215310
v -2.439272 0.130147 -0.695959
v -4.491329 0.159166 -2.100563
v 0.261832 3.370417 0.250594
v 0.334654 4.034445 0.330274
v -4.272593 0.418087 -2.149654
v -4.503412 0.920548 -1.778141
v -3.471816 0.269525 -1.582252
v -3.505477 0.183934 -0.908286
v -3.135412 0.245854 -1.004295
v 0.318674 4.045640 0.263451
v 0.982570 5.907507 0.119512
v 0.390473 4.347954 0.811125
v -4.764373 0.413941 -1.303144
v -0.748855 -0.000946 -0.194096
v 0.339786 3.349777 0.316005
v -0.067356 0.207994 0.107733
v -4.748077 0.190808 -1.407257
v 0.156815 1.812323 0.242792
v -4.558277 0.053047 -1.528321
v 0.782555 4.430520 0.531718
v 0.332013 2.523302 0.259447
v 0.287241 1.803693 0.160404
v -5.203558 0.824169 -2.027574
v -0.225322 0.258626 -0.048051
v 0.217034 1.149509 0.153242
v 0.027602 0.753427 0.155283
v 0.044550 0.411558 0.139905
v -4.244064 0.764402 -1.208773
v -0.091152 0.458154 0.050193
v -4.598600 0.625886 -1.257392
v -5.144442 0.349148 -2.251385
v 0.010869 6.412599 -0.005666
v -0.163175 0.382912 -0.003010
v 0.432492 3.842568 0.029648
v 0.535142 6.853163 0.614733
v -3.284411 0.393122 -1.024856
v -4.693480 0.095057 -2.029079
v -0.134656 4.463226 0.571348
v 0.423985 4.683706 -0.347701
v 0.134696 1.826286 0.150960
v 0.801160 6.125217 -0.137171
v 0.188255 0.744507 0.057340
v -0.827406 0.112196 -0.218706
v 0.537353 5.327585 -0.348291
v -1.160404 0.101286 -0.228912
v -0.764629 0.044291 -0.154969
v -3.868999 -0.054048 -1.498731
v -4.249521 0.828782 -1.922760
v 0.772161 6.796550 0.404673
v 0.194707 1.161739 0.061169
v -4.197959 -0.038519 -1.550470
v 0.168425 4.404147 0.831552
v 0.015118 0.208476 -0.104840
v -3.832603 0.239699 -1.881633
v -4.262541 0.638715 -2.065030
v -0.118071 6.517511 0.528180
v -2.450394 0.197324 -0.698042
v 0.466702 6.852344 0.013012
v 0.542650 5.008435 0.923720
v -1.650096 0.083533 -0.434511
v -3.485026 0.437478 -1.560630
v -1.203054 0.119044 -0.329631
v 0.970942 5.035702 0.552846
v 0.361061 4.038721 0.266006
v 0.061048 1.172246 0.142404
v -3.912076 0.116268 -0.963026
v 0.148407 6.480577 0.827739
v 0.268694 2.527843 0.299517
v -3.803543 0.453074 -0.930415
v -4.710509 0.814363 -1.473965
v -0.143841 0.380115 -0.082890
v -0.080541 0.176002 -0.130550
v -0.150316 4.370831 0.338847
v 0.918353 5.770350 0.680832
v -0.278270 5.215950 0.608899
v 0.104682 0.038216 0.047541
v -2.447491 0.198833 -0.753834
v 0.305212 6.867119 0.661425
v 0.862999 4.520536 0.005968
v -3.124125 0.250789 -1.047344
v 0.240768 2.547074 0.182883
v -3.131796 0.274549 -1.027317
v -0.037851 5.194350 -0.260597
v 0.097157 1.176918 0.054038
v -3.545520 0.625195 -1.509839
v 0.420520 4.104451 -0.190809
v 0.247808 6.839565 0.071014
v 1.046481 5.596089 0.385167
v 0.212301 2.542534 0.252198
v -3.643188 0.006545 -1.483841
v 0.268008 3.918293 0.653912
v -1.646246 0.074107 -0.348451
v 0.009325 6.818034 0.295368
v 0.113088 0.414532 -0.027512
v 0.565192 6.496787 -0.191034
v 0.763581 4.828226 -0.223905
v -1.664798 0.128851 -0.396311
v 0.329124 5.566507 0.974897
v 0.157534 3.916693 0.061795
v -4.095707 0.882589 -1.611546
v 0.850478 6.521554 0.139645
v -3.244356 0.312090 -1.234679
v -0.030970 0.793884 0.032233
v 0.315951 3.366475 0.216333
v -3.892661 0.259908 -0.909901
v -4.733903 0.916407 -1.707334
v 0.085657 5.893356 0.906694
v -5.106178 0.425796 -1.672336
v -1.131557 0.015782 -0.301989
v -0.257679 5.812258 0.092269
v 0.370937 4.031802 0.307305
v -3.903723 0.806518 -1.277648
v 0.558514 3.902956 0.438710
v -0.326394 5.674948 0.360601
v -0.724134 0.054926 -0.195129
v -0.201384 0.328124 -0.067624
v -0.011958 0.775683 0.095419
v 0.027158 0.779011 -0.000691
v 0.118795 0.192683 0.061031
v -0.196166 0.135039 -0.025442
v -0.164811 0.132934 -0.124118
v 0.356575 3.350791 0.288216
v 0.286284 3.369403 0.229235
v 0.307777 3.354346 0.319109
v 0.343292 3.360097 0.232671
v 0.264334 3.365849 0.282657
v 0.203373 1.804541 0.253174
v 0.256111 1.812323 0.124455
v 0.138507 1.820104 0.198745
v 0.276056 1.799732 0.207260
v 0.171101 1.824913 0.119193
v 0.174926 0.741766 0.113987
v 0.015757 0.193548 0.123234
v 0.087069 0.745094 0.169199
v 0.150361 0.750479 0.013690
v 0.092156 0.194947 -0.054879
v -2.434346 0.129300 -0.720922
v -2.450116 0.203605 -0.726341
v -1.186511 0.118996 -0.280733
v -1.139162 0.050481 -0.218154
v -2.439173 0.169645 -0.754916
v -2.445288 0.163260 -0.692347
v -1.122218 0.000258 -0.261078
v -1.169567 0.068774 -0.323657
vt 0.1348 0.1863
vt 0.1425 0.1795
vt 0.1447 0.2387
vt 0.1388 0.2418
vt 0.1484 0.1775
vt 0.1542 0.1754
vt 0.1554 0.2356
vt 0.1500 0.2371
vt 0.1617 0.3654
vt 0.1671 0.3666
vt 0.1644 0.4934
vt 0.1608 0.4931
vt 0.1439 0.3679
vt 0.1484 0.3660
vt 0.1520 0.4933
vt 0.1489 0.4941
vt 0.1621 0.1784
vt 0.1698 0.1814
vt 0.1697 0.2398
vt 0.1626 0.2377
vt 0.1772 0.1870
vt 0.1845 0.1926
vt 0.1808 0.2443
vt 0.1752 0.2420
vt 0.1712 0.3681
vt 0.1754 0.3695
vt 0.1700 0.4948
vt 0.1672 0.4941
vt 0.1523 0.3651
vt 0.1563 0.3641
vt 0.1572 0.4927
vt 0.1546 0.4930
vt 0.4256 0.0344
vt 0.4245 0.0298
vt 0.4316 0.0314
vt 0.4429 0.0347
vt 0.4431 0.0388
vt 0.4371 0.0395
vt 0.4423 0.0117
vt 0.4329 0.0184
vt 0.4309 0.0117
vt 0.4588 0.0651
vt 0.4588 0.0780
vt 0.4530 0.0712
vt 0.4472 0.0772
vt 0.4453 0.0850
vt 0.4430 0.0788
vt 0.4417 0.0693
vt 0.4426 0.0232
vt 0.4399 0.0200
vt 0.4347 0.0907
vt 0.4369 0.0957
vt 0.4297 0.0942
vt 0.4299 0.0873
vt 0.4251 0.0839
vt 0.4276 0.0797
vt 0.4319 0.0821
vt 0.4247 0.0977
vt 0.4319 0.0992
vt 0.4322 0.1055
vt 0.4202 0.0562
vt 0.4229 0.0453
vt 0.4258 0.0503
vt 0.4302 0.0587
vt 0.4161 0.1126
vt 0.4121 0.1031
vt 0.4204 0.1051
vt 0.4082 0.0936
vt 0.4166 0.0887
vt 0.4164 0.0957
vt 0.4543 0.0494
vt 0.4486 0.0421
vt 0.4579 0.0437
vt 0.4615 0.0379
vt 0.4522 0.0363
vt 0.4600 0.0298
vt 0.4189 0.0673
vt 0.4245 0.0714
vt 0.4220 0.0756
vt 0.4137 0.0719
vt 0.4085 0.0765
vt 0.4168 0.0802
vt 0.4083 0.0851
vt 0.4391 0.1007
vt 0.4413 0.0967
vt 0.4489 0.0958
vt 0.4235 0.0252
vt 0.4158 0.0310
vt 0.4376 0.0283
vt 0.4345 0.0363
vt 0.4402 0.0315
vt 0.4530 0.0840
vt 0.4474 0.0632
vt 0.4361 0.0613
vt 0.4374 0.0708
vt 0.4331 0.0684
vt 0.4503 0.0167
vt 0.4367 0.0855
vt 0.4391 0.0917
vt 0.4279 0.1129
vt 0.4142 0.0465
vt 0.4402 0.0613
vt 0.4358 0.0528
vt 0.4417 0.0521
vt 0.4473 0.0553
vt 0.4488 0.0461
vt 0.4275 0.0643
vt 0.4398 0.1133
vt 0.4394 0.1070
vt 0.4493 0.1021
vt 0.4082 0.0368
vt 0.4139 0.0243
vt 0.1396 0.1677
vt 0.1482 0.1804
vt 0.1386 0.1840
vt 0.1347 0.1698
vt 0.1503 0.2450
vt 0.1523 0.3097
vt 0.1406 0.3094
vt 0.1396 0.2467
vt 0.1082 0.2445
vt 0.1055 0.3092
vt 0.0937 0.3094
vt 0.0974 0.2427
vt 0.1204 0.1674
vt 0.1109 0.1797
vt 0.1011 0.1760
vt 0.1154 0.1653
vt 0.1293 0.2465
vt 0.1289 0.3092
vt 0.1172 0.3091
vt 0.1190 0.2463
vt 0.1709 0.4528
vt 0.1655 0.5954
vt 0.1561 0.5946
vt 0.1601 0.4523
vt 0.1284 0.4505
vt 0.1279 0.5918
vt 0.1185 0.5914
vt 0.1179 0.4503
vt 0.0858 0.4523
vt 0.0903 0.5947
vt 0.0809 0.5959
vt 0.0749 0.4531
vt 0.1495 0.4515
vt 0.1468 0.5934
vt 0.1374 0.5921
vt 0.1390 0.4507
vt 0.1073 0.4509
vt 0.1091 0.5925
vt 0.0997 0.5935
vt 0.0967 0.4514
vt 0.0581 0.7642
vt 0.0635 0.8709
vt 0.0604 0.8714
vt 0.0536 0.7649
vt 0.0849 0.7635
vt 0.0817 0.8703
vt 0.0787 0.8697
vt 0.0805 0.7628
vt 0.0670 0.7630
vt 0.0695 0.8699
vt 0.0665 0.8704
vt 0.0626 0.7636
vt 0.0938 0.7646
vt 0.0878 0.8712
vt 0.0847 0.8709
vt 0.0894 0.7642
vt 0.0760 0.7626
vt 0.0756 0.8695
vt 0.0725 0.8694
vt 0.0714 0.7624
vt 0.0770 0.1678
vt 0.0963 0.1434
vt 0.1382 0.1338
vt 0.1306 0.1357
vt 0.1307 0.1180
vt 0.1454 0.1135
vt 0.1206 0.1342
vt 0.1106 0.1327
vt 0.0916 0.1107
vt 0.1112 0.1143
vt 0.1300 0.1696
vt 0.1296 0.1837
vt 0.1207 0.1834
vt 0.1253 0.1695
vt 0.1296 0.1547
vt 0.1578 0.1767
vt 0.1445 0.1656
vt 0.1590 0.1428
vt 0.2033 0.1608
vt 0.1806 0.1687
vt 0.1817 0.1349
vt 0.1784 0.2395
vt 0.1609 0.2433
vt 0.0791 0.2388
vt 0.3054 0.0344
vt 0.3044 0.0298
vt 0.3115 0.0314
vt 0.3228 0.0347
vt 0.3230 0.0388
vt 0.3170 0.0395
vt 0.3222 0.0117
vt 0.3128 0.0184
vt 0.3108 0.0117
vt 0.3387 0.0651
vt 0.3387 0.0780
vt 0.3329 0.0712
vt 0.3271 0.0772
vt 0.3252 0.0850
vt 0.3228 0.0788
vt 0.3216 0.0693
vt 0.3225 0.0232
vt 0.3198 0.0200
vt 0.3145 0.0907
vt 0.3167 0.0957
vt 0.3095 0.0942
vt 0.3098 0.0873
vt 0.3050 0.0839
vt 0.3074 0.0797
vt 0.3118 0.0821
vt 0.3045 0.0977
vt 0.3117 0.0992
vt 0.3121 0.1055
vt 0.3001 0.0562
vt 0.3027 0.0453
vt 0.3056 0.0503
vt 0.3101 0.0587
vt 0.2960 0.1126
vt 0.2921 0.1031
vt 0.3002 0.1051
vt 0.2881 0.0936
vt 0.2966 0.0887
vt 0.2963 0.0957
vt 0.3342 0.0494
vt 0.3285 0.0421
vt 0.3378 0.0437
vt 0.3414 0.0379
vt 0.3321 0.0363
vt 0.3399 0.0298
vt 0.2988 0.0673
vt 0.3043 0.0714
vt 0.3019 0.0756
vt 0.2936 0.0719
vt 0.2883 0.0765
vt 0.2966 0.0802
vt 0.2882 0.0851
vt 0.3190 0.1007
vt 0.3212 0.0967
vt 0.3289 0.0958
vt 0.3034 0.0252
vt 0.2958 0.0310
vt 0.3175 0.0283
vt 0.3143 0.0363
vt 0.3202 0.0315
vt 0.3329 0.0840
vt 0.3274 0.0632
vt 0.3160 0.0613
vt 0.3173 0.0708
vt 0.3130 0.0684
vt 0.3302 0.0167
vt 0.3166 0.0855
vt 0.3189 0.0917
vt 0.3079 0.1129
vt 0.2941 0.0465
vt 0.3201 0.0613
vt 0.3156 0.0528
vt 0.3216 0.0521
vt 0.3271 0.0553
vt 0.3287 0.0461
vt 0.3074 0.0643
vt 0.3197 0.1133
vt 0.3194 0.1070
vt 0.3292 0.1021
vt 0.2881 0.0368
vt 0.2938 0.0243
vt 0.3401 0.9445
vt 0.3418 0.9591
vt 0.3310 0.9710
vt 0.3310 0.9527
vt 0.3044 0.9089
vt 0.3146 0.9207
vt 0.2976 0.9207
vt 0.2916 0.9103
vt 0.2943 0.8972
vt 0.2856 0.8998
vt 0.3029 0.8946
vt 0.3173 0.9076
vt 0.3316 0.9207
vt 0.3383 0.9298
vt 0.3310 0.9343
vt 0.3457 0.9254
vt 0.3492 0.9363
vt 0.3527 0.9472
vt 0.3015 0.0184
vt 0.2995 0.0117
vt 0.3387 0.0909
vt 0.3099 0.0755
vt 0.3232 0.0429
vt 0.3171 0.0436
vt 0.3111 0.0443
vt 0.2968 0.0356
vt 0.3186 0.0804
vt 0.3234 0.0927
vt 0.3210 0.0865
vt 0.3306 0.0281
vt 0.3383 0.0216
vt 0.3142 0.0780
vt 0.3310 0.0918
vt 0.3105 0.0268
vt 0.3083 0.0394
vt 0.3048 0.0908
vt 0.0813 0.3098
vt 0.0689 0.3102
vt 0.0609 0.2349
vt 0.0529 0.1595
vt 0.1960 0.2357
vt 0.1886 0.3105
vt 0.1763 0.3102
vt 0.1640 0.3100
vt 0.1602 0.1090
vt 0.1458 0.1318
vt 0.1313 0.1546
vt 0.1304 0.1556
vt 0.1300 0.1556
vt 0.1308 0.1556
vt 0.1305 0.1535
vt 0.1301 0.1541
vt 0.1309 0.1540
vt 0.0723 0.1351
vt 0.0764 0.6557
vt 0.0704 0.6555
vt 0.0823 0.6559
vt 0.0999 0.6580
vt 0.0940 0.6575
vt 0.1058 0.6584
vt 0.0983 0.7650
vt 0.0908 0.8715
vt 0.0645 0.6561
vt 0.0586 0.6567
vt 0.0881 0.6567
vt 0.0527 0.6575
vt 0.0468 0.6583
vt 0.1818 0.4534
vt 0.1750 0.5962
vt 0.1298 0.1551
vt 0.1310 0.1551
vt 0.4216 0.0184
vt 0.4196 0.0117
vt 0.4588 0.0909
vt 0.4300 0.0755
vt 0.4433 0.0429
vt 0.4373 0.0436
vt 0.4313 0.0443
vt 0.4169 0.0356
vt 0.4387 0.0804
vt 0.4435 0.0927
vt 0.4411 0.0865
vt 0.4507 0.0281
vt 0.4584 0.0216
vt 0.4344 0.0780
vt 0.4512 0.0918
vt 0.4305 0.0268
vt 0.4284 0.0394
vt 0.4249 0.0908
vt 0.1700 0.1230
vt 0.1791 0.1320
vt 0.1882 0.1410
vt 0.1531 0.1152
vt 0.1616 0.1191
vt 0.1394 0.3699
vt 0.1459 0.4949
vt 0.1329 0.2449
vt 0.1402 0.1204
vt 0.1467 0.1178
vt 0.1272 0.1930
vt 0.1215 0.1412
vt 0.1309 0.1308
vn 0.1956 -0.1299 -0.9720
vn 0.1252 -0.6726 -0.7293
vn 0.1639 -0.6620 -0.7314
vn 0.2991 -0.0439 -0.9532
vn 0.0003 -0.9880 -0.1547
vn -0.1571 -0.7436 0.6500
vn -0.2627 -0.7357 0.6243
vn -0.0385 -0.9867 -0.1581
vn -0.4075 -0.0427 0.9122
vn -0.2464 0.6610 0.7088
vn -0.2156 0.7307 0.6478
vn -0.4140 -0.0138 0.9102
vn 0.3829 -0.0116 -0.9237
vn 0.2291 -0.6299 -0.7421
vn 0.2563 -0.5775 -0.7751
vn 0.3929 0.0083 -0.9195
vn -0.2100 -0.0250 0.9774
vn -0.1557 0.6148 0.7732
vn -0.2281 0.6177 0.7526
vn -0.3247 -0.0445 0.9448
vn -0.0231 0.9826 0.1845
vn 0.1550 0.7139 -0.6828
vn 0.2718 0.7055 -0.6545
vn 0.0270 0.9956 0.0901
vn 0.0792 0.9959 0.0448
vn 0.3408 0.6855 -0.6434
vn 0.3451 0.6925 -0.6335
vn 0.0967 0.9952 0.0142
vn -0.0520 -0.9828 -0.1774
vn -0.3471 -0.7389 0.5776
vn -0.3595 -0.7290 0.5824
vn -0.0436 -0.9786 -0.2011
vn 0.3593 0.8607 0.3608
vn 0.6516 0.7451 0.1423
vn 0.4585 0.8846 -0.0849
vn 0.1754 0.7706 -0.6127
vn -0.0155 0.9525 -0.3041
vn 0.0803 0.9841 -0.1582
vn 0.5762 0.0710 -0.8142
vn 0.7576 0.2608 -0.5983
vn 0.7416 -0.1236 -0.6594
vn 0.5141 -0.3413 -0.7869
vn 0.4184 -0.6639 -0.6198
vn 0.3732 -0.8457 -0.3815
vn 0.2470 -0.8037 -0.5414
vn 0.3304 -0.4838 -0.8104
vn 0.3710 0.4356 -0.8201
vn 0.5490 0.4062 -0.7305
vn -0.1856 -0.9506 0.2489
vn -0.1306 -0.8821 0.4525
vn -0.2996 -0.8453 0.4424
vn -0.3325 -0.9140 0.2326
vn -0.6232 -0.7383 0.2581
vn -0.4690 -0.8762 -0.1112
vn -0.2742 -0.9616 -0.0128
vn -0.4422 -0.4034 0.8011
vn -0.1808 -0.5935 0.7842
vn -0.1581 -0.0822 0.9840
vn -0.2027 0.4719 0.8580
vn 0.0450 0.6988 0.7139
vn -0.1636 0.7253 0.6687
vn -0.4387 0.4203 0.7943
vn -0.3603 0.1576 0.9194
vn -0.6698 0.3082 0.6756
vn -0.7820 -0.2949 0.5490
vn -0.6285 -0.0644 0.7752
vn -0.8935 0.4200 -0.1589
vn -0.1848 0.8098 -0.5568
vn -0.8219 0.1971 -0.5345
vn -0.6062 -0.0462 -0.7940
vn -0.0381 0.5813 -0.8128
vn -0.0267 -0.0264 -0.9993
vn -0.4186 -0.6623 -0.6214
vn -0.7836 -0.6093 -0.1208
vn -0.9089 -0.3475 0.2306
vn -0.8382 0.2738 0.4717
vn 0.1180 -0.6399 0.7593
vn 0.2572 -0.8797 0.4000
vn 0.6661 -0.5719 0.4788
vn 0.8859 0.4343 -0.1630
vn 0.7903 0.3074 0.5300
vn 0.4548 0.7634 -0.4587
vn 0.2162 0.9732 -0.0778
vn 0.2811 0.7835 -0.5542
vn 0.5918 -0.5812 -0.5585
vn 0.4038 0.0225 -0.9146
vn 0.2191 -0.1751 -0.9598
vn 0.1437 -0.6953 -0.7042
vn -0.0246 -0.6062 -0.7949
vn -0.1369 -0.9893 0.0505
vn -0.0477 -0.9797 0.1945
vn -0.0573 0.3588 0.9317
vn -0.3686 0.7286 0.5773
vn -0.5032 0.7479 0.4329
vn -0.4757 0.8795 -0.0156
vn 0.2813 0.1252 0.9514
vn 0.2225 -0.2887 0.9312
vn 0.8238 -0.1809 0.5372
vn 0.6647 0.0264 -0.7466
vn 0.6444 0.0295 -0.7641
vn 0.9703 -0.0659 -0.2328
vn 0.9753 -0.0661 -0.2106
vn 0.6403 0.0204 -0.7679
vn 0.6446 0.0160 -0.7644
vn 0.9681 -0.0679 -0.2411
vn 0.9677 -0.0720 -0.2415
vn -0.0784 -0.0775 0.9939
vn -0.0759 -0.0720 0.9945
vn -0.6068 0.0129 0.7948
vn -0.5584 0.0149 0.8294
vn -0.0516 -0.0754 0.9958
vn -0.0718 -0.0714 0.9949
vn -0.4880 0.0461 0.8716
vn -0.4103 -0.0106 0.9119
vn 0.9187 -0.1330 0.3720
vn 0.9207 -0.1225 0.3704
vn 0.5250 -0.1258 0.8418
vn 0.5234 -0.1326 0.8417
vn -0.5107 0.1340 -0.8493
vn -0.5260 0.1007 -0.8445
vn 0.0789 0.0687 -0.9945
vn 0.0830 0.0885 -0.9926
vn 0.9222 -0.1064 0.3717
vn 0.9241 -0.0698 0.3757
vn 0.5312 -0.0698 0.8444
vn 0.5296 -0.1056 0.8416
vn -0.9619 0.0858 0.2598
vn -0.9672 0.0664 0.2451
vn -0.9237 0.1009 -0.3695
vn -0.9198 0.1367 -0.3679
vn 0.6455 0.0159 -0.7636
vn 0.6505 0.0162 -0.7593
vn 0.9716 -0.0371 -0.2336
vn 0.9683 -0.0585 -0.2430
vn -0.0703 -0.0592 0.9958
vn -0.0647 -0.0392 0.9971
vn -0.6344 0.0151 0.7729
vn -0.6345 0.0119 0.7728
vn -0.9691 0.0501 0.2414
vn -0.9726 0.0485 0.2274
vn -0.9199 0.0697 -0.3860
vn -0.9247 0.0733 -0.3737
vn 0.6467 0.0225 -0.7624
vn 0.6334 0.0222 -0.7735
vn 0.9635 -0.0063 -0.2678
vn 0.9716 -0.0115 -0.2362
vn -0.0623 -0.0169 0.9979
vn -0.0757 -0.0126 0.9971
vn -0.6720 0.0211 0.7403
vn -0.6396 0.0183 0.7685
vn -0.5292 0.0729 -0.8454
vn -0.5343 0.0690 -0.8424
vn 0.0352 0.0547 -0.9979
vn 0.0690 0.0557 -0.9961
vn 0.9252 -0.0351 0.3779
vn 0.9271 -0.0293 0.3738
vn 0.5210 -0.0286 0.8531
vn 0.5318 -0.0346 0.8462
vn -0.7962 0.2140 0.5659
vn -0.6345 0.1423 0.7597
vn -0.2389 -0.0700 -0.9685
vn -0.8989 -0.2215 -0.3781
vn -0.9465 0.0108 -0.3225
vn -0.5924 0.2384 -0.7695
vn -0.8589 -0.1671 0.4841
vn -0.6932 -0.0496 0.7190
vn -0.8030 0.1711 0.5710
vn -0.9546 0.1511 0.2567
vn 0.9023 -0.1283 0.4116
vn 0.9135 -0.1295 0.3857
vn 0.5213 -0.1308 0.8433
vn 0.5153 -0.1306 0.8470
vn -0.5277 -0.0919 0.8445
vn 0.2751 0.1503 -0.9496
vn 0.3738 0.0948 -0.9227
vn 0.1182 0.2477 -0.9616
vn -0.8243 0.4752 -0.3077
vn -0.1573 0.3153 -0.9359
vn -0.4524 0.5177 -0.7262
vn -0.3158 0.2077 -0.9258
vn 0.1868 0.1150 -0.9756
vn -0.8839 0.1296 0.4493
vn 0.4794 -0.3329 -0.8120
vn 0.0081 -0.4863 -0.8738
vn 0.0859 -0.1567 -0.9839
vn -0.2441 0.3070 -0.9198
vn 0.1924 0.3480 -0.9175
vn 0.3173 0.1332 -0.9389
vn -0.8563 -0.0639 -0.5126
vn -0.7086 -0.2776 -0.6487
vn -0.8763 -0.3311 -0.3501
vn -0.9788 -0.1020 -0.1775
vn -0.9687 -0.1639 0.1865
vn -0.8705 -0.2966 0.3927
vn -0.8949 -0.0519 0.4433
vn -0.9957 0.0846 0.0390
vn -0.6402 0.1742 -0.7482
vn -0.6266 -0.0245 -0.7789
vn -0.0760 -0.1479 0.9861
vn 0.2119 -0.3081 0.9275
vn 0.2983 -0.1238 0.9464
vn -0.0197 0.0204 0.9996
vn 0.1438 0.2575 0.9555
vn -0.2912 0.3171 0.9026
vn -0.3488 0.0988 0.9320
vn 0.6548 -0.1164 0.7468
vn 0.5950 -0.3153 0.7393
vn 0.8177 -0.3458 0.4602
vn 0.9832 -0.1818 0.0187
vn 0.8841 -0.2560 -0.3908
vn 0.9297 -0.0502 -0.3648
vn 0.9928 0.0379 0.1140
vn 0.8936 -0.1516 0.4226
vn 0.9416 0.2518 0.2238
vn 0.6222 0.2911 0.7267
vn 0.8034 0.0852 0.5893
vn 0.4386 0.8978 -0.0413
vn -0.0175 0.6503 -0.7595
vn 0.0035 1.0000 0.0019
vn -0.3956 0.9173 0.0453
vn -0.4047 0.6022 -0.6882
vn -0.7964 0.5534 -0.2441
vn -0.6170 0.5835 0.5281
vn -0.0527 0.6235 0.7801
vn 0.3996 0.5767 0.7125
vn 0.8396 0.4872 0.2402
vn 0.4585 -0.5796 0.6737
vn -0.1050 -0.6357 0.7647
vn -0.0303 -0.9556 0.2931
vn -0.4357 -0.4957 -0.7513
vn 0.1520 -0.8094 -0.5672
vn -0.2110 -0.0217 -0.9772
vn 0.2979 0.0154 -0.9545
vn -0.2007 0.1408 -0.9695
vn -0.9355 -0.3531 0.0162
vn -0.8899 0.1504 -0.4307
vn -0.9305 0.3088 -0.1971
vn -0.9285 0.1575 0.3364
vn -0.8924 0.3552 0.2784
vn -0.4052 -0.0651 0.9119
vn -0.2612 -0.2654 0.9281
vn 0.9269 -0.3660 0.0831
vn 0.9449 0.1334 -0.2989
vn 0.9051 0.3135 -0.2872
vn 0.5807 0.6059 -0.5438
vn 0.7491 -0.6625 -0.0003
vn 0.6731 -0.6421 0.3670
vn 0.1153 -0.9779 -0.1745
vn -0.8458 0.4751 -0.2428
vn -0.8574 0.4168 0.3019
vn 0.9387 0.3324 -0.0912
vn 0.3346 0.9418 -0.0322
vn 0.1242 0.6472 0.7521
vn 0.4101 0.2251 0.8838
vn 0.6918 -0.7099 -0.1322
vn 0.2910 -0.6627 0.6900
vn 0.3683 -0.5784 -0.7278
vn 0.4612 0.1807 -0.8687
vn 0.2114 0.7173 -0.6639
vn -0.1896 0.2908 -0.9378
vn -0.5527 -0.6305 -0.5449
vn -0.6697 -0.7218 -0.1746
vn -0.6532 0.3540 0.6693
vn 0.5859 0.4030 -0.7031
vn 0.7080 0.1784 -0.6834
vn 0.7146 0.0346 -0.6986
vn 0.6780 -0.5571 -0.4796
vn -0.7116 0.0223 0.7022
vn -0.5707 -0.4402 0.6931
vn -0.6706 -0.1840 0.7186
vn -0.6563 0.3443 -0.6714
vn -0.7076 0.1727 0.6852
vn -0.7002 -0.6418 0.3128
vn -0.4122 -0.2404 -0.8788
vn 0.6293 -0.1062 -0.7698
vn 0.4217 0.0813 0.9031
vn -0.9369 0.1070 0.3327
vn -0.9126 0.1885 -0.3627
vn -0.8980 0.2639 -0.3520
vn -0.4398 0.1680 -0.8822
vn 0.1207 0.1021 -0.9874
vn 0.0749 0.0587 -0.9955
vn 0.2823 0.0282 -0.9589
vn 0.8970 -0.1329 0.4216
vn 0.5009 -0.1347 0.8549
vn 0.9715 -0.0691 -0.2268
vn -0.8642 -0.2740 -0.4221
vn -0.8475 -0.1938 0.4941
vn -0.1689 -0.0819 -0.9822
vn -0.0517 -0.0866 0.9949
vn 0.6672 0.0172 -0.7447
vn 0.9769 0.0728 -0.2010
vn 0.8996 -0.3711 -0.2300
vn -0.2675 -0.8344 -0.4820
vn -0.2742 0.9612 0.0289
vn -0.1807 0.9639 0.1953
vn -0.0497 0.9461 0.3200
vn 0.3169 0.6116 0.7249
vn 0.0136 -0.9439 -0.3300
vn 0.2496 -0.9683 0.0061
vn 0.1136 -0.9786 -0.1717
vn 0.2438 0.4223 -0.8731
vn -0.1018 -0.9022 -0.4192
vn 0.5992 -0.7936 -0.1056
vn 0.6900 0.5898 -0.4196
vn 0.1601 0.9251 0.3443
vn -0.5747 -0.6368 0.5139
usemtl None
s 1
f 307/1/1 272/2/2 3/3/3 223/4/4
f 306/5/5 115/6/6 6/7/7 120/8/8
f 305/9/9 220/10/10 8/11/11 172/12/12
f 304/13/13 104/14/14 10/15/15 243/16/16
f 303/17/17 208/18/18 7/19/19 255/20/20
f 302/21/21 225/22/22 4/23/23 260/24/24
f 301/25/25 240/26/26 11/27/27 245/28/28
f 300/29/29 164/30/30 9/31/31 105/32/32
f 13/33/33 109/34/34 157/35/35
f 16/36/36 162/37/37 169/38/38
f 19/39/39 224/40/40 170/41/41
f 19/42/39 170/43/41 217/44/42
f 21/45/43 253/46/44 112/47/45
f 21/45/43 112/47/45 159/48/46
f 19/39/39 218/49/47 116/50/48
f 25/51/49 89/52/50 130/53/51
f 25/51/49 130/53/51 182/54/52
f 28/55/53 127/56/54 149/57/55
f 27/58/56 229/59/57 268/60/58
f 31/61/59 148/62/60 191/63/61
f 31/61/59 191/63/61 193/64/62
f 31/65/59 193/66/62 122/67/63
f 32/68/64 271/69/65 176/70/66
f 33/71/67 156/72/68 121/73/69
f 34/74/70 158/75/71 91/76/72
f 34/77/70 194/78/73 94/79/74
f 34/77/70 94/79/74 121/80/69
f 33/81/67 126/82/75 143/83/76
f 26/84/77 154/85/78 142/86/79
f 14/87/80 109/34/34 199/88/81
f 15/89/82 263/90/83 157/35/35
f 15/89/82 211/91/84 263/90/83
f 19/39/39 116/50/48 224/40/40
f 21/45/43 117/92/85 253/46/44
f 19/42/39 217/44/42 168/93/86
f 24/94/87 165/95/88 102/96/89
f 19/39/39 168/97/86 218/49/47
f 25/51/49 214/98/90 108/99/91
f 25/51/49 108/99/91 89/52/50
f 25/51/49 182/54/52 214/98/90
f 31/65/59 122/67/63 232/100/92
f 31/61/59 232/101/92 148/62/60
f 32/102/64 233/103/93 136/104/94
f 33/71/67 143/105/76 186/106/95
f 33/71/67 186/106/95 156/72/68
f 34/77/70 91/107/72 194/78/73
f 30/108/96 171/109/97 141/110/98
f 30/111/96 141/112/98 199/88/81
f 299/113/99 257/114/100 37/115/101 111/116/102
f 298/117/103 213/118/104 40/119/105 205/120/106
f 297/121/107 137/122/108 43/123/109 189/124/110
f 296/125/111 190/126/112 44/127/113 179/128/114
f 295/129/115 188/130/116 42/131/117 96/132/118
f 294/133/119 244/134/120 49/135/121 153/136/122
f 293/137/123 184/138/124 51/139/125 128/140/126
f 292/141/127 252/142/128 48/143/129 203/144/130
f 291/145/131 140/146/132 50/147/133 185/148/134
f 290/149/135 231/150/136 52/151/137 181/152/138
f 289/153/139 125/154/140 54/155/141 166/156/142
f 288/157/143 227/158/144 56/159/145 119/160/146
f 287/161/147 167/162/148 53/163/149 87/164/150
f 286/165/151 173/166/152 55/167/153 267/168/154
f 285/169/155 274/170/156 57/171/157 178/172/158
f 44/127/113 192/173/159 124/174/160
f 284/175/161 93/176/162 61/177/163 155/178/164
f 283/179/165 135/180/166 59/181/167 187/182/168
f 282/183/169 147/184/170 41/185/171 132/186/172
f 46/187/173 179/128/114 135/180/166
f 36/188/174 216/189/175 139/190/176
f 58/191/177 161/192/178 234/193/179
f 281/194/180 160/195/181 36/188/174 161/192/178
f 280/196/182 192/173/159 44/127/113 189/124/110
f 63/197/183 249/198/184 202/199/185
f 66/200/186 258/201/187 101/202/188
f 69/203/189 114/204/190 100/205/191
f 69/206/189 100/207/191 146/208/192
f 71/209/193 201/210/194 238/211/195
f 71/209/193 238/211/195 277/212/196
f 69/203/189 151/213/197 246/214/198
f 75/215/199 175/216/200 222/217/201
f 75/215/199 222/217/201 261/218/202
f 78/219/203 230/220/204 270/221/205
f 77/222/206 138/223/207 183/224/208
f 81/225/209 242/226/210 133/227/211
f 81/225/209 133/227/211 251/228/212
f 81/229/209 251/230/212 226/231/213
f 82/232/214 144/233/215 237/234/216
f 83/235/217 221/236/218 145/237/219
f 84/238/220 250/239/221 256/240/222
f 84/241/220 150/242/223 241/243/224
f 84/241/220 241/243/224 145/244/219
f 83/245/217 198/246/225 212/247/226
f 76/248/227 254/249/228 85/250/229
f 64/251/230 249/198/184 197/252/231
f 65/253/232 207/254/233 202/199/185
f 65/253/232 113/255/234 207/254/233
f 69/203/189 246/214/198 114/204/190
f 71/209/193 236/256/235 201/210/194
f 69/206/189 146/208/192 273/257/236
f 74/258/237 90/259/238 219/260/239
f 69/203/189 273/261/236 151/213/197
f 75/215/199 131/262/240 215/263/241
f 75/215/199 215/263/241 175/216/200
f 75/215/199 261/218/202 131/262/240
f 81/229/209 226/231/213 110/264/242
f 81/225/209 110/265/242 242/226/210
f 82/266/214 174/267/243 264/268/244
f 83/235/217 212/269/226 118/270/245
f 83/235/217 118/270/245 221/236/218
f 84/241/220 256/271/222 150/242/223
f 80/272/246 276/273/247 95/274/248
f 80/275/246 95/276/248 197/252/231
f 279/277/249 196/278/250 58/279/177 234/280/179
f 278/281/251 206/282/252 12/283/253 209/284/254
f 177/285/255 278/281/251 209/284/254 5/286/256
f 2/287/257 129/288/258 278/281/251 177/285/255
f 129/288/258 1/289/259 206/282/252 278/281/251
f 155/290/164 279/277/249 234/280/179 62/291/260
f 61/292/163 187/293/168 279/277/249 155/290/164
f 187/293/168 59/294/167 196/278/250 279/277/249
f 197/252/231 262/295/261 64/251/230
f 197/252/231 95/276/248 262/295/261
f 95/276/248 70/296/262 262/295/261
f 95/274/248 85/250/229 70/297/262
f 95/274/248 276/273/247 85/250/229
f 276/273/247 76/248/227 85/250/229
f 150/242/223 219/260/239 79/298/263
f 150/242/223 256/271/222 219/260/239
f 256/271/222 74/258/237 219/260/239
f 221/236/218 258/201/187 66/200/186
f 221/236/218 118/270/245 258/201/187
f 118/270/245 67/299/264 258/201/187
f 118/270/245 264/268/244 67/299/264
f 118/270/245 212/269/226 264/268/244
f 212/269/226 82/266/214 264/268/244
f 264/268/244 204/300/265 67/299/264
f 264/268/244 174/267/243 204/300/265
f 174/267/243 68/301/266 204/300/265
f 242/226/210 98/302/267 63/197/183
f 242/226/210 110/265/242 98/302/267
f 110/265/242 80/275/246 98/302/267
f 110/264/242 183/224/208 80/272/246
f 110/264/242 226/231/213 183/224/208
f 226/231/213 77/222/206 183/224/208
f 131/262/240 270/221/205 73/303/268
f 131/262/240 261/218/202 270/221/205
f 261/218/202 78/219/203 270/221/205
f 175/216/200 254/249/228 76/248/227
f 175/216/200 215/263/241 254/249/228
f 215/263/241 72/304/269 254/249/228
f 215/263/241 134/305/270 72/304/269
f 215/263/241 131/262/240 134/305/270
f 131/262/240 73/303/268 134/305/270
f 151/213/197 195/306/271 66/200/186
f 151/213/197 273/261/236 195/306/271
f 273/261/236 74/307/237 195/306/271
f 219/260/239 123/308/272 79/298/263
f 219/260/239 90/259/238 123/308/272
f 90/259/238 73/303/268 123/308/272
f 273/257/236 277/212/196 74/258/237
f 273/257/236 146/208/192 277/212/196
f 146/208/192 71/209/193 277/212/196
f 201/210/194 97/309/273 72/304/269
f 201/210/194 236/256/235 97/309/273
f 236/256/235 70/297/262 97/309/273
f 114/204/190 107/310/274 64/251/230
f 114/204/190 246/214/198 107/310/274
f 246/214/198 65/253/232 107/310/274
f 207/254/233 101/202/188 68/301/266
f 207/254/233 113/255/234 101/202/188
f 113/255/234 66/200/186 101/202/188
f 202/199/185 259/311/275 63/197/183
f 202/199/185 207/254/233 259/311/275
f 207/254/233 68/301/266 259/311/275
f 197/252/231 98/302/267 80/275/246
f 197/252/231 249/198/184 98/302/267
f 249/198/184 63/197/183 98/302/267
f 85/250/229 97/309/273 70/297/262
f 85/250/229 254/249/228 97/309/273
f 254/249/228 72/304/269 97/309/273
f 212/247/226 144/233/215 82/232/214
f 212/247/226 198/246/225 144/233/215
f 198/246/225 78/219/203 144/233/215
f 145/244/219 198/246/225 83/245/217
f 145/244/219 241/243/224 198/246/225
f 241/243/224 78/219/203 198/246/225
f 241/243/224 230/220/204 78/219/203
f 241/243/224 150/242/223 230/220/204
f 150/242/223 79/298/263 230/220/204
f 256/240/222 195/306/271 74/307/237
f 256/240/222 250/239/221 195/306/271
f 250/239/221 66/200/186 195/306/271
f 145/237/219 250/239/221 84/238/220
f 145/237/219 221/236/218 250/239/221
f 221/236/218 66/200/186 250/239/221
f 237/234/216 92/312/276 77/222/206
f 237/234/216 144/233/215 92/312/276
f 144/233/215 78/219/203 92/312/276
f 226/231/213 237/234/216 77/222/206
f 226/231/213 251/230/212 237/234/216
f 251/230/212 82/232/214 237/234/216
f 251/228/212 174/267/243 82/266/214
f 251/228/212 133/227/211 174/267/243
f 133/227/211 68/301/266 174/267/243
f 133/227/211 259/311/275 68/301/266
f 133/227/211 242/226/210 259/311/275
f 242/226/210 63/197/183 259/311/275
f 183/224/208 276/273/247 80/272/246
f 183/224/208 138/223/207 276/273/247
f 138/223/207 76/248/227 276/273/247
f 270/221/205 123/308/272 73/303/268
f 270/221/205 230/220/204 123/308/272
f 230/220/204 79/298/263 123/308/272
f 261/218/202 92/312/276 78/219/203
f 261/218/202 222/217/201 92/312/276
f 222/217/201 77/222/206 92/312/276
f 222/217/201 138/223/207 77/222/206
f 222/217/201 175/216/200 138/223/207
f 175/216/200 76/248/227 138/223/207
f 246/214/198 113/255/234 65/253/232
f 246/214/198 151/213/197 113/255/234
f 151/213/197 66/200/186 113/255/234
f 277/212/196 90/259/238 74/258/237
f 277/212/196 238/211/195 90/259/238
f 238/211/195 73/303/268 90/259/238
f 238/211/195 134/305/270 73/303/268
f 238/211/195 201/210/194 134/305/270
f 201/210/194 72/304/269 134/305/270
f 146/208/192 236/256/235 71/209/193
f 146/208/192 100/207/191 236/256/235
f 100/207/191 70/297/262 236/256/235
f 100/205/191 262/295/261 70/296/262
f 100/205/191 114/204/190 262/295/261
f 114/204/190 64/251/230 262/295/261
f 101/202/188 204/300/265 68/301/266
f 101/202/188 258/201/187 204/300/265
f 258/201/187 67/299/264 204/300/265
f 202/199/185 107/310/274 65/253/232
f 202/199/185 249/198/184 107/310/274
f 249/198/184 64/251/230 107/310/274
f 228/313/277 280/196/182 189/124/110 43/123/109
f 47/314/278 266/315/279 280/196/182 228/313/277
f 266/315/279 58/316/177 192/173/159 280/196/182
f 266/317/279 281/194/180 161/192/178 58/191/177
f 47/318/278 247/319/280 281/194/180 266/317/279
f 247/319/280 39/320/281 160/195/181 281/194/180
f 234/193/179 139/190/176 62/321/260
f 234/193/179 161/192/178 139/190/176
f 161/192/178 36/188/174 139/190/176
f 139/190/176 235/322/282 62/321/260
f 139/190/176 216/189/175 235/322/282
f 216/189/175 35/323/283 235/322/282
f 135/180/166 124/174/160 59/181/167
f 135/180/166 179/128/114 124/174/160
f 179/128/114 44/127/113 124/174/160
f 239/324/284 282/183/169 132/186/172 45/325/285
f 38/326/286 111/116/102 282/183/169 239/324/284
f 111/116/102 37/115/101 147/184/170 282/183/169
f 93/176/162 283/179/165 187/182/168 61/177/163
f 60/327/287 86/328/288 283/179/165 93/176/162
f 86/328/288 46/187/173 135/180/166 283/179/165
f 235/322/282 284/175/161 155/178/164 62/321/260
f 35/323/283 152/329/289 284/175/161 235/322/282
f 152/329/289 60/327/287 93/176/162 284/175/161
f 124/174/160 196/330/250 59/181/167
f 124/174/160 192/173/159 196/330/250
f 192/173/159 58/316/177 196/330/250
f 184/331/124 285/169/155 178/172/158 51/332/125
f 50/333/133 119/160/146 285/169/155 184/331/124
f 119/160/146 56/159/145 274/170/156 285/169/155
f 244/334/120 286/165/151 267/168/154 49/335/121
f 48/336/129 166/337/142 286/165/151 244/334/120
f 166/337/142 54/338/141 173/166/152 286/165/151
f 231/339/136 287/161/147 87/164/150 52/340/137
f 51/332/125 178/172/158 287/161/147 231/339/136
f 178/172/158 57/171/157 167/162/148 287/161/147
f 140/341/132 288/157/143 119/160/146 50/333/133
f 49/335/121 267/168/154 288/157/143 140/341/132
f 267/168/154 55/167/153 227/158/144 288/157/143
f 252/342/128 289/153/139 166/156/142 48/343/129
f 52/340/137 87/164/150 289/153/139 252/342/128
f 87/164/150 53/163/149 125/154/140 289/153/139
f 137/122/108 290/149/135 181/152/138 43/123/109
f 42/131/117 128/140/126 290/149/135 137/122/108
f 128/140/126 51/139/125 231/150/136 290/149/135
f 213/118/104 291/145/131 185/148/134 40/119/105
f 39/320/281 153/136/122 291/145/131 213/118/104
f 153/136/122 49/135/121 140/146/132 291/145/131
f 228/313/277 292/141/127 203/144/130 47/314/278
f 43/123/109 181/152/138 292/141/127 228/313/277
f 181/152/138 52/151/137 252/142/128 292/141/127
f 188/130/116 293/137/123 128/140/126 42/131/117
f 40/119/105 185/148/134 293/137/123 188/130/116
f 185/148/134 50/147/133 184/138/124 293/137/123
f 247/319/280 294/133/119 153/136/122 39/320/281
f 47/318/278 203/344/130 294/133/119 247/319/280
f 203/344/130 48/345/129 244/134/120 294/133/119
f 147/184/170 295/129/115 96/132/118 41/185/171
f 37/115/101 205/120/106 295/129/115 147/184/170
f 205/120/106 40/119/105 188/130/116 295/129/115
f 99/346/290 296/125/111 179/128/114 46/187/173
f 45/325/285 132/186/172 296/125/111 99/346/290
f 132/186/172 41/185/171 190/126/112 296/125/111
f 190/126/112 297/121/107 189/124/110 44/127/113
f 41/185/171 96/132/118 297/121/107 190/126/112
f 96/132/118 42/131/117 137/122/108 297/121/107
f 257/114/100 298/117/103 205/120/106 37/115/101
f 36/188/174 160/195/181 298/117/103 257/114/100
f 160/195/181 39/320/281 213/118/104 298/117/103
f 106/347/291 299/113/99 111/116/102 38/326/286
f 35/323/283 216/189/175 299/113/99 106/347/291
f 216/189/175 36/188/174 257/114/100 299/113/99
f 199/88/81 265/348/292 14/87/80
f 199/88/81 141/112/98 265/348/292
f 141/112/98 20/349/293 265/348/292
f 141/110/98 142/86/79 20/350/293
f 141/110/98 171/109/97 142/86/79
f 171/109/97 26/84/77 142/86/79
f 194/78/73 102/96/89 29/351/294
f 194/78/73 91/107/72 102/96/89
f 91/107/72 24/94/87 102/96/89
f 156/72/68 162/37/37 16/36/36
f 156/72/68 186/106/95 162/37/37
f 186/106/95 17/352/295 162/37/37
f 186/106/95 136/104/94 17/352/295
f 186/106/95 143/105/76 136/104/94
f 143/105/76 32/102/64 136/104/94
f 136/104/94 269/353/296 17/352/295
f 136/104/94 233/103/93 269/353/296
f 233/103/93 18/354/297 269/353/296
f 148/62/60 103/355/298 13/33/33
f 148/62/60 232/101/92 103/355/298
f 232/101/92 30/111/96 103/355/298
f 232/100/92 268/60/58 30/108/96
f 232/100/92 122/67/63 268/60/58
f 122/67/63 27/58/56 268/60/58
f 214/98/90 149/57/55 23/356/299
f 214/98/90 182/54/52 149/57/55
f 182/54/52 28/55/53 149/57/55
f 89/52/50 154/85/78 26/84/77
f 89/52/50 108/99/91 154/85/78
f 108/99/91 22/357/300 154/85/78
f 108/99/91 210/358/301 22/357/300
f 108/99/91 214/98/90 210/358/301
f 214/98/90 23/356/299 210/358/301
f 218/49/47 88/359/302 16/36/36
f 218/49/47 168/97/86 88/359/302
f 168/97/86 24/360/87 88/359/302
f 102/96/89 200/361/303 29/351/294
f 102/96/89 165/95/88 200/361/303
f 165/95/88 23/356/299 200/361/303
f 168/93/86 159/48/46 24/94/87
f 168/93/86 217/44/42 159/48/46
f 217/44/42 21/45/43 159/48/46
f 253/46/44 163/362/304 22/357/300
f 253/46/44 117/92/85 163/362/304
f 117/92/85 20/350/293 163/362/304
f 224/40/40 248/363/305 14/87/80
f 224/40/40 116/50/48 248/363/305
f 116/50/48 15/89/82 248/363/305
f 263/90/83 169/38/38 18/354/297
f 263/90/83 211/91/84 169/38/38
f 211/91/84 16/36/36 169/38/38
f 157/35/35 275/364/306 13/33/33
f 157/35/35 263/90/83 275/364/306
f 263/90/83 18/354/297 275/364/306
f 199/88/81 103/355/298 30/111/96
f 199/88/81 109/34/34 103/355/298
f 109/34/34 13/33/33 103/355/298
f 142/86/79 163/362/304 20/350/293
f 142/86/79 154/85/78 163/362/304
f 154/85/78 22/357/300 163/362/304
f 143/83/76 271/69/65 32/68/64
f 143/83/76 126/82/75 271/69/65
f 126/82/75 28/55/53 271/69/65
f 121/80/69 126/82/75 33/81/67
f 121/80/69 94/79/74 126/82/75
f 94/79/74 28/55/53 126/82/75
f 94/79/74 127/56/54 28/55/53
f 94/79/74 194/78/73 127/56/54
f 194/78/73 29/351/294 127/56/54
f 91/76/72 88/359/302 24/360/87
f 91/76/72 158/75/71 88/359/302
f 158/75/71 16/36/36 88/359/302
f 121/73/69 158/75/71 34/74/70
f 121/73/69 156/72/68 158/75/71
f 156/72/68 16/36/36 158/75/71
f 176/70/66 180/365/307 27/58/56
f 176/70/66 271/69/65 180/365/307
f 271/69/65 28/55/53 180/365/307
f 122/67/63 176/70/66 27/58/56
f 122/67/63 193/66/62 176/70/66
f 193/66/62 32/68/64 176/70/66
f 193/64/62 233/103/93 32/102/64
f 193/64/62 191/63/61 233/103/93
f 191/63/61 18/354/297 233/103/93
f 191/63/61 275/364/306 18/354/297
f 191/63/61 148/62/60 275/364/306
f 148/62/60 13/33/33 275/364/306
f 268/60/58 171/109/97 30/108/96
f 268/60/58 229/59/57 171/109/97
f 229/59/57 26/84/77 171/109/97
f 149/57/55 200/361/303 23/356/299
f 149/57/55 127/56/54 200/361/303
f 127/56/54 29/351/294 200/361/303
f 182/54/52 180/365/307 28/55/53
f 182/54/52 130/53/51 180/365/307
f 130/53/51 27/58/56 180/365/307
f 130/53/51 229/59/57 27/58/56
f 130/53/51 89/52/50 229/59/57
f 89/52/50 26/84/77 229/59/57
f 116/50/48 211/91/84 15/89/82
f 116/50/48 218/49/47 211/91/84
f 218/49/47 16/36/36 211/91/84
f 159/48/46 165/95/88 24/94/87
f 159/48/46 112/47/45 165/95/88
f 112/47/45 23/356/299 165/95/88
f 112/47/45 210/358/301 23/356/299
f 112/47/45 253/46/44 210/358/301
f 253/46/44 22/357/300 210/358/301
f 217/44/42 117/92/85 21/45/43
f 217/44/42 170/43/41 117/92/85
f 170/43/41 20/350/293 117/92/85
f 170/41/41 265/348/292 20/349/293
f 170/41/41 224/40/40 265/348/292
f 224/40/40 14/87/80 265/348/292
f 169/38/38 269/353/296 18/354/297
f 169/38/38 162/37/37 269/353/296
f 162/37/37 17/352/295 269/353/296
f 157/35/35 248/363/305 15/89/82
f 157/35/35 109/34/34 248/363/305
f 109/34/34 14/87/80 248/363/305
f 104/14/14 300/29/29 105/32/32 10/15/15
f 3/3/3 120/8/8 300/29/29 104/14/14
f 120/8/8 6/7/7 164/30/30 300/29/29
f 220/10/10 301/25/25 245/28/28 8/11/11
f 7/19/19 260/24/24 301/25/25 220/10/10
f 260/24/24 4/23/23 240/26/26 301/25/25
f 208/18/18 302/21/21 260/24/24 7/19/19
f 12/366/253 206/367/252 302/21/21 208/18/18
f 206/367/252 1/368/259 225/22/22 302/21/21
f 115/6/6 303/17/17 255/20/20 6/7/7
f 5/369/256 209/370/254 303/17/17 115/6/6
f 209/370/254 12/366/253 208/18/18 303/17/17
f 240/371/26 304/13/13 243/16/16 11/372/27
f 4/373/23 223/4/4 304/13/13 240/371/26
f 223/4/4 3/3/3 104/14/14 304/13/13
f 164/30/30 305/9/9 172/12/12 9/31/31
f 6/7/7 255/20/20 305/9/9 164/30/30
f 255/20/20 7/19/19 220/10/10 305/9/9
f 272/2/2 306/5/5 120/8/8 3/3/3
f 2/374/257 177/375/255 306/5/5 272/2/2
f 177/375/255 5/369/256 115/6/6 306/5/5
f 225/376/22 307/1/1 223/4/4 4/373/23
f 1/377/259 129/378/258 307/1/1 225/376/22
f 129/378/258 2/374/257 272/2/2 307/1/1
