# Blender v2.78 (sub 0) OBJ File: ''
# www.blender.org
mtllib Birch_Tree_m_06.mtl
o Birch_Tree_m_06
v 0.012031 0.095317 -0.111690
v -0.066760 1.131830 -0.094182
v 0.017893 1.163194 -0.031073
v 0.095483 0.289527 -0.036172
v 0.075487 0.095398 0.077931
v -0.013158 1.134891 0.070935
v -0.119695 1.123682 0.070868
v -0.068760 0.104615 0.086337
v -0.107810 0.104037 -0.033998
v -0.152410 1.118647 -0.031139
v 0.245135 0.382297 -0.032998
v 0.186187 0.458070 -0.076895
v -0.162053 2.543251 -0.013372
v -0.159760 2.378742 0.069669
v -0.266711 2.522271 0.064183
v -0.302906 2.508117 -0.027027
v -0.236609 2.521333 -0.076145
v -0.460231 3.881330 -0.047942
v -0.423281 3.888824 -0.020549
v -0.222093 2.745979 0.058432
v -0.098018 2.755885 0.215964
v -0.042663 2.713126 0.204884
v -0.497182 3.873835 -0.020549
v -0.439936 3.899456 0.023444
v -0.483068 3.876697 0.023773
v 0.542673 1.768919 -0.264935
v 0.486872 1.795408 -0.282219
v 0.118134 0.022246 -0.039112
v 0.266155 0.335278 -0.099778
v 0.564257 1.751199 -0.310670
v 0.183175 0.388579 -0.145503
v 0.500314 1.772369 -0.333000
v 0.641764 3.088895 -0.428162
v 0.683959 3.080173 -0.415546
v 0.669495 3.086214 -0.385428
v 0.631638 3.098445 -0.394730
v -0.055356 2.664212 0.262794
v -0.119968 2.697602 0.262236
v 0.016392 3.222846 0.579583
v 0.027948 3.241637 0.540678
v 0.068280 3.231651 0.540658
v 0.062076 3.208467 0.585418
v 0.040340 3.922554 0.727867
v 0.066274 3.918623 0.728903
v 0.062599 3.906773 0.758510
v 0.033352 3.913749 0.753595
v -0.333538 4.916704 1.030491
v -0.230105 5.114149 0.804418
v -0.405894 4.567349 0.674237
v -0.318725 4.010633 0.672803
v -0.266641 3.850497 0.918579
v -0.334197 4.361496 1.105836
v -0.114695 4.631541 0.423548
v 0.061879 5.174414 0.667739
v 0.205341 4.700913 0.437364
v 0.358922 5.042792 0.759292
v 0.410431 4.455230 0.543298
v 0.071151 4.034369 0.398395
v 0.494957 4.701276 0.892109
v 0.299603 5.077405 1.025725
v 0.327224 4.530603 1.205062
v 0.405902 3.975670 0.854170
v 0.334498 3.934081 0.558508
v 0.022575 5.091778 1.144367
v -0.046422 4.602517 1.300807
v 0.050272 3.951142 1.160809
v -0.000959 3.623064 0.853037
v 0.091448 3.657117 0.617106
v -1.517456 5.968003 0.245314
v -1.460598 6.383113 -0.112825
v -1.541270 5.091775 -0.220431
v -1.148734 4.095619 -0.154169
v -0.993363 3.869426 0.223426
v -1.349235 4.833027 0.431730
v -1.099683 5.274624 -0.590748
v -1.042441 6.514247 -0.322615
v -0.617185 5.517879 -0.586141
v -0.532551 6.311100 -0.179835
v -0.206843 5.125588 -0.405602
v -0.576664 4.200726 -0.548087
v -0.222041 5.688709 0.090820
v -0.696381 6.548646 0.208224
v -0.429002 5.397024 0.582262
v -0.093111 4.273529 0.129699
v -0.161475 4.118496 -0.297559
v -1.145908 6.620065 0.384959
v -1.014316 5.445168 0.701596
v -0.608478 4.188878 0.571174
v -0.463550 3.522099 0.164280
v -0.352930 3.558311 -0.180316
v 0.255510 5.024105 -0.252380
v 0.398853 5.265628 -0.549162
v 0.159816 4.447312 -0.626454
v 0.233953 3.626132 -0.538236
v 0.280056 3.435495 -0.217706
v 0.221118 4.224051 -0.076066
v 0.523418 4.479506 -0.924667
v 0.759538 5.313734 -0.710533
v 0.913711 4.568265 -0.906582
v 1.108264 5.123583 -0.569216
v 1.144423 4.218029 -0.733902
v 0.715315 3.589639 -0.854681
v 1.249264 4.641264 -0.352187
v 1.029991 5.228002 -0.258596
v 1.026928 4.458702 0.041738
v 1.102073 3.573990 -0.288127
v 1.022879 3.460157 -0.637632
v 0.692151 5.285217 -0.129801
v 0.576268 4.600681 0.130500
v 0.661031 3.613788 0.068270
v 0.590516 3.076409 -0.250376
v 0.711666 3.076912 -0.533955
v 1.171553 4.530962 -0.150796
v -1.271505 6.488934 -0.222951
v -0.248762 3.776571 0.174614
v 0.374735 4.149064 0.542402
v -0.237283 4.303026 0.507747
v 0.533833 1.760284 -0.325830
v 0.008161 2.914529 0.424763
v 1.031881 4.396824 -0.838969
v -1.163108 4.275505 0.331334
v 0.038528 3.214080 0.585992
v -0.043945 2.685632 0.233589
v -0.221083 1.798292 -0.029181
v 0.461961 3.569895 -0.732042
v -0.720793 5.411032 0.686420
v 0.017522 2.950317 0.373611
v 0.416154 0.999359 -0.203179
v 0.395285 1.034403 -0.148720
v -0.570562 5.971102 -0.403740
v -0.122623 5.160966 0.972489
v 0.328304 4.843480 1.132036
v 0.637836 2.487005 -0.372924
v -0.097984 4.169893 -0.126702
v 0.475047 4.588845 0.722134
v 0.068732 3.219191 0.563327
v -0.152019 3.724039 0.887457
v 0.029752 3.596664 0.680996
v 0.047393 3.909168 0.759110
v -1.522771 6.230431 0.068200
v 0.840333 4.965948 -0.843812
v 0.093106 0.162018 -0.123296
v 0.131459 0.292078 -0.048585
v -0.126268 0.548345 -0.033433
v -0.036341 4.310200 0.390142
v -0.143580 1.119895 0.022345
v -1.298626 5.772161 0.503537
v -0.006730 4.854732 1.248109
v 0.144996 4.376669 0.387759
v 0.902274 3.545844 -0.071122
v 0.390898 4.422009 0.060176
v -0.281874 5.527142 0.341543
v -0.143838 2.404852 0.030882
v 0.889850 3.246337 -0.590406
v -0.089016 2.676568 0.267024
v 0.448616 4.929903 -0.764543
v 0.334410 5.096598 0.889772
v -0.485747 3.789487 -0.367248
v 0.183988 5.177516 0.869619
v 0.036439 5.192057 0.915312
v 0.008285 4.284138 1.263446
v -0.461502 3.888076 0.028003
v 0.456496 5.198982 -0.172558
v 0.030069 0.569064 0.081256
v -0.490440 3.769649 0.362588
v 0.223221 5.131811 0.710227
v 0.354096 4.019629 -0.777736
v 0.572234 2.514976 -0.347611
v -0.156112 2.684877 0.125813
v 0.872890 4.921138 0.003989
v 0.009895 1.150313 0.022412
v 0.265599 4.874954 -0.619022
v -0.178253 3.787916 -0.030212
v 0.664220 3.083764 -0.425368
v 0.650157 3.065633 -0.390776
v -0.307390 3.284673 -0.023867
v -1.358599 5.157951 -0.419494
v -0.027973 4.945883 0.516193
v 0.180878 0.121901 -0.061186
v -0.789800 3.682781 0.006411
v -0.029836 0.564622 -0.104261
v 0.480830 4.361168 0.876943
v -0.376193 4.185220 0.884664
v 1.159836 4.963505 -0.279322
v -1.091182 3.949784 0.078415
v 0.225623 0.357179 -0.128171
v -0.365285 6.063411 -0.048176
v 0.176761 5.089998 1.089152
v -0.031307 2.973633 0.376392
v -0.406693 5.328123 -0.520436
v 0.450580 4.227189 0.690217
v -0.904469 6.608960 0.302227
v -0.832058 6.034981 -0.495981
v -0.203167 4.787414 1.189634
v -0.382667 4.311752 0.665486
v 0.038870 3.608881 0.648748
v 0.584635 2.500135 -0.389676
v -0.888985 6.655758 -0.034480
v -0.809078 4.824358 0.685224
v -0.144744 1.812323 -0.085581
v -0.620388 6.497771 0.004511
v -0.472747 4.732449 0.612059
v -0.394580 4.762661 0.857292
v -0.219712 4.802532 0.395597
v -1.572429 5.559377 0.016021
v -0.132628 3.867496 1.041236
v 0.400745 4.858391 -0.037120
v -1.349498 6.621729 0.123176
v -0.122445 5.024223 0.115538
v 0.257431 4.237667 0.437512
v -1.131192 6.705534 0.034079
v -0.095982 4.729081 -0.150800
v -0.046743 2.938218 0.421514
v 0.392672 4.237807 1.053751
v 0.220240 4.656281 -0.158356
v 1.021824 4.887935 -0.754629
v -0.718754 3.717437 -0.185287
v 0.213978 4.210837 1.202438
v 0.421587 3.913795 0.041818
v 0.310746 5.180312 -0.399951
v -0.819843 3.960819 0.402297
v 0.441487 4.899828 0.827363
v 0.156940 0.158408 0.029354
v 0.391170 3.253133 -0.389902
v 0.074731 0.025658 -0.086428
v -0.273443 2.513978 -0.056761
v 1.084106 3.770485 -0.688746
v -1.327605 4.441319 0.131004
v -0.191589 1.801108 0.062109
v 0.150610 4.338656 -0.360313
v -0.349554 4.659483 1.076236
v 0.111973 0.025258 0.023339
v 0.257487 3.746965 0.725926
v -0.090729 5.159837 0.733540
v 0.681157 3.082113 -0.399303
v -0.427512 3.894971 0.002805
v 0.558477 1.758298 -0.286266
v -0.101087 0.104326 0.030329
v 0.245323 3.773274 -0.141401
v 0.135012 4.958208 0.525670
v -0.252095 2.695559 0.067926
v 1.048144 4.903704 -0.094110
v 0.619336 2.497165 -0.335187
v -0.194735 2.707194 0.025402
v -0.850839 4.680465 -0.596320
v 0.309603 4.582601 0.475189
v 0.093072 0.213478 0.026067
v -1.084199 5.966045 -0.504520
v 0.488582 1.785649 -0.309146
v 0.640097 4.958682 0.029860
v -0.776449 6.460333 -0.260580
v 0.057198 3.802475 0.501598
v -0.286776 4.590891 0.538597
v -0.589876 4.866940 -0.611457
v 0.220959 3.954378 0.470506
v 1.224316 4.444935 -0.538534
v -0.313510 3.912069 0.824627
v 1.150855 4.718355 -0.663642
v -1.074291 6.053028 0.581980
v 0.439368 4.603758 1.049792
v 0.053890 3.921681 0.725327
v -0.363106 4.647311 -0.524318
v 0.071725 3.603285 0.649482
v 0.342549 1.039583 -0.236357
v -0.192489 2.591556 0.156033
v 0.140501 4.553728 1.281842
v -0.170569 5.031416 1.106967
v 0.214703 0.424934 -0.049416
v 0.526026 5.361066 -0.351504
v 0.731515 4.509459 -0.948314
v -0.168230 4.532585 -0.357152
v -1.393023 4.616682 -0.201434
v 0.384287 3.941741 0.676628
v -0.174285 3.750055 0.758380
v 0.913931 3.221326 -0.411508
v 0.880187 5.264558 -0.189528
v -0.296384 5.038564 0.921624
v 0.044828 3.632534 0.735264
v 0.469533 3.262434 -0.547864
v 0.178611 4.768132 -0.437700
v -0.748969 3.667331 0.197288
v -0.114238 1.124454 -0.069154
v 0.439077 3.477247 -0.068640
v -1.188808 5.142741 0.606952
v 0.203185 3.732620 0.866695
v -0.296207 2.509431 0.014687
v -0.093541 1.790383 0.062479
v 0.872165 3.994668 0.083948
v 0.309456 4.450195 -0.787554
v -0.560501 6.071392 0.414964
v -0.114093 3.775394 0.627506
v 0.018615 3.233110 0.559842
v -0.494221 3.874435 0.002970
v -0.481238 3.877069 -0.037801
v -0.005574 0.105551 0.099798
v 1.175447 3.909537 -0.521375
v -1.154567 4.625265 -0.427765
v -0.185119 4.913766 0.596594
v 1.213569 4.140158 -0.317967
v 0.229867 3.510212 -0.341332
v 0.649207 3.093099 -0.386565
v 0.632271 3.094750 -0.412630
v -0.089244 0.551090 0.081224
v -0.134102 4.000455 0.503277
v 1.094427 3.997181 -0.090970
v -0.439224 3.885591 -0.037801
v 0.682124 3.269811 -0.695871
v -0.228970 3.815734 -0.244785
v -0.840831 5.382737 -0.627799
v 0.061595 0.672121 -0.033040
v 0.056402 0.213427 -0.083242
v 0.625704 4.123860 0.137485
v 0.721865 5.388011 -0.418498
v 1.077488 5.228562 -0.422651
v -0.408689 3.258873 -0.023744
v 0.900857 5.350770 -0.465122
v -1.316170 5.891178 -0.382409
v 0.289419 4.902072 0.588021
v -0.390113 3.267895 0.037459
v 0.824142 4.086129 -0.917758
v 0.513225 1.783663 -0.269582
v -0.307422 4.176165 0.396217
v -0.349812 5.778432 -0.306190
v -0.302991 4.067440 1.011864
v 0.178423 0.428675 -0.114701
v 0.950647 3.886211 -0.832363
v -0.403266 4.466160 0.883760
v 0.333259 1.079756 -0.176175
v -0.183722 5.429607 -0.153511
v 0.067473 3.912128 0.744051
v 0.261903 0.353438 -0.062887
v 0.601144 3.997939 -0.911583
v 0.067078 3.586655 0.686846
v -0.788450 6.084682 0.543750
v -1.521829 5.749854 -0.202375
v 0.413822 4.906519 0.982440
v -0.114058 2.729781 0.239350
v -0.118291 2.548980 0.153328
v 0.950806 5.251450 -0.646917
v 0.642938 4.954025 -0.859515
v -0.156678 4.147456 1.170912
v 0.185783 4.839427 1.218234
v -0.199776 2.528690 -0.056761
v -0.068071 1.823810 -0.029148
v -0.330699 4.856008 0.715596
v -0.204422 2.392749 0.075771
v 0.842989 3.229748 -0.243206
v 0.247606 3.927770 1.034703
v 0.412496 3.238466 -0.230794
v -1.362687 6.356025 0.339967
v -0.440060 6.153141 0.182578
v -0.196141 4.484734 1.231454
v 0.048820 3.238221 0.537177
v 0.800074 4.516370 0.122652
v -0.325315 4.108552 -0.430889
v -0.068987 2.738844 0.205915
v -0.064605 0.104794 -0.082074
v -0.999465 4.496405 0.557050
v -0.066426 1.129287 0.078929
v -0.868014 4.097804 -0.394523
v 0.889594 3.478718 -0.750306
v 0.042124 3.739357 0.999695
v 0.232122 3.781918 0.581545
v -0.337432 3.336552 0.036097
v 0.167524 3.925395 -0.314503
v -0.403844 3.526530 -0.006741
v 0.644436 3.272830 -0.091589
v 0.055554 4.660427 0.402007
v 0.173813 4.069575 -0.596268
v 1.197856 4.922800 -0.462474
v 1.079716 3.491459 -0.495787
v -0.357563 3.269243 -0.061645
v 0.572153 5.312339 -0.635554
v 0.033810 3.918721 0.740387
v -0.019781 1.148297 -0.069122
v -1.465368 5.419881 0.349316
v 0.403215 4.782862 0.644986
v -1.494608 4.952358 0.095439
v -0.101935 2.609923 0.088902
v 0.072317 3.594322 0.668437
v 0.031395 3.603421 0.664599
v 0.047843 3.590461 0.686813
v 0.055870 3.607281 0.646223
v -0.005863 2.964933 0.371001
v -0.020321 2.923415 0.427138
v 0.017151 2.930470 0.399206
v -0.043335 2.957879 0.398933
v -0.179634 2.643099 0.142568
v -0.364249 3.304754 0.041563
v -0.157581 2.563859 0.158613
v -0.104779 2.574569 0.119469
v 0.632753 2.490800 -0.352843
v 0.574267 2.508841 -0.369856
v 0.332269 1.063225 -0.208785
v 0.380605 1.016346 -0.224531
v 0.594501 2.507110 -0.338084
v 0.612519 2.492531 -0.384615
v 0.107578 0.234268 -0.091759
v 0.136393 0.135039 -0.099106
v 0.411354 1.013326 -0.173431
v 0.173614 0.132934 -0.010097
v 0.054148 0.625773 0.026925
v 0.363019 1.060204 -0.157685
v -0.403442 3.259938 0.008417
v -0.318370 3.314059 0.007551
v -0.385918 3.263492 -0.046615
v -0.126833 2.653809 0.103425
v -0.329208 3.274994 -0.046615
v -0.187082 1.804541 -0.063216
v -0.142398 1.794474 0.069523
v -0.102406 1.820104 -0.063216
v -0.213248 1.799732 0.018676
v -0.073894 1.807065 0.018911
v -0.116321 0.549083 0.026696
v 0.144798 0.232163 -0.002750
v -0.083097 0.551546 -0.076194
v -0.029338 0.555532 0.090285
v 0.020924 0.623309 -0.075965
vt 0.0761 0.2015
vt 0.0809 0.2923
vt 0.0700 0.2935
vt 0.0645 0.2138
vt 0.1486 0.1887
vt 0.1461 0.2908
vt 0.1353 0.2897
vt 0.1364 0.1884
vt 0.0999 0.1888
vt 0.1025 0.2903
vt 0.0917 0.2912
vt 0.0878 0.1892
vt 0.0646 0.5700
vt 0.0712 0.5575
vt 0.0737 0.5832
vt 0.0666 0.5877
vt 0.1242 0.1884
vt 0.1243 0.2895
vt 0.1134 0.2893
vt 0.1120 0.1884
vt 0.1635 0.4190
vt 0.1591 0.5453
vt 0.1506 0.5382
vt 0.1538 0.4151
vt 0.1245 0.4196
vt 0.1246 0.5496
vt 0.1160 0.5495
vt 0.1147 0.4194
vt 0.0855 0.4220
vt 0.0902 0.5517
vt 0.0816 0.5525
vt 0.0758 0.4230
vt 0.1440 0.4174
vt 0.1419 0.5440
vt 0.1332 0.5497
vt 0.1343 0.4197
vt 0.1050 0.4202
vt 0.1074 0.5502
vt 0.0988 0.5508
vt 0.0953 0.4210
vt 0.0545 0.7722
vt 0.0619 0.9310
vt 0.0584 0.9312
vt 0.0494 0.7728
vt 0.1717 0.6601
vt 0.1795 0.6637
vt 0.1788 0.6784
vt 0.1725 0.6780
vt 0.0649 0.7713
vt 0.0690 0.9307
vt 0.0655 0.9308
vt 0.0597 0.7717
vt 0.0957 0.7791
vt 0.0905 0.9306
vt 0.0869 0.9304
vt 0.0903 0.7862
vt 0.0752 0.7709
vt 0.0762 0.9305
vt 0.0726 0.9306
vt 0.0700 0.7709
vt 0.0670 0.6977
vt 0.0731 0.6947
vt 0.0725 0.8063
vt 0.0674 0.8077
vt 0.1723 0.2014
vt 0.1840 0.2138
vt 0.1787 0.2934
vt 0.1679 0.2926
vt 0.0796 0.5583
vt 0.0880 0.5590
vt 0.0873 0.5785
vt 0.0805 0.5809
vt 0.0787 0.6934
vt 0.0844 0.6920
vt 0.0814 0.8056
vt 0.0769 0.8059
vt 0.0977 0.5590
vt 0.1073 0.5590
vt 0.1056 0.5845
vt 0.0965 0.5815
vt 0.1137 0.5715
vt 0.1201 0.5839
vt 0.1187 0.5937
vt 0.1121 0.5891
vt 0.0827 0.8343
vt 0.0875 0.8349
vt 0.0876 0.9412
vt 0.0838 0.9409
vt 0.0665 0.8360
vt 0.0706 0.8347
vt 0.0743 0.9411
vt 0.0711 0.9420
vt 0.0918 0.6941
vt 0.0993 0.6962
vt 0.0930 0.8078
vt 0.0872 0.8067
vt 0.1049 0.6991
vt 0.1106 0.7021
vt 0.1024 0.8106
vt 0.0977 0.8092
vt 0.0915 0.8357
vt 0.0953 0.8367
vt 0.0937 0.9425
vt 0.0906 0.9419
vt 0.0743 0.8342
vt 0.0779 0.8338
vt 0.0800 0.9405
vt 0.0772 0.9408
vt 0.1565 0.6578
vt 0.1639 0.6565
vt 0.1663 0.6776
vt 0.1596 0.6783
vt 0.2025 0.6579
vt 0.2093 0.6592
vt 0.2060 0.6787
vt 0.1996 0.6781
vt 0.0853 0.7785
vt 0.0834 0.9304
vt 0.1876 0.6601
vt 0.1958 0.6565
vt 0.1933 0.6776
vt 0.1860 0.6780
vt 0.1850 0.7285
vt 0.1904 0.7283
vt 0.1876 0.7790
vt 0.1840 0.7790
vt 0.1644 0.7285
vt 0.1700 0.7282
vt 0.1737 0.7788
vt 0.1693 0.7788
vt 0.1957 0.7285
vt 0.2009 0.7286
vt 0.1959 0.7786
vt 0.1917 0.7788
vt 0.1748 0.7285
vt 0.1796 0.7287
vt 0.1804 0.7790
vt 0.1770 0.7789
vt 0.1781 0.8385
vt 0.1808 0.8387
vt 0.1812 0.8984
vt 0.1792 0.8981
vt 0.1900 0.8380
vt 0.1933 0.8376
vt 0.1907 0.8966
vt 0.1882 0.8972
vt 0.1837 0.8385
vt 0.1867 0.8384
vt 0.1857 0.8978
vt 0.1834 0.8981
vt 0.1718 0.8380
vt 0.1754 0.8383
vt 0.1771 0.8977
vt 0.1744 0.8972
vt 0.4348 0.0388
vt 0.4338 0.0344
vt 0.4405 0.0359
vt 0.4513 0.0391
vt 0.4515 0.0429
vt 0.4457 0.0436
vt 0.4507 0.0172
vt 0.4418 0.0236
vt 0.4399 0.0172
vt 0.4664 0.0679
vt 0.4664 0.0802
vt 0.4609 0.0736
vt 0.4553 0.0793
vt 0.4535 0.0867
vt 0.4513 0.0809
vt 0.4500 0.0718
vt 0.4510 0.0281
vt 0.4485 0.0251
vt 0.4435 0.0922
vt 0.4456 0.0970
vt 0.4387 0.0955
vt 0.4390 0.0890
vt 0.4344 0.0857
vt 0.4367 0.0817
vt 0.4408 0.0840
vt 0.4340 0.0988
vt 0.4408 0.1003
vt 0.4412 0.1063
vt 0.4297 0.0594
vt 0.4322 0.0491
vt 0.4349 0.0538
vt 0.4392 0.0618
vt 0.4258 0.1130
vt 0.4221 0.1039
vt 0.4299 0.1059
vt 0.4184 0.0949
vt 0.4264 0.0903
vt 0.4262 0.0969
vt 0.4621 0.0530
vt 0.4567 0.0460
vt 0.4655 0.0476
vt 0.4689 0.0421
vt 0.4601 0.0406
vt 0.4674 0.0344
vt 0.4285 0.0700
vt 0.4338 0.0739
vt 0.4315 0.0778
vt 0.4236 0.0743
vt 0.4186 0.0787
vt 0.4265 0.0822
vt 0.4185 0.0868
vt 0.4477 0.1017
vt 0.4498 0.0979
vt 0.4570 0.0970
vt 0.4329 0.0300
vt 0.4257 0.0355
vt 0.4462 0.0330
vt 0.4432 0.0406
vt 0.4488 0.0360
vt 0.4609 0.0859
vt 0.4556 0.0661
vt 0.4448 0.0643
vt 0.4460 0.0733
vt 0.4419 0.0711
vt 0.4584 0.0219
vt 0.4454 0.0873
vt 0.4477 0.0932
vt 0.4370 0.1134
vt 0.4240 0.0502
vt 0.4487 0.0642
vt 0.4445 0.0561
vt 0.4502 0.0555
vt 0.4554 0.0586
vt 0.4569 0.0499
vt 0.4366 0.0671
vt 0.4483 0.1137
vt 0.4480 0.1077
vt 0.4574 0.1031
vt 0.4184 0.0410
vt 0.4237 0.0291
vt 0.3020 0.0388
vt 0.3011 0.0344
vt 0.3077 0.0359
vt 0.3185 0.0391
vt 0.3187 0.0429
vt 0.3130 0.0436
vt 0.3179 0.0172
vt 0.3090 0.0236
vt 0.3071 0.0172
vt 0.3336 0.0679
vt 0.3336 0.0802
vt 0.3281 0.0736
vt 0.3225 0.0793
vt 0.3207 0.0867
vt 0.3185 0.0809
vt 0.3173 0.0718
vt 0.3182 0.0281
vt 0.3156 0.0251
vt 0.3106 0.0922
vt 0.3127 0.0970
vt 0.3059 0.0955
vt 0.3061 0.0890
vt 0.3016 0.0857
vt 0.3039 0.0817
vt 0.3081 0.0840
vt 0.3012 0.0988
vt 0.3080 0.1003
vt 0.3083 0.1063
vt 0.2969 0.0594
vt 0.2994 0.0491
vt 0.3022 0.0538
vt 0.3064 0.0618
vt 0.2930 0.1130
vt 0.2893 0.1039
vt 0.2971 0.1059
vt 0.2856 0.0949
vt 0.2936 0.0903
vt 0.2934 0.0969
vt 0.3293 0.0530
vt 0.3239 0.0460
vt 0.3327 0.0476
vt 0.3361 0.0421
vt 0.3273 0.0406
vt 0.3347 0.0344
vt 0.2957 0.0700
vt 0.3009 0.0739
vt 0.2987 0.0778
vt 0.2908 0.0743
vt 0.2858 0.0787
vt 0.2937 0.0822
vt 0.2857 0.0868
vt 0.3148 0.1017
vt 0.3169 0.0979
vt 0.3242 0.0970
vt 0.3001 0.0300
vt 0.2929 0.0355
vt 0.3134 0.0330
vt 0.3104 0.0406
vt 0.3160 0.0360
vt 0.3281 0.0859
vt 0.3228 0.0661
vt 0.3120 0.0643
vt 0.3133 0.0733
vt 0.3091 0.0711
vt 0.3256 0.0219
vt 0.3126 0.0873
vt 0.3148 0.0932
vt 0.3043 0.1134
vt 0.2912 0.0502
vt 0.3159 0.0642
vt 0.3116 0.0561
vt 0.3174 0.0555
vt 0.3226 0.0586
vt 0.3241 0.0499
vt 0.3038 0.0671
vt 0.3155 0.1137
vt 0.3151 0.1077
vt 0.3246 0.1031
vt 0.2856 0.0410
vt 0.2910 0.0291
vt 0.5530 0.0388
vt 0.5520 0.0344
vt 0.5587 0.0359
vt 0.5695 0.0391
vt 0.5697 0.0429
vt 0.5640 0.0436
vt 0.5688 0.0172
vt 0.5599 0.0236
vt 0.5580 0.0172
vt 0.5846 0.0679
vt 0.5846 0.0802
vt 0.5790 0.0736
vt 0.5735 0.0793
vt 0.5717 0.0867
vt 0.5695 0.0809
vt 0.5683 0.0718
vt 0.5691 0.0281
vt 0.5666 0.0251
vt 0.5616 0.0922
vt 0.5637 0.0970
vt 0.5569 0.0955
vt 0.5570 0.0890
vt 0.5525 0.0857
vt 0.5548 0.0817
vt 0.5590 0.0840
vt 0.5521 0.0988
vt 0.5590 0.1003
vt 0.5593 0.1063
vt 0.5479 0.0594
vt 0.5504 0.0491
vt 0.5531 0.0538
vt 0.5574 0.0618
vt 0.5440 0.1130
vt 0.5403 0.1039
vt 0.5481 0.1059
vt 0.5365 0.0949
vt 0.5445 0.0903
vt 0.5443 0.0969
vt 0.5803 0.0530
vt 0.5749 0.0460
vt 0.5837 0.0476
vt 0.5871 0.0421
vt 0.5783 0.0406
vt 0.5857 0.0344
vt 0.5467 0.0700
vt 0.5519 0.0739
vt 0.5496 0.0778
vt 0.5418 0.0743
vt 0.5368 0.0787
vt 0.5447 0.0822
vt 0.5367 0.0868
vt 0.5658 0.1017
vt 0.5679 0.0979
vt 0.5752 0.0970
vt 0.5510 0.0300
vt 0.5437 0.0355
vt 0.5644 0.0330
vt 0.5614 0.0406
vt 0.5670 0.0360
vt 0.5790 0.0859
vt 0.5738 0.0661
vt 0.5630 0.0643
vt 0.5642 0.0733
vt 0.5601 0.0711
vt 0.5765 0.0219
vt 0.5635 0.0873
vt 0.5658 0.0932
vt 0.5553 0.1134
vt 0.5422 0.0502
vt 0.5669 0.0642
vt 0.5626 0.0561
vt 0.5684 0.0555
vt 0.5736 0.0586
vt 0.5750 0.0499
vt 0.5548 0.0671
vt 0.5665 0.1137
vt 0.5662 0.1077
vt 0.5755 0.1031
vt 0.5365 0.0410
vt 0.5419 0.0291
vt 0.5491 0.0236
vt 0.5473 0.0172
vt 0.5846 0.0924
vt 0.5572 0.0778
vt 0.5698 0.0468
vt 0.5641 0.0474
vt 0.5584 0.0481
vt 0.5447 0.0399
vt 0.5654 0.0824
vt 0.5700 0.0941
vt 0.5677 0.0882
vt 0.5769 0.0328
vt 0.5842 0.0266
vt 0.5613 0.0801
vt 0.5773 0.0932
vt 0.5577 0.0315
vt 0.5557 0.0434
vt 0.5523 0.0923
vt 0.2982 0.0236
vt 0.2963 0.0172
vt 0.3336 0.0924
vt 0.3062 0.0778
vt 0.3188 0.0468
vt 0.3131 0.0474
vt 0.3074 0.0481
vt 0.2938 0.0399
vt 0.3145 0.0824
vt 0.3190 0.0941
vt 0.3167 0.0882
vt 0.3259 0.0328
vt 0.3332 0.0266
vt 0.3104 0.0801
vt 0.3263 0.0932
vt 0.3067 0.0315
vt 0.3047 0.0434
vt 0.3014 0.0923
vt 0.4310 0.0236
vt 0.4291 0.0172
vt 0.4664 0.0924
vt 0.4390 0.0778
vt 0.4517 0.0468
vt 0.4460 0.0474
vt 0.4402 0.0481
vt 0.4266 0.0399
vt 0.4473 0.0824
vt 0.4518 0.0941
vt 0.4495 0.0882
vt 0.4586 0.0328
vt 0.4660 0.0266
vt 0.4431 0.0801
vt 0.4591 0.0932
vt 0.4396 0.0315
vt 0.4375 0.0434
vt 0.4342 0.0923
vt 0.1682 0.8378
vt 0.1717 0.8967
vt 0.1648 0.7788
vt 0.1588 0.7289
vt 0.1529 0.6789
vt 0.1802 0.6490
vt 0.1892 0.6422
vt 0.1983 0.6354
vt 0.0804 0.7709
vt 0.0798 0.9304
vt 0.0810 0.6113
vt 0.0873 0.6266
vt 0.0937 0.6420
vt 0.2054 0.6375
vt 0.2126 0.6397
vt 0.1492 0.6592
vt 0.1455 0.6394
vt 0.1535 0.6374
vt 0.1615 0.6354
vt 0.0670 0.7283
vt 0.0714 0.7276
vt 0.0758 0.7270
vt 0.0875 0.7285
vt 0.0923 0.7297
vt 0.0970 0.7308
vt 0.0623 0.8374
vt 0.0678 0.9430
vt 0.0569 0.7317
vt 0.0619 0.7300
vt 0.0817 0.7278
vt 0.1091 0.5336
vt 0.1153 0.5539
vt 0.1215 0.5742
vt 0.0887 0.5396
vt 0.0989 0.5366
vt 0.0686 0.5318
vt 0.0786 0.5357
vt 0.1608 0.1891
vt 0.1570 0.2919
vt 0.1645 0.0863
vt 0.1768 0.1102
vt 0.1892 0.1341
vt 0.0609 0.7007
vt 0.0623 0.8092
vt 0.0594 0.5923
vt 0.0742 0.6112
vt 0.0674 0.6111
vt 0.1010 0.6276
vt 0.1082 0.6132
vt 0.1011 0.7720
vt 0.0940 0.9308
vt 0.0606 0.6118
vt 0.0539 0.6125
vt 0.1709 0.6422
vt 0.0471 0.6135
vt 0.0403 0.6144
vt 0.1732 0.4229
vt 0.1676 0.5524
vt 0.1242 0.0873
vt 0.1107 0.0876
vt 0.1376 0.0871
vt 0.0580 0.5825
vt 0.0567 0.5728
vt 0.0626 0.5523
vt 0.0972 0.0874
vt 0.0838 0.0872
vt 0.1511 0.0867
vt 0.0714 0.1106
vt 0.0590 0.1340
vn 0.5776 0.0588 -0.8142
vn 0.5805 0.0668 -0.8115
vn 0.9461 0.1065 -0.3058
vn 0.9479 0.0862 -0.3067
vn 0.0096 0.0194 0.9998
vn -0.0046 0.0165 0.9999
vn -0.5829 -0.0363 0.8117
vn -0.5858 -0.0146 0.8103
vn -0.5810 -0.0209 -0.8137
vn -0.5867 -0.0388 -0.8089
vn 0.0017 0.0147 -0.9999
vn -0.0016 0.0206 -0.9998
vn -0.0198 0.4448 0.8954
vn 0.5749 0.0309 0.8177
vn 0.4135 0.0869 0.9064
vn -0.3498 0.2831 0.8930
vn -0.9506 -0.0387 0.3081
vn -0.9486 -0.0690 0.3088
vn -0.9481 -0.0680 -0.3106
vn -0.9504 -0.0383 -0.3088
vn 0.9503 0.1156 0.2892
vn 0.9945 -0.0248 0.1022
vn 0.6021 -0.1502 0.7842
vn 0.5851 0.0721 0.8077
vn -0.9418 -0.1006 0.3206
vn -0.9349 -0.1183 0.3346
vn -0.9433 -0.1195 -0.3099
vn -0.9456 -0.1013 -0.3091
vn 0.5870 0.0843 -0.8052
vn 0.5925 0.1008 -0.7992
vn 0.8356 0.1079 -0.5386
vn 0.9357 0.1234 -0.3304
vn -0.0152 0.0033 0.9999
vn -0.1494 -0.1660 0.9747
vn -0.7329 -0.1167 0.6702
vn -0.5887 -0.0605 0.8061
vn -0.5856 -0.0597 -0.8084
vn -0.5836 -0.0702 -0.8090
vn 0.0017 0.0163 -0.9999
vn -0.0008 0.0128 -0.9999
vn 0.5831 0.1142 -0.8043
vn 0.5775 0.1166 -0.8080
vn 0.9463 0.1820 -0.2674
vn 0.9240 0.1802 -0.3373
vn 0.5986 0.5561 -0.5765
vn -0.1372 0.9903 0.0203
vn -0.4743 0.7035 -0.5292
vn 0.3031 0.5730 -0.7614
vn -0.5834 -0.0774 -0.8085
vn -0.5810 -0.0778 -0.8102
vn 0.0055 0.0224 -0.9997
vn -0.0029 0.0199 -0.9998
vn 0.9350 0.1881 0.3006
vn 0.9239 0.1772 0.3390
vn 0.5818 0.1231 0.8040
vn 0.5731 0.1282 0.8094
vn -0.9368 -0.1336 0.3233
vn -0.9417 -0.1355 0.3081
vn -0.9405 -0.1346 -0.3121
vn -0.9417 -0.1330 -0.3090
vn -0.2772 0.2134 0.9368
vn 0.3950 0.0696 0.9160
vn 0.4178 0.0562 0.9068
vn -0.2340 0.1576 0.9594
vn 0.9429 0.0841 0.3222
vn 0.9428 0.1020 0.3172
vn 0.8521 -0.3292 0.4069
vn 0.8328 -0.4560 -0.3139
vn 0.8686 -0.3357 -0.3646
vn 0.8994 -0.2008 0.3882
vn 0.9014 -0.1250 0.4145
vn 0.8790 -0.2478 -0.4074
vn 0.8878 -0.1844 -0.4218
vn 0.8993 -0.0821 0.4296
vn 0.4003 -0.3331 -0.8537
vn -0.0863 0.0234 -0.9960
vn -0.4061 0.0277 -0.9134
vn 0.3746 -0.2450 -0.8942
vn -0.6829 0.4578 -0.5692
vn -0.6843 0.6281 0.3705
vn -0.8264 0.3114 0.4692
vn -0.9452 0.2533 -0.2059
vn 0.2837 -0.0984 -0.9539
vn -0.4369 -0.0178 -0.8993
vn -0.5003 -0.0094 -0.8658
vn 0.2649 -0.0884 -0.9602
vn -0.2219 0.1094 0.9689
vn 0.4067 0.0444 0.9125
vn 0.3574 0.0481 0.9327
vn -0.2403 0.1031 0.9652
vn 0.3165 -0.2008 -0.9271
vn -0.4437 -0.0189 -0.8960
vn -0.4208 -0.0201 -0.9069
vn 0.2946 -0.1482 -0.9441
vn -0.9494 0.1808 -0.2568
vn -0.8311 0.2632 0.4898
vn -0.8430 0.1930 0.5022
vn -0.9463 0.1256 -0.2979
vn -0.9493 0.0800 -0.3041
vn -0.8477 0.1357 0.5128
vn -0.8587 0.1265 0.4966
vn -0.9566 0.0753 -0.2814
vn 0.8996 -0.0451 0.4345
vn 0.8938 -0.1146 -0.4336
vn 0.8818 -0.1029 -0.4603
vn 0.8957 -0.0375 0.4430
vn 0.9494 -0.2803 -0.1417
vn 0.8668 0.1095 -0.4865
vn 0.8502 0.1309 -0.5100
vn 0.9459 -0.3205 -0.0506
vn -0.3236 -0.4615 0.8260
vn 0.5436 -0.5947 0.5924
vn 0.5257 -0.6439 0.5560
vn -0.2613 -0.5267 0.8089
vn -0.0107 0.0313 0.9995
vn 0.0285 0.0288 0.9992
vn -0.7943 0.3469 0.4987
vn -0.6951 -0.1124 0.7101
vn -0.7773 -0.1178 0.6181
vn -0.9193 0.3849 0.0819
vn -0.9487 0.3051 -0.0830
vn -0.8285 -0.1117 0.5487
vn -0.8162 -0.1203 0.5652
vn -0.9672 0.1896 -0.1692
vn 0.9742 -0.2240 0.0259
vn 0.8256 0.1754 -0.5364
vn 0.8277 0.1660 -0.5361
vn 0.9887 -0.1233 0.0854
vn -0.2421 -0.4536 0.8577
vn 0.5565 -0.5130 0.6536
vn 0.5784 -0.3578 0.7331
vn -0.2132 -0.3410 0.9156
vn 0.1958 0.5108 -0.8371
vn -0.5365 0.5580 -0.6331
vn -0.5811 0.3773 -0.7211
vn 0.1262 0.3879 -0.9130
vn 0.0765 0.2632 -0.9617
vn -0.5935 0.2195 -0.7743
vn -0.6018 0.1968 -0.7740
vn 0.0545 0.2453 -0.9679
vn -0.2036 -0.2320 0.9512
vn 0.5900 -0.1955 0.7834
vn 0.5814 -0.1716 0.7953
vn -0.2295 -0.2143 0.9494
vn -0.9685 0.0825 -0.2351
vn -0.8459 -0.1097 0.5219
vn -0.8878 -0.0949 0.4503
vn -0.9654 0.0691 -0.2513
vn 0.9926 -0.0271 0.1184
vn 0.7908 0.1647 -0.5896
vn 0.7389 0.1748 -0.6508
vn 0.9944 -0.0085 0.1050
vn -0.8310 0.3466 0.4350
vn -0.8083 0.5754 0.1249
vn -0.9799 0.1994 0.0053
vn -0.8423 -0.3238 -0.4309
vn -0.9026 -0.4295 -0.0280
vn -0.9744 -0.1849 0.1275
vn -0.3855 0.1795 -0.9051
vn -0.5686 0.4376 -0.6965
vn -0.2421 0.4771 -0.8449
vn 0.0044 0.2108 -0.9775
vn 0.3697 0.2610 -0.8917
vn 0.5829 0.4096 -0.7017
vn 0.5772 0.1489 -0.8029
vn 0.2086 0.0150 -0.9779
vn -0.6236 -0.1077 -0.7743
vn -0.6702 0.1363 -0.7296
vn 0.9871 0.1230 0.1021
vn 0.8672 0.3355 0.3680
vn 0.8770 0.0334 0.4794
vn 0.9848 -0.1124 0.1327
vn 0.8859 -0.4019 0.2317
vn 0.8980 -0.3940 -0.1957
vn 0.9650 -0.1408 -0.2212
vn 0.6163 -0.0177 0.7874
vn 0.6452 0.2804 0.7107
vn 0.3386 0.2937 0.8939
vn -0.1689 0.0626 0.9836
vn -0.5308 0.2227 0.8177
vn -0.5137 -0.0589 0.8560
vn -0.0611 -0.2176 0.9741
vn 0.2440 0.0096 0.9697
vn 0.0581 -0.4740 0.8786
vn 0.5859 -0.4947 0.6419
vn 0.4333 -0.2738 0.8587
vn -0.0985 -0.9680 0.2309
vn -0.6611 -0.7103 -0.2416
vn -0.0038 -0.9892 -0.1463
vn 0.0880 -0.8795 -0.4677
vn -0.5529 -0.6170 -0.5600
vn -0.1009 -0.5315 -0.8410
vn 0.5601 -0.6132 -0.5569
vn 0.6878 -0.7250 -0.0353
vn 0.5688 -0.7428 0.3532
vn 0.0864 -0.7114 0.6975
vn 0.5739 0.6480 0.5007
vn 0.6933 0.7166 0.0763
vn 0.2967 0.9519 0.0766
vn -0.6391 0.7242 -0.2590
vn -0.3515 0.8900 0.2906
vn -0.9281 0.0759 -0.3646
vn -0.9909 -0.0387 0.1291
vn -0.9160 -0.1254 -0.3810
vn 0.2430 0.4834 -0.8410
vn -0.2725 -0.0552 -0.9606
vn -0.0343 -0.2452 -0.9689
vn 0.4794 -0.0830 -0.8737
vn 0.4144 -0.3217 -0.8514
vn 0.9611 0.0678 -0.2678
vn 0.9340 0.3401 -0.1097
vn -0.0893 0.3103 0.9464
vn -0.4488 -0.3115 0.8376
vn -0.4257 -0.5236 0.7380
vn -0.5651 -0.7613 0.3179
vn -0.0105 0.6815 0.7317
vn 0.3182 0.7023 0.6369
vn 0.0074 0.9860 0.1665
vn -0.8974 0.0967 0.4305
vn -0.9693 0.2286 0.0907
vn -0.9987 -0.0067 0.0510
vn -0.7624 -0.5079 -0.4010
vn -0.8020 -0.5966 0.0279
vn -0.9072 -0.3810 0.1784
vn -0.3667 -0.0058 -0.9303
vn -0.6017 0.1593 -0.7827
vn -0.2817 0.2275 -0.9321
vn -0.0226 0.0772 -0.9968
vn 0.2957 0.1918 -0.9358
vn 0.5067 0.3564 -0.7850
vn 0.5134 0.1560 -0.8439
vn 0.1839 -0.0226 -0.9827
vn -0.5514 -0.2730 -0.7883
vn -0.6322 -0.0794 -0.7707
vn 0.9508 0.2793 0.1343
vn 0.8388 0.4355 0.3266
vn 0.8502 0.2171 0.4796
vn 0.9769 0.1039 0.1870
vn 0.9481 -0.1016 0.3014
vn 0.9810 -0.1246 -0.1490
vn 0.9869 0.0441 -0.1549
vn 0.5903 0.1475 0.7936
vn 0.6263 0.3758 0.6831
vn 0.2965 0.3378 0.8933
vn -0.2216 0.0671 0.9728
vn -0.6121 0.0931 0.7852
vn -0.5156 -0.0847 0.8526
vn -0.0619 -0.1211 0.9907
vn 0.2024 0.1053 0.9736
vn 0.0977 -0.3102 0.9456
vn 0.6520 -0.2052 0.7299
vn 0.4390 -0.0759 0.8953
vn 0.1253 -0.9161 0.3809
vn -0.5547 -0.8174 -0.1557
vn 0.2384 -0.9708 -0.0272
vn 0.3192 -0.8460 -0.4272
vn -0.4571 -0.7273 -0.5120
vn 0.0090 -0.5343 -0.8452
vn 0.7352 -0.3835 -0.5589
vn 0.9065 -0.4210 0.0322
vn 0.7597 -0.4326 0.4855
vn 0.1912 -0.5138 0.8363
vn 0.5941 0.7107 0.3767
vn 0.7036 0.7007 -0.1182
vn 0.3071 0.9250 -0.2239
vn -0.8234 0.3910 -0.4113
vn -0.6756 0.7318 0.0900
vn -0.9227 -0.1489 -0.3555
vn -0.9605 -0.2097 0.1828
vn -0.8602 -0.3446 -0.3761
vn 0.1750 0.3239 -0.9298
vn -0.2346 -0.1641 -0.9581
vn 0.0117 -0.2756 -0.9612
vn 0.4752 -0.0517 -0.8783
vn 0.4820 -0.2309 -0.8452
vn 0.9579 0.2079 -0.1981
vn 0.9042 0.4116 -0.1141
vn -0.2045 0.2363 0.9499
vn -0.4131 -0.2896 0.8634
vn -0.3590 -0.4801 0.8004
vn -0.4556 -0.7859 0.4181
vn -0.1828 0.7044 0.6858
vn 0.3338 0.7772 0.5334
vn -0.1293 0.9815 -0.1413
vn -0.8505 0.3720 0.3718
vn -0.8337 0.5511 0.0361
vn -0.9786 0.1987 -0.0532
vn -0.8587 -0.2846 -0.4261
vn -0.9421 -0.3353 -0.0063
vn -0.9873 -0.1050 0.1196
vn -0.3508 0.0636 -0.9343
vn -0.5436 0.3071 -0.7811
vn -0.2051 0.3139 -0.9270
vn 0.0397 0.0663 -0.9970
vn 0.4060 0.1086 -0.9074
vn 0.6257 0.2410 -0.7419
vn 0.6027 0.0146 -0.7978
vn 0.2356 -0.0979 -0.9669
vn -0.6081 -0.1481 -0.7799
vn -0.6429 0.0554 -0.7640
vn 0.9900 0.0803 0.1161
vn 0.8875 0.2908 0.3575
vn 0.8644 0.0476 0.5005
vn 0.9779 -0.1100 0.1781
vn 0.8830 -0.3429 0.3206
vn 0.9141 -0.3886 -0.1158
vn 0.9698 -0.1737 -0.1713
vn 0.5930 0.0468 0.8038
vn 0.6480 0.2869 0.7055
vn 0.3315 0.3315 0.8833
vn -0.1948 0.1678 0.9664
vn -0.5520 0.2924 0.7809
vn -0.5379 0.0612 0.8408
vn -0.0960 -0.0696 0.9929
vn 0.2173 0.1033 0.9706
vn 0.0172 -0.3026 0.9530
vn 0.5637 -0.3662 0.7403
vn 0.4000 -0.1465 0.9047
vn -0.1597 -0.9100 0.3827
vn -0.7434 -0.6429 -0.1845
vn -0.0411 -0.9989 -0.0213
vn 0.0790 -0.9192 -0.3857
vn -0.6037 -0.5924 -0.5335
vn -0.1006 -0.5595 -0.8227
vn 0.5987 -0.6296 -0.4951
vn 0.7220 -0.6865 0.0864
vn 0.5749 -0.6459 0.5024
vn 0.0427 -0.5448 0.8375
vn 0.6267 0.6261 0.4639
vn 0.7722 0.6354 0.0016
vn 0.3857 0.9218 -0.0399
vn -0.6470 0.6555 -0.3894
vn -0.3696 0.9109 0.1833
vn -0.9158 0.0540 -0.3980
vn -0.9946 0.0156 0.1022
vn -0.9125 -0.1095 -0.3941
vn 0.2910 0.3022 -0.9077
vn -0.2474 -0.1376 -0.9591
vn -0.0188 -0.3093 -0.9508
vn 0.5010 -0.1791 -0.8467
vn 0.4351 -0.3808 -0.8159
vn 0.9696 -0.0079 -0.2445
vn 0.9636 0.2370 -0.1239
vn -0.1092 0.3682 0.9233
vn -0.4847 -0.1490 0.8619
vn -0.4758 -0.3420 0.8103
vn -0.6567 -0.6230 0.4250
vn -0.0057 0.7231 0.6907
vn 0.3579 0.7153 0.6003
vn 0.0468 0.9978 0.0463
vn -0.3418 0.7599 -0.5530
vn 0.0673 0.7377 -0.6718
vn 0.7612 -0.4047 -0.5067
vn -0.8144 -0.4088 0.4119
vn -0.8174 -0.1754 0.5488
vn -0.8269 -0.0179 0.5620
vn -0.5165 0.5812 0.6289
vn 0.8157 -0.0747 -0.5737
vn 0.8122 0.4112 -0.4137
vn 0.8344 0.1337 -0.5347
vn -0.5356 -0.3264 -0.7788
vn 0.7978 -0.2202 -0.5612
vn 0.5436 0.6181 -0.5679
vn -0.8082 0.2881 -0.5137
vn -0.8692 0.1474 0.4721
vn 0.7815 -0.1640 0.6019
vn -0.5007 0.5656 -0.6552
vn -0.0637 0.6336 -0.7711
vn 0.8207 -0.1757 -0.5436
vn -0.6531 -0.6355 0.4117
vn -0.7139 -0.4078 0.5692
vn -0.7673 -0.2228 0.6013
vn -0.7117 0.2928 0.6386
vn 0.8023 0.1123 -0.5862
vn 0.7181 0.5245 -0.4574
vn 0.7767 0.3179 -0.5438
vn -0.4579 -0.4344 -0.7756
vn 0.8159 -0.0389 -0.5768
vn 0.4229 0.6251 -0.6561
vn -0.8798 0.0937 -0.4661
vn -0.8533 -0.0389 0.5200
vn 0.8142 0.0046 0.5805
vn -0.3567 0.8458 -0.3967
vn 0.0139 0.8529 -0.5219
vn 0.7383 -0.3678 -0.5653
vn -0.7574 -0.5475 0.3557
vn -0.7854 -0.3160 0.5322
vn -0.8069 -0.1303 0.5762
vn -0.4834 0.5480 0.6827
vn 0.7995 0.0262 -0.6001
vn 0.7504 0.5583 -0.3539
vn 0.8069 0.2687 -0.5261
vn -0.5338 -0.3094 -0.7870
vn 0.7812 -0.1533 -0.6051
vn 0.4616 0.7617 -0.4547
vn -0.8208 0.3700 -0.4351
vn -0.8566 0.0769 0.5102
vn 0.8031 -0.2379 0.5463
vn 0.5036 0.3748 0.7784
vn -0.3418 0.1656 0.9251
vn -0.5907 -0.0679 0.8040
vn -0.5479 -0.0659 0.8339
vn -0.0782 -0.0518 -0.9956
vn 0.0852 0.2884 -0.9537
vn 0.7922 0.5578 -0.2476
vn 0.8046 -0.5197 -0.2872
vn 0.4019 -0.3838 -0.8314
vn 0.5229 -0.0153 0.8522
vn 0.8159 -0.3875 0.4292
vn 0.5821 0.0587 0.8110
vn 0.5840 0.0671 0.8090
vn 0.6562 0.2936 0.6951
vn 0.9225 0.3822 -0.0544
vn -0.9502 -0.0344 0.3098
vn -0.9497 -0.0344 -0.3112
vn -0.5808 -0.0126 0.8140
vn -0.5666 -0.0193 -0.8238
vn 0.0301 0.0157 0.9994
usemtl None
s 1
f 418/1/1 375/2/2 3/3/3 310/4/4
f 417/5/5 359/6/6 7/7/7 303/8/8
f 416/9/9 282/10/10 2/11/11 181/12/12
f 415/13/13 223/14/14 11/15/15 268/16/16
f 414/17/17 146/18/18 10/19/19 144/20/20
f 413/21/21 153/22/22 14/23/23 287/24/24
f 412/25/25 286/26/26 16/27/27 124/28/28
f 411/29/29 343/30/30 13/31/31 344/32/32
f 410/33/33 346/34/34 15/35/35 229/36/36
f 409/37/37 226/38/38 17/39/39 200/40/40
f 408/41/41 306/42/42 19/43/43 176/44/44
f 407/45/45 169/46/46 21/47/47 356/48/48
f 406/49/49 294/50/50 18/51/51 372/52/52
f 405/53/53 236/54/54 24/55/55 364/56/56
f 404/57/57 293/58/58 23/59/59 315/60/60
f 403/61/61 129/62/62 26/63/63 321/64/64
f 402/65/65 310/66/4 3/67/3 171/68/66
f 401/69/67 179/70/68 29/71/69 331/72/70
f 400/73/71 128/74/72 30/75/73 237/76/74
f 399/77/75 142/78/76 31/79/77 186/80/78
f 398/81/79 143/82/80 12/83/81 325/84/82
f 397/85/83 197/86/84 33/87/85 174/88/86
f 396/89/87 243/90/88 35/91/89 301/92/90
f 395/93/91 264/94/92 32/95/93 118/96/94
f 394/97/95 328/98/96 27/99/97 249/100/98
f 393/101/99 168/102/100 36/103/101 302/104/102
f 392/105/103 133/106/104 34/107/105 235/108/106
f 391/109/107 379/110/108 22/111/109 123/112/110
f 390/113/111 338/114/112 37/115/113 155/116/114
f 389/117/115 364/56/56 24/55/55 162/118/116
f 388/119/117 265/120/118 38/121/119 337/122/120
f 387/123/121 213/124/122 39/125/123 292/126/124
f 386/127/125 127/128/126 41/129/127 136/130/128
f 385/131/129 119/132/130 42/133/131 122/134/132
f 384/135/133 189/136/134 40/137/135 353/138/136
f 383/139/137 196/140/138 43/141/139 261/142/140
f 382/143/141 333/144/142 45/145/143 139/146/144
f 381/147/145 138/148/146 46/149/147 374/150/148
f 380/151/149 263/152/150 44/153/151 330/154/152
f 47/155/153 277/156/154 203/157/155
f 50/158/156 257/159/157 183/160/158
f 53/161/159 298/162/160 178/163/161
f 53/164/159 178/165/161 368/166/162
f 55/167/163 318/168/164 246/169/165
f 55/167/163 246/169/165 149/170/166
f 53/161/159 117/171/167 253/172/168
f 59/173/169 336/174/170 260/175/171
f 59/173/169 260/175/171 182/176/172
f 62/177/173 273/178/174 191/179/175
f 61/180/176 132/181/177 342/182/178
f 65/183/179 194/184/180 352/185/181
f 65/183/179 352/185/181 161/186/182
f 65/187/179 161/188/182 266/189/183
f 66/190/184 348/191/185 218/192/186
f 67/193/187 274/194/188 278/195/189
f 68/196/190 291/197/191 252/198/192
f 68/199/190 363/200/193 233/201/194
f 68/199/190 233/201/194 278/202/189
f 67/203/187 285/204/195 362/205/196
f 60/206/197 157/207/198 159/208/199
f 48/209/200 277/156/154 131/210/201
f 49/211/202 327/212/203 203/157/155
f 49/211/202 195/213/204 327/212/203
f 53/161/159 253/172/168 298/162/160
f 55/167/163 240/214/205 318/168/164
f 53/164/159 368/166/162 145/215/206
f 58/216/207 210/217/208 255/218/209
f 53/161/159 145/219/206 117/171/167
f 59/173/169 135/220/210 222/221/211
f 59/173/169 222/221/211 336/174/170
f 59/173/169 182/176/172 135/220/210
f 65/187/179 266/189/183 148/222/212
f 65/183/179 148/223/212 194/184/180
f 66/224/184 341/225/213 206/226/214
f 67/193/187 362/227/196 137/228/215
f 67/193/187 137/228/215 274/194/188
f 68/199/190 252/229/192 363/200/193
f 64/230/216 188/231/217 160/232/218
f 64/233/216 160/234/218 131/210/201
f 69/235/219 140/236/220 205/237/221
f 72/238/222 185/239/223 228/240/224
f 75/241/225 317/242/226 248/243/227
f 75/244/225 248/245/227 309/246/228
f 77/247/229 130/248/230 190/249/231
f 77/247/229 190/249/231 254/250/232
f 75/241/225 297/251/233 177/252/234
f 81/253/235 351/254/236 152/255/237
f 81/253/235 152/255/237 209/256/238
f 84/257/239 134/258/240 212/259/241
f 83/260/242 290/261/243 334/262/244
f 87/263/245 147/264/246 284/265/247
f 87/263/245 284/265/247 199/266/248
f 87/267/245 199/268/248 126/269/249
f 88/270/250 322/271/251 202/272/252
f 89/273/253 180/274/254 366/275/255
f 90/276/256 217/277/257 158/278/258
f 90/279/256 308/280/259 173/281/260
f 90/279/256 173/281/260 366/282/255
f 89/283/253 115/284/261 165/285/262
f 82/286/263 201/287/264 198/288/265
f 70/289/266 140/236/220 208/290/267
f 71/291/268 378/292/269 205/237/221
f 71/291/268 272/293/270 378/292/269
f 75/241/225 177/252/234 317/242/226
f 77/247/229 193/294/271 130/248/230
f 75/244/225 309/246/228 245/295/272
f 80/296/273 262/297/274 355/298/275
f 75/241/225 245/299/272 297/251/233
f 81/253/235 329/300/276 187/301/277
f 81/253/235 187/301/277 351/254/236
f 81/253/235 209/256/238 329/300/276
f 87/267/245 126/269/249 259/302/278
f 87/263/245 259/303/278 147/264/246
f 88/304/250 358/305/279 221/306/280
f 89/273/253 165/307/262 281/308/281
f 89/273/253 281/308/281 180/274/254
f 90/279/256 158/309/258 308/280/259
f 86/310/282 192/311/283 211/312/284
f 86/313/282 211/314/284 208/290/267
f 91/315/285 220/316/286 280/317/287
f 94/318/288 300/319/289 365/320/290
f 97/321/291 156/322/292 340/323/293
f 97/324/291 340/325/293 270/326/294
f 99/327/295 216/328/296 120/329/297
f 99/327/295 120/329/297 320/330/298
f 97/321/291 167/331/299 289/332/300
f 103/333/301 184/334/302 113/335/303
f 103/333/301 113/335/303 299/336/304
f 106/337/305 371/338/306 296/339/307
f 105/340/308 242/341/309 170/342/310
f 109/343/311 207/344/312 151/345/313
f 109/343/311 151/345/313 312/346/314
f 109/347/311 312/348/314 354/349/315
f 110/350/316 150/351/317 288/352/318
f 111/353/319 224/354/320 175/355/321
f 112/356/322 279/357/323 307/358/324
f 112/359/322 154/360/325 275/361/326
f 112/359/322 275/361/326 175/362/321
f 111/363/319 347/364/327 367/365/328
f 104/366/329 314/367/330 316/368/331
f 92/369/332 220/316/286 269/370/333
f 93/371/334 230/372/335 280/317/287
f 93/371/334 369/373/336 230/372/335
f 97/321/291 289/332/300 156/322/292
f 99/327/295 141/374/337 216/328/296
f 97/324/291 270/326/294 332/375/338
f 102/376/339 326/377/340 361/378/341
f 97/321/291 332/379/338 167/331/299
f 103/333/301 256/380/342 370/381/343
f 103/333/301 370/381/343 184/334/302
f 103/333/301 299/336/304 256/380/342
f 109/347/311 354/349/315 250/382/344
f 109/343/311 250/383/344 207/344/312
f 110/384/316 219/385/345 283/386/346
f 111/353/319 367/387/328 349/388/347
f 111/353/319 349/388/347 224/354/320
f 112/359/322 307/389/324 154/360/325
f 108/390/348 276/391/349 313/392/350
f 108/393/348 313/394/350 269/370/333
f 269/370/333 373/395/351 92/369/332
f 269/370/333 313/394/350 373/395/351
f 313/394/350 98/396/352 373/395/351
f 313/392/350 316/368/331 98/397/352
f 313/392/350 276/391/349 316/368/331
f 276/391/349 104/366/329 316/368/331
f 154/360/325 361/378/341 107/398/353
f 154/360/325 307/389/324 361/378/341
f 307/389/324 102/376/339 361/378/341
f 224/354/320 300/319/289 94/318/288
f 224/354/320 349/388/347 300/319/289
f 349/388/347 95/399/354 300/319/289
f 349/388/347 283/386/346 95/399/354
f 349/388/347 367/387/328 283/386/346
f 367/387/328 110/384/316 283/386/346
f 283/386/346 239/400/355 95/399/354
f 283/386/346 219/385/345 239/400/355
f 219/385/345 96/401/356 239/400/355
f 207/344/312 163/402/357 91/315/285
f 207/344/312 250/383/344 163/402/357
f 250/383/344 108/393/348 163/402/357
f 250/382/344 170/342/310 108/390/348
f 250/382/344 354/349/315 170/342/310
f 354/349/315 105/340/308 170/342/310
f 256/380/342 296/339/307 101/403/358
f 256/380/342 299/336/304 296/339/307
f 299/336/304 106/337/305 296/339/307
f 184/334/302 314/367/330 104/366/329
f 184/334/302 370/381/343 314/367/330
f 370/381/343 100/404/359 314/367/330
f 370/381/343 258/405/360 100/404/359
f 370/381/343 256/380/342 258/405/360
f 256/380/342 101/403/358 258/405/360
f 167/331/299 125/406/361 94/318/288
f 167/331/299 332/379/338 125/406/361
f 332/379/338 102/407/339 125/406/361
f 361/378/341 227/408/362 107/398/353
f 361/378/341 326/377/340 227/408/362
f 326/377/340 101/403/358 227/408/362
f 332/375/338 320/330/298 102/376/339
f 332/375/338 270/326/294 320/330/298
f 270/326/294 99/327/295 320/330/298
f 216/328/296 339/409/363 100/404/359
f 216/328/296 141/374/337 339/409/363
f 141/374/337 98/397/352 339/409/363
f 156/322/292 172/410/364 92/369/332
f 156/322/292 289/332/300 172/410/364
f 289/332/300 93/371/334 172/410/364
f 230/372/335 365/320/290 96/401/356
f 230/372/335 369/373/336 365/320/290
f 369/373/336 94/318/288 365/320/290
f 280/317/287 215/411/365 91/315/285
f 280/317/287 230/372/335 215/411/365
f 230/372/335 96/401/356 215/411/365
f 269/370/333 163/402/357 108/393/348
f 269/370/333 220/316/286 163/402/357
f 220/316/286 91/315/285 163/402/357
f 316/368/331 339/409/363 98/397/352
f 316/368/331 314/367/330 339/409/363
f 314/367/330 100/404/359 339/409/363
f 367/365/328 150/351/317 110/350/316
f 367/365/328 347/364/327 150/351/317
f 347/364/327 106/337/305 150/351/317
f 175/362/321 347/364/327 111/363/319
f 175/362/321 275/361/326 347/364/327
f 275/361/326 106/337/305 347/364/327
f 275/361/326 371/338/306 106/337/305
f 275/361/326 154/360/325 371/338/306
f 154/360/325 107/398/353 371/338/306
f 307/358/324 125/406/361 102/407/339
f 307/358/324 279/357/323 125/406/361
f 279/357/323 94/318/288 125/406/361
f 175/355/321 279/357/323 112/356/322
f 175/355/321 224/354/320 279/357/323
f 224/354/320 94/318/288 279/357/323
f 288/352/318 305/412/366 105/340/308
f 288/352/318 150/351/317 305/412/366
f 150/351/317 106/337/305 305/412/366
f 354/349/315 288/352/318 105/340/308
f 354/349/315 312/348/314 288/352/318
f 312/348/314 110/350/316 288/352/318
f 312/346/314 219/385/345 110/384/316
f 312/346/314 151/345/313 219/385/345
f 151/345/313 96/401/356 219/385/345
f 151/345/313 215/411/365 96/401/356
f 151/345/313 207/344/312 215/411/365
f 207/344/312 91/315/285 215/411/365
f 170/342/310 276/391/349 108/390/348
f 170/342/310 242/341/309 276/391/349
f 242/341/309 104/366/329 276/391/349
f 296/339/307 227/408/362 101/403/358
f 296/339/307 371/338/306 227/408/362
f 371/338/306 107/398/353 227/408/362
f 299/336/304 305/412/366 106/337/305
f 299/336/304 113/335/303 305/412/366
f 113/335/303 105/340/308 305/412/366
f 113/335/303 242/341/309 105/340/308
f 113/335/303 184/334/302 242/341/309
f 184/334/302 104/366/329 242/341/309
f 289/332/300 369/373/336 93/371/334
f 289/332/300 167/331/299 369/373/336
f 167/331/299 94/318/288 369/373/336
f 320/330/298 326/377/340 102/376/339
f 320/330/298 120/329/297 326/377/340
f 120/329/297 101/403/358 326/377/340
f 120/329/297 258/405/360 101/403/358
f 120/329/297 216/328/296 258/405/360
f 216/328/296 100/404/359 258/405/360
f 270/326/294 141/374/337 99/327/295
f 270/326/294 340/325/293 141/374/337
f 340/325/293 98/397/352 141/374/337
f 340/323/293 373/395/351 98/396/352
f 340/323/293 156/322/292 373/395/351
f 156/322/292 92/369/332 373/395/351
f 365/320/290 239/400/355 96/401/356
f 365/320/290 300/319/289 239/400/355
f 300/319/289 95/399/354 239/400/355
f 280/317/287 172/410/364 93/371/334
f 280/317/287 220/316/286 172/410/364
f 220/316/286 92/369/332 172/410/364
f 208/290/267 114/413/367 70/289/266
f 208/290/267 211/314/284 114/413/367
f 211/314/284 76/414/368 114/413/367
f 211/312/284 198/288/265 76/415/368
f 211/312/284 192/311/283 198/288/265
f 192/311/283 82/286/263 198/288/265
f 308/280/259 355/298/275 85/416/369
f 308/280/259 158/309/258 355/298/275
f 158/309/258 80/296/273 355/298/275
f 180/274/254 185/239/223 72/238/222
f 180/274/254 281/308/281 185/239/223
f 281/308/281 73/417/370 185/239/223
f 281/308/281 221/306/280 73/417/370
f 281/308/281 165/307/262 221/306/280
f 165/307/262 88/304/250 221/306/280
f 221/306/280 121/418/371 73/417/370
f 221/306/280 358/305/279 121/418/371
f 358/305/279 74/419/372 121/418/371
f 147/264/246 350/420/373 69/235/219
f 147/264/246 259/303/278 350/420/373
f 259/303/278 86/313/282 350/420/373
f 259/302/278 334/262/244 86/310/282
f 259/302/278 126/269/249 334/262/244
f 126/269/249 83/260/242 334/262/244
f 329/300/276 212/259/241 79/421/374
f 329/300/276 209/256/238 212/259/241
f 209/256/238 84/257/239 212/259/241
f 351/254/236 201/287/264 82/286/263
f 351/254/236 187/301/277 201/287/264
f 187/301/277 78/422/375 201/287/264
f 187/301/277 323/423/376 78/422/375
f 187/301/277 329/300/276 323/423/376
f 329/300/276 79/421/374 323/423/376
f 297/251/233 360/424/377 72/238/222
f 297/251/233 245/299/272 360/424/377
f 245/299/272 80/425/273 360/424/377
f 355/298/275 271/426/378 85/416/369
f 355/298/275 262/297/274 271/426/378
f 262/297/274 79/421/374 271/426/378
f 245/295/272 254/250/232 80/296/273
f 245/295/272 309/246/228 254/250/232
f 309/246/228 77/247/229 254/250/232
f 130/248/230 251/427/379 78/422/375
f 130/248/230 193/294/271 251/427/379
f 193/294/271 76/415/368 251/427/379
f 317/242/226 335/428/380 70/289/266
f 317/242/226 177/252/234 335/428/380
f 177/252/234 71/291/268 335/428/380
f 378/292/269 228/240/224 74/419/372
f 378/292/269 272/293/270 228/240/224
f 272/293/270 72/238/222 228/240/224
f 205/237/221 376/429/381 69/235/219
f 205/237/221 378/292/269 376/429/381
f 378/292/269 74/419/372 376/429/381
f 208/290/267 350/420/373 86/313/282
f 208/290/267 140/236/220 350/420/373
f 140/236/220 69/235/219 350/420/373
f 198/288/265 251/427/379 76/415/368
f 198/288/265 201/287/264 251/427/379
f 201/287/264 78/422/375 251/427/379
f 165/285/262 322/271/251 88/270/250
f 165/285/262 115/284/261 322/271/251
f 115/284/261 84/257/239 322/271/251
f 366/282/255 115/284/261 89/283/253
f 366/282/255 173/281/260 115/284/261
f 173/281/260 84/257/239 115/284/261
f 173/281/260 134/258/240 84/257/239
f 173/281/260 308/280/259 134/258/240
f 308/280/259 85/416/369 134/258/240
f 158/278/258 360/424/377 80/425/273
f 158/278/258 217/277/257 360/424/377
f 217/277/257 72/238/222 360/424/377
f 366/275/255 217/277/257 90/276/256
f 366/275/255 180/274/254 217/277/257
f 180/274/254 72/238/222 217/277/257
f 202/272/252 204/430/382 83/260/242
f 202/272/252 322/271/251 204/430/382
f 322/271/251 84/257/239 204/430/382
f 126/269/249 202/272/252 83/260/242
f 126/269/249 199/268/248 202/272/252
f 199/268/248 88/270/250 202/272/252
f 199/266/248 358/305/279 88/304/250
f 199/266/248 284/265/247 358/305/279
f 284/265/247 74/419/372 358/305/279
f 284/265/247 376/429/381 74/419/372
f 284/265/247 147/264/246 376/429/381
f 147/264/246 69/235/219 376/429/381
f 334/262/244 192/311/283 86/310/282
f 334/262/244 290/261/243 192/311/283
f 290/261/243 82/286/263 192/311/283
f 212/259/241 271/426/378 79/421/374
f 212/259/241 134/258/240 271/426/378
f 134/258/240 85/416/369 271/426/378
f 209/256/238 204/430/382 84/257/239
f 209/256/238 152/255/237 204/430/382
f 152/255/237 83/260/242 204/430/382
f 152/255/237 290/261/243 83/260/242
f 152/255/237 351/254/236 290/261/243
f 351/254/236 82/286/263 290/261/243
f 177/252/234 272/293/270 71/291/268
f 177/252/234 297/251/233 272/293/270
f 297/251/233 72/238/222 272/293/270
f 254/250/232 262/297/274 80/296/273
f 254/250/232 190/249/231 262/297/274
f 190/249/231 79/421/374 262/297/274
f 190/249/231 323/423/376 79/421/374
f 190/249/231 130/248/230 323/423/376
f 130/248/230 78/422/375 323/423/376
f 309/246/228 193/294/271 77/247/229
f 309/246/228 248/245/227 193/294/271
f 248/245/227 76/415/368 193/294/271
f 248/243/227 114/413/367 76/414/368
f 248/243/227 317/242/226 114/413/367
f 317/242/226 70/289/266 114/413/367
f 228/240/224 121/418/371 74/419/372
f 228/240/224 185/239/223 121/418/371
f 185/239/223 73/417/370 121/418/371
f 205/237/221 335/428/380 71/291/268
f 205/237/221 140/236/220 335/428/380
f 140/236/220 70/289/266 335/428/380
f 131/210/201 234/431/383 48/209/200
f 131/210/201 160/234/218 234/431/383
f 160/234/218 54/432/384 234/431/383
f 160/232/218 159/208/199 54/433/384
f 160/232/218 188/231/217 159/208/199
f 188/231/217 60/206/197 159/208/199
f 363/200/193 255/218/209 63/434/385
f 363/200/193 252/229/192 255/218/209
f 252/229/192 58/216/207 255/218/209
f 274/194/188 257/159/157 50/158/156
f 274/194/188 137/228/215 257/159/157
f 137/228/215 51/435/386 257/159/157
f 137/228/215 206/226/214 51/435/386
f 137/228/215 362/227/196 206/226/214
f 362/227/196 66/224/184 206/226/214
f 206/226/214 324/436/387 51/435/386
f 206/226/214 341/225/213 324/436/387
f 341/225/213 52/437/388 324/436/387
f 194/184/180 267/438/389 47/155/153
f 194/184/180 148/223/212 267/438/389
f 148/223/212 64/233/216 267/438/389
f 148/222/212 342/182/178 64/230/216
f 148/222/212 266/189/183 342/182/178
f 266/189/183 61/180/176 342/182/178
f 135/220/210 191/179/175 57/439/390
f 135/220/210 182/176/172 191/179/175
f 182/176/172 62/177/173 191/179/175
f 336/174/170 157/207/198 60/206/197
f 336/174/170 222/221/211 157/207/198
f 222/221/211 56/440/391 157/207/198
f 222/221/211 377/441/392 56/440/391
f 222/221/211 135/220/210 377/441/392
f 135/220/210 57/439/390 377/441/392
f 117/171/167 304/442/393 50/158/156
f 117/171/167 145/219/206 304/442/393
f 145/219/206 58/443/207 304/442/393
f 255/218/209 116/444/394 63/434/385
f 255/218/209 210/217/208 116/444/394
f 210/217/208 57/439/390 116/444/394
f 145/215/206 149/170/166 58/216/207
f 145/215/206 368/166/162 149/170/166
f 368/166/162 55/167/163 149/170/166
f 318/168/164 166/445/395 56/440/391
f 318/168/164 240/214/205 166/445/395
f 240/214/205 54/433/384 166/445/395
f 298/162/160 345/446/396 48/209/200
f 298/162/160 253/172/168 345/446/396
f 253/172/168 49/211/202 345/446/396
f 327/212/203 183/160/158 52/437/388
f 327/212/203 195/213/204 183/160/158
f 195/213/204 50/158/156 183/160/158
f 203/157/155 231/447/397 47/155/153
f 203/157/155 327/212/203 231/447/397
f 327/212/203 52/437/388 231/447/397
f 131/210/201 267/438/389 64/233/216
f 131/210/201 277/156/154 267/438/389
f 277/156/154 47/155/153 267/438/389
f 159/208/199 166/445/395 54/433/384
f 159/208/199 157/207/198 166/445/395
f 157/207/198 56/440/391 166/445/395
f 362/205/196 348/191/185 66/190/184
f 362/205/196 285/204/195 348/191/185
f 285/204/195 62/177/173 348/191/185
f 278/202/189 285/204/195 67/203/187
f 278/202/189 233/201/194 285/204/195
f 233/201/194 62/177/173 285/204/195
f 233/201/194 273/178/174 62/177/173
f 233/201/194 363/200/193 273/178/174
f 363/200/193 63/434/385 273/178/174
f 252/198/192 304/442/393 58/443/207
f 252/198/192 291/197/191 304/442/393
f 291/197/191 50/158/156 304/442/393
f 278/195/189 291/197/191 68/196/190
f 278/195/189 274/194/188 291/197/191
f 274/194/188 50/158/156 291/197/191
f 218/192/186 214/448/398 61/180/176
f 218/192/186 348/191/185 214/448/398
f 348/191/185 62/177/173 214/448/398
f 266/189/183 218/192/186 61/180/176
f 266/189/183 161/188/182 218/192/186
f 161/188/182 66/190/184 218/192/186
f 161/186/182 341/225/213 66/224/184
f 161/186/182 352/185/181 341/225/213
f 352/185/181 52/437/388 341/225/213
f 352/185/181 231/447/397 52/437/388
f 352/185/181 194/184/180 231/447/397
f 194/184/180 47/155/153 231/447/397
f 342/182/178 188/231/217 64/230/216
f 342/182/178 132/181/177 188/231/217
f 132/181/177 60/206/197 188/231/217
f 191/179/175 116/444/394 57/439/390
f 191/179/175 273/178/174 116/444/394
f 273/178/174 63/434/385 116/444/394
f 182/176/172 214/448/398 62/177/173
f 182/176/172 260/175/171 214/448/398
f 260/175/171 61/180/176 214/448/398
f 260/175/171 132/181/177 61/180/176
f 260/175/171 336/174/170 132/181/177
f 336/174/170 60/206/197 132/181/177
f 253/172/168 195/213/204 49/211/202
f 253/172/168 117/171/167 195/213/204
f 117/171/167 50/158/156 195/213/204
f 149/170/166 210/217/208 58/216/207
f 149/170/166 246/169/165 210/217/208
f 246/169/165 57/439/390 210/217/208
f 246/169/165 377/441/392 57/439/390
f 246/169/165 318/168/164 377/441/392
f 318/168/164 56/440/391 377/441/392
f 368/166/162 240/214/205 55/167/163
f 368/166/162 178/165/161 240/214/205
f 178/165/161 54/433/384 240/214/205
f 178/163/161 234/431/383 54/432/384
f 178/163/161 298/162/160 234/431/383
f 298/162/160 48/209/200 234/431/383
f 183/160/158 324/436/387 52/437/388
f 183/160/158 257/159/157 324/436/387
f 257/159/157 51/435/386 324/436/387
f 203/157/155 345/446/396 49/211/202
f 203/157/155 277/156/154 345/446/396
f 277/156/154 48/209/200 345/446/396
f 333/449/142 380/151/149 330/154/152 45/450/143
f 42/451/131 136/130/128 380/151/149 333/449/142
f 136/130/128 41/129/127 263/152/150 380/151/149
f 196/140/138 381/147/145 374/150/148 43/141/139
f 40/137/135 292/126/124 381/147/145 196/140/138
f 292/126/124 39/125/123 138/148/146 381/147/145
f 138/148/146 382/143/141 139/146/144 46/149/147
f 39/125/123 122/134/132 382/143/141 138/148/146
f 122/134/132 42/133/131 333/144/142 382/143/141
f 263/152/150 383/139/137 261/142/140 44/153/151
f 41/129/127 353/138/136 383/139/137 263/152/150
f 353/138/136 40/137/135 196/140/138 383/139/137
f 127/128/126 384/135/133 353/138/136 41/129/127
f 22/111/109 356/48/48 384/135/133 127/128/126
f 356/48/48 21/47/47 189/136/134 384/135/133
f 213/124/122 385/131/129 122/134/132 39/125/123
f 38/121/119 155/116/114 385/131/129 213/124/122
f 155/116/114 37/115/113 119/132/130 385/131/129
f 119/452/130 386/127/125 136/130/128 42/451/131
f 37/453/113 123/112/110 386/127/125 119/452/130
f 123/112/110 22/111/109 127/128/126 386/127/125
f 189/136/134 387/123/121 292/126/124 40/137/135
f 21/47/47 337/122/120 387/123/121 189/136/134
f 337/122/120 38/121/119 213/124/122 387/123/121
f 169/46/46 388/119/117 337/122/120 21/47/47
f 20/454/399 241/455/400 388/119/117 169/46/46
f 241/455/400 15/456/35 265/120/118 388/119/117
f 319/457/401 389/117/115 162/118/116 25/458/402
f 15/459/35 241/460/400 389/117/115 319/457/401
f 241/460/400 20/461/399 364/56/56 389/117/115
f 265/120/118 390/113/111 155/116/114 38/121/119
f 15/456/35 346/462/34 390/113/111 265/120/118
f 346/462/34 14/463/23 338/114/112 390/113/111
f 338/464/112 391/109/107 123/112/110 37/453/113
f 14/465/23 153/466/22 391/109/107 338/464/112
f 153/466/22 13/467/31 379/110/108 391/109/107
f 243/90/88 392/105/103 235/108/106 35/91/89
f 26/468/63 237/469/74 392/105/103 243/90/88
f 237/469/74 30/470/73 133/106/104 392/105/103
f 197/86/84 393/101/99 302/104/102 33/87/85
f 32/471/93 249/472/98 393/101/99 197/86/84
f 249/472/98 27/473/97 168/102/100 393/101/99
f 264/94/92 394/97/95 249/100/98 32/95/93
f 31/79/77 325/84/82 394/97/95 264/94/92
f 325/84/82 12/83/81 328/98/96 394/97/95
f 128/74/72 395/93/91 118/96/94 30/75/73
f 29/71/69 186/80/78 395/93/91 128/74/72
f 186/80/78 31/79/77 264/94/92 395/93/91
f 168/474/100 396/89/87 301/92/90 36/475/101
f 27/476/97 321/477/64 396/89/87 168/474/100
f 321/477/64 26/468/63 243/90/88 396/89/87
f 133/106/104 397/85/83 174/88/86 34/107/105
f 30/470/73 118/478/94 397/85/83 133/106/104
f 118/478/94 32/471/93 197/86/84 397/85/83
f 142/78/76 398/81/79 325/84/82 31/79/77
f 1/479/403 311/480/404 398/81/79 142/78/76
f 311/480/404 4/481/405 143/82/80 398/81/79
f 179/70/68 399/77/75 186/80/78 29/71/69
f 28/482/406 225/483/407 399/77/75 179/70/68
f 225/483/407 1/479/403 142/78/76 399/77/75
f 129/62/62 400/73/71 237/76/74 26/63/63
f 11/15/15 331/72/70 400/73/71 129/62/62
f 331/72/70 29/71/69 128/74/72 400/73/71
f 223/14/14 401/69/67 331/72/70 11/15/15
f 5/484/408 232/485/409 401/69/67 223/14/14
f 232/485/409 28/482/406 179/70/68 401/69/67
f 164/486/410 402/65/65 171/68/66 6/487/411
f 5/488/408 247/489/412 402/65/65 164/486/410
f 247/489/412 4/490/405 310/66/4 402/65/65
f 328/491/96 403/61/61 321/64/64 27/492/97
f 12/493/81 268/16/16 403/61/61 328/491/96
f 268/16/16 11/15/15 129/62/62 403/61/61
f 286/494/26 404/57/57 315/60/60 16/495/27
f 15/459/35 319/457/401 404/57/57 286/494/26
f 319/457/401 25/458/402 293/58/58 404/57/57
f 244/496/413 405/53/53 364/56/56 20/461/399
f 13/497/31 176/498/44 405/53/53 244/496/413
f 176/498/44 19/499/43 236/54/54 405/53/53
f 226/500/38 406/49/49 372/52/52 17/501/39
f 16/495/27 315/60/60 406/49/49 226/500/38
f 315/60/60 23/59/59 294/50/50 406/49/49
f 379/110/108 407/45/45 356/48/48 22/111/109
f 13/467/31 244/502/413 407/45/45 379/110/108
f 244/502/413 20/454/399 169/46/46 407/45/45
f 343/503/30 408/41/41 176/44/44 13/504/31
f 17/501/39 372/52/52 408/41/41 343/503/30
f 372/52/52 18/51/51 306/42/42 408/41/41
f 282/10/10 409/37/37 200/40/40 2/11/11
f 10/19/19 124/28/28 409/37/37 282/10/10
f 124/28/28 16/27/27 226/38/38 409/37/37
f 359/6/6 410/33/33 229/36/36 7/7/7
f 6/487/411 287/24/24 410/33/33 359/6/6
f 287/24/24 14/23/23 346/34/34 410/33/33
f 375/2/2 411/29/29 344/32/32 3/3/3
f 2/11/11 200/40/40 411/29/29 375/2/2
f 200/40/40 17/39/39 343/30/30 411/29/29
f 146/18/18 412/25/25 124/28/28 10/19/19
f 7/7/7 229/36/36 412/25/25 146/18/18
f 229/36/36 15/35/35 286/26/26 412/25/25
f 171/68/66 413/21/21 287/24/24 6/487/411
f 3/67/3 344/505/32 413/21/21 171/68/66
f 344/505/32 13/506/31 153/22/22 413/21/21
f 238/507/414 414/17/17 144/20/20 9/508/415
f 8/509/416 303/8/8 414/17/17 238/507/414
f 303/8/8 7/7/7 146/18/18 414/17/17
f 143/510/80 415/13/13 268/16/16 12/493/81
f 4/511/405 247/512/412 415/13/13 143/510/80
f 247/512/412 5/484/408 223/14/14 415/13/13
f 357/513/417 416/9/9 181/12/12 1/514/403
f 9/508/415 144/20/20 416/9/9 357/513/417
f 144/20/20 10/19/19 282/10/10 416/9/9
f 295/515/418 417/5/5 303/8/8 8/509/416
f 5/488/408 164/486/410 417/5/5 295/515/418
f 164/486/410 6/487/411 359/6/6 417/5/5
f 311/516/404 418/1/1 310/4/4 4/517/405
f 1/514/403 181/12/12 418/1/1 311/516/404
f 181/12/12 2/11/11 375/2/2 418/1/1
