# Blender v2.78 (sub 0) OBJ File: ''
# www.blender.org
mtllib Oak_Stump_05.mtl
o Oak_Stump_05
v -0.256847 0.278636 -0.390126
v -0.243423 0.529486 -0.334563
v -0.000004 0.530736 -0.413046
v -0.000527 0.278638 -0.461400
v 0.480200 0.278638 -0.104966
v 0.480200 0.278638 0.090752
v 0.713532 -0.009007 0.062105
v 0.713532 -0.009007 -0.105044
v -0.358419 0.278390 -0.369763
v -0.607950 -0.009587 -0.517720
v -0.700475 -0.009587 -0.390369
v -0.469730 0.278390 -0.216559
v 0.266371 0.278638 -0.374594
v 0.242749 0.530736 -0.334171
v 0.393406 0.529488 -0.127618
v 0.431843 0.278638 -0.153982
v 0.255450 0.276200 0.405190
v 0.054758 0.276200 0.470535
v 0.168099 -0.014709 0.652740
v 0.303283 -0.014709 0.604158
v -0.432795 0.278638 0.133293
v -0.392354 0.530877 0.127636
v -0.393095 0.529812 -0.127963
v -0.444151 0.278636 -0.132326
v 0.431843 0.278638 0.139769
v 0.393406 0.529488 0.127463
v 0.242919 0.529474 0.334595
v 0.268139 0.278621 0.360080
v -0.292051 0.278609 0.352787
v -0.242857 0.529794 0.334233
v -0.385277 -0.009099 0.451703
v -0.568588 -0.009007 0.162655
v 0.586855 -0.009007 0.165061
v 0.351220 -0.009061 0.460566
v -0.001662 -0.009007 -0.617164
v 0.348412 -0.009007 -0.503235
v -0.586887 -0.009013 -0.183092
v 0.000042 0.529027 0.413535
v 0.586855 -0.009007 -0.208000
v -0.336685 -0.009013 -0.527464
v -0.239637 0.274435 0.428965
v -0.308542 -0.018838 0.720685
v -0.180523 -0.018838 0.762281
v -0.066134 0.274435 0.485339
v 0.022165 0.278592 0.456112
v 0.028730 -0.009152 0.588527
v 0.317238 0.532472 -0.100748
v 0.197461 0.532472 0.268052
v 0.317928 0.532816 0.103301
v -0.001355 0.532472 -0.330291
v -0.196106 0.532266 0.267520
v 0.001084 0.532266 0.331749
v 0.195275 0.532472 -0.266313
v -0.197428 0.532472 -0.268006
v -0.318603 0.532472 -0.103521
v -0.317985 0.532266 0.101612
v -0.000000 0.680364 -0.412320
v 0.242644 0.681260 -0.333502
v 0.213744 0.680364 0.294193
v 0.345777 0.680364 0.112419
v -0.242357 0.680364 -0.333575
v 0.392217 0.681260 -0.127632
v 0.001964 0.680020 0.364008
v 0.392194 0.680364 0.127431
v -0.340611 0.680020 0.136479
v -0.256679 0.680020 0.252001
v 0.214730 0.681260 -0.273172
v 0.336327 0.681260 -0.105855
v 0.326147 0.805713 -0.142145
v 0.246174 0.805713 -0.252218
v 0.242390 0.680364 0.333621
v -0.208989 0.680364 -0.287648
v 0.000039 0.680364 -0.355452
v -0.337934 0.680020 -0.111820
v -0.391670 0.680020 -0.129605
v 0.258961 0.805713 -0.291448
v -0.360843 0.680020 0.153436
v -0.257636 0.680020 0.295490
v 0.002230 0.680020 0.412626
v 0.357301 0.805713 -0.156094
v 0.121842 0.530719 0.374721
v 0.318601 0.530736 0.231449
v 0.261760 0.278859 0.382766
v 0.509789 0.133614 -0.180911
v 0.254273 0.405170 -0.353931
v 0.275849 0.681227 -0.189665
v -0.329716 0.606418 0.120682
v -0.000000 0.606418 -0.412716
v -0.456842 0.279955 -0.174479
v -0.346639 -0.013969 0.587331
v -0.121668 0.529676 0.374362
v 0.256934 0.532472 -0.184023
v 0.456061 0.280079 0.115231
v -0.033131 0.401694 0.448832
v -0.296979 0.133611 -0.459044
v 0.394141 0.530736 -0.000048
v -0.438871 0.278638 0.000011
v -0.218863 0.532472 0.303273
v 0.098253 0.531441 0.031924
v 0.412558 0.403781 -0.141025
v 0.121692 0.530736 -0.374591
v -0.392071 0.606418 -0.129150
v -0.098253 0.531441 -0.031924
v -0.501181 0.133614 0.148095
v 0.097219 0.532472 -0.299098
v -0.644178 -0.009300 -0.287743
v -0.338810 0.133565 0.402442
v -0.318626 0.530736 0.231360
v -0.412316 0.405170 0.130331
v 0.597579 0.133614 -0.105006
v 0.326984 0.606418 -0.104395
v -0.319043 0.530734 -0.231745
v 0.651289 -0.009007 0.112981
v -0.021325 0.277976 0.470353
v -0.419007 0.403778 -0.130071
v 0.365045 0.682258 -0.115437
v 0.098765 -0.011885 0.620034
v 0.456061 0.280079 -0.129346
v -0.104769 0.680364 -0.322447
v 0.480527 0.278638 -0.007107
v -0.225715 0.681395 -0.310670
v -0.245158 -0.018930 0.743556
v -0.356138 0.532472 0.114330
v 0.205442 0.606418 -0.271656
v 0.107153 0.680364 0.329784
v 0.173820 -0.009007 -0.561996
v -0.365146 0.680364 -0.120279
v -0.121498 0.680364 -0.373930
v 0.714701 -0.009007 -0.021470
v -0.350934 0.680364 0.144723
v -0.298715 0.680364 0.194185
v -0.169532 -0.009007 -0.572874
v 0.236122 -0.014762 0.629421
v 0.000019 0.606418 -0.344758
v -0.376420 0.606418 0.141249
v -0.257699 0.531441 -0.083731
v 0.279570 0.129526 0.505254
v 0.205084 0.606418 0.282274
v -0.000261 0.405170 -0.436677
v 0.001672 0.606418 0.412820
v 0.331799 0.606418 0.107843
v 0.341904 0.680364 0.003350
v 0.251483 0.744129 -0.312199
v 0.468662 -0.009007 0.312617
v -0.656006 -0.009592 -0.454962
v 0.317576 0.532266 0.003002
v -0.001513 0.532472 0.374108
v 0.121514 0.680364 0.373982
v -0.265753 0.277976 0.390933
v 0.155174 0.276183 0.438063
v -0.129262 0.278638 -0.426128
v 0.227705 0.682258 -0.304441
v 0.326776 -0.011885 0.533512
v -0.578054 -0.009007 -0.010592
v 0.258700 0.532266 0.184269
v 0.255829 0.403754 0.347220
v 0.374702 0.744129 -0.142602
v -0.274290 0.680364 -0.199283
v -0.241002 0.401694 0.381291
v -0.430978 0.403658 -0.172230
v 0.318601 0.530736 -0.231546
v 0.331252 0.744129 -0.124659
v -0.250151 0.403778 -0.362481
v 0.307697 0.133614 -0.439415
v -0.317861 0.531441 -0.002983
v 0.651289 -0.009007 -0.155920
v 0.349862 0.278638 0.249936
v -0.473434 -0.009300 -0.522752
v 0.107545 0.680364 -0.315162
v 0.392517 0.606418 0.127536
v -0.328377 0.606418 -0.108165
v -0.075953 -0.013969 0.675282
v 0.248840 0.402570 0.369749
v 0.133237 0.278638 -0.419011
v -0.393343 0.529705 0.000001
v 0.099666 0.532472 0.299996
v 0.412558 0.403781 0.133892
v -0.097316 0.531441 0.299507
v 0.011016 0.402794 0.435278
v -0.001116 0.133614 -0.539866
v -0.099650 0.532472 -0.299945
v -0.362563 0.278638 0.243701
v -0.257092 0.532472 0.184053
v -0.202673 0.606418 -0.278955
v 0.436466 0.403781 0.108876
v 0.027753 0.402570 0.441750
v 0.597579 0.133614 0.076347
v 0.308159 0.806000 -0.223816
v 0.242588 0.606418 -0.333895
v 0.309634 0.133586 0.410708
v -0.257023 0.680364 0.273980
v -0.227603 0.606418 0.261230
v 0.468662 -0.009007 -0.355556
v -0.267674 0.403735 0.343749
v -0.123784 0.126565 0.624630
v -0.250732 0.606418 0.314245
v -0.307635 0.279955 -0.379843
v -0.477206 -0.009007 0.307525
v 0.001414 0.606418 0.349809
v 0.436466 0.403781 -0.116009
v 0.369081 0.681395 0.119956
v 0.318128 0.680364 0.231133
v -0.153012 0.274406 0.457508
v -0.318084 0.680364 -0.231102
v 0.280531 0.680364 0.203818
v -0.300549 0.403658 -0.351749
v 0.318319 0.681227 -0.231272
v 0.228126 0.681395 0.313988
v -0.585874 0.133198 -0.304060
v -0.309242 0.680364 0.224518
v 0.509789 0.133614 0.152253
v 0.392517 0.606418 -0.127536
v -0.242589 0.606418 -0.333895
v -0.274218 0.126565 0.575751
v 0.111749 0.129526 0.562177
v 0.000019 0.681395 -0.383959
v 0.242589 0.606418 0.333895
v -0.258665 0.532266 -0.184244
v 0.252413 0.806000 -0.272046
v 0.393194 0.680364 0.000023
v -0.414508 0.278388 -0.293377
v -0.356238 0.532472 -0.114158
v 0.341879 0.806000 -0.148906
v 0.121517 0.680364 -0.373880
v 0.037823 0.278859 0.463030
v -0.515739 0.133611 -0.157947
v -0.121665 0.530736 -0.374640
v 0.025616 0.133537 0.522329
v -0.484076 0.133198 -0.444172
v 0.349861 0.278638 -0.264150
v 0.257699 0.531441 0.083731
v 0.001572 0.680364 0.388521
v 0.286133 0.806000 -0.197136
v 0.231145 0.744129 -0.262444
v -0.356170 0.531441 0.000000
v -0.361173 0.606418 -0.117352
v -0.353862 0.606418 0.129873
v -0.238373 0.606418 0.288830
v -0.110063 0.531441 0.338738
v 0.000000 0.606418 0.381816
v -0.266001 0.606418 -0.193261
v 0.121614 0.606418 0.374289
v 0.103011 0.606418 -0.309010
v -0.101604 0.606418 -0.312703
v -0.313820 0.606418 0.228003
v 0.266904 0.606418 -0.188505
v 0.297146 0.806863 -0.210476
v 0.330247 0.606418 0.001699
v 0.353756 0.744129 -0.132559
v -0.318389 0.606418 -0.231323
v 0.114561 0.681395 -0.344561
v 0.313315 0.744129 -0.227637
v 0.367628 0.681395 0.001699
v 0.299407 0.681395 0.217532
v 0.114363 0.681395 0.351974
v -0.304088 0.681395 0.209352
v 0.240535 0.744129 -0.288393
v -0.296243 0.681395 -0.215233
v -0.113155 0.681395 -0.348254
v 0.318389 0.606418 0.231323
v 0.280976 0.744129 -0.193316
v -0.278416 0.606418 0.190700
v 0.393550 0.606418 0.000000
v 0.102812 0.606418 0.316423
v 0.318389 0.606418 -0.231323
v -0.121614 0.606418 -0.374288
v 0.269165 0.606418 0.195560
v 0.121614 0.606418 -0.374288
v 0.178209 0.531441 0.057903
v -0.178209 0.531441 -0.057903
v 0.000000 0.531441 -0.000000
v 0.068615 0.131556 0.542092
v 0.294490 0.131556 0.458681
v 0.554379 0.133614 0.114032
v 0.554379 0.133614 -0.142690
v -0.391195 0.133405 -0.451809
v -0.551203 0.133405 -0.231576
v -0.048857 0.130065 0.573506
v -0.306469 0.130065 0.489803
v -0.137098 0.403059 0.415182
v -0.199298 0.126516 0.601146
v -0.149469 0.133614 -0.499847
v 0.436518 0.405170 -0.003528
v -0.365934 0.405046 -0.261998
v 0.409506 0.133614 -0.310071
v 0.138226 0.403946 0.405725
v -0.508777 0.133614 -0.005302
v 0.153615 0.133614 -0.490821
v 0.409506 0.133614 0.281412
v -0.420168 0.133614 0.275729
v -0.340227 0.405170 0.237331
v 0.333817 0.405170 0.240474
v 0.127323 0.405170 -0.396302
v -0.415879 0.405170 0.000043
v 0.195856 0.129497 0.534180
v 0.333817 0.405170 -0.247529
v -0.535864 0.133196 -0.374568
v 0.598181 0.133614 -0.014329
v -0.125323 0.405170 -0.399873
vt 0.9413 0.8062
vt 0.9413 0.8101
vt 0.9375 0.8100
vt 0.9374 0.8062
vt 0.9143 0.8015
vt 0.9119 0.8025
vt 0.9105 0.7975
vt 0.9124 0.7966
vt 0.9523 0.7970
vt 0.9535 0.7914
vt 0.9554 0.7917
vt 0.9546 0.7975
vt 0.9255 0.8078
vt 0.9262 0.8116
vt 0.9225 0.8125
vt 0.9216 0.8088
vt 0.8987 0.8116
vt 0.8970 0.8132
vt 0.8943 0.8094
vt 0.8956 0.8082
vt 0.9583 0.8099
vt 0.9567 0.8134
vt 0.9530 0.8120
vt 0.9546 0.8084
vt 0.9334 0.8066
vt 0.9338 0.8104
vt 0.9300 0.8107
vt 0.9294 0.8069
vt 0.9103 0.8138
vt 0.9121 0.8169
vt 0.9088 0.8186
vt 0.9069 0.8156
vt 0.9654 0.8131
vt 0.9638 0.8166
vt 0.9604 0.8149
vt 0.9620 0.8114
vt 0.9690 0.8058
vt 0.9669 0.8097
vt 0.9635 0.8079
vt 0.9654 0.8038
vt 0.9062 0.8069
vt 0.9085 0.8106
vt 0.9051 0.8127
vt 0.9026 0.8093
vt 0.9326 0.7982
vt 0.9330 0.8027
vt 0.9288 0.8031
vt 0.9282 0.7987
vt 0.9616 0.8021
vt 0.9598 0.8063
vt 0.9561 0.8048
vt 0.9577 0.8004
vt 0.9040 0.8178
vt 0.9015 0.8197
vt 0.8996 0.8170
vt 0.9018 0.8151
vt 0.9239 0.7996
vt 0.9248 0.8040
vt 0.9208 0.8050
vt 0.9195 0.8005
vt 0.9501 0.8069
vt 0.9510 0.8026
vt 0.9539 0.8033
vt 0.9534 0.8076
vt 0.9175 0.8101
vt 0.9144 0.8113
vt 0.9133 0.8074
vt 0.9161 0.8063
vt 0.9412 0.7977
vt 0.9412 0.8023
vt 0.9372 0.8024
vt 0.9370 0.7978
vt 0.9787 0.8102
vt 0.9826 0.8061
vt 0.9838 0.8072
vt 0.9803 0.8116
vt 0.9724 0.8172
vt 0.9748 0.8143
vt 0.9767 0.8160
vt 0.9748 0.8190
vt 0.9780 0.8181
vt 0.9754 0.8201
vt 0.9773 0.8170
vt 0.9671 0.8182
vt 0.9688 0.8148
vt 0.9700 0.8154
vt 0.9748 0.8083
vt 0.9780 0.8045
vt 0.9814 0.8050
vt 0.9771 0.8088
vt 0.9809 0.8138
vt 0.9550 0.8040
vt 0.9562 0.7990
vt 0.9452 0.8102
vt 0.9452 0.8062
vt 0.9467 0.8061
vt 0.9476 0.7971
vt 0.9485 0.7921
vt 0.9516 0.7911
vt 0.9499 0.7966
vt 0.9181 0.8005
vt 0.9166 0.8005
vt 0.9143 0.7958
vt 0.9163 0.7959
vt 0.9207 0.8088
vt 0.9108 0.8035
vt 0.9098 0.8045
vt 0.9078 0.8004
vt 0.9092 0.7990
vt 0.9118 0.8086
vt 0.9125 0.8080
vt 0.9136 0.8119
vt 0.8992 0.8177
vt 0.8994 0.8174
vt 0.9013 0.8201
vt 0.9064 0.8159
vt 0.9015 0.8097
vt 0.9004 0.8101
vt 0.8968 0.8070
vt 0.8985 0.8065
vt 0.8965 0.8142
vt 0.8960 0.8153
vt 0.8356 0.6537
vt 0.8131 0.6537
vt 0.8243 0.6500
vt 0.8131 0.6847
vt 0.7767 0.6847
vt 0.7767 0.6729
vt 0.8131 0.6729
vt 0.8356 0.7157
vt 0.8243 0.7193
vt 0.8131 0.7157
vt 0.8131 0.7061
vt 0.7906 0.7157
vt 0.7837 0.7061
vt 0.8131 0.6633
vt 0.7837 0.6633
vt 0.7906 0.6537
vt 0.9625 0.8260
vt 0.9693 0.8288
vt 0.9678 0.8325
vt 0.9611 0.8297
vt 0.9272 0.8315
vt 0.9226 0.8322
vt 0.9223 0.8290
vt 0.9271 0.8281
vt 0.8991 0.8440
vt 0.9043 0.8411
vt 0.9052 0.8441
vt 0.9004 0.8471
vt 0.9502 0.8223
vt 0.9557 0.8234
vt 0.9544 0.8269
vt 0.9495 0.8260
vt 0.9188 0.8331
vt 0.9150 0.8339
vt 0.9166 0.8312
vt 0.9194 0.8301
vt 0.9380 0.8214
vt 0.9447 0.8213
vt 0.9445 0.8250
vt 0.9382 0.8252
vt 0.9384 0.8418
vt 0.9352 0.8405
vt 0.9380 0.8396
vt 0.9387 0.8401
vt 0.9488 0.8289
vt 0.9462 0.8281
vt 0.9487 0.8276
vt 0.9491 0.8279
vt 0.9255 0.8228
vt 0.9313 0.8214
vt 0.9318 0.8253
vt 0.9268 0.8263
vt 0.9013 0.8482
vt 0.8968 0.8512
vt 0.8957 0.8502
vt 0.9086 0.8440
vt 0.9058 0.8451
vt 0.9082 0.8433
vt 0.9518 0.8285
vt 0.9515 0.8296
vt 0.9496 0.8282
vt 0.9497 0.8281
vt 0.9389 0.8400
vt 0.9381 0.8395
vt 0.9382 0.8393
vt 0.9390 0.8399
vt 0.9192 0.8294
vt 0.9163 0.8307
vt 0.9160 0.8302
vt 0.9189 0.8288
vt 0.9269 0.8272
vt 0.9220 0.8282
vt 0.9218 0.8273
vt 0.9380 0.8265
vt 0.9319 0.8262
vt 0.9494 0.8268
vt 0.9521 0.8275
vt 0.9499 0.8280
vt 0.9493 0.8277
vt 0.9604 0.8313
vt 0.9539 0.8290
vt 0.9089 0.8406
vt 0.9135 0.8400
vt 0.9112 0.8425
vt 0.9464 0.8271
vt 0.9466 0.8262
vt 0.9487 0.8273
vt 0.9487 0.8275
vt 0.9373 0.8315
vt 0.9319 0.8308
vt 0.9319 0.8272
vt 0.9377 0.8279
vt 0.9492 0.8278
vt 0.9476 0.8336
vt 0.9427 0.8322
vt 0.9436 0.8286
vt 0.9485 0.8298
vt 0.9395 0.8388
vt 0.9431 0.8399
vt 0.9399 0.8405
vt 0.9044 0.8521
vt 0.9002 0.8551
vt 0.8979 0.8521
vt 0.9021 0.8492
vt 0.9584 0.8368
vt 0.9525 0.8349
vt 0.9534 0.8311
vt 0.9597 0.8329
vt 0.9164 0.8278
vt 0.9197 0.8242
vt 0.9117 0.8461
vt 0.9087 0.8491
vt 0.9063 0.8462
vt 0.9090 0.8448
vt 0.9140 0.8326
vt 0.9118 0.8345
vt 0.9102 0.8324
vt 0.9131 0.8313
vt 0.9526 0.8484
vt 0.9507 0.8508
vt 0.9440 0.8455
vt 0.9452 0.8425
vt 0.9424 0.8415
vt 0.9396 0.8406
vt 0.9355 0.8391
vt 0.9330 0.8387
vt 0.9336 0.8360
vt 0.9359 0.8377
vt 0.9141 0.8415
vt 0.9157 0.8376
vt 0.9168 0.8401
vt 0.9248 0.8394
vt 0.9323 0.8414
vt 0.9251 0.8421
vt 0.9178 0.8427
vt 0.9247 0.8368
vt 0.9147 0.8431
vt 0.9117 0.8434
vt 0.9115 0.8429
vt 0.9463 0.8394
vt 0.9417 0.8431
vt 0.9394 0.8407
vt 0.9546 0.8460
vt 0.9628 0.8525
vt 0.9601 0.8543
vt 0.9574 0.8561
vt 0.9134 0.8366
vt 0.9144 0.8474
vt 0.9110 0.8520
vt 0.9139 0.8268
vt 0.9177 0.8212
vt 0.9643 0.8388
vt 0.9659 0.8348
vt 0.9627 0.8427
vt 0.9572 0.8407
vt 0.9517 0.8388
vt 0.9067 0.8551
vt 0.9025 0.8582
vt 0.9399 0.8377
vt 0.9467 0.8374
vt 0.9418 0.8359
vt 0.9368 0.8352
vt 0.9318 0.8344
vt 0.9441 0.8268
vt 0.9033 0.8380
vt 0.9095 0.8378
vt 0.9669 0.8336
vt 0.9243 0.8194
vt 0.9308 0.8176
vt 0.9381 0.8435
vt 0.9378 0.8176
vt 0.9449 0.8176
vt 0.9229 0.8355
vt 0.9182 0.8361
vt 0.9510 0.8187
vt 0.9571 0.8198
vt 0.8940 0.8470
vt 0.8923 0.8438
vt 0.8978 0.8409
vt 0.9274 0.8349
vt 0.9639 0.8224
vt 0.9707 0.8250
vt 0.8426 0.6633
vt 0.8495 0.6729
vt 0.8131 0.6965
vt 0.7767 0.6965
vt 0.8495 0.6965
vt 0.8426 0.7061
vt 0.8018 0.7193
vt 0.8131 0.7230
vt 0.8495 0.6847
vt 0.8018 0.6500
vt 0.8131 0.6464
vt 0.8936 0.8111
vt 0.8929 0.8128
vt 0.9002 0.8059
vt 0.9045 0.8129
vt 0.9040 0.8131
vt 0.9034 0.8224
vt 0.9154 0.8152
vt 0.9198 0.8051
vt 0.9189 0.8052
vt 0.9183 0.7960
vt 0.9467 0.8022
vt 0.9482 0.8020
vt 0.9451 0.8023
vt 0.9453 0.7977
vt 0.9455 0.7931
vt 0.9574 0.7939
vt 0.9594 0.7960
vt 0.9844 0.8105
vt 0.9850 0.8138
vt 0.9815 0.8159
vt 0.9716 0.8120
vt 0.9728 0.8126
vt 0.9704 0.8115
vt 0.9725 0.8077
vt 0.9747 0.8039
vt 0.9728 0.8220
vt 0.9700 0.8201
vt 0.9412 0.7932
vt 0.9368 0.7932
vt 0.9190 0.8138
vt 0.9491 0.8111
vt 0.9230 0.7951
vt 0.9276 0.7942
vt 0.9061 0.8205
vt 0.9633 0.7979
vt 0.9673 0.7998
vt 0.9322 0.7937
vt 0.9040 0.8031
vt 0.9710 0.8018
vn -0.2809 0.2009 -0.9385
vn -0.3009 0.1026 -0.9481
vn 0.0030 0.0994 -0.9950
vn 0.0104 0.1932 -0.9811
vn 0.7761 0.6306 0.0001
vn 0.7401 0.5592 0.3736
vn 0.7574 0.5852 0.2897
vn 0.7753 0.6316 -0.0002
vn -0.5705 0.7090 -0.4146
vn -0.5700 0.7098 -0.4138
vn -0.7377 0.6634 -0.1257
vn -0.7843 0.6204 -0.0035
vn 0.7913 0.1747 -0.5860
vn 0.8039 0.0890 -0.5880
vn 0.9333 0.1368 -0.3320
vn 0.7531 0.1808 -0.6326
vn 0.2624 0.5792 0.7718
vn -0.0620 0.5106 0.8576
vn 0.0228 0.5366 0.8435
vn 0.2679 0.5804 0.7690
vn -0.9836 0.1786 0.0233
vn -0.6632 0.7484 0.0072
vn -0.9082 0.4173 -0.0331
vn -0.9706 0.1909 0.1463
vn 0.3042 0.1789 -0.9357
vn 0.3078 0.0903 -0.9472
vn 0.5860 0.0939 -0.8049
vn 0.5757 0.1833 -0.7969
vn 0.7975 0.1436 0.5860
vn 0.8060 0.0741 0.5872
vn 0.6023 0.1114 0.7905
vn 0.8833 0.1363 0.4486
vn -0.8146 0.1704 0.5544
vn -0.8080 0.1211 0.5766
vn -0.9008 0.4252 0.0880
vn -0.9387 0.1693 0.3003
vn -0.7671 0.4146 0.4895
vn -0.8010 0.2952 0.5208
vn -0.9051 0.3120 0.2890
vn -0.8580 0.4347 0.2737
vn 0.7186 0.4183 0.5556
vn 0.7675 0.2836 0.5749
vn 0.8610 0.2596 0.4373
vn 0.8160 0.3873 0.4291
vn 0.2750 0.4583 -0.8452
vn 0.2927 0.3234 -0.8999
vn 0.5471 0.3422 -0.7639
vn 0.5073 0.4722 -0.7209
vn -0.8998 0.4341 0.0431
vn -0.9505 0.3086 0.0374
vn -0.9374 0.3028 0.1723
vn -0.8854 0.4108 0.2174
vn 0.2981 0.2685 0.9160
vn -0.0331 0.2110 0.9769
vn -0.0621 0.3778 0.9238
vn 0.2816 0.4311 0.8572
vn 0.6989 0.4620 -0.5460
vn 0.7550 0.3228 -0.5708
vn 0.7096 0.3246 -0.6254
vn 0.6440 0.4611 -0.6104
vn -0.7376 0.4111 -0.5356
vn -0.6641 0.5712 -0.4825
vn -0.8589 0.5063 -0.0769
vn -0.9318 0.3330 -0.1442
vn 0.9456 0.3253 -0.0000
vn 0.8934 0.2537 0.3709
vn 0.8223 0.4291 0.3738
vn 0.8736 0.4867 0.0000
vn -0.2327 0.4676 -0.8527
vn -0.2554 0.3384 -0.9057
vn 0.0178 0.3492 -0.9369
vn 0.0197 0.4772 -0.8786
vn -0.2162 0.7144 0.6655
vn -0.2159 0.7154 0.6645
vn 0.0527 0.6705 0.7401
vn 0.1546 0.6352 0.7567
vn -0.2920 0.3285 0.8982
vn -0.2607 0.5368 0.8024
vn 0.0603 0.4886 0.8704
vn -0.0012 0.2707 0.9627
vn -0.0213 0.2917 0.9563
vn -0.0378 0.1673 0.9852
vn 0.3602 0.3260 0.8741
vn -0.3751 0.4989 0.7812
vn -0.8022 0.1925 0.5652
vn -0.5721 0.2783 0.7715
vn -0.8201 0.4597 0.3406
vn -0.8496 0.4416 0.2886
vn -0.4718 0.6722 0.5706
vn -0.5613 0.6389 0.5261
vn 0.4767 0.4464 0.7573
vn -0.9008 0.2948 0.3187
vn -0.8346 0.3912 0.3879
vn -0.5474 0.1683 -0.8198
vn -0.2433 0.2179 -0.9452
vn -0.4993 0.3394 -0.7972
vn -0.0782 0.4790 -0.8743
vn -0.0488 0.4707 -0.8809
vn -0.4031 0.6680 -0.6255
vn -0.3388 0.6396 -0.6900
vn 0.5857 0.4585 -0.6683
vn 0.7263 0.5855 -0.3602
vn 0.7416 0.6012 -0.2975
vn 0.5714 0.4536 -0.6839
vn 0.8889 0.2733 -0.3676
vn 0.6031 0.4035 0.6881
vn 0.6617 0.4112 0.6270
vn 0.6414 0.4054 0.6513
vn 0.5886 0.3969 0.7043
vn 0.7201 0.2824 0.6338
vn 0.6685 0.2754 0.6908
vn 0.7574 0.1462 0.6364
vn -0.3841 0.2472 0.8896
vn 0.6986 0.2226 0.6800
vn 0.8867 0.3539 0.2975
vn 0.6302 0.5086 0.5867
vn 0.5521 0.5344 0.6400
vn 0.8831 0.3573 0.3039
vn -0.3688 0.3825 0.8471
vn 0.0592 0.4373 0.8974
vn -0.6794 0.6981 0.2260
vn -0.0115 0.9999 -0.0037
vn -0.6508 0.7592 0.0085
vn -0.0003 1.0000 0.0009
vn 0.0004 1.0000 -0.0013
vn -0.3456 0.8887 -0.3011
vn -0.0020 1.0000 -0.0000
vn 0.4206 0.7024 0.5742
vn 0.5282 0.7542 0.3901
vn 0.0046 1.0000 0.0035
vn 0.0013 1.0000 0.0006
vn 0.1263 0.9160 -0.3808
vn 0.4868 0.7976 -0.3561
vn -0.0017 1.0000 -0.0005
vn -0.1954 0.7787 -0.5962
vn -0.4094 0.7212 -0.5589
vn 0.3090 0.0047 -0.9511
vn 0.0001 0.0050 -1.0000
vn 0.0000 0.6359 -0.7718
vn 0.2204 0.6942 -0.6852
vn -0.7938 0.1906 -0.5775
vn -0.5731 0.2050 -0.7934
vn -0.3349 0.8218 -0.4609
vn -0.5281 0.7576 -0.3836
vn -0.3085 0.0057 -0.9512
vn -0.5873 0.0080 -0.8094
vn -0.4538 0.6355 -0.6246
vn -0.2226 0.6935 -0.6852
vn 0.8087 0.0037 -0.5882
vn 0.5874 0.0040 -0.8093
vn 0.3589 0.4229 -0.8321
vn 0.8081 0.0472 -0.5871
vn -0.3064 0.2022 -0.9302
vn -0.7976 0.1349 -0.5879
vn -0.6444 0.6291 -0.4347
vn -0.2063 0.7589 -0.6177
vn 1.0000 0.0071 0.0000
vn 0.9510 0.0060 -0.3090
vn 0.9290 0.3587 -0.0914
vn 0.7224 0.6915 0.0024
vn 0.7808 0.2580 -0.5690
vn 0.2534 0.2744 -0.9276
vn 0.1537 0.6369 -0.7555
vn 0.5128 0.7720 -0.3754
vn -0.8038 0.1033 0.5859
vn -0.3000 0.2495 0.9208
vn -0.2632 0.6648 0.6991
vn -0.5518 0.7307 0.4020
vn 0.8090 0.0052 0.5878
vn 0.9509 0.0065 0.3095
vn 0.7357 0.6337 0.2391
vn 0.5848 0.6910 0.4249
vn -0.0001 1.0000 -0.0003
vn -0.0001 1.0000 -0.0072
vn -0.0015 1.0000 0.0026
vn -0.0042 1.0000 -0.0058
vn -0.5803 0.6967 -0.4218
vn -0.8926 0.2694 -0.3616
vn -0.9660 0.2134 0.1462
vn -0.7156 0.6806 0.1570
vn -0.5684 0.7933 -0.2182
vn 0.0021 1.0000 -0.0014
vn -0.3159 0.7683 -0.5567
vn -0.7425 0.6653 -0.0778
vn -0.5620 0.7178 0.4110
vn -0.0028 1.0000 0.0007
vn -0.7046 0.7095 0.0097
vn -0.4671 0.5575 0.6863
vn 0.2226 0.6945 0.6842
vn 0.0003 1.0000 0.0002
vn 0.0049 1.0000 0.0068
vn 0.4549 0.6333 0.6261
vn 0.0014 1.0000 0.0041
vn 0.0080 1.0000 0.0027
vn 0.8052 0.0971 -0.5850
vn -0.0649 0.3423 -0.9373
vn -0.0456 0.6631 -0.7471
vn 0.5510 0.7317 -0.4012
vn -0.0038 1.0000 -0.0015
vn -0.5464 0.8012 -0.2440
vn -0.8080 0.0065 -0.5891
vn -0.9573 0.0165 0.2887
vn -0.7953 0.5589 0.2348
vn 0.3644 0.3033 0.8805
vn 0.9279 0.3094 0.2081
vn 0.7318 0.6713 0.1173
vn 0.2369 0.8034 0.5463
vn -0.9870 0.1589 0.0230
vn -0.9372 0.1906 -0.2920
vn -0.5406 0.8247 -0.1661
vn -0.6633 0.7480 0.0245
vn -0.0015 1.0000 0.0010
vn -0.8007 0.1258 0.5857
vn -0.9370 0.1401 0.3201
vn -0.6317 0.5225 0.5726
vn -0.8048 0.1037 0.5845
vn -0.8070 0.0745 0.5858
vn 0.0542 0.3059 0.9505
vn 0.1139 0.6028 0.7897
vn 0.3035 0.1534 0.9404
vn -0.0168 0.1563 0.9876
vn -0.0118 0.8132 0.5819
vn 0.2065 0.7432 0.6364
vn -0.3323 0.1247 0.9349
vn -0.5925 0.1228 0.7962
vn -0.7719 0.4417 0.4572
vn -0.2396 0.7304 0.6396
vn 0.3110 0.0048 0.9504
vn 0.5880 0.0060 0.8088
vn 0.7975 0.1413 0.5866
vn 0.5786 0.1534 0.8011
vn 0.3449 0.8098 0.4747
vn 0.5372 0.7441 0.3972
vn -0.9998 0.0180 0.0014
vn -0.7048 0.7090 0.0223
vn -0.1847 0.4157 0.8906
vn -0.5693 0.0156 0.8220
vn -0.0092 0.9995 0.0306
vn 0.3894 0.9209 -0.0168
vn 0.4960 0.8077 0.3189
vn 0.8837 0.2950 0.3634
vn 0.5727 0.8048 0.1560
vn -0.4178 0.1988 -0.8865
vn -0.2440 0.7707 -0.5886
vn -0.9519 0.2217 -0.2116
vn -0.3137 0.0180 0.9494
vn -0.2409 0.7098 0.6619
vn -0.0268 0.9996 -0.0010
vn -0.0028 1.0000 -0.0017
vn 0.1764 0.8767 0.4475
vn 0.3187 0.0984 0.9427
vn 0.2262 0.6197 0.7515
vn -0.2259 0.7095 0.6675
vn 0.9315 0.3395 -0.1308
vn 0.6443 0.7427 -0.1824
vn -0.1870 0.7942 0.5782
vn 0.3067 0.1362 0.9420
vn -0.0045 0.7109 0.7033
vn -0.2111 0.7559 0.6197
vn -0.4163 0.6982 0.5824
vn 0.1975 0.7618 0.6170
vn -0.5305 0.7531 0.3892
vn -0.6729 0.7081 -0.2138
vn 0.2234 0.8101 0.5421
vn -0.7907 0.2115 -0.5746
vn 0.9331 0.1251 0.3370
vn 0.9860 0.1669 0.0001
vn -0.5163 0.7693 -0.3762
vn 0.0016 1.0000 0.0012
vn -0.3753 0.3814 0.8448
vn 0.1124 0.4348 0.8935
vn 0.8178 0.3884 0.4246
vn 0.9296 0.2349 0.2839
vn 0.6814 0.3831 0.6236
vn 0.6586 0.3221 -0.6801
vn 0.8129 0.4555 -0.3630
vn 0.6266 0.4583 -0.6304
vn -0.1523 0.3558 -0.9221
vn -0.4256 0.5177 -0.7422
vn -0.2057 0.3461 -0.9154
vn -0.1574 0.4674 -0.8699
vn -0.1304 0.4639 -0.8763
vn -0.8231 0.3746 0.4268
vn -0.8759 0.3972 0.2740
vn 0.5400 0.4238 0.7272
vn -0.8064 0.3373 0.4857
vn -0.5634 0.4920 0.6637
vn -0.8061 0.3114 0.5033
vn -0.8020 0.4231 0.4217
vn -0.8255 0.4157 0.3817
vn -0.2305 0.4688 -0.8527
vn 0.0179 0.4780 -0.8782
vn 0.6935 0.4632 -0.5517
vn 0.5019 0.4728 -0.7243
vn -0.8992 0.4353 0.0453
vn -0.8594 0.4356 0.2678
vn 0.2748 0.4592 -0.8448
vn 0.7133 0.4196 0.5613
vn -0.7673 0.4158 0.4882
usemtl None
s 1
f 299/1/1 227/2/2 3/3/3 139/4/4
f 298/5/5 187/6/6 7/7/7 129/8/8
f 297/9/9 145/10/10 11/11/11 209/12/12
f 296/13/13 161/14/14 15/15/15 100/16/16
f 295/17/17 215/18/18 19/19/19 133/20/20
f 294/21/21 175/22/22 23/23/23 115/24/24
f 293/25/25 101/26/26 14/27/27 85/28/28
f 292/29/29 82/30/30 27/31/31 156/32/32
f 291/33/33 108/34/34 22/35/35 109/36/36
f 290/37/37 182/38/38 21/39/39 104/40/40
f 289/41/41 167/42/42 28/43/43 190/44/44
f 288/45/45 174/46/46 13/47/47 164/48/48
f 287/49/49 97/50/50 24/51/51 226/52/52
f 286/53/53 186/54/54 18/55/55 150/56/56
f 285/57/57 230/58/58 16/59/59 84/60/60
f 284/61/61 221/62/62 12/63/63 160/64/64
f 283/65/65 185/66/66 6/67/67 120/68/68
f 282/69/69 151/70/70 4/71/71 180/72/72
f 281/73/73 122/74/74 43/75/75 195/76/76
f 280/77/77 203/78/78 44/79/79 94/80/80
f 45/81/81 179/82/82 114/83/83
f 30/84/84 194/85/85 159/86/86
f 279/87/87 90/88/88 42/89/89 214/90/90
f 278/91/91 114/83/83 44/79/79 195/76/76
f 24/51/51 115/24/24 89/92/92
f 277/93/93 89/92/92 12/63/63 209/12/12
f 2/94/94 163/95/95 206/96/96
f 276/97/97 168/98/98 10/99/99 229/100/100
f 275/101/101 110/102/102 8/103/103 166/104/104
f 15/15/15 200/105/105 100/16/16
f 274/106/106 211/107/107 33/108/108 113/109/109
f 25/110/110 93/111/111 177/112/112
f 45/113/81 225/114/113 179/115/82
f 27/31/31 173/116/114 156/32/32
f 273/117/115 137/118/116 20/119/117 153/120/118
f 272/121/119 225/114/113 45/113/81 228/122/120
f 47/123/121 231/124/122 146/125/123
f 271/126/124 178/127/125 52/128/126 99/129/127
f 54/130/128 218/131/129 136/132/130
f 270/133/131 136/132/130 56/134/132 183/135/133
f 269/136/134 176/137/135 48/138/136 231/124/122
f 268/139/137 88/140/138 57/141/139 224/142/140
f 267/143/141 138/144/142 59/145/143 205/146/144
f 266/147/145 213/148/146 61/149/147 128/150/148
f 265/151/149 189/152/150 58/153/151 207/154/152
f 264/155/153 199/156/154 63/157/155 125/158/156
f 263/159/157 212/160/158 62/161/159 220/162/160
f 262/163/161 87/164/162 65/165/163 131/166/164
f 261/167/165 162/168/166 69/169/167 233/170/168
f 260/171/169 170/172/170 64/173/171 202/174/172
f 259/175/173 216/176/174 57/177/139 128/150/148
f 258/178/175 121/179/176 61/149/147 204/180/177
f 257/181/178 234/182/179 70/183/180 219/184/181
f 256/185/182 130/186/183 77/187/184 210/188/185
f 255/189/186 232/190/187 79/191/188 148/192/189
f 254/193/190 208/194/191 71/195/192 202/174/172
f 253/196/193 201/197/194 64/173/171 220/162/160
f 252/198/195 143/199/196 76/200/197 188/201/198
f 251/202/199 152/203/200 58/153/151 224/142/140
f 250/204/201 102/205/202 75/206/203 204/180/177
f 249/207/204 157/208/205 80/209/206 223/210/207
f 248/211/208 141/212/209 60/213/210 142/214/211
f 247/215/212 223/210/207 80/209/206 188/201/198
f 246/216/213 111/217/214 68/218/215 86/219/216
f 245/220/217 196/221/218 78/222/219 210/188/185
f 244/223/220 134/224/221 73/225/222 119/226/223
f 243/227/224 124/228/225 67/229/226 169/230/227
f 242/231/228 217/232/229 71/195/192 148/192/189
f 241/233/230 184/234/231 72/235/232 158/236/233
f 240/237/234 147/238/235 38/239/236 140/240/237
f 239/241/238 178/242/125 51/243/239 98/244/240
f 238/245/241 191/246/242 78/222/219 196/221/218
f 237/247/243 123/248/244 22/249/35 135/250/245
f 236/251/246 102/205/202 23/252/23 222/253/247
f 235/254/248 123/248/244 56/255/132 165/256/249
f 222/253/247 235/254/248 165/256/249 55/257/250
f 23/252/23 175/258/22 235/254/248 222/253/247
f 175/258/22 22/249/35 123/248/244 235/254/248
f 171/259/251 236/251/246 222/253/247 55/257/250
f 74/260/252 127/261/253 236/251/246 171/259/251
f 127/261/253 75/206/203 102/205/202 236/251/246
f 130/186/183 237/247/243 135/250/245 77/187/184
f 65/165/163 87/164/162 237/247/243 130/186/183
f 87/164/162 56/255/132 123/248/244 237/247/243
f 98/244/240 238/245/241 196/221/218 30/262/84
f 51/243/239 192/263/254 238/245/241 98/244/240
f 192/263/254 66/264/255 191/246/242 238/245/241
f 91/265/256 239/241/238 98/244/240 30/262/84
f 38/266/236 147/267/235 239/241/238 91/265/256
f 147/267/235 52/268/126 178/242/125 239/241/238
f 232/190/187 240/237/234 140/240/237 79/191/188
f 63/157/155 199/156/154 240/237/234 232/190/187
f 199/156/154 52/269/126 147/238/235 240/237/234
f 171/259/251 241/233/230 158/236/233 74/260/252
f 55/257/250 218/270/129 241/233/230 171/259/251
f 218/270/129 54/271/128 184/234/231 241/233/230
f 140/240/237 242/231/228 148/192/189 79/191/188
f 38/239/236 81/272/257 242/231/228 140/240/237
f 81/272/257 27/273/31 217/232/229 242/231/228
f 134/274/221 243/227/224 169/230/227 73/275/222
f 50/276/258 105/277/259 243/227/224 134/274/221
f 105/277/259 53/278/260 124/228/225 243/227/224
f 184/234/231 244/223/220 119/226/223 72/235/232
f 54/271/128 181/279/261 244/223/220 184/234/231
f 181/279/261 50/280/258 134/224/221 244/223/220
f 135/250/245 245/220/217 210/188/185 77/187/184
f 22/249/35 108/281/34 245/220/217 135/250/245
f 108/281/34 30/262/84 196/221/218 245/220/217
f 124/228/225 246/216/213 86/219/216 67/229/226
f 53/278/260 92/282/262 246/216/213 124/228/225
f 92/282/262 47/283/121 111/217/214 246/216/213
f 219/184/181 247/215/212 188/201/198 76/200/197
f 70/183/180 233/170/168 247/215/212 219/184/181
f 233/170/168 69/169/167 223/210/207 247/215/212
f 111/217/214 248/211/208 142/214/211 68/218/215
f 47/283/121 146/284/123 248/211/208 111/217/214
f 146/284/123 49/285/263 141/212/209 248/211/208
f 162/168/166 249/207/204 223/210/207 69/169/167
f 68/218/215 116/286/264 249/207/204 162/168/166
f 116/286/264 62/161/159 157/208/205 249/207/204
f 213/148/146 250/204/201 204/180/177 61/149/147
f 2/287/94 112/288/265 250/204/201 213/148/146
f 112/288/265 23/252/23 102/205/202 250/204/201
f 216/289/174 251/202/199 224/142/140 57/141/139
f 73/275/222 169/230/227 251/202/199 216/289/174
f 169/230/227 67/229/226 152/203/200 251/202/199
f 157/208/205 252/198/195 188/201/198 80/209/206
f 62/161/159 207/154/152 252/198/195 157/208/205
f 207/154/152 58/153/151 143/199/196 252/198/195
f 116/286/264 253/196/193 220/162/160 62/161/159
f 68/218/215 142/214/211 253/196/193 116/286/264
f 142/214/211 60/213/210 201/197/194 253/196/193
f 201/197/194 254/193/190 202/174/172 64/173/171
f 60/213/210 205/146/144 254/193/190 201/197/194
f 205/146/144 59/145/143 208/194/191 254/193/190
f 208/194/191 255/189/186 148/192/189 71/195/192
f 59/145/143 125/158/156 255/189/186 208/194/191
f 125/158/156 63/157/155 232/190/187 255/189/186
f 191/246/242 256/185/182 210/188/185 78/222/219
f 66/264/255 131/166/164 256/185/182 191/246/242
f 131/166/164 65/165/163 130/186/183 256/185/182
f 143/199/196 257/181/178 219/184/181 76/200/197
f 58/153/151 152/203/200 257/181/178 143/199/196
f 152/203/200 67/229/226 234/182/179 257/181/178
f 127/261/253 258/178/175 204/180/177 75/206/203
f 74/260/252 158/236/233 258/178/175 127/261/253
f 158/236/233 72/235/232 121/179/176 258/178/175
f 121/179/176 259/175/173 128/150/148 61/149/147
f 72/235/232 119/226/223 259/175/173 121/179/176
f 119/226/223 73/225/222 216/176/174 259/175/173
f 217/232/229 260/171/169 202/174/172 71/195/192
f 27/273/31 82/290/30 260/171/169 217/232/229
f 82/290/30 26/291/266 170/172/170 260/171/169
f 234/182/179 261/167/165 233/170/168 70/183/180
f 67/229/226 86/219/216 261/167/165 234/182/179
f 86/219/216 68/218/215 162/168/166 261/167/165
f 192/263/254 262/163/161 131/166/164 66/264/255
f 51/243/239 183/292/133 262/163/161 192/263/254
f 183/292/133 56/255/132 87/164/162 262/163/161
f 170/172/170 263/159/157 220/162/160 64/173/171
f 26/291/266 96/293/267 263/159/157 170/172/170
f 96/293/267 15/294/15 212/160/158 263/159/157
f 138/144/142 264/155/153 125/158/156 59/145/143
f 48/295/136 176/296/135 264/155/153 138/144/142
f 176/296/135 52/269/126 199/156/154 264/155/153
f 212/160/158 265/151/149 207/154/152 62/161/159
f 15/294/15 161/297/14 265/151/149 212/160/158
f 161/297/14 14/298/27 189/152/150 265/151/149
f 88/299/138 266/147/145 128/150/148 57/177/139
f 3/300/3 227/301/2 266/147/145 88/299/138
f 227/301/2 2/287/94 213/148/146 266/147/145
f 141/212/209 267/143/141 205/146/144 60/213/210
f 49/285/263 155/302/268 267/143/141 141/212/209
f 155/302/268 48/295/136 138/144/142 267/143/141
f 189/152/150 268/139/137 224/142/140 58/153/151
f 14/298/27 101/303/26 268/139/137 189/152/150
f 101/303/26 3/304/3 88/140/138 268/139/137
f 92/305/262 269/136/134 231/124/122 47/123/121
f 53/306/260 99/129/127 269/136/134 92/305/262
f 99/129/127 52/128/126 176/137/135 269/136/134
f 103/307/269 270/133/131 183/135/133 51/308/239
f 50/309/258 181/310/261 270/133/131 103/307/269
f 181/310/261 54/130/128 136/132/130 270/133/131
f 136/132/130 165/311/249 56/134/132
f 136/132/130 218/131/129 165/311/249
f 218/131/129 55/312/250 165/311/249
f 105/313/259 271/126/124 99/129/127 53/306/260
f 50/309/258 103/307/269 271/126/124 105/313/259
f 103/307/269 51/308/239 178/127/125 271/126/124
f 146/125/123 155/314/268 49/315/263
f 146/125/123 231/124/122 155/314/268
f 231/124/122 48/138/136 155/314/268
f 117/316/270 272/121/119 228/122/120 46/317/271
f 19/19/19 215/18/18 272/121/119 117/316/270
f 215/18/18 18/55/55 225/114/113 272/121/119
f 190/44/44 273/117/115 153/120/118 34/318/272
f 28/43/43 83/319/273 273/117/115 190/44/44
f 83/319/273 17/320/274 137/118/116 273/117/115
f 156/32/32 83/319/273 28/43/43
f 156/32/32 173/116/114 83/319/273
f 173/116/114 17/320/274 83/319/273
f 179/115/82 186/54/54 38/321/236
f 179/115/82 225/114/113 186/54/54
f 225/114/113 18/55/55 186/54/54
f 177/112/112 185/66/66 26/322/266
f 177/112/112 93/111/111 185/66/66
f 93/111/111 6/67/67 185/66/66
f 187/6/6 274/106/106 113/109/109 7/7/7
f 6/67/67 93/111/111 274/106/106 187/6/6
f 93/111/111 25/110/110 211/107/107 274/106/106
f 100/16/16 118/323/275 16/59/59
f 100/16/16 200/105/105 118/323/275
f 200/105/105 5/324/276 118/323/275
f 84/60/60 275/101/101 166/104/104 39/325/277
f 16/59/59 118/323/275 275/101/101 84/60/60
f 118/323/275 5/324/276 110/102/102 275/101/101
f 197/326/278 276/97/97 229/100/100 9/327/279
f 1/328/280 95/329/281 276/97/97 197/326/278
f 95/329/281 40/330/282 168/98/98 276/97/97
f 206/96/96 197/326/278 9/327/279
f 206/96/96 163/95/95 197/326/278
f 163/95/95 1/328/280 197/326/278
f 106/331/283 277/93/93 209/12/12 11/11/11
f 37/332/284 226/52/52 277/93/93 106/331/283
f 226/52/52 24/51/51 89/92/92 277/93/93
f 89/92/92 160/64/64 12/63/63
f 89/92/92 115/24/24 160/64/64
f 115/24/24 23/23/23 160/64/64
f 172/333/285 278/91/91 195/76/76 43/75/75
f 46/334/271 228/335/120 278/91/91 172/333/285
f 228/335/120 45/81/81 114/83/83 278/91/91
f 149/336/286 279/87/87 214/90/90 41/337/287
f 29/338/288 107/339/289 279/87/87 149/336/286
f 107/339/289 31/340/290 90/88/88 279/87/87
f 159/86/86 149/336/286 41/337/287
f 159/86/86 194/85/85 149/336/286
f 194/85/85 29/338/288 149/336/286
f 114/83/83 94/80/80 44/79/79
f 114/83/83 179/82/82 94/80/80
f 179/82/82 38/341/236 94/80/80
f 91/342/256 280/77/77 94/80/80 38/341/236
f 30/84/84 159/86/86 280/77/77 91/342/256
f 159/86/86 41/337/287 203/78/78 280/77/77
f 203/78/78 281/73/73 195/76/76 44/79/79
f 41/337/287 214/90/90 281/73/73 203/78/78
f 214/90/90 42/89/89 122/74/74 281/73/73
f 132/343/291 282/69/69 180/72/72 35/344/292
f 40/330/282 95/329/281 282/69/69 132/343/291
f 95/329/281 1/328/280 151/70/70 282/69/69
f 200/105/105 283/65/65 120/68/68 5/324/276
f 15/15/15 96/345/267 283/65/65 200/105/105
f 96/345/267 26/322/266 185/66/66 283/65/65
f 112/346/265 284/61/61 160/64/64 23/23/23
f 2/94/94 206/96/96 284/61/61 112/346/265
f 206/96/96 9/327/279 221/62/62 284/61/61
f 193/347/293 285/57/57 84/60/60 39/325/277
f 36/348/294 164/48/48 285/57/57 193/347/293
f 164/48/48 13/47/47 230/58/58 285/57/57
f 173/116/114 286/53/53 150/56/56 17/320/274
f 27/31/31 81/349/257 286/53/53 173/116/114
f 81/349/257 38/321/236 186/54/54 286/53/53
f 154/350/295 287/49/49 226/52/52 37/332/284
f 32/351/296 104/40/40 287/49/49 154/350/295
f 104/40/40 21/39/39 97/50/50 287/49/49
f 126/352/297 288/45/45 164/48/48 36/348/294
f 35/344/292 180/72/72 288/45/45 126/352/297
f 180/72/72 4/71/71 174/46/46 288/45/45
f 144/353/298 289/41/41 190/44/44 34/318/272
f 33/108/108 211/107/107 289/41/41 144/353/298
f 211/107/107 25/110/110 167/42/42 289/41/41
f 198/354/299 290/37/37 104/40/40 32/351/296
f 31/340/290 107/339/289 290/37/37 198/354/299
f 107/339/289 29/338/288 182/38/38 290/37/37
f 182/38/38 291/33/33 109/36/36 21/39/39
f 29/338/288 194/85/85 291/33/33 182/38/38
f 194/85/85 30/84/84 108/34/34 291/33/33
f 167/42/42 292/29/29 156/32/32 28/43/43
f 25/110/110 177/112/112 292/29/29 167/42/42
f 177/112/112 26/322/266 82/30/30 292/29/29
f 174/46/46 293/25/25 85/28/28 13/47/47
f 4/71/71 139/4/4 293/25/25 174/46/46
f 139/4/4 3/3/3 101/26/26 293/25/25
f 97/50/50 294/21/21 115/24/24 24/51/51
f 21/39/39 109/36/36 294/21/21 97/50/50
f 109/36/36 22/35/35 175/22/22 294/21/21
f 137/118/116 295/17/17 133/20/20 20/119/117
f 17/320/274 150/56/56 295/17/17 137/118/116
f 150/56/56 18/55/55 215/18/18 295/17/17
f 230/58/58 296/13/13 100/16/16 16/59/59
f 13/47/47 85/28/28 296/13/13 230/58/58
f 85/28/28 14/27/27 161/14/14 296/13/13
f 221/62/62 297/9/9 209/12/12 12/63/63
f 9/327/279 229/100/100 297/9/9 221/62/62
f 229/100/100 10/99/99 145/10/10 297/9/9
f 110/102/102 298/5/5 129/8/8 8/103/103
f 5/324/276 120/68/68 298/5/5 110/102/102
f 120/68/68 6/67/67 187/6/6 298/5/5
f 151/70/70 299/1/1 139/4/4 4/71/71
f 1/328/280 163/95/95 299/1/1 151/70/70
f 163/95/95 2/94/94 227/2/2 299/1/1
