# Blender v2.78 (sub 0) OBJ File: ''
# www.blender.org
mtllib Oak_Stump_02.mtl
o Oak_Stump_02
v -0.255940 0.278253 -0.391503
v -0.243265 0.524619 -0.333648
v -0.000010 0.527179 -0.411004
v -0.000430 0.278257 -0.460915
v 0.481238 0.278257 -0.103675
v 0.481238 0.278257 0.089311
v 0.708666 -0.005133 0.061601
v 0.708666 -0.005133 -0.104152
v -0.359947 0.278011 -0.369563
v -0.602138 -0.005700 -0.514120
v -0.694544 -0.005700 -0.386933
v -0.469935 0.278011 -0.218179
v 0.265951 0.278257 -0.374150
v 0.241502 0.527179 -0.332532
v 0.392482 0.524622 -0.127016
v 0.431860 0.278257 -0.156032
v 0.253864 0.275836 0.406752
v 0.057116 0.275835 0.471012
v 0.166492 -0.010713 0.648714
v 0.301447 -0.010713 0.600183
v -0.432469 0.278257 0.133068
v -0.390785 0.527179 0.126851
v -0.392505 0.524619 -0.128235
v -0.445250 0.278253 -0.130942
v 0.431860 0.278257 0.141670
v 0.392482 0.524622 0.126636
v 0.242028 0.524589 0.333727
v 0.270291 0.278216 0.359051
v -0.293420 0.278186 0.352145
v -0.242134 0.524565 0.333943
v -0.385501 -0.005358 0.450156
v -0.564470 -0.005133 0.161467
v 0.583268 -0.005133 0.167373
v 0.352685 -0.005263 0.457131
v -0.001435 -0.005133 -0.612287
v 0.345792 -0.005133 -0.499017
v -0.586321 -0.005146 -0.180532
v 0.000120 0.522843 0.413293
v 0.583268 -0.005133 -0.209924
v -0.334782 -0.005146 -0.526744
v -0.239129 0.274082 0.430838
v -0.306923 -0.014754 0.713628
v -0.177833 -0.014754 0.755572
v -0.067524 0.274082 0.486595
v 0.021433 0.278145 0.457464
v 0.027679 -0.005488 0.590062
v 0.337062 0.531441 -0.103475
v 0.211867 0.531441 0.281834
v 0.338823 0.531441 0.110091
v -0.003552 0.531441 -0.345784
v -0.206120 0.531441 0.277658
v 0.003552 0.531441 0.345784
v 0.206120 0.531441 -0.277658
v -0.211867 0.531441 -0.281833
v -0.338823 0.531441 -0.110090
v -0.337062 0.531441 0.103475
v -0.277852 0.531441 -0.192203
v 0.097946 -0.007988 0.617917
v -0.471200 -0.005423 -0.520825
v -0.300914 0.401640 -0.350893
v -0.419783 0.401754 -0.129339
v 0.318186 0.527179 0.231106
v 0.278155 0.129567 0.504891
v -0.000209 0.405170 -0.435090
v 0.273367 0.531441 -0.191857
v -0.274974 0.531441 -0.089345
v 0.037708 0.280581 0.463518
v -0.457350 0.281672 -0.174651
v -0.266050 0.279703 0.391632
v -0.123796 0.126636 0.623095
v 0.648657 -0.005133 -0.155561
v 0.350759 0.278257 0.250389
v 0.029477 0.400570 0.441381
v 0.467055 -0.005133 0.311769
v 0.253298 0.405170 -0.352614
v -0.225390 0.531441 0.310223
v 0.108388 0.531441 0.315896
v -0.033919 0.399707 0.448385
v -0.319270 0.527175 -0.231833
v -0.652742 -0.005713 -0.452778
v -0.243912 -0.014979 0.739687
v 0.482042 0.278257 -0.007182
v -0.475656 -0.005133 0.306661
v 0.364688 0.531441 -0.118494
v 0.337761 0.531441 0.007822
v -0.499671 0.133614 0.147565
v -0.416005 0.278007 -0.294402
v -0.641653 -0.005423 -0.286217
v 0.467055 -0.005133 -0.354320
v -0.576172 -0.005133 -0.010448
v 0.508643 0.133614 0.154123
v -0.318403 0.527179 0.231000
v 0.173271 -0.005133 -0.560062
v -0.393409 0.527179 0.000002
v 0.104560 0.531441 0.033973
v 0.010553 0.399338 0.436421
v -0.240122 0.399707 0.381386
v 0.155662 0.275794 0.439375
v 0.121530 0.527179 -0.374181
v -0.439836 0.278257 -0.000098
v 0.412364 0.401761 -0.142192
v 0.456647 0.281795 0.115418
v 0.024969 0.133425 0.523788
v 0.412364 0.401761 0.134946
v -0.121463 0.527179 -0.374301
v 0.364688 0.531441 0.118494
v -0.101963 0.531441 0.313809
v 0.711536 -0.005133 -0.021276
v -0.364688 0.531441 -0.118494
v -0.129597 0.278257 -0.427104
v -0.000000 0.531441 -0.383455
v -0.363288 0.278257 0.244229
v 0.235028 -0.010843 0.626834
v -0.364688 0.531441 0.118494
v 0.277852 0.531441 0.192203
v -0.153637 0.274010 0.459592
v 0.311377 0.133544 0.409035
v 0.648657 -0.005133 0.113009
v -0.345548 -0.010056 0.584681
v -0.483231 0.133203 -0.442897
v 0.225389 0.531441 -0.310222
v -0.104560 0.531441 -0.033973
v 0.325899 -0.007988 0.531479
v 0.436391 0.401761 0.107521
v -0.430117 0.401640 -0.173061
v 0.257117 0.401695 0.346404
v -0.225390 0.531441 -0.310222
v -0.075217 -0.010056 0.672517
v -0.000985 0.133614 -0.538034
v -0.295883 0.133607 -0.459734
v -0.516325 0.133607 -0.156322
v 0.274974 0.531441 0.089345
v -0.307949 0.281672 -0.380283
v 0.394106 0.527179 -0.000119
v 0.000000 0.531441 0.383455
v 0.261992 0.280581 0.383222
v 0.508643 0.133614 -0.182781
v -0.410906 0.405170 0.129852
v 0.318186 0.527179 -0.231344
v 0.456647 0.281795 -0.129541
v -0.168987 -0.005133 -0.570890
v 0.306622 0.133614 -0.437812
v -0.121860 0.527108 0.374818
v -0.584132 0.133203 -0.304019
v -0.339818 0.133494 0.401632
v 0.350758 0.278257 -0.264753
v 0.596703 0.133614 0.075257
v 0.101963 0.531441 -0.313809
v -0.249863 0.401754 -0.363214
v 0.133534 0.278257 -0.420020
v -0.108388 0.531441 -0.315896
v -0.273340 0.126636 0.574506
v 0.247322 0.400570 0.370191
v 0.596703 0.133614 -0.103916
v 0.225390 0.531441 0.310223
v -0.273367 0.531441 0.191857
v 0.436391 0.401761 -0.114767
v 0.121898 0.527138 0.374499
v -0.337761 0.531441 -0.007822
v -0.021426 0.279703 0.471115
v 0.112591 0.129567 0.561188
v -0.268408 0.401647 0.343381
v -0.113426 0.531441 0.349089
v 0.113426 0.531441 -0.349089
v 0.296953 0.531441 -0.215749
v 0.367054 0.531441 0.000000
v 0.296953 0.531441 0.215749
v 0.113426 0.531441 0.349089
v -0.296953 0.531441 0.215749
v -0.367054 0.531441 0.000000
v -0.296953 0.531441 -0.215749
v -0.113426 0.531441 -0.349089
v 0.190378 0.531441 0.061857
v -0.190378 0.531441 -0.061857
v 0.000000 0.531441 0.000000
v 0.068615 0.131556 0.542092
v 0.294490 0.131556 0.458681
v 0.554379 0.133614 0.114032
v 0.554379 0.133614 -0.142690
v -0.391195 0.133405 -0.451809
v -0.551203 0.133405 -0.231576
v -0.048857 0.130065 0.573506
v -0.306469 0.130065 0.489803
v -0.137098 0.403059 0.415182
v -0.199298 0.126516 0.601146
v -0.149469 0.133614 -0.499847
v 0.436518 0.405170 -0.003528
v -0.365934 0.405046 -0.261998
v 0.409506 0.133614 -0.310071
v 0.138226 0.403946 0.405725
v -0.508777 0.133614 -0.005302
v 0.153615 0.133614 -0.490821
v 0.409506 0.133614 0.281412
v -0.420168 0.133614 0.275729
v -0.340227 0.405170 0.237331
v 0.333817 0.405170 0.240474
v 0.127323 0.405170 -0.396302
v -0.415879 0.405170 0.000043
v 0.195856 0.129497 0.534180
v 0.333817 0.405170 -0.247529
v -0.535864 0.133196 -0.374568
v 0.598181 0.133614 -0.014329
v -0.125323 0.405170 -0.399873
vt 0.9413 0.7723
vt 0.9413 0.7762
vt 0.9375 0.7761
vt 0.9374 0.7723
vt 0.9143 0.7676
vt 0.9119 0.7686
vt 0.9105 0.7636
vt 0.9124 0.7628
vt 0.9523 0.7632
vt 0.9535 0.7576
vt 0.9554 0.7579
vt 0.9546 0.7637
vt 0.9255 0.7740
vt 0.9262 0.7778
vt 0.9225 0.7786
vt 0.9216 0.7749
vt 0.8987 0.7778
vt 0.8970 0.7793
vt 0.8943 0.7755
vt 0.8956 0.7743
vt 0.9583 0.7760
vt 0.9567 0.7796
vt 0.9530 0.7782
vt 0.9546 0.7745
vt 0.9334 0.7727
vt 0.9338 0.7765
vt 0.9300 0.7769
vt 0.9294 0.7731
vt 0.9103 0.7799
vt 0.9121 0.7831
vt 0.9088 0.7848
vt 0.9069 0.7818
vt 0.9654 0.7793
vt 0.9638 0.7826
vt 0.9604 0.7810
vt 0.9620 0.7775
vt 0.9690 0.7720
vt 0.9669 0.7758
vt 0.9635 0.7741
vt 0.9654 0.7700
vt 0.9062 0.7730
vt 0.9085 0.7767
vt 0.9051 0.7788
vt 0.9026 0.7754
vt 0.9326 0.7643
vt 0.9330 0.7689
vt 0.9288 0.7692
vt 0.9282 0.7648
vt 0.9616 0.7683
vt 0.9598 0.7725
vt 0.9561 0.7709
vt 0.9577 0.7665
vt 0.9040 0.7839
vt 0.9015 0.7859
vt 0.8996 0.7831
vt 0.9018 0.7812
vt 0.9239 0.7657
vt 0.9248 0.7702
vt 0.9208 0.7712
vt 0.9195 0.7666
vt 0.9501 0.7730
vt 0.9510 0.7688
vt 0.9539 0.7695
vt 0.9534 0.7738
vt 0.9175 0.7763
vt 0.9144 0.7775
vt 0.9133 0.7736
vt 0.9161 0.7725
vt 0.9412 0.7639
vt 0.9412 0.7685
vt 0.9372 0.7686
vt 0.9370 0.7639
vt 0.9787 0.7763
vt 0.9826 0.7722
vt 0.9838 0.7733
vt 0.9803 0.7777
vt 0.9724 0.7833
vt 0.9748 0.7804
vt 0.9767 0.7821
vt 0.9748 0.7852
vt 0.9780 0.7843
vt 0.9754 0.7862
vt 0.9773 0.7832
vt 0.9671 0.7843
vt 0.9688 0.7810
vt 0.9700 0.7815
vt 0.9748 0.7744
vt 0.9780 0.7706
vt 0.9814 0.7711
vt 0.9771 0.7749
vt 0.9809 0.7799
vt 0.9550 0.7702
vt 0.9562 0.7651
vt 0.9452 0.7763
vt 0.9452 0.7724
vt 0.9467 0.7722
vt 0.9476 0.7633
vt 0.9485 0.7582
vt 0.9516 0.7572
vt 0.9499 0.7627
vt 0.9181 0.7666
vt 0.9166 0.7666
vt 0.9143 0.7619
vt 0.9163 0.7620
vt 0.9207 0.7750
vt 0.9108 0.7696
vt 0.9098 0.7707
vt 0.9078 0.7666
vt 0.9092 0.7651
vt 0.9118 0.7747
vt 0.9125 0.7742
vt 0.9136 0.7781
vt 0.8992 0.7839
vt 0.8994 0.7835
vt 0.9013 0.7862
vt 0.9064 0.7821
vt 0.9015 0.7758
vt 0.9004 0.7762
vt 0.8968 0.7731
vt 0.8985 0.7725
vt 0.8965 0.7803
vt 0.8960 0.7814
vt 0.8372 0.6516
vt 0.8131 0.6516
vt 0.8252 0.6477
vt 0.8131 0.6847
vt 0.7742 0.6847
vt 0.7742 0.6721
vt 0.8131 0.6721
vt 0.8372 0.7178
vt 0.8252 0.7217
vt 0.8131 0.7178
vt 0.8131 0.7076
vt 0.7891 0.7178
vt 0.7817 0.7076
vt 0.8131 0.6618
vt 0.7817 0.6618
vt 0.7891 0.6516
vt 0.9709 0.8453
vt 0.9785 0.8349
vt 0.9813 0.8358
vt 0.9733 0.8469
vt 0.9512 0.8597
vt 0.9634 0.8557
vt 0.9652 0.8581
vt 0.9521 0.8623
vt 0.9268 0.8597
vt 0.9390 0.8636
vt 0.9390 0.8666
vt 0.9259 0.8623
vt 0.9070 0.8453
vt 0.9146 0.8557
vt 0.9128 0.8581
vt 0.9047 0.8469
vt 0.9070 0.7988
vt 0.8995 0.8092
vt 0.8966 0.8083
vt 0.9047 0.7972
vt 0.9268 0.7845
vt 0.9146 0.7885
vt 0.9128 0.7860
vt 0.9259 0.7817
vt 0.9512 0.7845
vt 0.9390 0.7805
vt 0.9390 0.7775
vt 0.9521 0.7817
vt 0.9709 0.7988
vt 0.9634 0.7885
vt 0.9652 0.7860
vt 0.9733 0.7972
vt 0.9785 0.8221
vt 0.9785 0.8092
vt 0.9813 0.8083
vt 0.9813 0.8220
vt 0.8995 0.8221
vt 0.8995 0.8349
vt 0.8966 0.8358
vt 0.8966 0.8220
vt 0.9023 0.8102
vt 0.9023 0.8221
vt 0.9023 0.8340
vt 0.9756 0.8340
vt 0.9756 0.8221
vt 0.9756 0.8102
vt 0.9686 0.8005
vt 0.9616 0.7909
vt 0.9503 0.7872
vt 0.9390 0.7835
vt 0.9276 0.7872
vt 0.9163 0.7909
vt 0.9093 0.8005
vt 0.9093 0.8436
vt 0.9163 0.8533
vt 0.9276 0.8569
vt 0.9390 0.8606
vt 0.9503 0.8569
vt 0.9616 0.8533
vt 0.9686 0.8436
vt 0.8446 0.6618
vt 0.8520 0.6721
vt 0.8131 0.6973
vt 0.7742 0.6973
vt 0.8520 0.6973
vt 0.8446 0.7076
vt 0.8011 0.7217
vt 0.8131 0.7256
vt 0.8520 0.6847
vt 0.8011 0.6477
vt 0.8131 0.6438
vt 0.8936 0.7772
vt 0.8929 0.7789
vt 0.9002 0.7720
vt 0.9045 0.7790
vt 0.9040 0.7793
vt 0.9034 0.7886
vt 0.9154 0.7814
vt 0.9198 0.7713
vt 0.9189 0.7714
vt 0.9183 0.7621
vt 0.9467 0.7683
vt 0.9482 0.7682
vt 0.9451 0.7684
vt 0.9453 0.7638
vt 0.9455 0.7593
vt 0.9574 0.7600
vt 0.9594 0.7621
vt 0.9844 0.7766
vt 0.9850 0.7800
vt 0.9815 0.7822
vt 0.9716 0.7781
vt 0.9728 0.7787
vt 0.9704 0.7776
vt 0.9725 0.7738
vt 0.9747 0.7701
vt 0.9728 0.7882
vt 0.9700 0.7862
vt 0.9412 0.7593
vt 0.9368 0.7593
vt 0.9190 0.7800
vt 0.9491 0.7772
vt 0.9230 0.7612
vt 0.9276 0.7603
vt 0.9061 0.7867
vt 0.9633 0.7641
vt 0.9673 0.7660
vt 0.9322 0.7598
vt 0.9040 0.7693
vt 0.9710 0.7680
vn -0.2753 0.2098 -0.9382
vn -0.2083 0.7172 -0.6650
vn 0.0040 0.6738 -0.7389
vn 0.0107 0.2011 -0.9795
vn 0.7786 0.6275 0.0001
vn 0.7449 0.5586 0.3649
vn 0.7587 0.5837 0.2894
vn 0.7765 0.6301 -0.0005
vn -0.5732 0.7057 -0.4165
vn -0.5720 0.7077 -0.4147
vn -0.7414 0.6600 -0.1214
vn -0.7856 0.6186 -0.0093
vn 0.7867 0.1839 -0.5893
vn 0.5701 0.7074 -0.4178
vn 0.6827 0.6833 -0.2588
vn 0.7640 0.1943 -0.6153
vn 0.2637 0.5757 0.7740
vn -0.0505 0.5104 0.8585
vn 0.0230 0.5352 0.8444
vn 0.2691 0.5785 0.7700
vn -0.9822 0.1854 0.0286
vn -0.7055 0.7087 0.0080
vn -0.6926 0.7017 -0.1671
vn -0.9710 0.2035 0.1257
vn 0.3039 0.1870 -0.9342
vn 0.2171 0.7123 -0.6675
vn 0.4375 0.6698 -0.6001
vn 0.5747 0.1909 -0.7958
vn 0.7964 0.1534 0.5849
vn 0.5829 0.6923 0.4254
vn 0.4627 0.6647 0.5865
vn 0.8607 0.1518 0.4859
vn -0.8159 0.1783 0.5500
vn -0.5787 0.7054 0.4093
vn -0.7106 0.6640 0.2328
vn -0.9375 0.1758 0.3004
vn -0.7711 0.4132 0.4845
vn -0.8033 0.2969 0.5162
vn -0.9051 0.3122 0.2887
vn -0.8599 0.4308 0.2740
vn 0.7194 0.4166 0.5558
vn 0.7673 0.2849 0.5745
vn 0.8521 0.2660 0.4507
vn 0.8113 0.3882 0.4371
vn 0.2759 0.4554 -0.8465
vn 0.2928 0.3251 -0.8992
vn 0.5470 0.3419 -0.7641
vn 0.5087 0.4679 -0.7227
vn -0.9005 0.4320 0.0501
vn -0.9498 0.3099 0.0435
vn -0.9369 0.3065 0.1684
vn -0.8859 0.4120 0.2132
vn 0.2984 0.2784 0.9129
vn 0.0153 0.2270 0.9738
vn -0.0341 0.3875 0.9212
vn 0.2821 0.4330 0.8561
vn 0.6960 0.4597 -0.5516
vn 0.7507 0.3244 -0.5754
vn 0.7108 0.3289 -0.6218
vn 0.6467 0.4599 -0.6085
vn -0.7340 0.4206 -0.5332
vn -0.6626 0.5737 -0.4814
vn -0.8544 0.5122 -0.0879
vn -0.9248 0.3452 -0.1601
vn 0.9421 0.3352 -0.0000
vn 0.8967 0.2670 0.3530
vn 0.8257 0.4363 0.3577
vn 0.8724 0.4889 0.0000
vn -0.2264 0.4656 -0.8555
vn -0.2494 0.3399 -0.9068
vn 0.0181 0.3491 -0.9369
vn 0.0202 0.4732 -0.8807
vn -0.2174 0.7106 0.6692
vn -0.2166 0.7130 0.6668
vn 0.0609 0.6666 0.7429
vn 0.1529 0.6319 0.7598
vn -0.2909 0.3382 0.8950
vn -0.2601 0.5403 0.8003
vn 0.0560 0.4938 0.8678
vn -0.0100 0.2815 0.9595
vn -0.0021 0.3026 0.9531
vn -0.0012 0.1848 0.9828
vn 0.3515 0.3275 0.8770
vn -0.4570 0.6835 0.5692
vn -0.7948 0.2028 0.5720
vn -0.5658 0.2892 0.7721
vn -0.8152 0.4617 0.3498
vn -0.8435 0.4468 0.2981
vn -0.4803 0.6683 0.5680
vn -0.5619 0.6356 0.5294
vn 0.4654 0.4497 0.7624
vn -0.9056 0.3013 0.2984
vn -0.8390 0.3992 0.3697
vn -0.3760 0.7055 -0.6008
vn -0.2542 0.2302 -0.9394
vn -0.5037 0.3509 -0.7894
vn -0.0886 0.4812 -0.8721
vn -0.0592 0.4755 -0.8777
vn -0.3993 0.6645 -0.6316
vn -0.3420 0.6368 -0.6910
vn 0.5978 0.4627 -0.6546
vn 0.7313 0.5841 -0.3522
vn 0.7430 0.5998 -0.2969
vn 0.5825 0.4601 -0.6701
vn 0.8922 0.2858 -0.3498
vn 0.6154 0.4094 0.6735
vn 0.6642 0.4104 0.6248
vn 0.6452 0.4085 0.6456
vn 0.6001 0.4051 0.6898
vn 0.7215 0.2865 0.6303
vn 0.6834 0.2795 0.6745
vn 0.7687 0.1604 0.6192
vn -0.3408 0.2527 0.9055
vn 0.6666 0.2361 0.7070
vn 0.8734 0.3636 0.3238
vn 0.6215 0.5086 0.5959
vn 0.5520 0.5332 0.6411
vn 0.8725 0.3663 0.3234
vn -0.3365 0.3932 0.8557
vn 0.0713 0.4390 0.8956
vn 0.0000 1.0000 0.0000
vn -0.0304 0.9959 -0.0856
vn 0.0000 0.9959 -0.0908
vn -0.0795 0.9952 -0.0578
vn -0.0658 0.9936 -0.0921
vn -0.5010 0.7851 -0.3641
vn -0.0910 0.9958 -0.0024
vn -0.1080 0.9936 -0.0341
vn -0.0727 0.9958 0.0560
vn -0.0867 0.9958 0.0283
vn 0.0318 0.9942 0.1032
vn 0.0000 0.9914 0.1308
vn 0.0144 0.6840 0.7293
vn 0.2094 0.7323 0.6479
vn 0.0827 0.9948 0.0601
vn 0.0685 0.9933 0.0935
vn 0.0998 0.9950 0.0000
vn 0.1089 0.9934 0.0364
vn 0.6879 0.6748 0.2672
vn 0.6549 0.7557 0.0001
vn 0.0754 0.9958 -0.0516
vn 0.1086 0.9934 -0.0360
vn 0.0250 0.9967 -0.0771
vn 0.0535 0.9959 -0.0736
vn -0.0316 0.9942 0.1028
vn -0.0682 0.9933 0.0931
vn -0.2021 0.7514 0.6281
vn -0.3492 0.3921 0.8511
vn 0.1267 0.4414 0.8883
vn 0.8113 0.3925 0.4333
vn 0.9131 0.2422 0.3281
vn 0.6570 0.3917 0.6441
vn 0.6734 0.3249 -0.6640
vn 0.8163 0.4613 -0.3476
vn 0.6301 0.4607 -0.6251
vn -0.1634 0.3585 -0.9191
vn -0.4301 0.5220 -0.7365
vn -0.2057 0.3488 -0.9143
vn -0.1583 0.4663 -0.8703
vn -0.1327 0.4660 -0.8748
vn -0.8272 0.3844 0.4097
vn -0.8758 0.4026 0.2662
vn 0.5277 0.4306 0.7323
vn -0.8023 0.3386 0.4916
vn -0.5577 0.4972 0.6646
vn -0.8069 0.3140 0.5003
vn -0.8021 0.4225 0.4220
vn -0.8230 0.4186 0.3839
vn -0.2230 0.4685 -0.8549
vn 0.0187 0.4750 -0.8798
vn 0.6897 0.4627 -0.5570
vn 0.5033 0.4696 -0.7254
vn -0.8988 0.4351 0.0534
vn -0.8606 0.4328 0.2683
vn 0.2754 0.4575 -0.8455
vn 0.7134 0.4203 0.5608
vn -0.7713 0.4160 0.4817
usemtl None
s 1
f 203/1/1 105/2/2 3/3/3 64/4/4
f 202/5/5 147/6/6 7/7/7 108/8/8
f 201/9/9 80/10/10 11/11/11 144/12/12
f 200/13/13 139/14/14 15/15/15 101/16/16
f 199/17/17 161/18/18 19/19/19 113/20/20
f 198/21/21 94/22/22 23/23/23 61/24/24
f 197/25/25 99/26/26 14/27/27 75/28/28
f 196/29/29 62/30/30 27/31/31 126/32/32
f 195/33/33 92/34/34 22/35/35 138/36/36
f 194/37/37 112/38/38 21/39/39 86/40/40
f 193/41/41 72/42/42 28/43/43 117/44/44
f 192/45/45 150/46/46 13/47/47 142/48/48
f 191/49/49 100/50/50 24/51/51 131/52/52
f 190/53/53 73/54/54 18/55/55 98/56/56
f 189/57/57 146/58/58 16/59/59 137/60/60
f 188/61/61 87/62/62 12/63/63 125/64/64
f 187/65/65 124/66/66 6/67/67 82/68/68
f 186/69/69 110/70/70 4/71/71 129/72/72
f 185/73/73 81/74/74 43/75/75 70/76/76
f 184/77/77 116/78/78 44/79/79 78/80/80
f 45/81/81 96/82/82 160/83/83
f 30/84/84 162/85/85 97/86/86
f 183/87/87 119/88/88 42/89/89 152/90/90
f 182/91/91 160/83/83 44/79/79 70/76/76
f 24/51/51 61/24/24 68/92/92
f 181/93/93 68/92/92 12/63/63 144/12/12
f 2/94/94 149/95/95 60/96/96
f 180/97/97 59/98/98 10/99/99 120/100/100
f 179/101/101 154/102/102 8/103/103 71/104/104
f 15/15/15 157/105/105 101/16/16
f 178/106/106 91/107/107 33/108/108 118/109/109
f 25/110/110 102/111/111 104/112/112
f 45/113/81 67/114/113 96/115/82
f 27/31/31 153/116/114 126/32/32
f 177/117/115 63/118/116 20/119/117 123/120/118
f 176/121/119 67/114/113 45/113/81 103/122/120
f 47/123/121 132/124/121 85/125/121
f 175/126/121 107/127/121 52/128/121 95/129/121
f 54/130/121 57/131/121 66/132/121
f 174/133/121 66/132/121 56/134/121 156/135/121
f 173/136/121 77/137/121 48/138/121 132/124/121
f 172/139/122 111/140/123 3/141/3 105/142/2
f 171/143/124 127/144/125 2/145/94 79/146/126
f 170/147/127 109/148/128 23/149/23 94/150/22
f 169/151/129 114/152/130 22/153/35 92/154/34
f 168/155/131 135/156/132 38/157/133 158/158/134
f 167/159/135 155/160/136 27/161/31 62/162/30
f 166/163/137 106/164/138 26/165/139 134/166/140
f 165/167/141 84/168/142 15/169/15 139/170/14
f 164/171/143 121/172/144 14/173/27 99/174/26
f 163/175/145 76/176/146 30/177/84 143/178/147
f 135/156/132 163/175/145 143/178/147 38/157/133
f 52/179/121 107/180/121 163/175/145 135/156/132
f 107/180/121 51/181/121 76/176/146 163/175/145
f 111/140/123 164/171/143 99/174/26 3/141/3
f 50/182/121 148/183/121 164/171/143 111/140/123
f 148/183/121 53/184/121 121/172/144 164/171/143
f 121/172/144 165/167/141 139/170/14 14/173/27
f 53/184/121 65/185/121 165/167/141 121/172/144
f 65/185/121 47/186/121 84/168/142 165/167/141
f 84/168/142 166/163/137 134/166/140 15/169/15
f 47/186/121 85/187/121 166/163/137 84/168/142
f 85/187/121 49/188/121 106/164/138 166/163/137
f 106/164/138 167/159/135 62/162/30 26/165/139
f 49/188/121 115/189/121 167/159/135 106/164/138
f 115/189/121 48/190/121 155/160/136 167/159/135
f 155/160/136 168/155/131 158/158/134 27/161/31
f 48/190/121 77/191/121 168/155/131 155/160/136
f 77/191/121 52/179/121 135/156/132 168/155/131
f 76/176/146 169/151/129 92/154/34 30/177/84
f 51/181/121 156/192/121 169/151/129 76/176/146
f 156/192/121 56/193/121 114/152/130 169/151/129
f 114/152/130 170/147/127 94/150/22 22/153/35
f 56/193/121 159/194/121 170/147/127 114/152/130
f 159/194/121 55/195/121 109/148/128 170/147/127
f 109/148/128 171/143/124 79/146/126 23/149/23
f 55/195/121 57/196/121 171/143/124 109/148/128
f 57/196/121 54/197/121 127/144/125 171/143/124
f 127/144/125 172/139/122 105/142/2 2/145/94
f 54/197/121 151/198/121 172/139/122 127/144/125
f 151/198/121 50/182/121 111/140/123 172/139/122
f 65/199/121 173/136/121 132/124/121 47/123/121
f 53/200/121 95/129/121 173/136/121 65/199/121
f 95/129/121 52/128/121 77/137/121 173/136/121
f 122/201/121 174/133/121 156/135/121 51/202/121
f 50/203/121 151/204/121 174/133/121 122/201/121
f 151/204/121 54/130/121 66/132/121 174/133/121
f 66/132/121 159/205/121 56/134/121
f 66/132/121 57/131/121 159/205/121
f 57/131/121 55/206/121 159/205/121
f 148/207/121 175/126/121 95/129/121 53/200/121
f 50/203/121 122/201/121 175/126/121 148/207/121
f 122/201/121 51/202/121 107/127/121 175/126/121
f 85/125/121 115/208/121 49/209/121
f 85/125/121 132/124/121 115/208/121
f 132/124/121 48/138/121 115/208/121
f 58/210/148 176/121/119 103/122/120 46/211/149
f 19/19/19 161/18/18 176/121/119 58/210/148
f 161/18/18 18/55/55 67/114/113 176/121/119
f 117/44/44 177/117/115 123/120/118 34/212/150
f 28/43/43 136/213/151 177/117/115 117/44/44
f 136/213/151 17/214/152 63/118/116 177/117/115
f 126/32/32 136/213/151 28/43/43
f 126/32/32 153/116/114 136/213/151
f 153/116/114 17/214/152 136/213/151
f 96/115/82 73/54/54 38/215/133
f 96/115/82 67/114/113 73/54/54
f 67/114/113 18/55/55 73/54/54
f 104/112/112 124/66/66 26/216/139
f 104/112/112 102/111/111 124/66/66
f 102/111/111 6/67/67 124/66/66
f 147/6/6 178/106/106 118/109/109 7/7/7
f 6/67/67 102/111/111 178/106/106 147/6/6
f 102/111/111 25/110/110 91/107/107 178/106/106
f 101/16/16 140/217/153 16/59/59
f 101/16/16 157/105/105 140/217/153
f 157/105/105 5/218/154 140/217/153
f 137/60/60 179/101/101 71/104/104 39/219/155
f 16/59/59 140/217/153 179/101/101 137/60/60
f 140/217/153 5/218/154 154/102/102 179/101/101
f 133/220/156 180/97/97 120/100/100 9/221/157
f 1/222/158 130/223/159 180/97/97 133/220/156
f 130/223/159 40/224/160 59/98/98 180/97/97
f 60/96/96 133/220/156 9/221/157
f 60/96/96 149/95/95 133/220/156
f 149/95/95 1/222/158 133/220/156
f 88/225/161 181/93/93 144/12/12 11/11/11
f 37/226/162 131/52/52 181/93/93 88/225/161
f 131/52/52 24/51/51 68/92/92 181/93/93
f 68/92/92 125/64/64 12/63/63
f 68/92/92 61/24/24 125/64/64
f 61/24/24 23/23/23 125/64/64
f 128/227/163 182/91/91 70/76/76 43/75/75
f 46/228/149 103/229/120 182/91/91 128/227/163
f 103/229/120 45/81/81 160/83/83 182/91/91
f 69/230/164 183/87/87 152/90/90 41/231/165
f 29/232/166 145/233/167 183/87/87 69/230/164
f 145/233/167 31/234/168 119/88/88 183/87/87
f 97/86/86 69/230/164 41/231/165
f 97/86/86 162/85/85 69/230/164
f 162/85/85 29/232/166 69/230/164
f 160/83/83 78/80/80 44/79/79
f 160/83/83 96/82/82 78/80/80
f 96/82/82 38/235/133 78/80/80
f 143/236/147 184/77/77 78/80/80 38/235/133
f 30/84/84 97/86/86 184/77/77 143/236/147
f 97/86/86 41/231/165 116/78/78 184/77/77
f 116/78/78 185/73/73 70/76/76 44/79/79
f 41/231/165 152/90/90 185/73/73 116/78/78
f 152/90/90 42/89/89 81/74/74 185/73/73
f 141/237/169 186/69/69 129/72/72 35/238/170
f 40/224/160 130/223/159 186/69/69 141/237/169
f 130/223/159 1/222/158 110/70/70 186/69/69
f 157/105/105 187/65/65 82/68/68 5/218/154
f 15/15/15 134/239/140 187/65/65 157/105/105
f 134/239/140 26/216/139 124/66/66 187/65/65
f 79/240/126 188/61/61 125/64/64 23/23/23
f 2/94/94 60/96/96 188/61/61 79/240/126
f 60/96/96 9/221/157 87/62/62 188/61/61
f 89/241/171 189/57/57 137/60/60 39/219/155
f 36/242/172 142/48/48 189/57/57 89/241/171
f 142/48/48 13/47/47 146/58/58 189/57/57
f 153/116/114 190/53/53 98/56/56 17/214/152
f 27/31/31 158/243/134 190/53/53 153/116/114
f 158/243/134 38/215/133 73/54/54 190/53/53
f 90/244/173 191/49/49 131/52/52 37/226/162
f 32/245/174 86/40/40 191/49/49 90/244/173
f 86/40/40 21/39/39 100/50/50 191/49/49
f 93/246/175 192/45/45 142/48/48 36/242/172
f 35/238/170 129/72/72 192/45/45 93/246/175
f 129/72/72 4/71/71 150/46/46 192/45/45
f 74/247/176 193/41/41 117/44/44 34/212/150
f 33/108/108 91/107/107 193/41/41 74/247/176
f 91/107/107 25/110/110 72/42/42 193/41/41
f 83/248/177 194/37/37 86/40/40 32/245/174
f 31/234/168 145/233/167 194/37/37 83/248/177
f 145/233/167 29/232/166 112/38/38 194/37/37
f 112/38/38 195/33/33 138/36/36 21/39/39
f 29/232/166 162/85/85 195/33/33 112/38/38
f 162/85/85 30/84/84 92/34/34 195/33/33
f 72/42/42 196/29/29 126/32/32 28/43/43
f 25/110/110 104/112/112 196/29/29 72/42/42
f 104/112/112 26/216/139 62/30/30 196/29/29
f 150/46/46 197/25/25 75/28/28 13/47/47
f 4/71/71 64/4/4 197/25/25 150/46/46
f 64/4/4 3/3/3 99/26/26 197/25/25
f 100/50/50 198/21/21 61/24/24 24/51/51
f 21/39/39 138/36/36 198/21/21 100/50/50
f 138/36/36 22/35/35 94/22/22 198/21/21
f 63/118/116 199/17/17 113/20/20 20/119/117
f 17/214/152 98/56/56 199/17/17 63/118/116
f 98/56/56 18/55/55 161/18/18 199/17/17
f 146/58/58 200/13/13 101/16/16 16/59/59
f 13/47/47 75/28/28 200/13/13 146/58/58
f 75/28/28 14/27/27 139/14/14 200/13/13
f 87/62/62 201/9/9 144/12/12 12/63/63
f 9/221/157 120/100/100 201/9/9 87/62/62
f 120/100/100 10/99/99 80/10/10 201/9/9
f 154/102/102 202/5/5 108/8/8 8/103/103
f 5/218/154 82/68/68 202/5/5 154/102/102
f 82/68/68 6/67/67 147/6/6 202/5/5
f 110/70/70 203/1/1 64/4/4 4/71/71
f 1/222/158 149/95/95 203/1/1 110/70/70
f 149/95/95 2/94/94 105/2/2 203/1/1
