# Blender v2.78 (sub 0) OBJ File: ''
# www.blender.org
mtllib Oak_Stump_01.mtl
o Oak_Stump_01
v -0.028054 0.322866 0.243344
v -0.218390 0.296988 0.035555
v -0.277236 0.004596 0.058688
v -0.041419 0.005029 0.315227
v -0.220571 0.287841 -0.144667
v -0.279931 0.004448 -0.165294
v 0.282454 0.278364 0.092545
v 0.341595 0.004295 0.128532
v -0.054288 1.122222 -0.264803
v 0.206214 1.087457 -0.174125
v 0.278925 0.263563 -0.197207
v -0.032434 0.304495 -0.362788
v -0.046838 0.004732 -0.434467
v 0.337247 0.004052 -0.229637
v -0.211676 1.108076 -0.130182
v -0.050616 1.137886 0.145312
v -0.209853 1.115869 0.019334
v 0.209173 1.100075 0.067005
v -0.043383 1.145585 0.116581
v 0.185669 1.112033 0.050018
v 0.178142 1.097565 -0.155764
v -0.185170 1.115085 -0.120857
v -0.049664 1.127016 -0.238554
v -0.187564 1.124294 0.008669
v 0.197407 1.110997 0.058610
v 0.076882 1.104852 -0.221727
v -0.198894 1.125011 0.013919
v 0.210832 1.093323 -0.053484
v -0.134564 1.115316 -0.198921
v -0.162417 0.004813 0.190242
v 0.194386 1.097232 -0.166200
v 0.245577 0.690818 0.079651
v -0.048521 1.146968 0.132018
v 0.069176 1.121450 -0.018051
v 0.124344 0.284045 -0.283063
v -0.200611 1.116659 -0.125203
v 0.080245 1.119193 0.108367
v -0.039275 0.732272 0.194027
v 0.284441 0.270433 -0.052240
v -0.115389 1.120886 -0.180632
v -0.039850 0.149071 -0.400347
v -0.250895 0.140619 -0.154993
v 0.073215 1.128676 0.082410
v -0.213887 0.708162 0.027370
v 0.147030 0.004392 -0.337144
v -0.282327 0.004522 -0.053197
v -0.248449 0.145258 0.047176
v -0.034936 0.158386 0.280941
v -0.052292 1.129647 -0.251429
v -0.212650 1.111748 -0.055371
v 0.152006 0.004662 0.226865
v -0.187432 1.119584 -0.055365
v 0.062583 1.112129 -0.199302
v 0.183279 1.104913 -0.050608
v -0.221734 0.292145 -0.054492
v 0.309419 0.128308 -0.213928
v 0.242339 0.677032 -0.185558
v -0.043294 0.715164 -0.313496
v 0.313378 0.135814 0.111105
v -0.117111 1.135117 0.063050
v -0.215887 0.699643 -0.137361
v -0.004580 1.106438 -0.140106
v -0.128393 0.296367 -0.255796
v -0.131790 1.127155 0.083675
v -0.125082 0.310258 0.141427
v -0.166526 0.004590 -0.303316
v 0.345652 0.004174 -0.050402
v 0.128355 0.300868 0.170946
v 0.198871 1.103696 -0.053723
v 0.075357 1.129202 0.097383
v -0.127951 1.123302 -0.189655
v -0.125182 1.136259 0.074236
v 0.071913 1.113438 -0.210934
v -0.201533 1.120618 -0.055592
v -0.060440 1.120595 -0.037429
v -0.216957 0.703655 -0.054937
v 0.247403 0.683438 -0.052871
v 0.104212 0.711778 0.139444
v -0.128289 0.720521 0.112364
v -0.131327 0.707586 -0.227177
v 0.136018 0.138697 -0.310579
v 0.315611 0.131796 -0.051310
v -0.147496 0.144945 -0.279992
v 0.100532 0.696112 -0.252191
v 0.140518 0.147227 0.199393
v -0.252203 0.142804 -0.053837
v -0.143781 0.151987 0.166279
vt 0.9071 0.7743
vt 0.8998 0.7766
vt 0.8971 0.7699
vt 0.9048 0.7672
vt 0.8954 0.7785
vt 0.8910 0.7803
vt 0.8877 0.7745
vt 0.8924 0.7722
vt 0.9239 0.7702
vt 0.9143 0.7721
vt 0.9125 0.7645
vt 0.9227 0.7629
vt 0.9545 0.7973
vt 0.9472 0.7946
vt 0.9489 0.7751
vt 0.9577 0.7778
vt 0.9762 0.7764
vt 0.9690 0.7734
vt 0.9714 0.7663
vt 0.9791 0.7700
vt 0.9415 0.7683
vt 0.9334 0.7682
vt 0.9329 0.7613
vt 0.9417 0.7616
vt 0.9593 0.7709
vt 0.9496 0.7685
vt 0.9504 0.7618
vt 0.9609 0.7641
vt 0.9674 0.8020
vt 0.9617 0.8001
vt 0.9666 0.7804
vt 0.9733 0.7829
vt 0.9144 0.8008
vt 0.9087 0.8023
vt 0.9025 0.7832
vt 0.9093 0.7815
vt 0.9272 0.7969
vt 0.9201 0.7993
vt 0.9161 0.7797
vt 0.9250 0.7774
vt 0.9408 0.7945
vt 0.9344 0.7945
vt 0.9339 0.7751
vt 0.9414 0.7751
vt 0.9051 0.8035
vt 0.9014 0.8047
vt 0.8944 0.7862
vt 0.8985 0.7847
vt 0.8041 0.6532
vt 0.8237 0.6590
vt 0.8235 0.6764
vt 0.7810 0.6934
vt 0.8120 0.6965
vt 0.7925 0.7034
vt 0.8023 0.6796
vt 0.8430 0.6996
vt 0.9173 0.8358
vt 0.9148 0.8440
vt 0.9133 0.8442
vt 0.9160 0.8354
vt 0.9441 0.8640
vt 0.9606 0.8633
vt 0.9616 0.8646
vt 0.9442 0.8654
vt 0.9309 0.8230
vt 0.9198 0.8275
vt 0.9187 0.8265
vt 0.9304 0.8217
vt 0.9212 0.8543
vt 0.9276 0.8647
vt 0.9269 0.8661
vt 0.9201 0.8551
vt 0.9555 0.8274
vt 0.9420 0.8184
vt 0.9422 0.8169
vt 0.9564 0.8263
vt 0.9648 0.8498
vt 0.9691 0.8364
vt 0.9707 0.8358
vt 0.9662 0.8502
vt 0.9595 0.8619
vt 0.9635 0.8494
vt 0.9674 0.8370
vt 0.9546 0.8285
vt 0.9418 0.8200
vt 0.9164 0.8438
vt 0.9224 0.8535
vt 0.9284 0.8632
vt 0.9314 0.8243
vt 0.9210 0.8286
vt 0.9439 0.8626
vt 0.9187 0.8362
vt 0.7810 0.6828
vt 0.7810 0.6722
vt 0.7925 0.6627
vt 0.8234 0.7065
vt 0.8039 0.7134
vt 0.8432 0.6822
vt 0.8433 0.6648
vt 0.9150 0.8214
vt 0.9117 0.8223
vt 0.9083 0.8232
vt 0.9455 0.8140
vt 0.9402 0.8140
vt 0.9349 0.8139
vt 0.9295 0.8163
vt 0.9240 0.8188
vt 0.9195 0.8201
vt 0.9731 0.8040
vt 0.9800 0.7853
vt 0.9662 0.8226
vt 0.9615 0.8212
vt 0.9568 0.8198
vt 0.9834 0.7795
vt 0.9867 0.7737
vt 0.9512 0.8169
vn -0.7292 0.1926 0.6566
vn -0.9101 0.2117 0.3563
vn -0.9078 0.2163 0.3594
vn -0.7253 0.1958 0.6600
vn -0.9788 0.2048 0.0071
vn -0.9165 0.2159 -0.3369
vn -0.9153 0.2207 -0.3368
vn -0.9777 0.2098 0.0095
vn 0.4397 0.1988 0.8759
vn -0.1797 0.2331 0.9557
vn -0.1803 0.2338 0.9554
vn 0.4343 0.2001 0.8783
vn 0.4151 0.0915 -0.9051
vn 0.8319 0.0971 -0.5464
vn 0.8375 0.1784 -0.5164
vn 0.4631 0.1461 -0.8742
vn -0.7456 0.1994 -0.6359
vn -0.1745 0.2456 -0.9535
vn -0.1773 0.2466 -0.9528
vn -0.7426 0.2028 -0.6383
vn 0.9751 0.2212 -0.0170
vn 0.8274 0.2451 0.5053
vn 0.8249 0.2470 0.5085
vn 0.9746 0.2233 -0.0142
vn 0.4702 0.2023 -0.8590
vn 0.8273 0.2457 -0.5051
vn 0.8274 0.2482 -0.5038
vn 0.4651 0.2040 -0.8614
vn -0.7134 0.0433 -0.6994
vn -0.1823 0.0969 -0.9785
vn -0.1689 0.1727 -0.9704
vn -0.7458 0.1191 -0.6554
vn -0.6907 0.0454 0.7217
vn -0.9163 0.0236 0.3997
vn -0.9214 0.1189 0.3701
vn -0.7276 0.1167 0.6760
vn 0.3804 0.0925 0.9202
vn -0.1854 0.0970 0.9779
vn -0.1743 0.1651 0.9707
vn 0.4315 0.1449 0.8904
vn 0.9959 0.0891 -0.0168
vn 0.8307 0.0998 0.5478
vn 0.8391 0.1778 0.5142
vn 0.9878 0.1547 -0.0184
vn -0.9999 0.0111 0.0116
vn -0.9269 0.0226 -0.3745
vn -0.9286 0.1227 -0.3501
vn -0.9943 0.1065 0.0081
vn 0.0415 0.9939 -0.1021
vn 0.1258 0.9900 -0.0641
vn 0.0709 0.9913 -0.1106
vn 0.0644 0.9975 0.0290
vn 0.0436 0.9988 0.0212
vn 0.0632 0.9825 0.1753
vn 0.0106 0.9914 -0.1307
vn 0.0567 0.9983 0.0110
vn -0.2997 0.9525 -0.0534
vn -0.3187 0.9379 -0.1371
vn -0.8379 0.4118 -0.3581
vn -0.9003 0.4351 -0.0128
vn 0.1934 0.9610 -0.1975
vn 0.3526 0.9125 -0.2075
vn 0.7452 0.4296 -0.5100
vn 0.3660 0.4928 -0.7894
vn -0.2680 0.9493 0.1645
vn -0.3632 0.9269 0.0946
vn -0.8359 0.4101 0.3648
vn -0.6117 0.4521 0.6491
vn -0.1930 0.9725 -0.1305
vn -0.0253 0.9664 -0.2559
vn -0.1552 0.5115 -0.8451
vn -0.6147 0.4759 -0.6291
vn 0.2200 0.9343 0.2805
vn -0.0530 0.9461 0.3194
vn -0.1632 0.4914 0.8555
vn 0.3401 0.4648 0.8175
vn 0.3791 0.9233 -0.0613
vn 0.3953 0.8990 0.1883
vn 0.7474 0.4299 0.5066
vn 0.8914 0.4519 -0.0358
vn 0.0923 0.9932 -0.0705
vn 0.1166 0.9911 -0.0649
vn 0.0676 0.9815 0.1791
vn -0.0237 0.9900 -0.1388
vn 0.0018 0.9935 -0.1139
vn 0.0683 0.9841 0.1638
vn 0.0415 0.9953 -0.0875
usemtl None
s 1
f 87/1/1 47/2/2 3/3/3 30/4/4
f 86/5/5 42/6/6 6/7/7 46/8/8
f 85/9/9 48/10/10 4/11/11 51/12/12
f 84/13/13 57/14/14 11/15/15 35/16/16
f 83/17/17 41/18/18 13/19/19 66/20/20
f 82/21/21 59/22/22 8/23/23 67/24/24
f 81/25/25 56/26/26 14/27/27 45/28/28
f 80/29/29 58/30/30 12/31/31 63/32/32
f 79/33/33 44/34/34 2/35/35 65/36/36
f 78/37/37 38/38/38 1/39/39 68/40/40
f 77/41/41 32/42/42 7/43/43 39/44/44
f 76/45/45 61/46/46 5/47/47 55/48/48
f 19/49/49 43/50/50 34/51/51
f 22/52/52 62/53/53 40/54/54
f 75/55/55 34/51/51 21/56/56 62/53/53
f 74/57/57 36/58/58 15/59/59 50/60/60
f 73/61/61 31/62/62 10/63/63 26/64/64
f 72/65/65 27/66/66 17/67/67 64/68/68
f 71/69/69 49/70/70 9/71/71 29/72/72
f 70/73/73 33/74/74 16/75/75 37/76/76
f 69/77/77 25/78/78 18/79/79 28/80/80
f 31/62/62 69/77/77 28/80/80 10/63/63
f 21/81/56 54/82/81 69/77/77 31/62/62
f 54/82/81 20/83/82 25/78/78 69/77/77
f 25/78/78 70/73/73 37/76/76 18/79/79
f 20/83/82 43/84/50 70/73/73 25/78/78
f 43/84/50 19/85/49 33/74/74 70/73/73
f 36/58/58 71/69/69 29/72/72 15/59/59
f 22/86/52 40/87/54 71/69/69 36/58/58
f 40/87/54 23/88/83 49/70/70 71/69/69
f 33/74/74 72/65/65 64/68/68 16/75/75
f 19/85/49 60/89/84 72/65/65 33/74/74
f 60/89/84 24/90/85 27/66/66 72/65/65
f 49/70/70 73/61/61 26/64/64 9/71/71
f 23/88/83 53/91/86 73/61/61 49/70/70
f 53/91/86 21/81/56 31/62/62 73/61/61
f 27/66/66 74/57/57 50/60/60 17/67/67
f 24/90/85 52/92/87 74/57/57 27/66/66
f 52/92/87 22/86/52 36/58/58 74/57/57
f 52/93/87 75/55/55 62/53/53 22/52/52
f 24/94/85 60/95/84 75/55/55 52/93/87
f 60/95/84 19/49/49 34/51/51 75/55/55
f 40/54/54 53/96/86 23/97/83
f 40/54/54 62/53/53 53/96/86
f 62/53/53 21/56/56 53/96/86
f 34/51/51 54/98/81 21/56/56
f 34/51/51 43/50/50 54/98/81
f 43/50/50 20/99/82 54/98/81
f 44/34/34 76/45/45 55/48/48 2/35/35
f 17/100/67 50/101/60 76/45/45 44/34/34
f 50/101/60 15/102/59 61/46/46 76/45/45
f 57/14/14 77/41/41 39/44/44 11/15/15
f 10/103/63 28/104/80 77/41/41 57/14/14
f 28/104/80 18/105/79 32/42/42 77/41/41
f 32/42/42 78/37/37 68/40/40 7/43/43
f 18/105/79 37/106/76 78/37/37 32/42/42
f 37/106/76 16/107/75 38/38/38 78/37/37
f 38/38/38 79/33/33 65/36/36 1/39/39
f 16/107/75 64/108/68 79/33/33 38/38/38
f 64/108/68 17/100/67 44/34/34 79/33/33
f 61/109/46 80/29/29 63/32/32 5/110/47
f 15/111/59 29/112/72 80/29/29 61/109/46
f 29/112/72 9/113/71 58/30/30 80/29/29
f 41/18/18 81/25/25 45/28/28 13/19/19
f 12/31/31 35/16/16 81/25/25 41/18/18
f 35/16/16 11/15/15 56/26/26 81/25/25
f 56/26/26 82/21/21 67/24/24 14/27/27
f 11/15/15 39/44/44 82/21/21 56/26/26
f 39/44/44 7/43/43 59/22/22 82/21/21
f 42/114/6 83/17/17 66/20/20 6/115/7
f 5/110/47 63/32/32 83/17/17 42/114/6
f 63/32/32 12/31/31 41/18/18 83/17/17
f 58/30/30 84/13/13 35/16/16 12/31/31
f 9/113/71 26/116/64 84/13/13 58/30/30
f 26/116/64 10/103/63 57/14/14 84/13/13
f 59/22/22 85/9/9 51/12/12 8/23/23
f 7/43/43 68/40/40 85/9/9 59/22/22
f 68/40/40 1/39/39 48/10/10 85/9/9
f 47/2/2 86/5/5 46/8/8 3/3/3
f 2/35/35 55/48/48 86/5/5 47/2/2
f 55/48/48 5/47/47 42/6/6 86/5/5
f 48/10/10 87/1/1 30/4/4 4/11/11
f 1/39/39 65/36/36 87/1/1 48/10/10
f 65/36/36 2/35/35 47/2/2 87/1/1
