%YAML 1.1
%TAG !u! tag:unity3d.com,2011:
--- !u!1001 &100100000
Prefab:
  m_ObjectHideFlags: 1
  serializedVersion: 2
  m_Modification:
    m_TransformParent: {fileID: 0}
    m_Modifications: []
    m_RemovedComponents: []
  m_ParentPrefab: {fileID: 0}
  m_RootGameObject: {fileID: 1471250824261424}
  m_IsPrefabParent: 1
--- !u!1 &1471250824261424
GameObject:
  m_ObjectHideFlags: 0
  m_PrefabParentObject: {fileID: 0}
  m_PrefabInternal: {fileID: 100100000}
  serializedVersion: 5
  m_Component:
  - component: {fileID: 4736623496167904}
  - component: {fileID: 114194638576004966}
  m_Layer: 0
  m_Name: CameraDolly
  m_TagString: Untagged
  m_Icon: {fileID: 0}
  m_NavMeshLayer: 0
  m_StaticEditorFlags: 0
  m_IsActive: 1
--- !u!4 &4736623496167904
Transform:
  m_ObjectHideFlags: 1
  m_PrefabParentObject: {fileID: 0}
  m_PrefabInternal: {fileID: 100100000}
  m_GameObject: {fileID: 1471250824261424}
  m_LocalRotation: {x: -0, y: -0, z: 0.96904415, w: 0.24688774}
  m_LocalPosition: {x: 452, y: 501, z: -39.18}
  m_LocalScale: {x: 1, y: 1, z: 1}
  m_Children: []
  m_Father: {fileID: 0}
  m_RootOrder: 0
  m_LocalEulerAnglesHint: {x: 0, y: 0, z: 151.41301}
--- !u!114 &114194638576004966
MonoBehaviour:
  m_ObjectHideFlags: 1
  m_PrefabParentObject: {fileID: 0}
  m_PrefabInternal: {fileID: 100100000}
  m_GameObject: {fileID: 1471250824261424}
  m_Enabled: 1
  m_EditorHideFlags: 0
  m_Script: {fileID: 11500000, guid: 0873eb38d050e664391ad975dcb55739, type: 3}
  m_Name: 
  m_EditorClassIdentifier: 
  directionVec: {x: 0, y: 1.6, z: -1.5}
  targetMagnitude: 14
  curMagnitude: 14
  magScrollSpeed: 16
  magnitudeUpperClamp: 31
  rotationLimit: 115
  magnitudeLowerClamp: 10
  minVerticalClamp: 85
  maxVerticalClamp: 315
  horizontalRotation: 350
  verticleRotation: 20
  baseInfluencedSpeed: 4
  influencedTurnRange: 75
  targetTurnAngle: 0
  camHorizontalSpeed: 5
  camVerticleSpeed: 5
  maxRotationSpeed: 3
