# Blender v2.77 (sub 0) OBJ File: 'Fir_Tree_crk_m_01.obj'
# www.blender.org
mtllib Fir_Tree_s_02.mtl
o Fir_Tree_s_02
v 0.020765 0.483383 -0.050942
v -0.315318 0.305276 -0.225961
v 0.206641 0.298920 -0.486299
v 0.480997 0.282182 -0.190741
v 0.196423 0.269876 0.387228
v -0.353731 0.288354 0.292466
v 0.189629 0.702730 0.307788
v -0.211630 0.694904 0.313377
v -0.257139 0.716049 -0.062368
v 0.114046 0.736501 -0.303414
v 0.337643 0.731021 -0.120438
v 0.361722 0.852803 -0.167180
v 0.269822 0.812523 0.307569
v -0.206151 0.798873 0.349233
v -0.287480 0.830867 -0.059629
v 0.077884 0.860575 -0.341886
v 0.164906 1.220738 0.179763
v -0.104629 1.222535 0.195358
v -0.191905 1.223931 -0.034529
v 0.047761 1.218826 -0.238302
v 0.226536 1.226358 -0.121810
v 0.216066 1.331969 -0.172552
v 0.193272 1.341676 0.199516
v -0.099410 1.341435 0.203371
v -0.207935 1.334423 -0.053512
v 0.018062 1.328276 -0.271404
v 0.072562 1.918862 -0.054157
v 0.069755 1.921450 0.089155
v -0.036102 1.920376 0.091364
v -0.083205 1.918093 -0.010917
v -0.007032 1.917577 -0.089056
v -0.000475 2.242075 0.019281
v 0.007380 0.217139 -0.075108
v 0.000462 0.575130 -0.043374
v 0.044813 0.575047 0.003183
v 0.069766 0.217128 0.004784
v -0.083015 0.217164 -0.006841
v -0.053222 0.575492 0.016652
v 0.087322 0.018601 -0.004978
v -0.010375 0.217146 0.075193
v 0.000312 0.018599 0.080255
v -0.089860 0.018600 -0.018135
v 0.011269 0.018601 -0.095388
v -0.010341 0.575375 0.052493
v 0.050881 1.342319 0.227541
v -0.298034 0.497346 -0.151312
v 0.021842 0.575198 0.031931
v 0.363600 0.297716 -0.362140
v 0.034099 2.107536 -0.012928
v 0.196490 0.471800 0.365208
v 0.032671 1.944576 -0.072774
v 0.003723 0.407800 -0.059312
v -0.175181 1.338128 0.083280
v 0.031829 0.802618 0.364186
v -0.297447 0.478250 0.314498
v 0.032926 1.265097 -0.257684
v 0.359279 0.282204 0.108085
v -0.037496 0.575477 0.040560
v -0.053611 0.217154 0.039660
v 0.244446 0.735672 -0.236094
v -0.194767 0.372814 0.144372
v -0.048895 0.018601 -0.067582
v 0.136403 1.618907 0.148888
v -0.089100 0.285835 0.368588
v -0.006087 2.106811 -0.032573
v -0.240145 1.028014 -0.046663
v -0.205839 0.747016 0.337818
v 0.082088 0.101458 -0.000083
v 0.031614 2.108462 0.051582
v 0.057396 0.407750 0.004374
v 0.224571 1.336969 0.017367
v 0.053417 0.018600 0.048458
v -0.069562 1.617996 0.151180
v 0.031245 1.221446 0.205776
v 0.113952 0.361712 0.192911
v -0.043209 0.217152 -0.047592
v 0.004105 1.609803 -0.186491
v 0.010138 0.101460 -0.089158
v -0.118681 0.847460 -0.223755
v -0.107027 1.330944 -0.176203
v 0.062740 1.040617 -0.290602
v -0.060054 0.310229 -0.377691
v 0.035087 0.217136 0.046606
v 0.028352 0.575045 -0.026083
v 0.237049 0.859655 -0.284705
v -0.013970 0.696968 0.339419
v -0.068362 0.408011 0.006180
v 0.295806 1.040604 -0.144013
v 0.287875 0.367118 -0.126259
v 0.179122 1.275487 0.188949
v -0.081571 1.220926 -0.148390
v 0.233786 0.759781 0.307673
v 0.426787 0.491986 -0.159322
v -0.046784 1.944142 -0.049705
v -0.081250 0.727174 -0.202560
v 0.072356 1.946517 0.018864
v 0.147328 1.612007 -0.119320
v -0.099874 1.277039 0.197005
v -0.262200 0.704282 0.134596
v -0.090749 0.101455 -0.014114
v -0.004734 0.101451 0.081630
v -0.016919 2.107906 0.055662
v 0.219333 1.016370 0.242647
v 0.148327 1.222419 -0.198061
v 0.126046 0.377744 -0.308246
v -0.011057 0.407937 0.064023
v -0.156014 1.010419 0.273279
v -0.030986 0.575323 -0.017455
v 0.126810 1.329419 -0.246566
v 0.221246 1.271567 -0.149789
v -0.281039 0.813003 0.157343
v 0.017248 1.947240 0.094187
v 0.285524 0.717109 0.099583
v 0.060023 0.018601 -0.059531
v -0.150055 1.612992 -0.034585
v -0.272868 0.775067 -0.054848
v 0.347436 0.796143 -0.142754
v 0.045490 0.217134 -0.040646
v -0.201039 1.272610 -0.044172
v -0.173363 0.382279 -0.156313
v 0.210998 1.223817 0.032914
v 0.092371 0.803000 -0.318051
v -0.055502 0.018600 0.040407
v -0.040162 2.106884 0.005523
v -0.365060 0.305278 0.033904
v 0.346638 0.832905 0.075037
v -0.166330 1.223779 0.088243
v 0.169901 0.503572 -0.410411
v -0.061784 1.945475 0.041540
v -0.055223 0.101452 0.040006
v 0.027592 0.407839 0.039042
v 0.053594 0.101460 -0.050868
v -0.045311 0.407990 0.040089
v -0.046601 0.101458 -0.059002
v 0.044973 0.101454 0.048140
v -0.036743 0.407910 -0.031409
v 0.036160 0.407759 -0.032457
v 0.081906 1.610515 -0.169112
v -0.123726 1.615569 0.063787
v 0.137548 1.267894 -0.225033
v -0.170242 1.275197 0.084506
v -0.081275 1.611135 -0.119765
v 0.036250 1.618910 0.167491
v 0.155064 1.615576 0.017270
v 0.193485 1.042007 -0.241396
v -0.094851 1.268424 -0.163788
v -0.224223 1.018556 0.123493
v 0.042152 1.276549 0.215133
v 0.217774 1.273735 0.023490
v 0.280641 1.028743 0.053706
v 0.237827 0.802010 -0.257572
v -0.100393 1.034959 -0.186118
v -0.270373 0.759511 0.152302
v 0.032209 1.011760 0.284963
v -0.334650 0.487837 0.089006
v -0.102042 0.790352 -0.207782
v 0.012486 0.750934 0.355056
v 0.316988 0.778200 0.087834
v 0.324651 0.498795 -0.314872
v 0.340142 0.481214 0.114336
v -0.073483 0.501598 -0.307632
v -0.058964 0.473510 0.377824
vt 0.4385 0.4349
vt 0.4459 0.4201
vt 0.4572 0.4413
vt 0.4457 0.4541
vt 0.4202 0.4443
vt 0.4239 0.4201
vt 0.4196 0.4593
vt 0.4040 0.4455
vt 0.4232 0.4404
vt 0.4280 0.4463
vt 0.4648 0.4273
vt 0.4726 0.4510
vt 0.4506 0.4474
vt 0.4494 0.4365
vt 0.4143 0.4238
vt 0.4245 0.4022
vt 0.4320 0.4231
vt 0.4276 0.4317
vt 0.4408 0.4029
vt 0.4571 0.4035
vt 0.4482 0.4256
vt 0.4401 0.4243
vt 0.4285 0.4320
vt 0.4334 0.4248
vt 0.4347 0.4265
vt 0.4295 0.4322
vt 0.4283 0.4448
vt 0.4237 0.4392
vt 0.4242 0.4379
vt 0.4286 0.4433
vt 0.4478 0.4374
vt 0.4488 0.4464
vt 0.4469 0.4455
vt 0.4463 0.4383
vt 0.4539 0.4621
vt 0.4352 0.4732
vt 0.4328 0.4521
vt 0.4417 0.4498
vt 0.4353 0.4141
vt 0.4517 0.4144
vt 0.4425 0.4292
vt 0.4371 0.4287
vt 0.4408 0.4484
vt 0.4329 0.4504
vt 0.4329 0.4487
vt 0.4399 0.4471
vt 0.4266 0.4542
vt 0.4112 0.4439
vt 0.4280 0.4381
vt 0.4325 0.4437
vt 0.4402 0.4266
vt 0.4469 0.4284
vt 0.4457 0.4312
vt 0.4402 0.4288
vt 0.4556 0.4304
vt 0.4595 0.4463
vt 0.4435 0.4411
vt 0.4430 0.4351
vt 0.4423 0.4361
vt 0.4431 0.4413
vt 0.4428 0.4416
vt 0.4416 0.4370
vt 0.4369 0.4299
vt 0.4415 0.4308
vt 0.4405 0.4325
vt 0.4367 0.4312
vt 0.4150 0.4289
vt 0.4189 0.4139
vt 0.4317 0.4282
vt 0.4298 0.4331
vt 0.4331 0.4423
vt 0.4293 0.4383
vt 0.4306 0.4385
vt 0.4337 0.4410
vt 0.4507 0.4554
vt 0.4420 0.4645
vt 0.4370 0.4492
vt 0.4403 0.4452
vt 0.5479 0.4307
vt 0.5552 0.4084
vt 0.5639 0.4335
vt 0.5638 0.4365
vt 0.5573 0.4581
vt 0.5407 0.4530
vt 0.5636 0.4395
vt 0.5652 0.4398
vt 0.5853 0.4244
vt 0.5941 0.4403
vt 0.5694 0.4379
vt 0.5688 0.4359
vt 0.4308 0.4336
vt 0.4323 0.4290
vt 0.4330 0.4298
vt 0.4318 0.4341
vt 0.4400 0.4439
vt 0.4369 0.4464
vt 0.4368 0.4435
vt 0.4398 0.4426
vt 0.5660 0.4337
vt 0.5651 0.4356
vt 0.5681 0.4390
vt 0.5678 0.4378
vt 0.5840 0.4517
vt 0.5739 0.4631
vt 0.5668 0.4400
vt 0.5649 0.4386
vt 0.5659 0.4085
vt 0.5766 0.4086
vt 0.5682 0.4338
vt 0.9727 0.9473
vt 0.9725 0.9848
vt 0.9653 0.9848
vt 0.9655 0.9473
vt 0.9148 0.9471
vt 0.9146 0.9842
vt 0.9073 0.9844
vt 0.9076 0.9471
vt 0.9585 0.8991
vt 0.9583 0.9099
vt 0.9510 0.9100
vt 0.9512 0.8994
vt 0.9149 0.8993
vt 0.9151 0.9100
vt 0.9079 0.9098
vt 0.9076 0.8990
vt 0.9365 0.9472
vt 0.9365 0.9842
vt 0.9219 0.9841
vt 0.9221 0.9471
vt 0.9730 0.8991
vt 0.9729 0.9099
vt 0.9656 0.9097
vt 0.9657 0.8989
vt 0.9582 0.9472
vt 0.9582 0.9846
vt 0.9510 0.9844
vt 0.9510 0.9472
vt 0.9367 0.8995
vt 0.9222 0.8996
vt 0.9220 0.8891
vt 0.9367 0.8889
vt 0.9514 0.8887
vt 0.9366 0.9101
vt 0.9223 0.9102
vt 0.9732 0.8884
vt 0.9659 0.8881
vt 0.9804 0.8886
vt 0.9804 0.8993
vt 0.9803 0.9100
vt 0.9146 0.8887
vt 0.9073 0.8883
vt 0.9586 0.8884
vt 0.9800 0.9474
vt 0.9797 0.9847
vt 0.5465 0.3833
vt 0.5657 0.3833
vt 0.5849 0.3833
vt 0.5673 0.4358
vt 0.5663 0.4377
vt 0.5666 0.4388
vt 0.6188 0.4427
vt 0.5998 0.4645
vt 0.5809 0.4863
vt 0.6019 0.4130
vt 0.5493 0.4764
vt 0.5177 0.4665
vt 0.5321 0.4249
vt 0.4754 0.4516
vt 0.4612 0.4656
vt 0.4470 0.4797
vt 0.3945 0.4498
vt 0.4002 0.4247
vt 0.4060 0.3995
vt 0.4609 0.3995
vt 0.4682 0.4255
vt 0.4207 0.4647
vt 0.4334 0.3995
vt 0.4945 0.4547
vt 0.4660 0.4744
vt 0.4376 0.4942
vt 0.4169 0.3814
vt 0.4414 0.3814
vt 0.4660 0.3814
vt 0.4645 0.4605
vt 0.4530 0.4732
vt 0.4759 0.4478
vt 0.4313 0.4053
vt 0.4534 0.4053
vt 0.4093 0.4053
vt 0.3849 0.4505
vt 0.4009 0.4160
vt 0.4803 0.4180
vt 0.4112 0.4724
vt 0.4057 0.4295
vt 0.4020 0.4537
vt 0.4275 0.4635
vt 0.4646 0.4266
vn -0.0050 -0.9999 -0.0095
vn 0.3388 -0.9111 0.2346
vn -0.0561 -0.9355 0.3488
vn -0.3813 -0.9244 -0.0093
vn -0.1947 -0.9189 -0.3431
vn 0.2441 -0.9427 -0.2273
vn -0.0990 0.0898 0.9910
vn 0.5133 0.1325 0.8479
vn 0.5449 -0.0920 0.8334
vn -0.0137 -0.0646 0.9978
vn -0.4635 0.3236 -0.8249
vn -0.8216 0.3012 -0.4840
vn -0.8893 0.0775 -0.4508
vn -0.5370 0.0650 -0.8411
vn 0.9027 0.1620 0.3986
vn 0.9486 0.2941 -0.1170
vn 0.9841 0.0483 -0.1710
vn 0.9405 -0.0972 0.3255
vn 0.6557 0.3679 -0.6594
vn 0.0738 0.3863 -0.9194
vn 0.0175 0.1081 -0.9940
vn 0.6424 0.1197 -0.7569
vn 0.8956 -0.3981 0.1985
vn 0.8913 -0.3377 -0.3026
vn 0.9207 -0.0199 -0.3897
vn 0.9814 -0.0376 0.1881
vn 0.0664 -0.2357 0.9696
vn 0.5936 -0.4011 0.6977
vn 0.7138 -0.0331 0.6995
vn 0.0934 0.0768 0.9927
vn -0.5467 -0.2906 -0.7853
vn -0.8893 -0.2500 -0.3830
vn -0.9294 -0.0176 -0.3686
vn -0.6027 -0.0735 -0.7946
vn -0.9692 0.2450 0.0230
vn -0.7088 0.1844 0.6809
vn -0.6771 0.0070 0.7359
vn -0.9924 0.0667 0.1032
vn 0.0677 0.3513 0.9338
vn 0.6150 0.3808 0.6904
vn 0.6606 0.0933 0.7449
vn 0.0471 0.1116 0.9926
vn -0.9701 -0.1779 0.1652
vn -0.5750 -0.2432 0.7812
vn -0.5677 0.0829 0.8190
vn -0.9752 0.0523 0.2152
vn -0.6178 0.2093 -0.7580
vn -0.9123 0.2576 -0.3185
vn -0.9652 0.0171 -0.2609
vn -0.6514 -0.0908 -0.7533
vn 0.5395 -0.2857 -0.7920
vn -0.0537 -0.3351 -0.9407
vn -0.0999 -0.0585 -0.9933
vn 0.5236 -0.0238 -0.8517
vn 0.9206 0.3348 0.2011
vn 0.8757 0.3584 -0.3234
vn 0.9487 0.1368 -0.2849
vn 0.9741 0.1233 0.1896
vn 0.9886 -0.0877 0.1228
vn 0.9011 -0.1521 -0.4060
vn 0.8704 0.0797 -0.4858
vn 0.9948 0.0770 0.0667
vn 0.0337 -0.1596 0.9866
vn 0.6794 -0.2231 0.6991
vn 0.7184 0.0278 0.6950
vn 0.0287 0.0210 0.9994
vn -0.9181 0.2977 0.2615
vn -0.5206 0.3876 0.7607
vn -0.5423 0.1937 0.8176
vn -0.9308 0.1360 0.3393
vn -0.6431 -0.3180 -0.6966
vn -0.9512 -0.2034 -0.2320
vn -0.9697 0.0205 -0.2436
vn -0.6893 -0.0259 -0.7240
vn 0.5046 0.3125 -0.8048
vn -0.1098 0.2763 -0.9548
vn -0.1061 -0.0849 -0.9907
vn 0.5517 -0.0056 -0.8340
vn 0.9697 0.2416 0.0373
vn 0.8428 0.2968 -0.4490
vn 0.8356 0.2919 -0.4654
vn 0.9730 0.2298 0.0229
vn 0.0166 0.2157 0.9763
vn 0.6952 0.2760 0.6637
vn 0.7009 0.2801 0.6559
vn 0.0262 0.2215 0.9748
vn -0.6837 0.2109 -0.6986
vn -0.9536 0.2192 -0.2066
vn -0.9560 0.2273 -0.1852
vn -0.6957 0.2276 -0.6813
vn -0.9243 -0.0531 0.3780
vn -0.5363 -0.0707 0.8410
vn -0.5407 0.0546 0.8394
vn -0.9208 0.0640 0.3849
vn 0.4773 -0.2692 -0.8365
vn -0.1550 -0.3499 -0.9239
vn -0.2131 -0.0033 -0.9770
vn 0.4331 0.0458 -0.9002
vn 0.3825 0.2951 -0.8755
vn 0.8152 0.3181 -0.4840
vn -0.8954 0.1918 0.4018
vn -0.9503 0.2767 -0.1430
vn -0.9019 0.1924 0.3867
vn -0.5406 0.2163 0.8130
vn -0.5394 0.2164 0.8137
vn 0.6872 0.3149 0.6546
vn 0.3994 0.3037 -0.8650
vn -0.2174 0.2794 -0.9352
vn -0.2273 0.2841 -0.9315
vn 0.7606 0.0670 -0.6458
vn 0.7439 0.0683 -0.6648
vn 0.9935 0.0720 0.0880
vn 0.9932 0.0701 0.0932
vn -0.6691 0.0850 -0.7383
vn -0.7064 0.0856 -0.7026
vn -0.0162 0.0925 -0.9956
vn 0.0412 0.0911 -0.9950
vn 0.6797 0.0560 0.7313
vn 0.6625 0.0601 0.7467
vn -0.0585 0.0500 0.9970
vn -0.0513 0.0284 0.9983
vn -0.6008 0.0831 -0.7950
vn -0.6162 0.0898 -0.7825
vn 0.1009 0.1085 -0.9890
vn 0.1123 0.1161 -0.9869
vn -0.7099 0.0371 0.7033
vn -0.6806 0.0411 0.7315
vn -0.9968 0.0797 -0.0018
vn -0.9956 0.0792 -0.0508
vn 0.7729 0.1056 -0.6257
vn 0.7777 0.0881 -0.6224
vn 0.9912 0.0867 0.1000
vn 0.9925 0.0961 0.0756
vn 0.6593 0.0553 0.7498
vn 0.6614 0.0570 0.7479
vn 0.0230 0.0564 0.9981
vn -0.0128 0.0548 0.9984
vn -0.7443 -0.0019 0.6679
vn -0.9943 0.0475 -0.0955
vn -0.9938 0.0277 -0.1078
vn -0.7409 -0.0187 0.6713
vn -0.0220 0.0110 0.9997
vn -0.7409 0.0240 0.6712
vn -0.9932 0.0733 -0.0899
vn 0.7646 0.1011 -0.6365
vn 0.9951 0.0898 0.0409
vn 0.1093 0.1073 -0.9882
vn -0.5987 0.0716 -0.7978
vn 0.6969 0.0462 0.7157
vn -0.1920 0.3434 -0.9194
vn -0.0115 0.9994 0.0323
vn -0.4894 0.2726 0.8284
vn -0.5758 -0.6643 -0.4766
vn -0.6679 -0.7415 -0.0638
vn -0.6408 -0.6554 0.3997
vn 0.7409 -0.6588 -0.1308
vn 0.4985 -0.6734 -0.5459
vn 0.0853 -0.5965 -0.7981
vn 0.3399 -0.7117 0.6148
vn 0.5563 -0.8008 0.2222
vn -0.3221 -0.7381 -0.5928
vn -0.1101 -0.8042 0.5841
usemtl None
s 1
f 1/1/1 120/2/2 105/3/3
f 1/1/1 89/4/4 75/5/5
f 1/1/1 75/5/5 61/6/6
f 162/7/7 50/8/8 7/9/9 86/10/10
f 161/11/11 46/12/12 9/13/13 95/14/14
f 160/15/15 93/16/16 11/17/17 113/18/18
f 1/1/1 61/6/6 120/2/2
f 1/1/1 105/3/3 89/4/4
f 159/19/19 128/20/20 10/21/21 60/22/22
f 158/23/23 117/24/24 12/25/25 126/26/26
f 157/27/27 92/28/28 13/29/29 54/30/30
f 156/31/31 116/32/32 15/33/33 79/34/34
f 155/35/35 55/36/36 8/37/37 99/38/38
f 154/39/39 103/40/40 17/41/41 74/42/42
f 153/43/43 67/44/44 14/45/45 111/46/46
f 152/47/47 66/48/48 19/49/49 91/50/50
f 151/51/51 122/52/52 16/53/53 85/54/54
f 150/55/55 88/56/56 21/57/57 121/58/58
f 149/59/59 110/60/60 22/61/61 71/62/62
f 148/63/63 90/64/64 23/65/65 45/66/66
f 147/67/67 107/68/68 18/69/69 127/70/70
f 146/71/71 119/72/72 25/73/73 80/74/74
f 145/75/75 81/76/76 20/77/77 104/78/78
f 144/79/79 97/80/80 27/81/81 96/82/82
f 143/83/83 63/84/84 28/85/85 112/86/86
f 142/87/87 115/88/88 30/89/89 94/90/90
f 141/91/91 98/92/92 24/93/93 53/94/94
f 140/95/95 56/96/96 26/97/97 109/98/98
f 27/81/81 51/99/99 49/100/100
f 30/89/89 129/101/101 124/102/102
f 139/103/103 73/104/104 29/105/105 129/101/101
f 28/85/85 69/106/106 112/86/86
f 27/81/81 49/100/100 96/82/82
f 30/89/89 124/102/102 94/90/90
f 138/107/107 77/108/108 31/109/109 51/99/99
f 137/110/110 84/111/111 35/112/112 70/113/113
f 136/114/114 108/115/115 34/116/116 52/117/117
f 135/118/118 83/119/119 40/120/120 101/121/121
f 134/122/122 76/123/123 33/124/124 78/125/125
f 133/126/126 58/127/127 38/128/128 87/129/129
f 132/130/130 118/131/131 36/132/132 68/133/133
f 131/134/134 47/135/135 44/136/136 106/137/137
f 130/138/138 100/139/139 42/140/140 123/141/141
f 101/121/121 130/138/138 123/141/141 41/142/142
f 40/120/120 59/143/143 130/138/138 101/121/121
f 59/143/143 37/144/144 100/139/139 130/138/138
f 83/119/119 131/134/134 106/137/137 40/120/120
f 36/132/132 70/113/113 131/134/134 83/119/119
f 70/113/113 35/112/112 47/135/135 131/134/134
f 114/145/145 132/130/130 68/133/133 39/146/146
f 43/147/147 78/148/125 132/130/130 114/145/145
f 78/148/125 33/149/124 118/131/131 132/130/130
f 59/143/143 133/126/126 87/129/129 37/144/144
f 40/120/120 106/137/137 133/126/126 59/143/143
f 106/137/137 44/136/136 58/127/127 133/126/126
f 62/150/148 134/122/122 78/125/125 43/151/147
f 42/140/140 100/139/139 134/122/122 62/150/148
f 100/139/139 37/144/144 76/123/123 134/122/122
f 72/152/149 135/118/118 101/121/121 41/142/142
f 39/146/146 68/133/133 135/118/118 72/152/149
f 68/133/133 36/132/132 83/119/119 135/118/118
f 76/123/123 136/114/114 52/117/117 33/124/124
f 37/144/144 87/129/129 136/114/114 76/123/123
f 87/129/129 38/128/128 108/115/115 136/114/114
f 118/131/131 137/110/110 70/113/113 36/132/132
f 33/149/124 52/153/117 137/110/110 118/131/131
f 52/153/117 34/154/116 84/111/111 137/110/110
f 97/80/80 138/107/107 51/99/99 27/81/81
f 22/155/61 109/156/98 138/107/107 97/80/80
f 109/156/98 26/157/97 77/108/108 138/107/107
f 94/90/90 65/158/150 31/109/109
f 94/90/90 124/102/102 65/158/150
f 124/102/102 32/159/151 65/158/150
f 96/82/82 69/106/106 28/85/85
f 96/82/82 49/100/100 69/106/106
f 49/100/100 32/159/151 69/106/106
f 112/86/86 102/160/152 29/105/105
f 112/86/86 69/106/106 102/160/152
f 69/106/106 32/159/151 102/160/152
f 115/88/88 139/103/103 129/101/101 30/89/89
f 25/161/73 53/162/94 139/103/103 115/88/88
f 53/162/94 24/163/93 73/104/104 139/103/103
f 124/102/102 102/160/152 32/159/151
f 124/102/102 129/101/101 102/160/152
f 129/101/101 29/105/105 102/160/152
f 49/100/100 65/158/150 32/159/151
f 49/100/100 51/99/99 65/158/150
f 51/99/99 31/109/109 65/158/150
f 110/60/60 140/95/95 109/98/98 22/61/61
f 21/57/57 104/78/78 140/95/95 110/60/60
f 104/78/78 20/77/77 56/96/96 140/95/95
f 119/72/72 141/91/91 53/94/94 25/73/73
f 19/49/49 127/70/70 141/91/91 119/72/72
f 127/70/70 18/69/69 98/92/92 141/91/91
f 77/108/108 142/87/87 94/90/90 31/109/109
f 26/157/97 80/164/74 142/87/87 77/108/108
f 80/164/74 25/161/73 115/88/88 142/87/87
f 73/104/104 143/83/83 112/86/86 29/105/105
f 24/163/93 45/165/66 143/83/83 73/104/104
f 45/165/66 23/166/65 63/84/84 143/83/83
f 63/84/84 144/79/79 96/82/82 28/85/85
f 23/166/65 71/167/62 144/79/79 63/84/84
f 71/167/62 22/155/61 97/80/80 144/79/79
f 88/56/56 145/75/75 104/78/78 21/57/57
f 12/168/25 85/169/54 145/75/75 88/56/56
f 85/169/54 16/170/53 81/76/76 145/75/75
f 56/96/96 146/71/71 80/74/74 26/97/97
f 20/77/77 91/50/50 146/71/71 56/96/96
f 91/50/50 19/49/49 119/72/72 146/71/71
f 66/48/48 147/67/67 127/70/70 19/49/49
f 15/171/33 111/172/46 147/67/67 66/48/48
f 111/172/46 14/173/45 107/68/68 147/67/67
f 98/92/92 148/63/63 45/66/66 24/93/93
f 18/69/69 74/42/42 148/63/63 98/92/92
f 74/42/42 17/41/41 90/64/64 148/63/63
f 90/64/64 149/59/59 71/62/62 23/65/65
f 17/41/41 121/58/58 149/59/59 90/64/64
f 121/58/58 21/57/57 110/60/60 149/59/59
f 103/40/40 150/55/55 121/58/58 17/41/41
f 13/174/29 126/175/26 150/55/55 103/40/40
f 126/175/26 12/168/25 88/56/56 150/55/55
f 117/24/24 151/51/51 85/54/54 12/25/25
f 11/17/17 60/22/22 151/51/51 117/24/24
f 60/22/22 10/21/21 122/52/52 151/51/51
f 81/76/76 152/47/47 91/50/50 20/77/77
f 16/170/53 79/176/34 152/47/47 81/76/76
f 79/176/34 15/171/33 66/48/48 152/47/47
f 116/32/32 153/43/43 111/46/46 15/33/33
f 9/13/13 99/38/38 153/43/43 116/32/32
f 99/38/38 8/37/37 67/44/44 153/43/43
f 107/68/68 154/39/39 74/42/42 18/69/69
f 14/173/45 54/177/30 154/39/39 107/68/68
f 54/177/30 13/174/29 103/40/40 154/39/39
f 46/12/12 155/35/35 99/38/38 9/13/13
f 2/178/153 125/179/154 155/35/35 46/12/12
f 125/179/154 6/180/155 55/36/36 155/35/35
f 122/52/52 156/31/31 79/34/34 16/53/53
f 10/21/21 95/14/14 156/31/31 122/52/52
f 95/14/14 9/13/13 116/32/32 156/31/31
f 67/44/44 157/27/27 54/30/30 14/45/45
f 8/37/37 86/10/10 157/27/27 67/44/44
f 86/10/10 7/9/9 92/28/28 157/27/27
f 92/28/28 158/23/23 126/26/26 13/29/29
f 7/9/9 113/18/18 158/23/23 92/28/28
f 113/18/18 11/17/17 117/24/24 158/23/23
f 93/16/16 159/19/19 60/22/22 11/17/17
f 4/181/156 48/182/157 159/19/19 93/16/16
f 48/182/157 3/183/158 128/20/20 159/19/19
f 89/4/4 48/184/157 4/185/156
f 89/4/4 105/3/3 48/184/157
f 105/3/3 3/186/158 48/184/157
f 120/2/2 125/187/154 2/188/153
f 120/2/2 61/6/6 125/187/154
f 61/6/6 6/189/155 125/187/154
f 50/8/8 160/15/15 113/18/18 7/9/9
f 5/190/159 57/191/160 160/15/15 50/8/8
f 57/191/160 4/181/156 93/16/16 160/15/15
f 128/20/20 161/11/11 95/14/14 10/21/21
f 3/183/158 82/192/161 161/11/11 128/20/20
f 82/192/161 2/178/153 46/12/12 161/11/11
f 55/36/36 162/7/7 86/10/10 8/37/37
f 6/180/155 64/193/162 162/7/7 55/36/36
f 64/193/162 5/190/159 50/8/8 162/7/7
f 61/6/6 64/194/162 6/189/155
f 61/6/6 75/5/5 64/194/162
f 75/5/5 5/195/159 64/194/162
f 75/5/5 57/196/160 5/195/159
f 75/5/5 89/4/4 57/196/160
f 89/4/4 4/185/156 57/196/160
f 105/3/3 82/197/161 3/186/158
f 105/3/3 120/2/2 82/197/161
f 120/2/2 2/188/153 82/197/161
