# Blender v2.77 (sub 0) OBJ File: 'Fir_Tree_crk_m_01.obj'
# www.blender.org
mtllib Fir_Tree_crk_m_03.mtl
o Fir_Tree_crk_m_03
v 0.099543 0.194941 -0.025994
v 0.092377 0.270956 -0.013038
v 0.037158 0.269102 0.127647
v 0.039575 0.192899 0.094362
v 0.001915 0.125031 -0.106895
v -0.075608 0.194934 0.012729
v -0.065470 0.270947 0.023730
v -0.089770 0.014289 0.003205
v 0.041441 0.013938 0.087144
v 0.001175 0.733806 0.805673
v -0.420849 0.442692 0.747733
v -0.456231 0.420534 0.858383
v -0.002470 0.743804 0.920386
v -0.008843 0.883003 0.445497
v 0.422828 0.660009 0.766209
v 0.475956 0.702151 0.424057
v 0.480024 0.234200 0.664623
v 0.451657 0.648049 0.877628
v 0.500131 0.196302 0.763125
v -0.252083 0.124527 0.671489
v -0.306347 0.072980 0.765559
v -0.274685 0.070893 0.293524
v -0.453229 0.542634 0.378865
v 0.345061 0.120548 1.219781
v -0.231361 0.073413 1.208947
v -0.337886 0.265017 1.268063
v 0.015959 0.520514 1.315332
v 0.361648 0.436613 1.295516
v 0.398583 0.414442 1.404574
v 0.369072 0.049744 1.323857
v -0.254826 0.045302 1.298608
v -0.357150 0.243861 1.366126
v 0.032967 0.525241 1.424171
v 0.233024 0.011581 1.795893
v -0.140870 0.010291 1.784359
v -0.230698 0.147368 1.807793
v 0.022957 0.353046 1.812318
v 0.244656 0.272182 1.794780
v 0.255067 0.270699 1.907001
v 0.248429 -0.081984 1.918847
v -0.097878 -0.071019 1.917630
v -0.246179 0.138182 1.910427
v 0.008417 0.374020 1.905241
v 0.101629 0.130455 2.572374
v 0.099721 -0.041112 2.584862
v -0.029975 -0.042541 2.583681
v -0.090094 0.077827 2.573969
v 0.002422 0.172010 2.568587
v -0.005640 0.272845 0.707607
v 0.004589 0.063756 3.003875
v 0.529147 0.119873 0.324955
v 0.015067 0.437962 0.174024
v 0.013392 0.269486 0.825338
v 0.076163 0.225194 0.820371
v 0.105533 0.364614 0.163124
v -0.061301 0.331973 0.157525
v -0.037164 0.185699 0.816554
v 0.021664 0.157631 0.812396
v 0.099567 0.390469 0.068087
v 0.016293 0.470657 -0.018599
v -0.056921 0.360749 0.062835
v 0.001480 0.008546 -0.118317
v 0.114222 0.014289 -0.036821
v 0.322289 0.342739 1.599960
v -0.172976 0.399980 1.293770
v 0.068026 0.407191 0.173408
v 0.067671 0.316478 0.153442
v -0.257362 0.411347 0.535558
v 0.181962 0.202972 2.227253
v 0.227518 0.489061 1.418590
v 0.406288 0.542460 1.086676
v 0.014045 0.352485 0.511358
v -0.171783 0.108352 2.229357
v 0.462766 0.695139 0.582046
v 0.240781 -0.037361 1.852528
v 0.520290 0.174454 0.479211
v 0.140797 0.325426 1.803344
v 0.059291 0.031176 1.306731
v 0.378776 0.277378 1.257444
v 0.272367 0.178738 0.507919
v 0.269164 0.090709 1.913018
v -0.239291 0.141623 1.853362
v -0.088544 0.099777 0.008800
v 0.087859 0.014114 0.031927
v 0.101789 0.043939 2.602802
v 0.021238 0.377721 0.062039
v 0.356346 0.083830 1.271345
v -0.033297 0.159703 -0.051131
v 0.053582 0.188667 0.816084
v -0.130502 0.265058 1.907504
v 0.221579 0.716576 0.790456
v 0.015638 0.461735 0.054765
v -0.203057 0.073241 1.795647
v -0.175087 0.393238 1.397709
v -0.018127 0.415916 0.019382
v 0.254919 0.139558 1.795158
v -0.269493 0.094452 0.466108
v -0.013408 0.602403 0.573331
v -0.243025 0.717185 0.424728
v 0.422424 0.159264 0.991454
v -0.062625 0.016724 2.602957
v 0.120637 0.159012 0.663109
v -0.245819 0.595098 0.893308
v -0.025650 0.194789 0.061438
v 0.010222 0.200276 -0.015732
v 0.038805 0.235035 0.094997
v -0.225550 0.598519 0.779858
v -0.054172 0.011418 -0.064322
v 0.064600 0.011418 -0.087593
v 0.052192 0.093976 2.811326
v -0.200134 0.029541 1.540407
v -0.347756 0.252495 1.316052
v -0.000796 0.739678 0.862823
v 0.262950 0.493223 0.561252
v 0.079629 0.194794 0.038167
v 0.049804 0.010710 2.817840
v 0.029727 0.212696 0.487463
v -0.012175 0.006862 2.817367
v 0.198722 0.494385 1.308763
v 0.048880 0.253343 0.823450
v 0.001330 0.065353 -0.116699
v -0.041617 0.069819 2.812040
v 0.098877 0.240005 -0.017871
v 0.139406 0.340218 1.905620
v 0.249563 0.271341 1.843371
v -0.448670 0.502240 0.548869
v 0.023323 0.347187 0.127644
v 0.002023 0.117174 2.808982
v -0.418581 0.233903 0.810325
v -0.269691 0.072162 0.987510
v 0.177731 -0.067754 2.239913
v 0.483605 0.448557 0.713962
v -0.032147 0.387569 0.170046
v -0.390406 0.293077 0.345095
v -0.007297 0.301762 0.150926
v -0.310421 0.160973 1.236956
v 0.015595 0.364357 1.851328
v 0.079761 -0.093251 1.918841
v 0.006058 0.632356 1.118018
v -0.073161 0.239996 0.021341
v 0.051953 0.153820 2.594253
v 0.413025 0.228603 1.364448
v -0.063739 -0.062446 2.239046
v -0.117651 -0.031993 1.846551
v 0.112468 0.099781 -0.032855
v 0.059321 0.083388 1.210706
v -0.111903 0.255796 1.811311
v 0.028916 0.438699 1.619219
v -0.336100 0.136512 1.329860
v 0.301486 0.031572 1.559654
v 0.004991 0.277223 2.223727
v 0.102899 0.111128 0.758222
v -0.003354 0.826846 0.612970
v 0.048313 0.000448 1.789684
v 0.437443 0.658252 0.820458
v 0.013880 0.272883 0.006989
v 0.055866 0.429969 0.021865
v -0.030913 0.014114 0.055198
v -0.280534 0.100336 0.717625
v -0.016554 0.230338 0.821246
v -0.440507 0.432655 0.802702
v 0.129412 0.066843 0.316638
v -0.189973 0.027164 1.914164
v 0.512836 0.423144 0.819048
v -0.012186 0.270382 0.056528
v 0.106105 0.382869 0.101014
v 0.094796 0.293337 0.503453
v -0.293889 0.195336 1.587266
v 0.492640 0.221297 0.711179
v 0.045702 0.159706 -0.068537
v 0.235404 0.718396 0.904178
v -0.397346 0.342858 1.063707
v -0.063381 0.350680 0.095326
v -0.244117 0.060705 1.252525
v 0.041220 0.099823 0.092849
v -0.011853 0.165661 0.813880
v 0.062413 0.270386 0.039121
v 0.034906 -0.045900 2.608783
v 0.025267 0.521464 1.369911
v -0.045681 0.125962 2.595161
v 0.382214 0.423440 1.350960
v -0.052976 0.255092 0.498486
v -0.369177 0.272571 0.708343
v 0.236065 0.802203 0.448416
v -0.146380 0.149747 0.489874
v 0.524152 0.400222 0.385883
v 0.083909 0.100813 0.034921
v -0.050673 0.081554 -0.058874
v 0.061624 0.081556 -0.082145
v -0.024410 0.237360 0.062908
v 0.021719 0.360857 0.100875
v -0.031971 0.407662 0.073427
v 0.068614 0.426765 0.076803
v 0.132328 0.107958 0.467370
v 0.067055 0.250038 0.494903
v -0.015499 0.228672 0.492128
v -0.024259 0.306767 0.505478
v 0.058294 0.328133 0.508252
v 0.527353 0.433427 0.530138
v -0.243453 0.679615 0.584102
v 0.098560 0.252734 2.224968
v -0.129741 0.018498 2.234325
v 0.139906 0.333184 1.846997
v -0.196080 0.048812 1.849809
v -0.091351 0.199494 2.226178
v 0.060052 -0.077651 2.240121
v 0.191642 0.065270 2.233705
v 0.184969 0.406735 1.611596
v -0.121675 0.260263 1.852808
v -0.270704 0.105609 1.562368
v 0.064925 -0.048296 1.849619
v 0.261920 0.114004 1.847908
v 0.334525 0.184248 1.579834
v 0.214571 0.489973 1.364213
v -0.143000 0.324156 1.605150
v -0.323891 0.148445 1.282260
v 0.052878 0.017139 1.547559
v -0.365063 0.196962 1.024011
v -0.173749 0.394930 1.345298
v 0.058433 0.057298 1.257855
v 0.396589 0.251289 1.311167
v 0.216538 0.606554 1.106602
v 0.228518 0.720034 0.846483
v -0.395522 0.254549 0.758707
v 0.445537 0.350745 1.038299
v -0.209885 0.497679 1.093861
v 0.080605 0.097160 0.984593
v -0.394690 0.287149 0.505348
v 0.112390 0.138884 0.708869
v 0.499602 0.440985 0.764427
v 0.240001 0.784981 0.602246
v -0.236742 0.597766 0.836302
v -0.028388 0.100811 0.058192
v 0.011241 0.240310 -0.004076
v 0.077689 0.237365 0.039637
vt 0.8114 0.9693
vt 0.8112 0.9724
vt 0.8049 0.9721
vt 0.8049 0.9691
vt 0.8205 0.7694
vt 0.8317 0.7781
vt 0.8191 0.7873
vt 0.8130 0.7868
vt 0.8144 0.7694
vt 0.7978 0.9577
vt 0.7904 0.9578
vt 0.7896 0.9491
vt 0.7975 0.9491
vt 0.3085 0.3184
vt 0.2990 0.3111
vt 0.3018 0.3102
vt 0.3101 0.3171
vt 0.3363 0.3365
vt 0.3280 0.3233
vt 0.3382 0.3191
vt 0.3543 0.3250
vt 0.3356 0.3054
vt 0.3364 0.3174
vt 0.3346 0.3158
vt 0.3336 0.3054
vt 0.3186 0.2941
vt 0.3348 0.2934
vt 0.3325 0.2950
vt 0.3176 0.2961
vt 0.2829 0.2985
vt 0.2990 0.3022
vt 0.2961 0.3120
vt 0.2767 0.3195
vt 0.3137 0.2840
vt 0.3408 0.2785
vt 0.3215 0.2931
vt 0.3116 0.2966
vt 0.2991 0.3286
vt 0.2816 0.3156
vt 0.2998 0.3090
vt 0.3067 0.3150
vt 0.3440 0.2993
vt 0.3472 0.3200
vt 0.3275 0.3112
vt 0.3245 0.3022
vt 0.3007 0.3029
vt 0.3023 0.2947
vt 0.3027 0.2971
vt 0.3023 0.3037
vt 0.3272 0.3216
vt 0.3180 0.3257
vt 0.3183 0.3239
vt 0.3264 0.3199
vt 0.3319 0.3308
vt 0.3166 0.3415
vt 0.3137 0.3210
vt 0.3206 0.3161
vt 0.3225 0.3031
vt 0.3256 0.3102
vt 0.3237 0.3092
vt 0.3206 0.3040
vt 0.3106 0.2984
vt 0.3195 0.2959
vt 0.3175 0.2987
vt 0.3097 0.3001
vt 0.3078 0.3138
vt 0.3011 0.3085
vt 0.3024 0.3080
vt 0.3088 0.3126
vt 0.2841 0.3025
vt 0.2866 0.2894
vt 0.3016 0.3002
vt 0.3007 0.3046
vt 0.3122 0.2869
vt 0.3354 0.2860
vt 0.3194 0.3000
vt 0.3140 0.2985
vt 0.3014 0.3047
vt 0.3018 0.3008
vt 0.3019 0.3015
vt 0.3022 0.3047
vt 0.3004 0.3185
vt 0.2862 0.3048
vt 0.3070 0.3033
vt 0.3104 0.3082
vt 0.3200 0.3146
vt 0.3144 0.3191
vt 0.3152 0.3172
vt 0.3195 0.3132
vt 0.3383 0.3009
vt 0.3413 0.3158
vt 0.3233 0.3089
vt 0.3214 0.3045
vt 0.3200 0.3045
vt 0.3222 0.3084
vt 0.3211 0.3079
vt 0.3187 0.3045
vt 0.3142 0.2994
vt 0.3178 0.3006
vt 0.3163 0.3012
vt 0.3144 0.3002
vt 0.2876 0.2964
vt 0.2889 0.2879
vt 0.3085 0.2970
vt 0.3077 0.3001
vt 0.3109 0.3074
vt 0.3080 0.3032
vt 0.3090 0.3031
vt 0.3115 0.3067
vt 0.3280 0.3240
vt 0.3146 0.3322
vt 0.3138 0.3131
vt 0.3185 0.3110
vt 0.3069 0.4098
vt 0.3290 0.4104
vt 0.3087 0.4305
vt 0.3067 0.4312
vt 0.2846 0.4305
vt 0.2847 0.4092
vt 0.3048 0.4319
vt 0.3051 0.4329
vt 0.3237 0.4496
vt 0.3092 0.4636
vt 0.3073 0.4353
vt 0.3088 0.4344
vt 0.3092 0.3007
vt 0.3105 0.2982
vt 0.3125 0.2993
vt 0.3108 0.3012
vt 0.3180 0.3101
vt 0.3138 0.3117
vt 0.3139 0.3103
vt 0.3175 0.3091
vt 0.2740 0.2840
vt 0.2934 0.2987
vt 0.2740 0.3097
vt 0.3095 0.4320
vt 0.3076 0.4318
vt 0.3163 0.2627
vt 0.3376 0.2807
vt 0.3145 0.2880
vt 0.3589 0.2988
vt 0.3385 0.3255
vt 0.3359 0.3061
vt 0.3063 0.4347
vt 0.3070 0.4342
vt 0.2968 0.4577
vt 0.2844 0.4517
vt 0.3053 0.4340
vt 0.3057 0.4325
vt 0.3336 0.4230
vt 0.3383 0.4356
vt 0.3104 0.4334
vt 0.2951 0.2734
vt 0.2975 0.3337
vt 0.3069 0.3198
vt 0.3177 0.3275
vt 0.3183 0.3479
vt 0.3507 0.3011
vt 0.3377 0.3054
vt 0.3371 0.2918
vt 0.3471 0.2772
vt 0.3180 0.3523
vt 0.2960 0.3438
vt 0.3154 0.3328
vt 0.8066 0.9387
vt 0.7747 0.9355
vt 0.7749 0.9318
vt 0.8069 0.9339
vt 0.8064 0.9095
vt 0.7745 0.9130
vt 0.7745 0.9082
vt 0.8062 0.9038
vt 0.8068 0.9196
vt 0.7745 0.9206
vt 0.7745 0.9177
vt 0.8066 0.9152
vt 0.8069 0.9290
vt 0.7746 0.9276
vt 0.7744 0.9235
vt 0.8070 0.9240
vt 0.3182 0.2774
vt 0.3195 0.2921
vt 0.3020 0.2923
vt 0.2892 0.2775
vt 0.8440 0.9425
vt 0.8415 0.9365
vt 0.8443 0.9369
vt 0.8496 0.9430
vt 0.8440 0.9056
vt 0.8464 0.8988
vt 0.8549 0.8983
vt 0.8496 0.9051
vt 0.8014 0.8593
vt 0.7947 0.8448
vt 0.8116 0.8456
vt 0.8052 0.8257
vt 0.8224 0.8265
vt 0.8217 0.8319
vt 0.8049 0.8311
vt 0.7881 0.8194
vt 0.7969 0.8123
vt 0.8055 0.8203
vt 0.7881 0.7841
vt 0.7982 0.7767
vt 0.7968 0.7937
vt 0.7982 0.9693
vt 0.7915 0.9695
vt 0.7912 0.9664
vt 0.7981 0.9663
vt 0.8255 0.9567
vt 0.8247 0.9636
vt 0.8181 0.9665
vt 0.8188 0.9578
vt 0.7829 0.9567
vt 0.7837 0.9636
vt 0.7763 0.9608
vt 0.7753 0.9556
vt 0.8120 0.9577
vt 0.8116 0.9663
vt 0.8050 0.9661
vt 0.8052 0.9576
vt 0.8124 0.9491
vt 0.8053 0.9492
vt 0.8195 0.9491
vt 0.7820 0.9498
vt 0.7744 0.9505
vt 0.8263 0.9498
vt 0.8331 0.9505
vt 0.8322 0.9556
vt 0.8313 0.9608
vt 0.7983 0.9724
vt 0.7917 0.9726
vt 0.8069 0.7864
vt 0.8055 0.8034
vt 0.8083 0.7694
vt 0.8144 0.8131
vt 0.8230 0.8211
vt 0.8058 0.8052
vt 0.7881 0.8248
vt 0.7881 0.8303
vt 0.8414 0.9123
vt 0.8442 0.9118
vt 0.8387 0.9127
vt 0.8383 0.9060
vt 0.8380 0.8994
vt 0.8464 0.9484
vt 0.8549 0.9491
vt 0.8380 0.9478
vt 0.8384 0.9419
vt 0.8388 0.9360
vt 0.3167 0.2627
vt 0.2764 0.2627
vt 0.3571 0.2627
vt 0.8392 0.9302
vt 0.8397 0.9245
vt 0.8392 0.9186
vt 0.8062 0.9434
vt 0.7745 0.9391
vt 0.2934 0.3243
vt 0.3128 0.3133
vt 0.2740 0.3354
vt 0.3637 0.2968
vt 0.3703 0.3309
vt 0.2881 0.3476
vt 0.3189 0.3684
vt 0.2573 0.3269
vt 0.3493 0.3904
vt 0.3577 0.4140
vt 0.3662 0.4377
vt 0.3085 0.4333
vt 0.3066 0.4331
vt 0.3059 0.4336
vt 0.3111 0.4919
vt 0.2873 0.4807
vt 0.2636 0.4695
vt 0.3386 0.4648
vt 0.2641 0.4280
vt 0.2646 0.3864
vt 0.3070 0.3884
vt 0.3593 0.3226
vt 0.3374 0.3370
vt 0.3155 0.3513
vt 0.2654 0.3064
vt 0.2674 0.2926
vt 0.2694 0.2788
vt 0.3514 0.2719
vt 0.3553 0.2973
vt 0.2904 0.3289
vt 0.3104 0.2754
vt 0.2634 0.3222
vt 0.2675 0.3004
vt 0.2716 0.2787
vt 0.3670 0.3288
vt 0.3433 0.3454
vt 0.3196 0.3621
vt 0.3601 0.2639
vt 0.3636 0.2964
vt 0.2915 0.3422
vt 0.3159 0.2713
vt 0.2668 0.2948
vt 0.3446 0.3497
vt 0.8116 0.8043
vt 0.8176 0.8052
vt 0.8303 0.7959
vt 0.8429 0.7867
vt 0.8178 0.9696
vt 0.8176 0.9726
vn 0.8961 0.0821 0.4362
vn 0.5663 0.7766 0.2762
vn 0.0784 0.5603 0.8246
vn 0.2766 -0.0553 0.9594
vn 0.8218 0.3366 -0.4597
vn 0.2516 0.5510 -0.7957
vn -0.1865 0.5253 -0.8303
vn -0.2169 0.2315 -0.9483
vn 0.7635 0.3325 -0.5537
vn -0.5517 -0.0140 0.8339
vn -0.9852 0.0852 0.1486
vn -0.9893 0.0263 0.1436
vn -0.5441 -0.0320 0.8384
vn -0.5670 0.8206 -0.0718
vn -0.8873 0.3777 -0.2647
vn -0.9463 0.3170 0.0634
vn -0.5867 0.7843 0.2016
vn 0.2807 0.9272 0.2478
vn 0.2071 0.9684 0.1393
vn 0.6972 0.7141 0.0631
vn 0.7546 0.6322 0.1760
vn 0.9605 0.1763 -0.2154
vn 0.6787 0.7259 -0.1117
vn 0.7434 0.6413 0.1900
vn 0.9952 0.0776 0.0594
vn 0.1361 -0.8972 -0.4202
vn 0.7610 -0.5186 -0.3897
vn 0.7618 -0.6321 -0.1418
vn 0.1371 -0.9549 -0.2635
vn -0.9126 -0.4066 0.0436
vn -0.8973 -0.3768 -0.2297
vn -0.9429 0.3300 -0.0453
vn -0.9483 0.2740 0.1602
vn 0.1227 -0.9910 -0.0532
vn 0.6926 -0.7119 0.1165
vn 0.6765 -0.6969 -0.2380
vn 0.0863 -0.9595 -0.2683
vn -0.5632 0.6999 0.4393
vn -0.9051 0.2313 0.3568
vn -0.9435 0.3079 0.1227
vn -0.5894 0.7643 0.2615
vn 0.9588 -0.0322 0.2822
vn 0.7228 0.5307 0.4426
vn 0.7685 0.6181 0.1653
vn 0.9995 -0.0243 -0.0203
vn -0.8331 -0.2625 -0.4869
vn -0.3787 -0.7226 -0.5783
vn -0.4663 -0.8392 -0.2798
vn -0.9178 -0.3631 -0.1606
vn 0.1860 0.9820 -0.0336
vn -0.2220 0.9727 -0.0683
vn -0.2115 0.9489 0.2342
vn 0.2233 0.9407 0.2553
vn 0.2299 0.8431 0.4861
vn -0.1998 0.8467 0.4931
vn -0.2345 0.9304 0.2816
vn 0.2435 0.9350 0.2577
vn 0.9527 -0.0003 -0.3041
vn 0.7755 0.6115 -0.1569
vn 0.8324 0.5346 0.1463
vn 0.9969 -0.0782 0.0060
vn 0.0492 -0.8842 -0.4645
vn 0.6120 -0.5959 -0.5199
vn 0.6587 -0.7273 -0.1927
vn 0.0234 -0.9637 -0.2661
vn -0.5900 0.8063 0.0424
vn -0.9256 0.3550 -0.1312
vn -0.9495 0.2973 0.1005
vn -0.5945 0.7844 0.1770
vn -0.8779 -0.4547 0.1505
vn -0.3971 -0.9167 0.0435
vn -0.3722 -0.9085 -0.1899
vn -0.8924 -0.4402 -0.0988
vn 0.0074 -0.9980 -0.0626
vn 0.6246 -0.7697 0.1318
vn 0.6874 -0.6841 -0.2440
vn 0.0047 -0.9329 -0.3602
vn -0.8778 -0.3572 -0.3190
vn -0.4212 -0.8050 -0.4177
vn -0.4631 -0.8637 -0.1990
vn -0.9008 -0.4288 -0.0683
vn -0.5900 0.7354 0.3333
vn -0.9191 0.2305 0.3194
vn -0.9721 0.2203 0.0809
vn -0.6358 0.7693 0.0632
vn 0.2689 0.9631 -0.0127
vn -0.2006 0.9796 0.0060
vn -0.1660 0.9672 0.1922
vn 0.3065 0.9301 0.2024
vn 0.9417 -0.1045 0.3197
vn 0.7590 0.4661 0.4546
vn 0.8256 0.5245 0.2079
vn 0.9944 -0.0528 0.0912
vn 0.9873 -0.0386 -0.1542
vn 0.8398 0.5346 -0.0944
vn 0.8440 0.5270 0.0998
vn 0.9986 -0.0287 0.0447
vn -0.0033 -0.8188 -0.5741
vn 0.6334 -0.5898 -0.5009
vn 0.6707 -0.7270 -0.1473
vn -0.0139 -0.9686 -0.2483
vn -0.8428 -0.5117 0.1670
vn -0.4109 -0.9113 0.0282
vn -0.4438 -0.8772 -0.1833
vn -0.8462 -0.5329 -0.0002
vn -0.6488 0.7403 -0.1762
vn -0.9766 0.1627 -0.1407
vn -0.9885 0.1418 0.0518
vn -0.6761 0.7357 0.0397
vn 0.3085 0.8486 0.4298
vn -0.1820 0.8970 0.4029
vn -0.1941 0.9781 0.0745
vn 0.3514 0.9232 0.1556
vn 0.9723 -0.0061 0.2336
vn 0.8126 0.5037 0.2931
vn 0.8190 0.5023 0.2774
vn 0.9740 -0.0019 0.2267
vn -0.0162 -0.9977 0.0665
vn 0.6798 -0.7075 0.1932
vn 0.6800 -0.6940 0.2363
vn 0.0088 -0.9842 0.1769
vn -0.6699 0.7067 0.2276
vn -0.9627 0.1396 0.2316
vn -0.9643 0.1469 0.2203
vn -0.6915 0.6953 0.1958
vn -0.8164 -0.5572 -0.1520
vn -0.4090 -0.8195 -0.4014
vn -0.4240 -0.8917 -0.1585
vn -0.8220 -0.5694 -0.0009
vn 0.3616 0.9244 -0.1214
vn -0.1987 0.9562 -0.2151
vn -0.2088 0.9766 0.0510
vn 0.3771 0.9213 0.0952
vn -0.1242 0.7475 -0.6525
vn 0.1137 -0.3788 -0.9185
vn -0.2819 0.5487 -0.7871
vn 0.3686 0.8955 0.2494
vn 0.8104 0.5159 0.2777
vn 0.5101 0.4833 -0.7115
vn 0.5200 0.1792 -0.8352
vn -0.3900 -0.1340 -0.9110
vn 0.4022 -0.5615 -0.7231
vn 0.1047 -0.3764 -0.9205
vn -0.3438 0.5902 -0.7304
vn -0.8765 -0.4517 0.1665
vn -0.9603 0.1605 0.2283
vn -0.8438 -0.5170 0.1440
vn -0.4815 -0.8713 0.0946
vn -0.5021 -0.8521 0.1479
vn 0.6833 -0.6497 0.3333
vn 0.3652 0.8854 0.2876
vn -0.2061 0.9367 0.2829
vn -0.2168 0.9409 0.2601
vn 0.1456 0.6150 -0.7750
vn -0.5918 0.7555 0.2809
vn -0.5831 0.8020 0.1295
vn -0.2256 0.9619 0.1543
vn -0.1808 0.9284 0.3245
vn 0.9887 0.0808 0.1259
vn 0.9898 0.1420 -0.0139
vn 0.7866 -0.6175 -0.0082
vn 0.7541 -0.6079 0.2485
vn -0.1667 -0.5217 -0.8367
vn -0.4257 -0.0588 -0.9030
vn 0.3429 0.7294 -0.5920
vn 0.5999 0.7744 0.2011
vn 0.5876 0.7822 0.2071
vn 0.9951 0.0692 0.0713
vn 0.9946 0.0837 0.0615
vn -0.8290 0.5392 0.1483
vn -0.8412 0.5201 0.1480
vn -0.2254 0.9423 0.2475
vn -0.1858 0.9512 0.2465
vn -0.4900 -0.8554 -0.1680
vn -0.4544 -0.8760 -0.1614
vn -0.9630 -0.2691 -0.0165
vn -0.9705 -0.2403 -0.0217
vn 0.7955 -0.5991 -0.0909
vn 0.7794 -0.6207 -0.0847
vn 0.2233 -0.9611 -0.1623
vn 0.2155 -0.9619 -0.1684
vn 0.0955 -0.9637 0.2493
vn 0.1386 -0.9884 -0.0626
vn -0.3835 -0.9004 -0.2053
vn -0.4674 -0.8717 0.1474
vn 0.6545 0.7538 0.0576
vn 0.9523 -0.2108 -0.2209
vn 0.8238 -0.2228 -0.5213
vn 0.7234 0.0731 -0.6866
vn -0.8211 0.5701 0.0284
vn -0.1320 0.9879 0.0810
vn -0.0419 0.5540 -0.8315
vn -0.6437 -0.0931 -0.7596
vn 0.1871 -0.9230 -0.3362
vn -0.8316 -0.4676 -0.2997
vn -0.6823 -0.4249 -0.5949
vn 0.1732 -0.8143 -0.5540
vn 0.9863 -0.0190 -0.1639
vn 0.6567 -0.4216 -0.6253
vn 0.1660 -0.7554 -0.6339
vn -0.3981 0.7636 0.5084
vn -0.5983 0.0027 0.8013
vn -0.9404 0.3121 -0.1354
vn -0.9518 0.2995 -0.0658
vn -0.5654 -0.0181 0.8246
vn 0.5730 0.1288 -0.8093
vn 0.9639 0.1088 -0.2430
vn -0.7939 0.1190 -0.5963
vn -0.5253 0.5294 -0.6662
vn -0.1517 0.4066 -0.9009
vn -0.1566 0.1419 -0.9774
vn 0.8739 0.0208 0.4856
vn 0.8867 0.0203 0.4619
vn 0.2387 -0.0057 0.9711
vn 0.2344 -0.0198 0.9719
vn 0.8677 0.0022 0.4970
vn 0.2371 -0.0331 0.9709
vn 0.9726 0.0491 -0.2272
vn -0.7972 0.0597 -0.6008
vn -0.1566 0.0736 -0.9849
vn 0.5808 0.0631 -0.8116
vn -0.6756 0.7288 -0.1113
vn -0.1326 0.8074 -0.5750
vn 0.5337 0.7320 -0.4235
vn -0.4048 -0.6136 -0.6779
vn -0.9204 -0.3046 -0.2451
vn 0.5643 -0.5724 -0.5948
vn -0.8113 0.5674 0.1406
vn -0.1537 0.9636 0.2187
vn 0.6177 0.7648 0.1831
vn 0.5809 0.0163 -0.8138
vn 0.0760 0.2928 -0.9531
vn -0.5923 0.3237 -0.7378
vn -0.1949 0.9464 0.2577
vn -0.0320 0.0317 0.9990
vn -0.5001 -0.8210 0.2754
usemtl None
s 1
f 235/1/1 177/2/2 3/3/3 106/4/4
f 1/5/5 170/6/6 105/7/7
f 234/8/8 123/9/9 1/5/5 105/7/7
f 233/10/10 83/11/11 8/12/12 158/13/13
f 232/14/14 161/15/15 12/16/16 103/17/17
f 231/18/18 91/19/19 15/20/20 74/21/21
f 230/22/22 155/23/23 18/24/24 164/25/25
f 229/26/26 169/27/27 19/28/28 152/29/29
f 228/30/30 183/31/31 11/32/32 126/33/33
f 227/34/34 100/35/35 24/36/36 146/37/37
f 226/38/38 172/39/39 26/40/40 65/41/41
f 225/42/42 71/43/43 28/44/44 79/45/45
f 224/46/46 159/47/47 21/48/48 129/49/49
f 223/50/50 113/51/51 13/52/52 171/53/53
f 222/54/54 139/55/55 27/56/56 119/57/57
f 221/58/58 181/59/59 29/60/60 142/61/61
f 220/62/62 87/63/63 30/64/64 78/65/65
f 219/66/66 112/67/67 32/68/68 94/69/69
f 218/70/70 130/71/71 25/72/72 136/73/73
f 217/74/74 150/75/75 34/76/76 154/77/77
f 216/78/78 174/79/79 31/80/80 149/81/81
f 215/82/82 168/83/83 36/84/84 147/85/85
f 214/86/86 179/87/87 33/88/88 70/89/89
f 213/90/90 64/91/91 38/92/92 96/93/93
f 212/94/94 125/95/95 39/96/96 81/97/97
f 211/98/98 75/99/99 40/100/100 138/101/101
f 210/102/102 111/103/103 35/104/104 93/105/105
f 209/106/106 82/107/107 42/108/108 90/109/109
f 208/110/110 148/111/111 37/112/112 77/113/113
f 207/114/114 69/115/115 44/116/116 85/117/117
f 206/118/118 131/119/119 45/120/120 178/121/121
f 205/122/122 73/123/123 47/124/124 180/125/125
f 204/126/126 144/127/127 41/128/128 163/129/129
f 203/130/130 137/131/131 43/132/132 124/133/133
f 14/134/134 98/135/135 99/136/136
f 44/116/116 141/137/137 110/138/138
f 16/139/139 186/140/140 114/141/141
f 51/142/142 162/143/143 80/144/144
f 47/124/124 101/145/145 122/146/146
f 202/147/147 143/148/148 46/149/149 101/145/145
f 45/120/120 116/150/150 178/121/121
f 44/116/116 110/138/138 85/117/117
f 47/124/124 122/146/146 180/125/125
f 201/151/151 151/152/152 48/153/153 141/137/137
f 14/134/134 184/154/154 98/135/135
f 200/155/155 107/156/156 10/157/157 153/158/158
f 199/159/159 132/160/160 17/161/161 76/162/162
f 22/163/163 134/164/164 185/165/165
f 198/166/166 120/167/167 54/168/168 167/169/169
f 197/170/170 160/171/171 53/172/172 72/173/173
f 196/174/174 176/175/175 57/176/176 182/177/177
f 195/178/178 89/179/179 58/180/180 117/181/181
f 194/182/182 102/183/183 20/184/184 97/185/185
f 193/186/186 166/187/187 59/188/188 157/189/189
f 192/190/190 92/191/191 60/192/192 95/193/193
f 60/194/192 157/195/189 95/196/193
f 191/197/194 173/198/195 61/199/196 86/200/197
f 55/201/198 67/202/199 127/203/200
f 3/204/3 177/205/2 165/206/201
f 190/207/202 140/208/203 6/209/204 104/210/205
f 189/211/206 170/212/6 1/213/5 145/214/207
f 188/215/208 88/216/209 5/217/210 121/218/211
f 187/219/212 115/220/213 4/221/214 175/222/215
f 84/223/216 187/219/212 175/222/215 9/224/217
f 63/225/218 145/214/207 187/219/212 84/223/216
f 145/214/207 1/213/5 115/220/213 187/219/212
f 108/226/219 188/215/208 121/218/211 62/227/220
f 8/12/12 83/11/11 188/215/208 108/226/219
f 83/11/11 6/209/204 88/216/209 188/215/208
f 109/228/221 189/211/206 145/214/207 63/225/218
f 62/229/220 121/230/211 189/211/206 109/228/221
f 121/230/211 5/231/210 170/212/6 189/211/206
f 106/4/4 190/207/202 104/210/205 4/221/214
f 3/3/3 165/232/201 190/207/202 106/4/4
f 165/232/201 7/233/222 140/208/203 190/207/202
f 165/206/201 156/234/223 7/235/222
f 165/206/201 177/205/2 156/234/223
f 177/205/2 2/236/224 156/234/223
f 127/203/200 135/237/225 56/238/226
f 127/203/200 67/202/199 135/237/225
f 67/202/199 3/239/227 135/237/225
f 166/240/187 191/197/194 86/200/197 59/241/188
f 55/201/198 127/203/200 191/197/194 166/240/187
f 127/203/200 56/238/226 173/198/195 191/197/194
f 95/196/193 86/200/197 61/199/196
f 95/196/193 157/195/189 86/200/197
f 157/195/189 59/241/188 86/200/197
f 173/242/195 192/190/190 95/193/193 61/243/196
f 56/244/226 133/245/228 192/190/190 173/242/195
f 133/245/228 52/246/229 92/191/191 192/190/190
f 92/247/191 193/186/186 157/189/189 60/248/192
f 52/249/229 66/250/230 193/186/186 92/247/191
f 66/250/230 55/251/198 166/187/187 193/186/186
f 162/252/143 194/182/182 97/185/185 22/253/163
f 51/254/142 76/162/162 194/182/182 162/252/143
f 76/162/162 17/161/161 102/183/183 194/182/182
f 67/255/199 195/178/178 117/181/181 3/256/227
f 55/251/198 167/169/169 195/178/178 67/255/199
f 167/169/169 54/168/168 89/179/179 195/178/178
f 135/257/225 196/174/174 182/177/177 56/244/226
f 3/256/227 117/181/181 196/174/174 135/257/225
f 117/181/181 58/180/180 176/175/175 196/174/174
f 133/245/228 197/170/170 72/173/173 52/246/229
f 56/244/226 182/177/177 197/170/170 133/245/228
f 182/177/177 57/176/176 160/171/171 197/170/170
f 66/250/230 198/166/166 167/169/169 55/251/198
f 52/249/229 72/258/173 198/166/166 66/250/230
f 72/258/173 53/259/172 120/167/167 198/166/166
f 185/165/165 68/260/231 49/261/232
f 185/165/165 134/164/164 68/260/231
f 134/164/164 23/262/233 68/260/231
f 186/263/140 199/159/159 76/162/162 51/254/142
f 16/264/139 74/21/21 199/159/159 186/263/140
f 74/21/21 15/20/20 132/160/160 199/159/159
f 99/265/136 200/155/155 153/158/158 14/266/134
f 23/267/233 126/33/33 200/155/155 99/265/136
f 126/33/33 11/32/32 107/156/156 200/155/155
f 98/135/135 114/141/141 49/261/232
f 98/135/135 184/154/154 114/141/141
f 184/154/154 16/139/139 114/141/141
f 69/115/115 201/151/151 141/137/137 44/116/116
f 39/268/96 124/269/133 201/151/151 69/115/115
f 124/269/133 43/270/132 151/152/152 201/151/151
f 180/125/125 128/271/234 48/153/153
f 180/125/125 122/146/146 128/271/234
f 122/146/146 50/272/235 128/271/234
f 85/117/117 116/150/150 45/120/120
f 85/117/117 110/138/138 116/150/150
f 110/138/138 50/272/235 116/150/150
f 178/121/121 118/273/236 46/149/149
f 178/121/121 116/150/150 118/273/236
f 116/150/150 50/272/235 118/273/236
f 73/123/123 202/147/147 101/145/145 47/124/124
f 42/274/108 163/275/129 202/147/147 73/123/123
f 163/275/129 41/276/128 143/148/148 202/147/147
f 122/146/146 118/273/236 50/272/235
f 122/146/146 101/145/145 118/273/236
f 101/145/145 46/149/149 118/273/236
f 80/144/144 185/165/165 49/261/232
f 80/144/144 162/143/143 185/165/165
f 162/143/143 22/163/163 185/165/165
f 114/141/141 80/144/144 49/261/232
f 114/141/141 186/140/140 80/144/144
f 186/140/140 51/142/142 80/144/144
f 110/138/138 128/271/234 50/272/235
f 110/138/138 141/137/137 128/271/234
f 141/137/137 48/153/153 128/271/234
f 99/136/136 68/260/231 23/262/233
f 99/136/136 98/135/135 68/260/231
f 98/135/135 49/261/232 68/260/231
f 125/95/95 203/130/130 124/133/133 39/96/96
f 38/92/92 77/113/113 203/130/130 125/95/95
f 77/113/113 37/112/112 137/131/131 203/130/130
f 82/107/107 204/126/126 163/129/129 42/108/108
f 36/84/84 93/105/105 204/126/126 82/107/107
f 93/105/105 35/104/104 144/127/127 204/126/126
f 151/152/152 205/122/122 180/125/125 48/153/153
f 43/270/132 90/277/109 205/122/122 151/152/152
f 90/277/109 42/274/108 73/123/123 205/122/122
f 143/148/148 206/118/118 178/121/121 46/149/149
f 41/276/128 138/278/101 206/118/118 143/148/148
f 138/278/101 40/279/100 131/119/119 206/118/118
f 131/119/119 207/114/114 85/117/117 45/120/120
f 40/279/100 81/280/97 207/114/114 131/119/119
f 81/280/97 39/268/96 69/115/115 207/114/114
f 64/91/91 208/110/110 77/113/113 38/92/92
f 29/281/60 70/282/89 208/110/110 64/91/91
f 70/282/89 33/283/88 148/111/111 208/110/110
f 137/131/131 209/106/106 90/109/109 43/132/132
f 37/112/112 147/85/85 209/106/106 137/131/131
f 147/85/85 36/84/84 82/107/107 209/106/106
f 168/83/83 210/102/102 93/105/105 36/84/84
f 32/284/68 149/285/81 210/102/102 168/83/83
f 149/285/81 31/286/80 111/103/103 210/102/102
f 144/127/127 211/98/98 138/101/101 41/128/128
f 35/104/104 154/77/77 211/98/98 144/127/127
f 154/77/77 34/76/76 75/99/99 211/98/98
f 75/99/99 212/94/94 81/97/97 40/100/100
f 34/76/76 96/93/93 212/94/94 75/99/99
f 96/93/93 38/92/92 125/95/95 212/94/94
f 150/75/75 213/90/90 96/93/93 34/76/76
f 30/287/64 142/288/61 213/90/90 150/75/75
f 142/288/61 29/281/60 64/91/91 213/90/90
f 181/59/59 214/86/86 70/89/89 29/60/60
f 28/44/44 119/57/57 214/86/86 181/59/59
f 119/57/57 27/56/56 179/87/87 214/86/86
f 148/111/111 215/82/82 147/85/85 37/112/112
f 33/283/88 94/289/69 215/82/82 148/111/111
f 94/289/69 32/284/68 168/83/83 215/82/82
f 112/67/67 216/78/78 149/81/81 32/68/68
f 26/40/40 136/73/73 216/78/78 112/67/67
f 136/73/73 25/72/72 174/79/79 216/78/78
f 111/103/103 217/74/74 154/77/77 35/104/104
f 31/286/80 78/290/65 217/74/74 111/103/103
f 78/290/65 30/287/64 150/75/75 217/74/74
f 172/39/39 218/70/70 136/73/73 26/40/40
f 12/291/16 129/292/49 218/70/70 172/39/39
f 129/292/49 21/293/48 130/71/71 218/70/70
f 179/87/87 219/66/66 94/69/69 33/88/88
f 27/56/56 65/41/41 219/66/66 179/87/87
f 65/41/41 26/40/40 112/67/67 219/66/66
f 174/79/79 220/62/62 78/65/65 31/80/80
f 25/72/72 146/37/37 220/62/62 174/79/79
f 146/37/37 24/36/36 87/63/63 220/62/62
f 87/63/63 221/58/58 142/61/61 30/64/64
f 24/36/36 79/45/45 221/58/58 87/63/63
f 79/45/45 28/44/44 181/59/59 221/58/58
f 71/43/43 222/54/54 119/57/57 28/44/44
f 18/294/24 171/295/53 222/54/54 71/43/43
f 171/295/53 13/296/52 139/55/55 222/54/54
f 155/23/23 223/50/50 171/53/53 18/24/24
f 15/20/20 91/19/19 223/50/50 155/23/23
f 91/19/19 10/157/157 113/51/51 223/50/50
f 161/15/15 224/46/46 129/49/49 12/16/16
f 11/32/32 183/31/31 224/46/46 161/15/15
f 183/31/31 20/184/184 159/47/47 224/46/46
f 100/35/35 225/42/42 79/45/45 24/36/36
f 19/297/28 164/298/25 225/42/42 100/35/35
f 164/298/25 18/294/24 71/43/43 225/42/42
f 139/55/55 226/38/38 65/41/41 27/56/56
f 13/296/52 103/299/17 226/38/38 139/55/55
f 103/299/17 12/291/16 172/39/39 226/38/38
f 130/71/71 227/34/34 146/37/37 25/72/72
f 21/293/48 152/300/29 227/34/34 130/71/71
f 152/300/29 19/297/28 100/35/35 227/34/34
f 134/301/164 228/30/30 126/33/33 23/267/233
f 22/253/163 97/185/185 228/30/30 134/301/164
f 97/185/185 20/184/184 183/31/31 228/30/30
f 159/47/47 229/26/26 152/29/29 21/48/48
f 20/184/184 102/183/183 229/26/26 159/47/47
f 102/183/183 17/161/161 169/27/27 229/26/26
f 169/27/27 230/22/22 164/25/25 19/28/28
f 17/161/161 132/160/160 230/22/22 169/27/27
f 132/160/160 15/20/20 155/23/23 230/22/22
f 184/302/154 231/18/18 74/21/21 16/264/139
f 14/266/134 153/158/158 231/18/18 184/302/154
f 153/158/158 10/157/157 91/19/19 231/18/18
f 113/51/51 232/14/14 103/17/17 13/52/52
f 10/157/157 107/156/156 232/14/14 113/51/51
f 107/156/156 11/32/32 161/15/15 232/14/14
f 175/222/215 233/10/10 158/13/13 9/224/217
f 4/221/214 104/210/205 233/10/10 175/222/215
f 104/210/205 6/209/204 83/11/11 233/10/10
f 140/303/203 234/8/8 105/7/7 6/304/204
f 7/235/222 156/234/223 234/8/8 140/303/203
f 156/234/223 2/236/224 123/9/9 234/8/8
f 105/7/7 88/305/209 6/304/204
f 105/7/7 170/6/6 88/305/209
f 170/6/6 5/306/210 88/305/209
f 115/220/213 235/1/1 106/4/4 4/221/214
f 1/213/5 123/307/9 235/1/1 115/220/213
f 123/307/9 2/308/224 177/2/2 235/1/1
