# Blender v2.77 (sub 0) OBJ File: 'Fir_Tree_crk_m_01.obj'
# www.blender.org
mtllib Fir_Tree_s_07.mtl
o Fir_Tree_s_07
v 0.003871 0.339848 0.000781
v -0.109709 0.196503 -0.099411
v 0.149523 0.203863 -0.127730
v 0.148190 0.180799 0.120387
v -0.098748 0.173906 0.135696
v -0.077342 0.504814 -0.065914
v 0.107760 0.510400 -0.081075
v 0.099852 0.519687 0.102616
v -0.057474 0.510762 0.083341
v -0.087664 0.603285 -0.078506
v 0.108832 0.603840 -0.099783
v 0.109663 0.611514 0.112541
v -0.066336 0.609066 0.087865
v -0.036901 1.106387 -0.038511
v 0.055274 1.107447 -0.042284
v 0.056151 1.109329 0.046260
v -0.025782 1.107984 0.033014
v 0.000361 1.411649 0.002223
v -0.047378 0.038653 0.016288
v 0.014078 0.038645 0.055576
v 0.000273 0.382919 0.024621
v -0.030721 0.382983 0.005218
v -0.004324 0.038627 -0.042385
v -0.005758 0.382782 -0.035774
v 0.027174 0.382737 -0.009826
v 0.050197 0.038622 -0.003142
v -0.005293 0.210702 -0.041419
v -0.064486 0.842262 -0.061018
v 0.014773 0.506723 -0.085679
v 0.040776 0.210676 -0.006850
v 0.013397 0.382735 -0.026693
v 0.008129 1.131124 -0.043516
v 0.164751 0.198555 -0.005824
v -0.011880 1.283128 0.016230
v -0.079980 0.507166 0.008327
v 0.016889 0.382821 0.009673
v -0.035934 1.131350 -0.002994
v 0.023916 0.181257 0.143798
v 0.125076 0.607750 0.006462
v 0.134860 0.347323 -0.108752
v -0.052597 0.245484 0.073747
v 0.026647 1.283785 0.021187
v 0.108091 0.550895 -0.090424
v 0.022628 0.610833 0.116429
v -0.021316 0.038649 0.042861
v 0.084860 0.842897 -0.074203
v -0.061276 0.555485 0.084843
v 0.081064 0.248985 0.063096
v 0.018525 0.207863 -0.130186
v 0.129671 0.339507 0.115921
v -0.021404 0.382889 -0.017554
v 0.007609 0.210784 0.042203
v 0.104114 0.561317 0.109284
v -0.122311 0.190566 0.019436
v -0.032783 0.038640 -0.017726
v 0.025400 1.283090 -0.017087
v 0.116378 0.515666 0.011158
v 0.009620 0.603019 -0.105370
v 0.080399 0.262504 -0.067975
v 0.058761 1.132709 0.002432
v 0.086211 0.847513 0.082005
v -0.017912 0.382975 0.018812
v -0.092829 0.606102 0.004597
v 0.021626 0.516109 0.105163
v -0.041321 0.210822 0.011354
v 0.014698 1.132936 0.042954
v -0.082820 0.547999 -0.071873
v -0.097595 0.340294 -0.086200
v -0.056863 0.258678 -0.053618
v 0.039069 0.038633 0.030894
v 0.027602 0.038625 -0.029693
v -0.081724 0.330988 0.114926
v -0.016303 1.282475 -0.017373
v -0.047755 0.845886 0.062247
v 0.027979 0.210727 0.020284
v -0.027093 0.210765 -0.017640
v 0.020499 0.210680 -0.028193
v -0.019614 0.210812 0.030837
v -0.067412 0.843984 0.000352
v -0.086249 0.551394 0.006251
v 0.019949 0.847028 0.083265
v 0.096827 0.845295 0.004163
v 0.009466 0.842252 -0.078749
v -0.107349 0.335021 0.015223
v 0.022119 0.559115 0.111269
v 0.120303 0.556454 0.009665
v 0.149955 0.344034 0.002725
v 0.011935 0.548733 -0.095353
v 0.024399 0.334565 0.132394
v 0.018207 0.344491 -0.114446
vt 0.6832 0.4240
vt 0.6818 0.4098
vt 0.7050 0.4434
vt 0.7060 0.4467
vt 0.7164 0.4548
vt 0.6886 0.4676
vt 0.6780 0.4583
vt 0.6746 0.4733
vt 0.6584 0.4416
vt 0.7029 0.4406
vt 0.6888 0.4648
vt 0.6878 0.4577
vt 0.6981 0.4405
vt 0.6642 0.4258
vt 0.6784 0.4007
vt 0.6807 0.4118
vt 0.6680 0.4319
vt 0.6693 0.4291
vt 0.6540 0.4270
vt 0.6749 0.4123
vt 0.6894 0.4174
vt 0.6506 0.4114
vt 0.6474 0.4112
vt 0.6895 0.4178
vt 0.6977 0.4086
vt 0.7169 0.4164
vt 0.7084 0.4233
vt 0.6946 0.4175
vt 0.7141 0.4577
vt 0.7281 0.4235
vt 0.7316 0.4243
vt 0.7183 0.4585
vt 0.6737 0.4742
vt 0.7002 0.4920
vt 0.7051 0.4928
vt 0.6720 0.4769
vt 0.6694 0.4578
vt 0.6500 0.4508
vt 0.6554 0.4519
vt 0.6716 0.4548
vt 0.6927 0.4496
vt 0.6702 0.4566
vt 0.6775 0.4488
vt 0.6873 0.4455
vt 0.7077 0.4228
vt 0.7153 0.4427
vt 0.6971 0.4422
vt 0.6938 0.4323
vt 0.6814 0.4136
vt 0.7002 0.4029
vt 0.6905 0.4224
vt 0.6823 0.4277
vt 0.6805 0.4448
vt 0.6489 0.4339
vt 0.6472 0.4565
vt 0.6390 0.4611
vt 0.6432 0.4362
vt 0.6758 0.4409
vt 0.6664 0.4404
vt 0.6626 0.4243
vt 0.6740 0.4330
vt 0.6870 0.4316
vt 0.6903 0.4415
vt 0.8069 0.9391
vt 0.8216 0.9390
vt 0.8214 0.9870
vt 0.8068 0.9868
vt 0.8432 0.9391
vt 0.8429 0.9873
vt 0.8357 0.9873
vt 0.8360 0.9390
vt 0.7850 0.9390
vt 0.7850 0.9868
vt 0.7777 0.9869
vt 0.7777 0.9388
vt 0.8288 0.9390
vt 0.8285 0.9871
vt 0.8291 0.8909
vt 0.8218 0.8911
vt 0.8363 0.8906
vt 0.7850 0.8912
vt 0.7777 0.8908
vt 0.7923 0.8916
vt 0.7923 0.9391
vt 0.7922 0.9866
vt 0.8435 0.8909
vt 0.8507 0.8911
vt 0.8504 0.9392
vt 0.8501 0.9873
vt 0.8070 0.8914
vt 0.6835 0.4408
vt 0.6788 0.4369
vt 0.6628 0.4643
vt 0.6571 0.4399
vt 0.6513 0.4156
vt 0.6538 0.4115
vt 0.6546 0.4317
vt 0.6805 0.3995
vt 0.7098 0.3833
vt 0.7217 0.4132
vt 0.7335 0.4432
vt 0.6982 0.4538
vt 0.6898 0.4719
vt 0.6672 0.4608
vt 0.6445 0.4497
vt 0.6753 0.4715
vt 0.6952 0.4912
vt 0.7099 0.4570
vt 0.7246 0.4227
vt 0.6762 0.3896
vt 0.7009 0.3996
vt 0.7255 0.4096
vt 0.6892 0.4171
vt 0.6596 0.4102
vt 0.6805 0.3956
vt 0.6388 0.4248
vt 0.6603 0.4197
vt 0.7077 0.4408
vt 0.6550 0.4566
vt 0.6712 0.4884
vt 0.6990 0.4756
vt 0.7268 0.4628
vt 0.7036 0.4292
vn 0.0704 -0.9973 -0.0228
vn 0.5155 -0.7684 0.3793
vn -0.3492 -0.8549 0.3837
vn -0.3946 -0.7961 -0.4588
vn 0.4185 -0.7594 -0.4982
vn -0.0976 0.1425 -0.9850
vn -0.7515 0.1534 -0.6417
vn -0.7726 -0.0082 -0.6349
vn -0.0884 -0.0222 -0.9958
vn -0.0141 0.1153 0.9932
vn 0.6871 0.1408 0.7128
vn 0.6600 0.0061 0.7512
vn -0.0954 0.0111 0.9954
vn -0.0911 -0.1911 -0.9773
vn -0.7637 -0.1858 -0.6183
vn -0.7710 -0.0212 -0.6365
vn -0.0997 -0.0321 -0.9945
vn 0.9888 0.1472 0.0246
vn 0.6674 0.1932 -0.7192
vn 0.7081 0.0310 -0.7054
vn 0.9981 0.0489 0.0371
vn 0.9960 -0.0866 0.0240
vn 0.6735 -0.1740 -0.7184
vn 0.6606 -0.0093 -0.7507
vn 0.9999 0.0162 -0.0015
vn -0.1291 -0.1057 0.9860
vn 0.6434 -0.1408 0.7525
vn 0.6703 0.0230 0.7417
vn -0.1333 0.0236 0.9908
vn -0.9875 0.1335 0.0839
vn -0.6648 0.1662 0.7283
vn -0.6918 0.0441 0.7207
vn -0.9926 0.0186 0.1198
vn -0.0841 0.1130 -0.9900
vn -0.7604 0.1313 -0.6360
vn -0.7484 0.1459 -0.6470
vn -0.0476 0.1402 -0.9890
vn 0.9922 0.1240 -0.0104
vn 0.6660 0.1522 -0.7303
vn 0.6700 0.1777 -0.7208
vn 0.9851 0.1712 -0.0134
vn -0.1415 0.1344 0.9808
vn 0.6584 0.1700 0.7332
vn 0.6523 0.1882 0.7342
vn -0.1481 0.1331 0.9800
vn -0.7337 0.2088 -0.6466
vn -0.9846 -0.1153 0.1312
vn -0.6987 -0.1103 0.7068
vn -0.7074 0.0120 0.7067
vn -0.9922 -0.0007 0.1244
vn -0.9840 0.1161 0.1349
vn -0.9859 0.1087 0.1269
vn -0.7005 0.1329 0.7012
vn -0.6964 0.1307 0.7057
vn 0.6480 0.2545 0.7178
vn 0.6724 0.2459 -0.6982
vn -0.5343 0.0642 0.8428
vn 0.2105 0.0947 0.9730
vn 0.2000 0.1007 0.9746
vn -0.5355 0.0699 0.8416
vn 0.5980 0.0301 -0.8009
vn 0.6035 0.0357 -0.7966
vn 0.9871 0.0742 -0.1421
vn 0.9854 0.0669 -0.1568
vn -0.8267 0.0241 -0.5622
vn -0.8368 0.0294 -0.5468
vn -0.1948 0.0319 -0.9803
vn -0.1799 0.0242 -0.9834
vn 0.8239 0.0844 0.5604
vn 0.8092 0.0896 0.5807
vn 0.8368 0.0793 0.5417
vn 0.2201 0.0890 0.9714
vn 0.9841 0.0602 -0.1672
vn -0.8171 0.0188 -0.5763
vn -0.1691 0.0168 -0.9854
vn -0.9799 0.0469 0.1937
vn -0.9809 0.0534 0.1871
vn -0.9818 0.0601 0.1800
vn 0.5931 0.0245 -0.8048
vn -0.5332 0.0587 0.8440
vn -0.0460 0.9989 0.0127
vn -0.6992 0.1588 0.6971
vn -0.4719 -0.7502 -0.4631
vn -0.5131 -0.8578 -0.0295
vn -0.4656 -0.7535 0.4641
vn 0.5004 -0.7514 0.4301
vn 0.5590 -0.8266 -0.0658
vn 0.4668 -0.6772 -0.5688
vn -0.0035 -0.8687 0.4954
vn -0.0385 -0.8443 -0.5345
usemtl None
s 1
f 1/1/1 69/2/2 59/3/3
f 1/4/1 59/5/3 48/6/4
f 1/7/1 48/8/4 41/9/5
f 90/10/6 68/11/7 6/12/8 29/13/9
f 89/14/10 50/15/11 8/16/12 64/17/13
f 1/18/1 41/19/5 69/20/2
f 88/21/14 67/22/15 10/23/16 58/24/17
f 87/25/18 40/26/19 7/27/20 57/28/21
f 86/29/22 43/30/23 11/31/24 39/32/25
f 85/33/26 53/34/27 12/35/28 44/36/29
f 84/37/30 72/38/31 9/39/32 35/40/33
f 83/41/34 28/42/35 14/43/36 32/44/37
f 82/45/38 46/46/39 15/47/40 60/48/41
f 81/49/42 61/50/43 16/51/44 66/52/45
f 14/43/36 73/53/46 32/44/37
f 80/54/47 47/55/48 13/56/49 63/57/50
f 14/43/36 37/58/51 73/53/46
f 79/59/52 74/60/53 17/61/54 37/58/51
f 16/51/44 42/62/55 66/52/45
f 15/47/40 56/63/56 60/48/41
f 78/64/57 52/65/58 21/66/59 62/67/60
f 77/68/61 31/69/62 25/70/63 30/71/64
f 76/72/65 51/73/66 24/74/67 27/75/68
f 75/76/69 36/77/70 21/66/59 52/65/58
f 70/78/71 75/76/69 52/65/58 20/79/72
f 26/80/73 30/71/64 75/76/69 70/78/71
f 30/71/64 25/70/63 36/77/70 75/76/69
f 55/81/74 76/72/65 27/75/68 23/82/75
f 19/83/76 65/84/77 76/72/65 55/81/74
f 65/84/77 22/85/78 51/73/66 76/72/65
f 71/86/79 77/68/61 30/71/64 26/80/73
f 23/87/75 27/88/68 77/68/61 71/86/79
f 27/88/68 24/89/67 31/69/62 77/68/61
f 65/84/77 78/64/57 62/67/60 22/85/78
f 19/83/76 45/90/80 78/64/57 65/84/77
f 45/90/80 20/79/72 52/65/58 78/64/57
f 60/48/41 42/62/55 16/51/44
f 60/48/41 56/63/56 42/62/55
f 56/63/56 18/91/81 42/62/55
f 66/52/45 34/92/82 17/61/54
f 66/52/45 42/62/55 34/92/82
f 42/62/55 18/91/81 34/92/82
f 28/42/35 79/59/52 37/58/51 14/43/36
f 10/93/16 63/94/50 79/59/52 28/42/35
f 63/94/50 13/95/49 74/60/53 79/59/52
f 73/53/46 34/92/82 18/91/81
f 73/53/46 37/58/51 34/92/82
f 37/58/51 17/61/54 34/92/82
f 67/22/15 80/54/47 63/57/50 10/23/16
f 6/96/8 35/97/33 80/54/47 67/22/15
f 35/97/33 9/39/32 47/55/48 80/54/47
f 32/44/37 56/63/56 15/47/40
f 32/44/37 73/53/46 56/63/56
f 73/53/46 18/91/81 56/63/56
f 74/60/53 81/49/42 66/52/45 17/61/54
f 13/95/49 44/98/29 81/49/42 74/60/53
f 44/98/29 12/99/28 61/50/43 81/49/42
f 61/50/43 82/45/38 60/48/41 16/51/44
f 12/99/28 39/100/25 82/45/38 61/50/43
f 39/100/25 11/101/24 46/46/39 82/45/38
f 46/46/39 83/41/34 32/44/37 15/47/40
f 11/101/24 58/102/17 83/41/34 46/46/39
f 58/102/17 10/93/16 28/42/35 83/41/34
f 68/11/7 84/37/30 35/40/33 6/12/8
f 2/103/83 54/104/84 84/37/30 68/11/7
f 54/104/84 5/105/85 72/38/31 84/37/30
f 47/55/48 85/33/26 44/36/29 13/56/49
f 9/39/32 64/106/13 85/33/26 47/55/48
f 64/106/13 8/107/12 53/34/27 85/33/26
f 53/34/27 86/29/22 39/32/25 12/35/28
f 8/107/12 57/108/21 86/29/22 53/34/27
f 57/108/21 7/109/20 43/30/23 86/29/22
f 50/15/11 87/25/18 57/28/21 8/16/12
f 4/110/86 33/111/87 87/25/18 50/15/11
f 33/111/87 3/112/88 40/26/19 87/25/18
f 43/30/23 88/21/14 58/24/17 11/31/24
f 7/109/20 29/113/9 88/21/14 43/30/23
f 29/113/9 6/96/8 67/22/15 88/21/14
f 69/20/2 54/114/84 2/115/83
f 69/20/2 41/19/5 54/114/84
f 41/19/5 5/116/85 54/114/84
f 72/38/31 89/14/10 64/17/13 9/39/32
f 5/105/85 38/117/89 89/14/10 72/38/31
f 38/117/89 4/110/86 50/15/11 89/14/10
f 40/26/19 90/10/6 29/13/9 7/27/20
f 3/112/88 49/118/90 90/10/6 40/26/19
f 49/118/90 2/103/83 68/11/7 90/10/6
f 41/9/5 38/119/89 5/116/85
f 41/9/5 48/8/4 38/119/89
f 48/8/4 4/120/86 38/119/89
f 48/6/4 33/121/87 4/120/86
f 48/6/4 59/5/3 33/121/87
f 59/5/3 3/122/88 33/121/87
f 59/3/3 49/123/90 3/122/88
f 59/3/3 69/2/2 49/123/90
f 69/2/2 2/115/83 49/123/90
