# Blender v2.78 (sub 0) OBJ File: ''
# www.blender.org
mtllib Dead_Pine_Tree_crk_l_02.mtl
o Dead_Pine_Tree_crk_l_02
v 0.063522 6.851973 0.031987
v 0.429395 7.087176 0.597857
v 0.449438 7.076611 0.591084
v 0.105486 6.825442 0.011473
v 0.072420 6.800989 0.046023
v 0.436353 7.067664 0.608605
v -0.075940 8.583200 -0.065119
v -0.420415 8.605134 -0.426145
v -0.404127 8.589214 -0.448970
v -0.046358 8.555821 -0.101925
v -0.399387 8.620681 -0.445033
v -0.042224 8.610114 -0.098561
v -0.048996 4.165682 0.113940
v -0.415159 4.291542 0.377156
v -0.446278 4.272821 0.353735
v -0.098699 4.120070 0.051906
v -0.430394 4.310262 0.341312
v -0.097231 4.211296 0.050758
v -0.786037 4.446526 0.656882
v -0.804075 4.436439 0.644505
v -0.793703 4.456612 0.636392
v 0.072376 4.971828 0.137660
v 0.336412 5.151529 0.521687
v 0.319072 5.138596 0.545600
v 0.041483 4.948668 0.176242
v 0.310005 5.166482 0.532629
v 0.029129 4.998453 0.157669
v -0.087658 5.802448 -0.059540
v -0.588241 6.095877 -0.484574
v -0.583182 6.085944 -0.505407
v -0.071607 5.775357 -0.103053
v -0.570964 6.104488 -0.498235
v -0.053299 5.824965 -0.094154
v 0.188786 6.417321 -0.116206
v 0.127716 9.529375 -0.100524
v 0.129315 9.467657 0.040994
v 0.157398 6.375402 0.097641
v 0.003851 6.375434 0.138405
v -0.004479 9.468206 0.076814
v -0.072551 9.523587 -0.046935
v -0.103068 6.330870 -0.039111
v 0.034265 6.405431 -0.200990
v 0.008474 9.470977 -0.154664
v -0.261482 0.015077 -0.016367
v -0.194999 3.047247 0.029092
v -0.021815 2.993583 -0.187903
v -0.053424 0.009178 -0.274518
v 0.256568 0.013733 0.172625
v 0.198899 3.040858 0.197088
v -0.076649 3.041972 0.270979
v -0.076981 0.013904 0.263991
v 0.213226 3.068706 -0.080047
v 0.250384 0.016498 -0.153192
v -0.587837 3.645634 -0.255622
v -0.780919 3.571335 -0.208198
v -0.645221 3.648951 -0.064630
v -0.244591 3.828922 -0.051533
v -1.076585 3.424839 -0.294485
v -1.139722 3.391520 -0.065481
v -1.002765 3.383949 -0.518991
v -1.525973 3.107870 -0.794701
v -1.624677 3.161604 -0.454587
v -1.876509 2.845929 -0.947120
v -2.013259 2.904207 -0.733732
v -1.728907 3.115224 -0.114393
v -2.071146 2.831567 -0.416127
v -2.104629 2.848867 -0.171000
v -1.908921 3.015106 -0.537443
v -2.362977 2.695485 -0.668311
v -1.206062 3.154920 -0.838811
v -1.496684 3.166584 0.093896
v -0.386544 5.640499 0.347849
v -0.426336 5.558758 0.546495
v -0.237230 5.651383 0.488317
v -0.053726 5.853228 0.127602
v -0.631388 5.391811 0.777396
v -0.447376 5.366781 0.940092
v -0.801621 5.341280 0.605911
v -1.276590 5.022233 0.957896
v -1.012170 5.090883 1.205478
v -1.560150 4.731073 1.207475
v -1.430005 4.796330 1.432089
v -0.743783 5.056479 1.456827
v -1.159550 4.735678 1.630024
v -0.950405 4.764678 1.773473
v -1.208847 4.924576 1.427427
v -1.516164 4.571060 1.781491
v -1.174070 5.081320 0.643530
v -0.449352 5.129388 1.339015
v 0.547003 4.709782 -0.224588
v 0.643025 4.637777 -0.411226
v 0.440607 4.728316 -0.402962
v 0.156805 4.913110 -0.092599
v 0.910784 4.481312 -0.587196
v 0.777364 4.464592 -0.798877
v 1.029520 4.420895 -0.374770
v 1.597221 4.117102 -0.600646
v 1.407670 4.199940 -0.912811
v 1.948875 3.835768 -0.779185
v 1.883959 3.914071 -1.031324
v 1.216987 4.178453 -1.235141
v 1.676667 3.863043 -1.303553
v 1.512425 3.900042 -1.500739
v 1.664728 4.043625 -1.082382
v 2.069962 3.704783 -1.359302
v 1.407812 4.159732 -0.320087
v 0.895334 4.245611 -1.199458
v 0.109590 7.466978 0.481536
v 0.264492 7.386684 0.612237
v 0.304029 7.477058 0.417831
v 0.075982 7.675105 0.082508
v 0.368560 7.223079 0.903986
v 0.599041 7.197093 0.820898
v 0.136926 7.173496 0.971594
v 0.217869 6.861219 1.559228
v 0.561205 6.928330 1.445334
v 0.300678 6.574496 1.929965
v 0.559680 6.639389 1.922718
v 0.909678 6.892591 1.330846
v 0.862345 6.577199 1.781150
v 1.088020 6.604802 1.666281
v 0.661439 6.765244 1.725461
v 0.824360 6.416995 2.167623
v -0.008399 6.917793 1.318488
v 0.947347 6.962027 1.015886
v 0.269711 9.049987 -0.492695
v 0.225190 8.970416 -0.688549
v 0.077871 9.059977 -0.558362
v 0.058116 9.256241 -0.156977
v 0.317011 8.808282 -0.981461
v 0.085091 8.782531 -1.053309
v 0.540605 8.759147 -0.896680
v 0.827334 8.449681 -1.409852
v 0.487750 8.516188 -1.524694
v 0.983122 8.165538 -1.752559
v 0.773908 8.229848 -1.901425
v 0.143746 8.480771 -1.642132
v 0.449978 8.168216 -1.970099
v 0.202889 8.195572 -2.013936
v 0.575667 8.354569 -1.806122
v 0.710714 8.009455 -2.253150
v 0.862629 8.505746 -1.084351
v -0.074053 8.549580 -1.415462
v -0.001084 6.702700 -0.497957
v -0.173072 6.584623 -0.612810
v -0.207689 6.708083 -0.412132
v 0.050420 6.989383 -0.100204
v -0.296004 6.356548 -0.894429
v -0.536888 6.323111 -0.779135
v -0.045832 6.310808 -0.982398
v -0.155305 5.879962 -1.564338
v -0.524397 5.942911 -1.418279
v -0.250834 5.508861 -1.915715
v -0.537155 5.560031 -1.892440
v -0.889853 5.894528 -1.256478
v -0.848250 5.490660 -1.702029
v -1.086019 5.520173 -1.560515
v -0.642235 5.717422 -1.687798
v -0.825253 5.263095 -2.099864
v 0.105522 5.994322 -1.334192
v -0.910433 6.013486 -0.922935
v -0.244451 3.828602 -0.051485
v -0.645076 3.648633 -0.064594
v -0.780774 3.571018 -0.208148
v -0.587700 3.645315 -0.255562
v -1.139571 3.391205 -0.065493
v -1.076442 3.424522 -0.294438
v -1.624519 3.161293 -0.454545
v -1.525855 3.107563 -0.794580
v -1.002649 3.383634 -0.518887
v -2.013079 2.903911 -0.733686
v -1.876366 2.845650 -0.946966
v -2.104430 2.848583 -0.170953
v -2.070938 2.831285 -0.416139
v -1.728730 3.114923 -0.114412
v -1.908733 3.014809 -0.537423
v -2.362768 2.695206 -0.668354
v -1.205997 3.154619 -0.838643
v -1.496540 3.166281 0.093800
v -0.053602 5.852917 0.127494
v -0.237114 5.651072 0.488200
v -0.426208 5.558450 0.546383
v -0.386410 5.640190 0.347749
v -0.447300 5.366472 0.939947
v -0.631262 5.391502 0.777286
v -1.012043 5.090582 1.205350
v -1.276411 5.021938 0.957840
v -0.801457 5.340976 0.605849
v -1.429865 4.796044 1.431945
v -1.559932 4.730809 1.207412
v -0.950257 4.764404 1.773312
v -1.159451 4.735403 1.629829
v -0.743703 5.056183 1.456656
v -1.208728 4.924288 1.427265
v -1.516093 4.570787 1.781282
v -1.173872 5.081032 0.643543
v -0.449354 5.129087 1.338839
v 0.156661 4.912793 -0.092545
v 0.440468 4.728000 -0.402897
v 0.642876 4.637463 -0.411169
v 0.546851 4.709467 -0.224545
v 0.777255 4.464275 -0.798775
v 0.910638 4.480997 -0.587140
v 1.407518 4.199631 -0.912740
v 1.597037 4.116804 -0.600657
v 1.029351 4.420588 -0.374771
v 1.883790 3.913778 -1.031239
v 1.948652 3.835501 -0.779198
v 1.512243 3.899760 -1.500639
v 1.676523 3.862758 -1.303407
v 1.216868 4.178149 -1.235014
v 1.664573 4.043328 -1.082274
v 2.069840 3.704500 -1.359135
v 1.407631 4.159444 -0.320169
v 0.895293 4.245302 -1.199303
v 0.075946 7.674792 0.082350
v 0.303982 7.476746 0.417675
v 0.264454 7.386374 0.612073
v 0.109566 7.466666 0.481373
v 0.598950 7.196783 0.820765
v 0.368524 7.222768 0.903826
v 0.561155 6.928027 1.445165
v 0.217906 6.860922 1.559046
v 0.136949 7.173190 0.971424
v 0.559620 6.639102 1.922529
v 0.300727 6.574229 1.929745
v 1.087949 6.604527 1.666077
v 0.862221 6.576922 1.780973
v 0.909567 6.892294 1.330697
v 0.661353 6.764954 1.725281
v 0.824211 6.416720 2.167462
v -0.008293 6.917503 1.318324
v 0.947191 6.961724 1.015807
v 0.058049 9.255929 -0.156830
v 0.077815 9.059665 -0.558210
v 0.225121 8.970107 -0.688397
v 0.269633 9.049677 -0.492551
v 0.085083 8.782220 -1.053147
v 0.316944 8.807972 -0.981312
v 0.487689 8.515884 -1.524528
v 0.827195 8.449385 -1.409729
v 0.540484 8.758842 -0.896558
v 0.773843 8.229561 -1.901239
v 0.982951 8.165272 -1.752413
v 0.202822 8.195296 -2.013730
v 0.449971 8.167942 -1.969881
v 0.143746 8.480474 -1.641945
v 0.575627 8.354280 -1.805928
v 0.710737 8.009181 -2.252932
v 0.862445 8.505456 -1.084284
v -0.073976 8.549278 -1.415305
v 0.050492 6.989097 -0.100010
v -0.207604 6.707799 -0.411942
v -0.172997 6.584342 -0.612612
v -0.001022 6.702415 -0.497759
v -0.536761 6.322828 -0.778970
v -0.295930 6.356264 -0.894235
v -0.524309 5.942638 -1.418077
v -0.155302 5.879691 -1.564117
v -0.045818 6.310526 -0.982188
v -0.537057 5.559778 -1.892221
v -0.250843 5.508625 -1.915460
v -1.085910 5.519934 -1.560283
v -0.848090 5.490421 -1.701828
v -0.889706 5.894264 -1.256302
v -0.642112 5.717167 -1.687591
v -0.825070 5.262857 -2.099684
v 0.105452 5.994051 -1.333983
v -0.910248 6.013210 -0.922832
v 0.962456 4.459685 -0.477909
v -1.786330 2.996130 -0.778690
v -0.004565 8.642898 -1.276124
v -1.571961 3.142224 -0.625005
v -0.981741 5.517220 -1.603561
v -0.070783 4.195039 0.085328
v -0.385513 3.753826 -0.139970
v 0.077013 6.911302 1.397326
v 1.159487 4.340478 -0.750173
v -0.535576 5.387662 0.851042
v 0.311382 7.312752 0.743656
v -0.355957 6.528198 -0.590518
v -0.086035 6.644565 -0.555142
v 0.008166 4.696907 -0.192930
v 0.604632 8.071462 -2.133116
v 1.911168 3.880028 -0.874970
v 0.184099 8.309084 -1.871678
v 0.387126 6.902856 1.500233
v -0.030918 6.519729 -0.725543
v 0.025487 9.703598 -0.077491
v 0.009514 8.539564 -1.488496
v -1.350917 3.293084 -0.374620
v -0.041812 9.525321 0.019043
v 0.478880 7.218363 0.855338
v -1.032483 3.412079 -0.402622
v 0.220886 3.057462 0.059465
v 0.320596 4.829454 -0.143513
v 1.763042 4.004329 -0.819282
v -0.712609 3.610856 -0.135498
v 1.500729 4.166282 -0.753443
v -1.920165 2.881320 -0.855857
v 0.718087 6.515576 2.068270
v -1.781819 3.082563 -0.500454
v -0.957183 4.883535 1.564076
v 0.247916 9.010596 -0.589564
v -0.893888 5.988045 -1.041969
v -0.250837 4.257333 0.184037
v 0.454317 7.080994 0.618669
v -0.041316 8.582947 -0.103543
v -0.224827 8.571067 -0.276200
v 0.604644 8.071188 -2.132897
v 0.901452 6.722523 1.570836
v -0.060750 6.874009 -0.227782
v 0.184062 8.308800 -1.871479
v 0.245583 6.970785 0.314950
v -0.589758 5.820691 -1.567950
v 0.424713 8.791943 -0.932149
v -2.075500 2.846910 -0.267256
v 0.732804 8.607306 -1.017773
v -1.025671 4.759192 1.702666
v -1.008070 5.667830 -1.447420
v -0.337735 5.920378 -1.490265
v -0.170043 6.344221 -0.931203
v -1.571760 3.162844 0.014231
v 0.006753 5.968991 -1.410192
v 0.272312 4.838207 -0.224759
v -0.737129 5.606005 -1.698442
v 0.536505 8.428823 -1.680340
v -0.535678 5.387972 0.851170
v -1.121209 5.001245 1.328329
v -1.498201 4.770062 1.289920
v 0.436275 7.346646 0.612016
v -0.330653 5.605559 0.517296
v 0.766349 7.049858 1.061741
v 1.906719 3.766311 -1.332946
v -0.228439 6.481631 -0.739631
v 1.402364 4.010960 -1.396340
v 0.186053 7.427542 0.546481
v -0.337782 5.920651 -1.490476
v 0.149790 9.171831 -0.294787
v 0.893578 8.204153 -1.801466
v -1.202325 5.074036 0.756483
v 0.130370 7.330479 0.712074
v -1.359372 3.256801 0.024574
v 0.181469 6.396277 -0.007915
v 0.233225 1.409831 0.189873
v 0.436208 7.346334 0.611869
v -0.091555 8.013881 -0.043416
v 1.910968 3.879748 -0.874943
v 0.100954 3.029969 -0.148120
v -0.411773 3.755656 -0.053083
v 0.037915 6.119471 -1.199437
v 0.540677 4.683540 -0.407280
v -0.070401 5.817393 -0.074370
v -1.673613 3.145544 -0.282431
v 0.179976 5.042353 0.361978
v 0.618280 6.707052 1.822603
v -0.578167 5.501617 0.476307
v -1.190042 4.831691 1.523022
v 0.031822 4.973723 0.169708
v -0.413914 8.605677 -0.458050
v -0.311208 5.965843 -0.296557
v -0.913973 3.504799 -0.247018
v 0.158613 7.018623 1.259558
v -2.221458 2.788261 -0.693619
v 0.980346 4.326652 -1.025415
v -0.190824 6.647015 -0.511384
v 0.201119 4.743279 -0.096139
v -0.710074 5.375259 0.687108
v -0.423620 8.598538 -0.449391
v -0.194657 5.765821 0.215901
v 0.272822 6.691010 1.789523
v 0.299552 8.190261 -1.980624
v -0.363569 5.545067 -1.895092
v 0.055710 7.020276 1.185953
v -0.518694 5.483320 0.650515
v 0.055781 7.019979 1.185785
v 0.313863 8.505923 -1.580477
v -0.411631 3.755336 -0.053040
v 1.771294 3.984310 -1.064049
v -0.830832 5.353677 -1.933680
v -1.143813 5.064676 1.078619
v -0.894057 5.988317 -1.042104
v -0.787528 3.524222 -0.373210
v -0.914116 3.505116 -0.247066
v -1.143661 5.064377 1.078526
v -1.132947 3.246624 -0.709427
v -0.004525 8.642591 -1.275964
v 0.284747 7.432658 0.514146
v 0.096499 8.636621 -1.343698
v 1.458362 4.009459 -1.288707
v -0.219161 5.657970 -1.783657
v -0.060827 6.874293 -0.227975
v 0.402531 6.613461 1.914935
v 0.299592 8.190536 -1.980835
v 0.200741 8.803917 -1.008983
v 0.390978 8.915023 -0.687603
v -0.118307 3.018110 -0.089498
v 0.266541 8.897149 -0.820500
v 0.186022 7.427231 0.546318
v 0.089166 8.930737 -0.790913
v 0.266473 8.896839 -0.820349
v 0.082829 6.375786 0.129235
v 1.458224 4.009166 -1.288573
v -1.032613 3.412395 -0.402697
v 0.838060 4.481017 -0.686167
v -0.556674 5.118098 1.371454
v 0.735479 8.107146 -2.111119
v 0.836711 6.479291 2.006292
v -1.572101 3.142534 -0.625085
v -0.874809 4.880455 1.650573
v 0.033288 6.871559 -0.266847
v 0.336346 5.151577 0.546062
v 0.062401 9.176067 -0.324529
v 0.806556 7.055886 0.945781
v -1.781992 3.082867 -0.500484
v -1.369019 4.635460 1.715364
v -0.707222 5.927400 -1.334704
v -0.578019 5.501310 0.476223
v 0.386612 6.738967 1.763020
v -0.556706 5.118398 1.371627
v -0.344778 5.704928 -1.751016
v 0.085680 6.842331 0.019445
v 0.605007 4.605328 -0.583669
v -0.259550 4.188560 0.190852
v -0.249309 8.594176 -0.244373
v 0.037948 6.119747 -1.199647
v 0.735177 6.917975 1.384582
v -0.411253 6.350226 -0.830778
v 0.667842 8.297189 -1.857397
v -1.316772 3.151018 -0.814832
v -1.920007 2.881033 -0.855748
v 0.718201 6.515857 2.068442
v 0.806685 7.056192 0.945884
v -0.614523 4.374073 0.527280
v -0.343161 5.518429 0.697167
v 0.085899 7.589929 0.249233
v 0.594826 4.674448 -0.316801
v -1.451321 4.849565 1.116120
v -0.126818 5.771084 0.279947
v -0.712464 3.610538 -0.135455
v -1.042992 5.183076 0.762577
v 0.735260 6.918276 1.384741
v 0.842121 8.499311 -1.197699
v -1.571602 3.162541 0.014167
v -2.075703 2.847194 -0.267275
v -0.176982 0.012127 -0.161466
v -0.760085 6.136119 -0.874055
v 1.016691 6.719345 1.540273
v -1.121086 5.000951 1.328184
v 0.051637 4.988580 0.144994
v 0.062700 9.526849 0.060315
v -0.147231 4.685898 -0.003498
v -0.736986 5.605757 -1.698240
v 0.658226 8.490945 -1.464213
v 0.962298 4.459374 -0.477881
v 0.158576 7.018926 1.259732
v 0.130374 7.330788 0.712240
v -1.202134 5.073744 0.756468
v 0.251842 7.206901 0.929893
v 0.022393 8.058920 -0.179392
v 1.674623 3.954324 -1.185553
v -1.429584 3.257347 -0.072295
v 1.565892 3.890416 -1.410703
v 0.163946 8.062362 -0.111255
v 0.284704 7.432347 0.513986
v -0.082115 5.785437 -0.080045
v -0.080939 1.410310 0.275195
v 0.006714 5.968718 -1.409978
v -0.624822 4.387623 0.499753
v -1.099635 3.416270 -0.179623
v -0.060047 5.799939 -0.102332
v 0.168543 5.083809 0.345143
v 0.667793 8.296899 -1.857206
v 0.064390 6.826576 0.041633
v -0.439701 4.291542 0.345778
v 0.763637 4.567058 -0.490516
v 0.921326 8.281002 -1.624831
v -0.035987 4.706836 0.206435
v 0.451062 7.089627 0.613647
v 0.402405 8.661776 -1.253205
v -2.239331 2.747892 -0.566029
v -0.821978 5.241190 0.991661
v -0.875090 5.081248 1.329268
v -1.960681 2.954964 -0.152903
v 0.754103 6.672812 1.755679
v -0.079799 6.099096 -1.269043
v 0.616603 6.840471 1.600516
v 0.735491 8.107427 -2.111325
v -1.498386 4.770338 1.290017
v -0.518567 5.483011 0.650404
v 0.616534 6.840175 1.600342
v 0.077090 6.911007 1.397154
v -1.987532 2.925134 -0.484252
v -0.683341 3.608854 -0.232388
v -0.330776 5.605869 0.517411
v -0.126696 5.770773 0.279836
v 0.009470 8.539865 -1.488665
v -1.316685 3.150713 -0.814684
v -1.921038 2.962116 -0.261715
v -0.577441 5.216812 1.202241
v -1.480762 4.670826 1.640753
v 0.116619 6.415514 -0.169417
v 1.763222 4.004623 -0.819317
v -0.981873 5.517459 -1.603778
v 0.332119 5.164351 0.540033
v -0.411353 6.350510 -0.830960
v 1.009377 4.236067 -1.201432
v 0.901566 6.722808 1.571004
v 0.313892 8.506224 -1.580655
v 0.921481 8.281282 -1.624969
v -0.830656 5.353440 -1.933491
v 0.150615 9.015976 -0.623043
v 0.311345 7.312442 0.743495
v 0.062465 9.176378 -0.324678
v 1.906588 3.766029 -1.332786
v 1.402208 4.010669 -1.396227
v 0.695469 8.605968 -1.137540
v -0.062911 8.565689 -0.082095
v -0.456204 5.224094 1.181943
v 0.133332 9.528009 -0.027840
v 0.174367 7.594205 0.220076
v 1.261352 4.264793 -0.349257
v -1.786480 2.996431 -0.778778
v 0.594675 4.674133 -0.316751
v -0.787400 3.523904 -0.373131
v 0.149718 9.171519 -0.294640
v 0.278939 0.015116 0.010871
v 1.771134 3.984014 -1.063949
v -0.594285 6.104971 -0.514785
v 1.261175 4.264497 -0.349305
v -1.133034 3.246931 -0.709568
v -0.602132 6.101161 -0.508721
v 0.390881 8.914714 -0.687468
v 0.815491 8.328527 -1.671788
v 1.009451 4.236375 -1.201574
v -0.216744 4.222946 0.236603
v 0.658128 8.490644 -1.464068
v -1.987334 2.924844 -0.484251
v 0.254046 6.933159 0.328178
v -0.877658 3.529124 -0.072718
v -0.344731 5.704667 -1.750793
v 0.320743 4.829770 -0.143563
v -1.451120 4.849287 1.116056
v -0.085966 6.644283 -0.554943
v -1.249181 3.247167 -0.668516
v -0.343260 5.518741 0.697296
v -2.239541 2.748172 -0.565997
v -0.406565 5.600344 0.446112
v -0.598497 5.643745 -1.788685
v 1.994357 3.798533 -1.227057
v 0.061732 9.564123 -0.129379
v -1.960873 2.955254 -0.152920
v 0.980453 4.326963 -1.025532
v -0.821851 5.240884 0.991543
v 1.308996 4.197077 -1.072661
v 0.402469 8.662083 -1.253361
v -0.886121 5.676115 -1.492245
v 1.815047 3.950827 -0.714629
v -1.314457 4.865219 1.435857
v 1.311887 4.269593 -0.467698
v 0.815598 8.328818 -1.671943
v 0.033219 6.871843 -0.267042
v 0.478943 7.218674 0.855486
v -1.027509 5.185149 0.636711
v 0.990007 6.599721 1.698394
v -0.057745 6.350585 0.055381
v -0.235580 1.415561 0.007733
v 0.464983 7.075551 1.174943
v 0.251834 7.206592 0.929727
v -0.598383 5.643490 -1.788473
v -0.385653 3.754146 -0.140022
v 0.089131 8.930426 -0.790756
v 0.143023 8.039707 0.066844
v 1.814842 3.950546 -0.714638
v 1.159338 4.340167 -0.750111
v 0.841956 8.499018 -1.197609
v -0.148834 3.046885 0.158428
v 1.994216 3.798245 -1.226922
v -1.673782 3.145850 -0.282441
v 0.235826 1.424462 -0.118284
v 0.059529 4.956646 0.156869
v -1.745570 2.953058 -0.886378
v -1.249293 3.247478 -0.668633
v 0.520380 8.262687 -1.885132
v 0.856312 4.333100 -1.039521
v -0.809703 4.451309 0.649657
v -0.338767 5.949229 -0.270791
v -1.359521 3.257109 0.024634
v 1.308860 4.196770 -1.072560
v -0.421269 4.302508 0.359460
v -1.429422 3.257039 -0.072318
v -0.219163 5.657720 -1.783417
v -1.314584 4.865507 1.436013
v -2.221656 2.788548 -0.693611
v 0.402535 6.613184 1.914729
v -0.707342 5.927670 -1.334892
v -0.760246 6.136398 -0.874186
v 0.695334 8.605666 -1.137422
v 0.091358 6.809496 0.028405
v -0.102625 4.165683 0.045374
v -0.957278 4.883819 1.564258
v -1.920843 2.961825 -0.261725
v -0.410239 6.149235 -1.156430
v -0.638757 4.360522 0.510653
v 0.540821 4.683855 -0.407340
v -1.099488 3.415953 -0.179604
v 1.467265 4.158550 -0.422583
v 1.550087 4.115866 -1.006495
v -0.875192 5.081547 1.329419
v -0.406434 5.600036 0.446005
v -0.030876 6.519446 -0.725339
v 0.085867 7.589617 0.249072
v -1.373619 4.897688 1.203628
v 0.096502 8.636316 -1.343526
v -0.710482 5.392765 -2.017015
v 0.763489 4.566743 -0.490460
v 0.386621 6.739258 1.763209
v 1.674771 3.954616 -1.185682
v -0.079800 6.099373 -1.269258
v -1.008197 5.668079 -1.447628
v 0.324174 5.158428 0.551066
v -0.456236 5.224400 1.182107
v 1.500897 4.166586 -0.753476
v -0.710333 5.392519 -2.016819
v -0.041942 6.366295 -0.127546
v -0.060295 8.600499 -0.079968
v 0.097695 0.013819 0.242421
v 0.106396 0.012838 -0.237085
v 0.063963 3.039938 0.248934
v -0.194785 5.766130 0.216007
v 0.924425 6.951921 1.125508
v -0.596469 6.109344 -0.505361
v -0.806152 4.446637 0.659147
v -0.190983 0.014490 0.137797
v 0.445252 7.085690 0.621612
v 0.272170 4.837890 -0.224701
v -0.071518 4.136325 0.085902
v -1.964248 2.964344 -0.628430
v -1.368938 4.635188 1.715159
v -0.220090 8.616839 -0.272304
v 1.016601 6.719060 1.540091
v 0.293504 8.312232 -1.827067
v 0.766243 7.049553 1.061606
v -1.480861 4.671105 1.640937
v 0.387118 6.902555 1.500057
v 1.549933 4.115564 -1.006405
v -1.964064 2.964046 -0.628401
v 1.467083 4.158257 -0.422636
v -0.228365 6.481348 -0.739435
v 0.278678 6.950985 0.300386
v 0.200703 8.803606 -1.008826
v 0.536555 8.429119 -1.680520
v -0.874928 4.880738 1.650741
v -1.745436 2.952767 -0.886240
v 0.924561 6.952223 1.125616
v 0.836853 6.479565 2.006459
v -1.350768 3.292769 -0.374574
v -0.885971 5.675865 -1.492051
v 0.838189 4.481334 -0.686246
v -0.410320 6.149513 -1.156628
v -1.043166 5.183376 0.762630
v -0.028990 9.561808 -0.105099
v -0.709929 5.374952 0.687020
v -0.877806 3.529441 -0.072734
v -1.373783 4.897978 1.203727
v 0.176767 4.705993 0.149677
v 0.604881 4.605011 -0.583588
v -0.725502 6.115140 -1.001966
v 0.174407 7.594518 0.220234
v 1.566057 3.890699 -1.410824
v 0.520401 8.262969 -1.885339
v -0.190904 6.647297 -0.511578
v -1.027694 5.185444 0.636730
v -0.363604 5.545312 -1.895331
v 0.272781 6.691290 1.789726
v 0.293514 8.312517 -1.827270
v 0.856383 4.333413 -1.039654
v 0.424806 8.792252 -0.932286
v 0.247990 9.010906 -0.589712
v -0.421367 8.612989 -0.447518
v -0.040630 1.381532 -0.235475
v 0.001618 8.040071 0.104523
v 0.772233 4.575857 -0.303020
v 0.464941 7.075243 1.174779
v 0.732646 8.607010 -1.017682
v -0.683482 3.609172 -0.232442
v 1.311710 4.269291 -0.467711
v -0.589652 5.820426 -1.567746
v 0.753996 6.672529 1.755502
v -0.801347 4.455981 0.655389
v 0.205719 5.061618 0.328622
v -1.025546 4.758916 1.702489
v 0.150553 9.015666 -0.622891
v -1.189935 4.831410 1.522842
v -0.327500 5.929468 -0.305134
v -0.725643 6.115415 -1.002130
v 0.772393 4.576169 -0.303044
v -0.355855 6.527914 -0.590339
v -0.430862 4.280575 0.366964
v 0.989911 6.599444 1.698202
v -0.577370 5.216508 1.202082
v -0.169998 6.343939 -0.931000
v 0.893451 8.203876 -1.801304
v 0.618356 6.707342 1.822786
v -0.124180 6.499325 -0.736716
v -0.564471 6.139575 -1.081558
v -0.731372 5.760929 -1.521310
v -0.723814 5.488639 -1.869995
v -0.465879 5.778598 -1.651026
v -0.248973 6.131350 -1.212625
v -0.299057 6.503881 -0.664070
v -0.070951 6.769154 -0.378557
v 0.334998 8.904924 -0.753688
v 0.253007 8.655695 -1.296891
v 0.413891 8.380497 -1.742359
v 0.635585 8.176987 -2.007981
v 0.671543 8.391994 -1.667572
v 0.545956 8.640441 -1.196620
v 0.172621 8.913379 -0.809269
v 0.148836 9.100615 -0.445682
v 0.215632 7.320600 0.731448
v 0.611834 7.069108 1.119164
v 0.752995 6.791409 1.575774
v 0.735865 6.586051 1.924478
v 0.500001 6.803011 1.672133
v 0.314918 7.053715 1.216450
v 0.380209 7.329131 0.677527
v 0.178381 7.518067 0.370200
v 0.772663 4.570235 -0.392407
v 1.071600 4.340066 -0.883909
v 1.495597 4.072140 -1.138862
v 1.847014 3.868351 -1.209247
v 1.647272 4.073376 -0.908495
v 1.234075 4.311761 -0.611526
v 0.682608 4.585923 -0.543386
v 0.420869 4.763179 -0.265685
v -0.554017 5.491257 0.560473
v -0.702334 5.235408 1.094004
v -1.033479 4.952423 1.436187
v -1.346431 4.742967 1.587653
v -1.239838 4.962887 1.259998
v -0.930345 5.218784 0.879508
v -0.427635 5.500469 0.679367
v -0.256075 5.692904 0.355117
v -0.850719 3.513785 -0.316318
v -1.388569 3.281539 -0.226701
v -1.839853 3.031595 -0.379986
v -2.114581 2.849396 -0.596422
v -1.775175 3.051970 -0.634943
v -1.300947 3.276471 -0.518353
v -0.899288 3.516594 -0.154661
v -0.535888 3.688632 -0.136616
v -0.124237 6.499608 -0.736917
v -0.564581 6.139852 -1.081743
v -0.731504 5.761187 -1.521506
v -0.723961 5.488885 -1.870194
v -0.465958 5.778862 -1.651239
v -0.249016 6.131628 -1.212832
v -0.299146 6.504165 -0.664257
v -0.071025 6.769438 -0.378752
v 0.335081 8.905233 -0.753831
v 0.253040 8.656002 -1.297058
v 0.413916 8.380788 -1.742552
v 0.635602 8.177268 -2.008188
v 0.671618 8.392290 -1.667740
v 0.546054 8.640746 -1.196759
v 0.172671 8.913689 -0.809424
v 0.148903 9.100925 -0.445832
v 0.215652 7.320910 0.731612
v 0.611907 7.069414 1.119317
v 0.753091 6.791701 1.575943
v 0.735976 6.586332 1.924653
v 0.500042 6.803306 1.672313
v 0.314924 7.054019 1.216620
v 0.380262 7.329443 0.677680
v 0.178417 7.518379 0.370361
v 0.772817 4.570548 -0.392446
v 1.071732 4.340378 -0.883999
v 1.495740 4.072439 -1.138977
v 1.847160 3.868640 -1.209380
v 1.647436 4.073676 -0.908560
v 1.234238 4.312069 -0.611554
v 0.682745 4.586239 -0.543455
v 0.421016 4.763494 -0.265739
v -0.554155 5.491565 0.560570
v -0.702436 5.235713 1.094143
v -1.033584 4.952713 1.436353
v -1.346534 4.743248 1.587836
v -1.239979 4.963181 1.260122
v -0.930495 5.219088 0.879596
v -0.427748 5.500779 0.679488
v -0.256201 5.693213 0.355227
v -0.850855 3.514102 -0.316383
v -1.388726 3.281852 -0.226715
v -1.840037 3.031893 -0.379991
v -2.114780 2.849684 -0.596419
v -1.775336 3.052275 -0.635000
v -1.301080 3.276784 -0.518432
v -0.899434 3.516911 -0.154692
v -0.536030 3.688951 -0.136664
v 0.044706 9.703598 -0.005766
v 0.200543 4.725934 0.027925
v 0.251486 1.418487 0.036700
v -0.102182 4.696221 0.108532
v -0.172921 1.414074 0.150905
v 0.109814 4.721575 -0.157016
v 0.103191 1.402409 -0.192663
v 0.072911 4.705860 0.191113
v 0.080525 1.409332 0.249027
v -0.078252 4.689322 -0.107008
v -0.150378 1.397394 -0.124926
v -0.041356 8.035473 -0.117585
v 0.074424 8.040073 0.095025
v 0.097102 8.062710 -0.154343
v -0.052280 8.025692 0.035527
v 0.161535 8.050991 -0.021320
v -0.324829 5.959310 -0.282318
v -0.318127 5.947556 -0.302745
v -0.334520 5.937675 -0.287419
v 0.187583 5.074632 0.335297
v 0.172272 5.063173 0.355136
v 0.194384 5.049974 0.345310
v -0.618466 4.382133 0.513698
v -0.632881 4.374073 0.503808
v -0.626755 4.366013 0.520181
v -0.232163 4.243399 0.211551
v -0.257623 4.222947 0.184338
v -0.237345 4.202494 0.215604
v -0.235323 8.607685 -0.257210
v -0.220762 8.593939 -0.276140
v -0.238141 8.580460 -0.259527
v 0.267675 6.940257 0.314240
v 0.247990 6.952034 0.322902
v 0.262641 6.962637 0.306372
vt 0.8326 0.9179
vt 0.8266 0.9179
vt 0.8266 0.9177
vt 0.8326 0.9175
vt 0.8325 0.9186
vt 0.8266 0.9182
vt 0.8266 0.9181
vt 0.8326 0.9182
vt 0.8265 0.9347
vt 0.8266 0.9346
vt 0.8267 0.9347
vt 0.8325 0.9172
vt 0.8266 0.9175
vt 0.8265 0.9174
vt 0.8325 0.9169
vt 0.8307 0.9218
vt 0.8349 0.9216
vt 0.8349 0.9218
vt 0.8307 0.9222
vt 0.8307 0.9202
vt 0.8349 0.9205
vt 0.8348 0.9208
vt 0.8306 0.9207
vt 0.8306 0.9210
vt 0.8348 0.9210
vt 0.8348 0.9213
vt 0.8306 0.9214
vt 0.8265 0.9325
vt 0.8267 0.9323
vt 0.8268 0.9325
vt 0.8302 0.9087
vt 0.8339 0.9082
vt 0.8339 0.9085
vt 0.8302 0.9093
vt 0.8302 0.9062
vt 0.8338 0.9068
vt 0.8337 0.9071
vt 0.8302 0.9068
vt 0.8302 0.9074
vt 0.8338 0.9075
vt 0.8338 0.9078
vt 0.8302 0.9081
vt 0.8375 0.9080
vt 0.8413 0.9079
vt 0.8413 0.9081
vt 0.8376 0.9083
vt 0.8375 0.9069
vt 0.8412 0.9071
vt 0.8411 0.9073
vt 0.8374 0.9072
vt 0.8374 0.9075
vt 0.8411 0.9075
vt 0.8412 0.9077
vt 0.8375 0.9078
vt 0.8269 0.9338
vt 0.8267 0.9339
vt 0.8267 0.9337
vt 0.8307 0.9234
vt 0.8266 0.9236
vt 0.8265 0.9233
vt 0.8306 0.9230
vt 0.8307 0.9249
vt 0.8266 0.9246
vt 0.8266 0.9244
vt 0.8307 0.9245
vt 0.8307 0.9241
vt 0.8266 0.9241
vt 0.8266 0.9239
vt 0.8307 0.9238
vt 0.8265 0.9330
vt 0.8265 0.9327
vt 0.8268 0.9329
vt 0.8325 0.9124
vt 0.8385 0.9121
vt 0.8386 0.9122
vt 0.8326 0.9127
vt 0.8325 0.9109
vt 0.8385 0.9113
vt 0.8384 0.9115
vt 0.8325 0.9113
vt 0.8325 0.9117
vt 0.8385 0.9117
vt 0.8385 0.9119
vt 0.8325 0.9121
vt 0.8265 0.9344
vt 0.8266 0.9342
vt 0.8267 0.9344
vt 0.8189 0.9163
vt 0.8195 0.9409
vt 0.8183 0.9409
vt 0.8175 0.9161
vt 0.8272 0.9160
vt 0.8263 0.9410
vt 0.8252 0.9410
vt 0.8258 0.9158
vt 0.8216 0.9164
vt 0.8217 0.9409
vt 0.8206 0.9409
vt 0.8203 0.9165
vt 0.8163 0.9162
vt 0.8171 0.9410
vt 0.8160 0.9410
vt 0.8152 0.9162
vt 0.8243 0.9161
vt 0.8241 0.9410
vt 0.8229 0.9409
vt 0.8229 0.9164
vt 0.8043 0.9149
vt 0.8027 0.9390
vt 0.8005 0.9382
vt 0.8018 0.9144
vt 0.8011 0.9639
vt 0.7994 0.9889
vt 0.7977 0.9896
vt 0.7991 0.9639
vt 0.7894 0.9148
vt 0.7895 0.9390
vt 0.7871 0.9390
vt 0.7867 0.9148
vt 0.7899 0.9638
vt 0.7903 0.9887
vt 0.7891 0.9888
vt 0.7881 0.9639
vt 0.7994 0.9147
vt 0.7984 0.9389
vt 0.7963 0.9396
vt 0.7970 0.9151
vt 0.7973 0.9642
vt 0.7963 0.9896
vt 0.7949 0.9896
vt 0.7956 0.9646
vt 0.8092 0.9155
vt 0.8070 0.9398
vt 0.8049 0.9397
vt 0.8067 0.9153
vt 0.8049 0.9643
vt 0.8028 0.9888
vt 0.8012 0.9882
vt 0.8030 0.9640
vt 0.7945 0.9149
vt 0.7941 0.9392
vt 0.7919 0.9389
vt 0.7921 0.9147
vt 0.7937 0.9642
vt 0.7932 0.9891
vt 0.7915 0.9887
vt 0.7917 0.9638
vt 0.8169 0.8054
vt 0.8130 0.8000
vt 0.8186 0.7959
vt 0.8243 0.8000
vt 0.8256 0.8174
vt 0.8187 0.8174
vt 0.8278 0.8108
vt 0.6872 0.3490
vt 0.6893 0.3418
vt 0.6914 0.3459
vt 0.6893 0.3562
vt 0.6905 0.3336
vt 0.6939 0.3356
vt 0.6812 0.3121
vt 0.6751 0.3121
vt 0.6723 0.2989
vt 0.6797 0.2989
vt 0.6710 0.2888
vt 0.6768 0.2888
vt 0.7021 0.2989
vt 0.6975 0.2888
vt 0.7033 0.2888
vt 0.6820 0.2909
vt 0.6814 0.2787
vt 0.6843 0.2828
vt 0.6872 0.2763
vt 0.6843 0.2696
vt 0.6691 0.3043
vt 0.6963 0.3253
vt 0.6992 0.3121
vt 0.7024 0.3172
vt 0.6924 0.2909
vt 0.6872 0.2930
vt 0.6872 0.2870
vt 0.6901 0.2828
vt 0.6932 0.3121
vt 0.6872 0.3121
vt 0.6872 0.2989
vt 0.6946 0.2989
vt 0.6839 0.3336
vt 0.6872 0.3315
vt 0.6872 0.3377
vt 0.6851 0.3418
vt 0.9351 0.3490
vt 0.9372 0.3418
vt 0.9393 0.3459
vt 0.9372 0.3562
vt 0.9384 0.3336
vt 0.9418 0.3356
vt 0.9291 0.3121
vt 0.9232 0.3121
vt 0.9203 0.2989
vt 0.9277 0.2989
vt 0.9190 0.2888
vt 0.9248 0.2888
vt 0.9500 0.2989
vt 0.9455 0.2888
vt 0.9513 0.2888
vt 0.9299 0.2909
vt 0.9293 0.2787
vt 0.9322 0.2828
vt 0.9351 0.2763
vt 0.9322 0.2696
vt 0.9171 0.3043
vt 0.9443 0.3253
vt 0.9471 0.3121
vt 0.9503 0.3172
vt 0.9403 0.2909
vt 0.9351 0.2930
vt 0.9351 0.2870
vt 0.9381 0.2828
vt 0.9411 0.3121
vt 0.9351 0.3121
vt 0.9351 0.2989
vt 0.9426 0.2989
vt 0.9318 0.3336
vt 0.9351 0.3315
vt 0.9351 0.3377
vt 0.9331 0.3418
vt 0.9351 0.3490
vt 0.9372 0.3418
vt 0.9393 0.3459
vt 0.9372 0.3562
vt 0.9384 0.3336
vt 0.9418 0.3356
vt 0.9291 0.3121
vt 0.9232 0.3121
vt 0.9203 0.2989
vt 0.9277 0.2989
vt 0.9190 0.2888
vt 0.9248 0.2888
vt 0.9500 0.2989
vt 0.9455 0.2888
vt 0.9513 0.2888
vt 0.9299 0.2909
vt 0.9293 0.2787
vt 0.9322 0.2828
vt 0.9351 0.2763
vt 0.9322 0.2696
vt 0.9171 0.3043
vt 0.9443 0.3253
vt 0.9471 0.3121
vt 0.9503 0.3172
vt 0.9403 0.2909
vt 0.9351 0.2930
vt 0.9351 0.2870
vt 0.9381 0.2828
vt 0.9411 0.3121
vt 0.9351 0.3121
vt 0.9351 0.2989
vt 0.9426 0.2989
vt 0.9318 0.3336
vt 0.9351 0.3315
vt 0.9351 0.3377
vt 0.9331 0.3418
vt 0.8144 0.3490
vt 0.8165 0.3418
vt 0.8186 0.3459
vt 0.8165 0.3562
vt 0.8177 0.3336
vt 0.8210 0.3356
vt 0.8084 0.3121
vt 0.8023 0.3121
vt 0.7995 0.2989
vt 0.8069 0.2989
vt 0.7982 0.2888
vt 0.8040 0.2888
vt 0.8293 0.2989
vt 0.8248 0.2888
vt 0.8305 0.2888
vt 0.8092 0.2909
vt 0.8086 0.2787
vt 0.8115 0.2828
vt 0.8144 0.2763
vt 0.8115 0.2696
vt 0.7964 0.3043
vt 0.8235 0.3253
vt 0.8264 0.3121
vt 0.8296 0.3172
vt 0.8196 0.2909
vt 0.8144 0.2930
vt 0.8144 0.2870
vt 0.8173 0.2828
vt 0.8204 0.3121
vt 0.8144 0.3121
vt 0.8144 0.2989
vt 0.8219 0.2989
vt 0.8110 0.3336
vt 0.8144 0.3315
vt 0.8144 0.3377
vt 0.8123 0.3418
vt 0.8144 0.3490
vt 0.8165 0.3418
vt 0.8186 0.3459
vt 0.8165 0.3562
vt 0.8177 0.3336
vt 0.8210 0.3356
vt 0.8084 0.3121
vt 0.8023 0.3121
vt 0.7995 0.2989
vt 0.8069 0.2989
vt 0.7982 0.2888
vt 0.8040 0.2888
vt 0.8293 0.2989
vt 0.8248 0.2888
vt 0.8305 0.2888
vt 0.8092 0.2909
vt 0.8086 0.2787
vt 0.8115 0.2828
vt 0.8144 0.2763
vt 0.8115 0.2696
vt 0.7964 0.3043
vt 0.8235 0.3253
vt 0.8264 0.3121
vt 0.8296 0.3172
vt 0.8196 0.2909
vt 0.8144 0.2930
vt 0.8144 0.2870
vt 0.8173 0.2828
vt 0.8204 0.3121
vt 0.8144 0.3121
vt 0.8144 0.2989
vt 0.8219 0.2989
vt 0.8110 0.3336
vt 0.8144 0.3315
vt 0.8144 0.3377
vt 0.8123 0.3418
vt 0.9351 0.3490
vt 0.9372 0.3418
vt 0.9393 0.3459
vt 0.9372 0.3562
vt 0.9384 0.3336
vt 0.9418 0.3356
vt 0.9291 0.3121
vt 0.9232 0.3121
vt 0.9203 0.2989
vt 0.9277 0.2989
vt 0.9190 0.2888
vt 0.9248 0.2888
vt 0.9500 0.2989
vt 0.9455 0.2888
vt 0.9513 0.2888
vt 0.9299 0.2909
vt 0.9293 0.2787
vt 0.9322 0.2828
vt 0.9351 0.2763
vt 0.9322 0.2696
vt 0.9171 0.3043
vt 0.9443 0.3253
vt 0.9471 0.3121
vt 0.9503 0.3172
vt 0.9403 0.2909
vt 0.9351 0.2930
vt 0.9351 0.2870
vt 0.9381 0.2828
vt 0.9411 0.3121
vt 0.9351 0.3121
vt 0.9351 0.2989
vt 0.9426 0.2989
vt 0.9318 0.3336
vt 0.9351 0.3315
vt 0.9351 0.3377
vt 0.9331 0.3418
vt 0.6872 0.3490
vt 0.6893 0.3418
vt 0.6872 0.3377
vt 0.6851 0.3418
vt 0.6905 0.3336
vt 0.6939 0.3356
vt 0.6963 0.3253
vt 0.6918 0.3253
vt 0.6812 0.3121
vt 0.6751 0.3121
vt 0.6780 0.3253
vt 0.6826 0.3253
vt 0.6814 0.2787
vt 0.6755 0.2787
vt 0.6768 0.2888
vt 0.7046 0.2787
vt 0.6988 0.2787
vt 0.7033 0.2888
vt 0.6820 0.2909
vt 0.6723 0.2989
vt 0.6797 0.2989
vt 0.6872 0.2763
vt 0.6843 0.2828
vt 0.6872 0.2870
vt 0.6901 0.2828
vt 0.6660 0.3096
vt 0.6720 0.3174
vt 0.6691 0.3043
vt 0.7084 0.3091
vt 0.7053 0.3040
vt 0.7024 0.3172
vt 0.6924 0.2909
vt 0.6872 0.2930
vt 0.6872 0.2989
vt 0.6946 0.2989
vt 0.6932 0.3121
vt 0.6872 0.3121
vt 0.6872 0.3253
vt 0.6839 0.3336
vt 0.6872 0.3315
vt 0.9351 0.3490
vt 0.9372 0.3418
vt 0.9351 0.3377
vt 0.9331 0.3418
vt 0.9384 0.3336
vt 0.9418 0.3356
vt 0.9443 0.3253
vt 0.9397 0.3253
vt 0.9291 0.3121
vt 0.9232 0.3121
vt 0.9260 0.3253
vt 0.9305 0.3253
vt 0.9293 0.2787
vt 0.9235 0.2787
vt 0.9248 0.2888
vt 0.9526 0.2787
vt 0.9468 0.2787
vt 0.9513 0.2888
vt 0.9299 0.2909
vt 0.9203 0.2989
vt 0.9277 0.2989
vt 0.9351 0.2763
vt 0.9322 0.2828
vt 0.9351 0.2870
vt 0.9381 0.2828
vt 0.9139 0.3096
vt 0.9200 0.3174
vt 0.9171 0.3043
vt 0.9564 0.3091
vt 0.9532 0.3040
vt 0.9503 0.3172
vt 0.9403 0.2909
vt 0.9351 0.2930
vt 0.9351 0.2989
vt 0.9426 0.2989
vt 0.9411 0.3121
vt 0.9351 0.3121
vt 0.9351 0.3253
vt 0.9318 0.3336
vt 0.9351 0.3315
vt 0.9351 0.3490
vt 0.9372 0.3418
vt 0.9351 0.3377
vt 0.9331 0.3418
vt 0.9384 0.3336
vt 0.9418 0.3356
vt 0.9443 0.3253
vt 0.9397 0.3253
vt 0.9291 0.3121
vt 0.9232 0.3121
vt 0.9260 0.3253
vt 0.9305 0.3253
vt 0.9293 0.2787
vt 0.9235 0.2787
vt 0.9248 0.2888
vt 0.9526 0.2787
vt 0.9468 0.2787
vt 0.9513 0.2888
vt 0.9299 0.2909
vt 0.9203 0.2989
vt 0.9277 0.2989
vt 0.9351 0.2763
vt 0.9322 0.2828
vt 0.9351 0.2870
vt 0.9381 0.2828
vt 0.9139 0.3096
vt 0.9200 0.3174
vt 0.9171 0.3043
vt 0.9564 0.3091
vt 0.9532 0.3040
vt 0.9503 0.3172
vt 0.9403 0.2909
vt 0.9351 0.2930
vt 0.9351 0.2989
vt 0.9426 0.2989
vt 0.9411 0.3121
vt 0.9351 0.3121
vt 0.9351 0.3253
vt 0.9318 0.3336
vt 0.9351 0.3315
vt 0.8144 0.3490
vt 0.8165 0.3418
vt 0.8144 0.3377
vt 0.8123 0.3418
vt 0.8177 0.3336
vt 0.8210 0.3356
vt 0.8235 0.3253
vt 0.8189 0.3253
vt 0.8084 0.3121
vt 0.8023 0.3121
vt 0.8052 0.3253
vt 0.8098 0.3253
vt 0.8086 0.2787
vt 0.8027 0.2787
vt 0.8040 0.2888
vt 0.8318 0.2787
vt 0.8260 0.2787
vt 0.8305 0.2888
vt 0.8092 0.2909
vt 0.7995 0.2989
vt 0.8069 0.2989
vt 0.8144 0.2763
vt 0.8115 0.2828
vt 0.8144 0.2870
vt 0.8173 0.2828
vt 0.7932 0.3096
vt 0.7992 0.3174
vt 0.7964 0.3043
vt 0.8356 0.3091
vt 0.8325 0.3040
vt 0.8296 0.3172
vt 0.8196 0.2909
vt 0.8144 0.2930
vt 0.8144 0.2989
vt 0.8219 0.2989
vt 0.8204 0.3121
vt 0.8144 0.3121
vt 0.8144 0.3253
vt 0.8110 0.3336
vt 0.8144 0.3315
vt 0.8144 0.3490
vt 0.8165 0.3418
vt 0.8144 0.3377
vt 0.8123 0.3418
vt 0.8177 0.3336
vt 0.8210 0.3356
vt 0.8235 0.3253
vt 0.8189 0.3253
vt 0.8084 0.3121
vt 0.8023 0.3121
vt 0.8052 0.3253
vt 0.8098 0.3253
vt 0.8086 0.2787
vt 0.8027 0.2787
vt 0.8040 0.2888
vt 0.8318 0.2787
vt 0.8260 0.2787
vt 0.8305 0.2888
vt 0.8092 0.2909
vt 0.7995 0.2989
vt 0.8069 0.2989
vt 0.8144 0.2763
vt 0.8115 0.2828
vt 0.8144 0.2870
vt 0.8173 0.2828
vt 0.7932 0.3096
vt 0.7992 0.3174
vt 0.7964 0.3043
vt 0.8356 0.3091
vt 0.8325 0.3040
vt 0.8296 0.3172
vt 0.8196 0.2909
vt 0.8144 0.2930
vt 0.8144 0.2989
vt 0.8219 0.2989
vt 0.8204 0.3121
vt 0.8144 0.3121
vt 0.8144 0.3253
vt 0.8110 0.3336
vt 0.8144 0.3315
vt 0.9351 0.3490
vt 0.9372 0.3418
vt 0.9351 0.3377
vt 0.9331 0.3418
vt 0.9384 0.3336
vt 0.9418 0.3356
vt 0.9443 0.3253
vt 0.9397 0.3253
vt 0.9291 0.3121
vt 0.9232 0.3121
vt 0.9260 0.3253
vt 0.9305 0.3253
vt 0.9293 0.2787
vt 0.9235 0.2787
vt 0.9248 0.2888
vt 0.9526 0.2787
vt 0.9468 0.2787
vt 0.9513 0.2888
vt 0.9299 0.2909
vt 0.9203 0.2989
vt 0.9277 0.2989
vt 0.9351 0.2763
vt 0.9322 0.2828
vt 0.9351 0.2870
vt 0.9381 0.2828
vt 0.9139 0.3096
vt 0.9200 0.3174
vt 0.9171 0.3043
vt 0.9564 0.3091
vt 0.9532 0.3040
vt 0.9503 0.3172
vt 0.9403 0.2909
vt 0.9351 0.2930
vt 0.9351 0.2989
vt 0.9426 0.2989
vt 0.9411 0.3121
vt 0.9351 0.3121
vt 0.9351 0.3253
vt 0.9318 0.3336
vt 0.9351 0.3315
vt 0.9285 0.3356
vt 0.9310 0.3459
vt 0.9471 0.3121
vt 0.9500 0.2989
vt 0.9455 0.2888
vt 0.9410 0.2787
vt 0.9381 0.2696
vt 0.9351 0.2606
vt 0.9322 0.2696
vt 0.9190 0.2888
vt 0.9177 0.2787
vt 0.9393 0.3459
vt 0.9331 0.3562
vt 0.9351 0.3666
vt 0.9372 0.3562
vt 0.8077 0.3356
vt 0.8102 0.3459
vt 0.8264 0.3121
vt 0.8293 0.2989
vt 0.8248 0.2888
vt 0.8202 0.2787
vt 0.8173 0.2696
vt 0.8144 0.2606
vt 0.8115 0.2696
vt 0.7982 0.2888
vt 0.7969 0.2787
vt 0.8186 0.3459
vt 0.8123 0.3562
vt 0.8144 0.3666
vt 0.8165 0.3562
vt 0.8077 0.3356
vt 0.8102 0.3459
vt 0.8264 0.3121
vt 0.8293 0.2989
vt 0.8248 0.2888
vt 0.8202 0.2787
vt 0.8173 0.2696
vt 0.8144 0.2606
vt 0.8115 0.2696
vt 0.7982 0.2888
vt 0.7969 0.2787
vt 0.8186 0.3459
vt 0.8123 0.3562
vt 0.8144 0.3666
vt 0.8165 0.3562
vt 0.9285 0.3356
vt 0.9310 0.3459
vt 0.9471 0.3121
vt 0.9500 0.2989
vt 0.9455 0.2888
vt 0.9410 0.2787
vt 0.9381 0.2696
vt 0.9351 0.2606
vt 0.9322 0.2696
vt 0.9190 0.2888
vt 0.9177 0.2787
vt 0.9393 0.3459
vt 0.9331 0.3562
vt 0.9351 0.3666
vt 0.9372 0.3562
vt 0.9285 0.3356
vt 0.9310 0.3459
vt 0.9471 0.3121
vt 0.9500 0.2989
vt 0.9455 0.2888
vt 0.9410 0.2787
vt 0.9381 0.2696
vt 0.9351 0.2606
vt 0.9322 0.2696
vt 0.9190 0.2888
vt 0.9177 0.2787
vt 0.9393 0.3459
vt 0.9331 0.3562
vt 0.9351 0.3666
vt 0.9372 0.3562
vt 0.6805 0.3356
vt 0.6830 0.3459
vt 0.6992 0.3121
vt 0.7021 0.2989
vt 0.6975 0.2888
vt 0.6930 0.2787
vt 0.6901 0.2696
vt 0.6872 0.2606
vt 0.6843 0.2696
vt 0.6710 0.2888
vt 0.6697 0.2787
vt 0.6914 0.3459
vt 0.6851 0.3562
vt 0.6872 0.3666
vt 0.6893 0.3562
vt 0.9285 0.3356
vt 0.9310 0.3459
vt 0.9260 0.3253
vt 0.9305 0.3253
vt 0.9351 0.3253
vt 0.9397 0.3253
vt 0.9410 0.2787
vt 0.9532 0.3040
vt 0.9564 0.3091
vt 0.9200 0.3174
vt 0.9139 0.3096
vt 0.9381 0.2696
vt 0.9351 0.2606
vt 0.9468 0.2787
vt 0.9526 0.2787
vt 0.9235 0.2787
vt 0.9177 0.2787
vt 0.9331 0.3562
vt 0.9351 0.3666
vt 0.8077 0.3356
vt 0.8102 0.3459
vt 0.8052 0.3253
vt 0.8098 0.3253
vt 0.8144 0.3253
vt 0.8189 0.3253
vt 0.8202 0.2787
vt 0.8325 0.3040
vt 0.8356 0.3091
vt 0.7992 0.3174
vt 0.7932 0.3096
vt 0.8173 0.2696
vt 0.8144 0.2606
vt 0.8260 0.2787
vt 0.8318 0.2787
vt 0.8027 0.2787
vt 0.7969 0.2787
vt 0.8123 0.3562
vt 0.8144 0.3666
vt 0.8077 0.3356
vt 0.8102 0.3459
vt 0.8052 0.3253
vt 0.8098 0.3253
vt 0.8144 0.3253
vt 0.8189 0.3253
vt 0.8202 0.2787
vt 0.8325 0.3040
vt 0.8356 0.3091
vt 0.7992 0.3174
vt 0.7932 0.3096
vt 0.8173 0.2696
vt 0.8144 0.2606
vt 0.8260 0.2787
vt 0.8318 0.2787
vt 0.8027 0.2787
vt 0.7969 0.2787
vt 0.8123 0.3562
vt 0.8144 0.3666
vt 0.9285 0.3356
vt 0.9310 0.3459
vt 0.9260 0.3253
vt 0.9305 0.3253
vt 0.9351 0.3253
vt 0.9397 0.3253
vt 0.9410 0.2787
vt 0.9532 0.3040
vt 0.9564 0.3091
vt 0.9200 0.3174
vt 0.9139 0.3096
vt 0.9381 0.2696
vt 0.9351 0.2606
vt 0.9468 0.2787
vt 0.9526 0.2787
vt 0.9235 0.2787
vt 0.9177 0.2787
vt 0.9331 0.3562
vt 0.9351 0.3666
vt 0.9285 0.3356
vt 0.9310 0.3459
vt 0.9260 0.3253
vt 0.9305 0.3253
vt 0.9351 0.3253
vt 0.9397 0.3253
vt 0.9410 0.2787
vt 0.9532 0.3040
vt 0.9564 0.3091
vt 0.9200 0.3174
vt 0.9139 0.3096
vt 0.9381 0.2696
vt 0.9351 0.2606
vt 0.9468 0.2787
vt 0.9526 0.2787
vt 0.9235 0.2787
vt 0.9177 0.2787
vt 0.9331 0.3562
vt 0.9351 0.3666
vt 0.6805 0.3356
vt 0.6830 0.3459
vt 0.6780 0.3253
vt 0.6826 0.3253
vt 0.6872 0.3253
vt 0.6918 0.3253
vt 0.6930 0.2787
vt 0.7053 0.3040
vt 0.7084 0.3091
vt 0.6720 0.3174
vt 0.6660 0.3096
vt 0.6901 0.2696
vt 0.6872 0.2606
vt 0.6988 0.2787
vt 0.7046 0.2787
vt 0.6755 0.2787
vt 0.6697 0.2787
vt 0.6851 0.3562
vt 0.6872 0.3666
vt 0.8209 0.8108
vt 0.8300 0.8041
vt 0.8117 0.8174
vt 0.8095 0.8108
vt 0.8073 0.8041
vt 0.7950 0.8905
vt 0.7922 0.8905
vt 0.7977 0.8905
vt 0.8092 0.9398
vt 0.8068 0.9646
vt 0.8044 0.9894
vt 0.8114 0.8913
vt 0.8086 0.8910
vt 0.8142 0.8916
vt 0.8117 0.9157
vt 0.8004 0.8906
vt 0.8031 0.8906
vt 0.7893 0.8906
vt 0.7863 0.8906
vt 0.8059 0.8908
vt 0.8246 0.8912
vt 0.8229 0.8919
vt 0.8264 0.8905
vt 0.8155 0.8914
vt 0.8143 0.8915
vt 0.8166 0.8913
vt 0.8215 0.8920
vt 0.8201 0.8920
vt 0.8281 0.8910
vt 0.8298 0.8915
vt 0.8286 0.9162
vt 0.8275 0.9410
vt 0.8184 0.8917
vt 0.8268 0.9342
vt 0.8269 0.9344
vt 0.8267 0.9341
vt 0.8266 0.9116
vt 0.8265 0.9122
vt 0.8266 0.9111
vt 0.8266 0.9106
vt 0.8266 0.9101
vt 0.8326 0.9106
vt 0.8386 0.9111
vt 0.8266 0.9127
vt 0.8266 0.9132
vt 0.8268 0.9326
vt 0.8270 0.9328
vt 0.8265 0.9325
vt 0.8349 0.9241
vt 0.8349 0.9236
vt 0.8349 0.9247
vt 0.8349 0.9252
vt 0.8348 0.9257
vt 0.8306 0.9253
vt 0.8265 0.9249
vt 0.8349 0.9231
vt 0.8348 0.9226
vt 0.8265 0.9338
vt 0.8265 0.9336
vt 0.8265 0.9340
vt 0.8339 0.9065
vt 0.8376 0.9067
vt 0.8413 0.9069
vt 0.8266 0.9074
vt 0.8265 0.9083
vt 0.8267 0.9066
vt 0.8266 0.9057
vt 0.8265 0.9048
vt 0.8302 0.9057
vt 0.8265 0.9092
vt 0.8265 0.9101
vt 0.8269 0.9323
vt 0.8270 0.9325
vt 0.8268 0.9320
vt 0.8265 0.9210
vt 0.8265 0.9215
vt 0.8265 0.9205
vt 0.8266 0.9200
vt 0.8266 0.9195
vt 0.8307 0.9198
vt 0.8349 0.9202
vt 0.8266 0.9220
vt 0.8266 0.9226
vt 0.8385 0.9169
vt 0.8385 0.9164
vt 0.8386 0.9174
vt 0.8268 0.9346
vt 0.8269 0.9347
vt 0.8267 0.9344
vt 0.8385 0.9189
vt 0.8385 0.9184
vt 0.8385 0.9195
vt 0.8325 0.9189
vt 0.8265 0.9184
vt 0.8385 0.9179
vn 0.2654 0.8199 -0.5073
vn 0.5045 0.8602 0.0743
vn 0.8818 0.0253 -0.4710
vn 0.8599 0.0107 -0.5103
vn -0.8377 0.0026 0.5461
vn -0.2203 0.3210 0.9211
vn -0.5490 0.8330 0.0692
vn -0.5713 0.8201 0.0330
vn 0.5883 -0.8086 0.0074
vn 0.7939 -0.2269 0.5642
vn -0.2217 -0.7767 0.5896
vn -0.2478 -0.8013 0.5445
vn -0.3962 -0.8615 0.3174
vn -0.8248 -0.4826 -0.2946
vn 0.1766 -0.8449 -0.5050
vn 0.2965 -0.8680 -0.3984
vn 0.6916 -0.0125 -0.7222
vn -0.0681 0.0944 -0.9932
vn 0.2716 0.8555 -0.4409
vn 0.3627 0.8613 -0.3558
vn -0.3312 0.8720 0.3604
vn -0.7066 0.6744 -0.2143
vn -0.8107 0.0210 0.5850
vn -0.7273 0.0131 0.6862
vn 0.0931 -0.8347 0.5427
vn 0.0832 -0.8298 0.5518
vn -0.5426 -0.8141 -0.2067
vn -0.5434 -0.8132 -0.2082
vn -0.6609 0.0118 -0.7504
vn -0.6453 0.0120 -0.7638
vn -0.1542 0.8399 -0.5203
vn -0.1849 0.8485 -0.4959
vn 0.4630 0.8489 0.2549
vn 0.4861 0.8411 0.2372
vn 0.5910 -0.0019 0.8067
vn 0.5820 0.0081 0.8132
vn 0.0735 -0.8248 0.5607
vn -0.5057 -0.2152 0.8354
vn -0.6392 -0.7568 -0.1364
vn -0.5483 -0.8086 -0.2135
vn -0.6315 0.0070 -0.7754
vn -0.9352 0.3275 -0.1346
vn -0.1728 0.8496 -0.4983
vn -0.1147 0.8291 -0.5473
vn 0.5100 0.8313 0.2210
vn -0.1038 0.8545 0.5090
vn 0.5187 0.0440 0.8538
vn 0.6020 0.0083 0.7985
vn 0.5844 -0.8113 -0.0144
vn 0.8250 -0.2150 0.5226
vn -0.1241 -0.7150 0.6880
vn -0.2170 -0.7876 0.5767
vn -0.8005 0.0198 0.5990
vn -0.1317 0.3442 0.9296
vn -0.4852 0.8614 0.1503
vn -0.5589 0.8274 0.0555
vn 0.2431 0.8078 -0.5371
vn 0.5341 0.8376 0.1146
vn 0.8894 0.0462 -0.4547
vn 0.8284 -0.0031 -0.5602
vn -0.6296 -0.7455 0.2186
vn -0.9607 -0.1374 -0.2410
vn -0.0802 -0.7856 -0.6135
vn -0.0424 -0.8134 -0.5801
vn 0.5851 -0.0727 -0.8077
vn -0.0903 0.3118 -0.9458
vn 0.5684 0.7748 -0.2768
vn 0.6007 0.7592 -0.2506
vn 0.0147 0.8343 0.5512
vn -0.4101 0.9074 0.0916
vn -0.6500 0.1060 0.7525
vn -0.6172 0.0886 0.7818
vn 0.9948 0.0161 0.1001
vn 0.9396 0.2855 0.1889
vn 0.7711 0.1126 0.6266
vn 0.7691 0.0205 0.6388
vn -0.8554 0.0101 0.5178
vn -0.7417 0.2799 0.6095
vn -0.9775 0.2015 -0.0626
vn -0.9970 0.0093 -0.0769
vn 0.4375 0.0178 -0.8990
vn 0.2211 0.2986 -0.9284
vn 0.8339 0.2204 -0.5060
vn 0.8769 0.0204 -0.4802
vn 0.2570 0.0216 0.9662
vn 0.2412 0.3194 0.9164
vn -0.3731 0.1123 0.9210
vn -0.3828 0.0185 0.9236
vn -0.7703 0.0068 -0.6376
vn -0.6519 0.2868 -0.7020
vn -0.2364 0.0816 -0.9682
vn -0.2235 0.0145 -0.9746
vn -0.7782 0.0288 -0.6274
vn -0.7775 0.0204 -0.6286
vn -0.2398 0.0193 -0.9706
vn -0.2478 0.0327 -0.9682
vn -0.7725 0.0104 -0.6349
vn -0.7662 0.0063 -0.6425
vn -0.2058 0.0040 -0.9786
vn -0.2200 0.0001 -0.9755
vn 0.2617 -0.0005 0.9651
vn 0.2582 0.0176 0.9659
vn -0.4007 0.0244 0.9159
vn -0.3770 0.0004 0.9262
vn 0.2568 0.0338 0.9659
vn 0.2567 0.0279 0.9661
vn -0.3934 0.0306 0.9188
vn -0.4053 0.0451 0.9131
vn 0.3878 0.0271 -0.9214
vn 0.4142 0.0096 -0.9101
vn 0.8611 0.0116 -0.5083
vn 0.8368 0.0249 -0.5469
vn 0.4473 -0.0074 -0.8943
vn 0.4605 0.0030 -0.8876
vn 0.8956 0.0085 -0.4447
vn 0.8843 0.0019 -0.4670
vn -0.8659 0.0073 0.5002
vn -0.8855 0.0249 0.4639
vn -0.9947 0.0256 -0.0998
vn -0.9965 0.0225 -0.0811
vn -0.8819 0.0386 0.4698
vn -0.8632 0.0243 0.5043
vn -0.9960 0.0178 -0.0874
vn -0.9944 0.0270 -0.1022
vn 0.9998 0.0176 0.0132
vn 0.9984 0.0157 0.0542
vn 0.7753 0.0201 0.6313
vn 0.7883 0.0103 0.6152
vn 0.9950 0.0132 0.0986
vn 0.9917 0.0131 0.1280
vn 0.7678 0.0236 0.6403
vn 0.7700 0.0276 0.6374
vn 0.1211 0.8680 0.4815
vn -0.3985 0.9071 -0.1355
vn -0.4245 0.9015 -0.0836
vn -0.4166 0.9042 -0.0939
vn -0.3982 0.9079 -0.1313
vn -0.4481 0.8936 -0.0260
vn -0.4548 0.8905 -0.0142
vn -0.3448 0.9023 -0.2587
vn -0.2529 0.8842 -0.3927
vn -0.3409 0.8776 -0.3371
vn -0.3656 0.8943 -0.2580
vn -0.3906 0.7903 -0.4721
vn -0.3969 0.8321 -0.3874
vn -0.5128 0.8581 0.0253
vn -0.6025 0.7960 -0.0571
vn -0.5649 0.8095 -0.1603
vn -0.3979 0.8791 -0.2626
vn -0.4859 0.8434 -0.2291
vn -0.5238 0.8437 -0.1176
vn -0.5894 0.8024 0.0932
vn -0.5578 0.8223 0.1123
vn -0.1934 0.8547 -0.4817
vn -0.4352 0.8985 0.0577
vn -0.4229 0.8919 0.1605
vn -0.4034 0.8644 0.3003
vn -0.5923 0.8033 0.0620
vn -0.4788 0.8746 -0.0760
vn -0.5427 0.8399 -0.0029
vn -0.6345 0.7624 0.1269
vn -0.4255 0.9049 -0.0007
vn -0.3946 0.9093 -0.1321
vn -0.4247 0.8974 -0.1193
vn -0.4941 0.8694 -0.0009
vn -0.3797 0.8896 -0.2538
vn -0.4129 0.9000 -0.1397
vn -0.4124 0.9002 -0.1395
vn -0.3917 0.8996 -0.1929
vn -0.3545 0.8827 0.3084
vn -0.3193 0.8787 0.3547
vn -0.3251 0.8812 0.3431
vn -0.3506 0.8837 0.3100
vn -0.2777 0.8728 0.4014
vn -0.2700 0.8700 0.4126
vn -0.4405 0.8739 0.2054
vn -0.5184 0.8528 0.0632
vn -0.5073 0.8455 0.1667
vn -0.4486 0.8651 0.2243
vn -0.6446 0.7497 0.1498
vn -0.5743 0.7954 0.1938
vn -0.2584 0.8374 0.4817
vn -0.3681 0.7677 0.5245
vn -0.4444 0.7775 0.4450
vn -0.4661 0.8484 0.2508
vn -0.4730 0.8111 0.3441
vn -0.3901 0.8154 0.4277
vn -0.2282 0.7821 0.5798
vn -0.1984 0.8042 0.5603
vn -0.5698 0.8213 -0.0301
vn -0.1975 0.8823 0.4272
vn -0.0998 0.8813 0.4618
vn 0.0356 0.8616 0.5063
vn -0.2574 0.7814 0.5685
vn -0.3349 0.8501 0.4064
vn -0.2957 0.8166 0.4957
vn -0.2156 0.7421 0.6347
vn -0.2459 0.8862 0.3926
vn -0.3498 0.8853 0.3064
vn -0.3511 0.8728 0.3389
vn -0.2743 0.8480 0.4535
vn -0.4508 0.8602 0.2386
vn -0.3642 0.8749 0.3194
vn -0.3639 0.8751 0.3190
vn -0.4023 0.8727 0.2766
vn 0.4118 0.8985 -0.1523
vn 0.3909 0.8969 -0.2067
vn 0.3932 0.8988 -0.1938
vn 0.4085 0.8995 -0.1548
vn 0.3640 0.8934 -0.2633
vn 0.3597 0.8912 -0.2763
vn 0.4660 0.8843 -0.0300
vn 0.5019 0.8556 0.1269
vn 0.5200 0.8538 0.0242
vn 0.4792 0.8765 -0.0463
vn 0.6488 0.7574 0.0735
vn 0.5927 0.8053 0.0142
vn 0.3682 0.8624 -0.3475
vn 0.4865 0.7953 -0.3617
vn 0.5377 0.8008 -0.2637
vn 0.5036 0.8613 -0.0679
vn 0.5367 0.8290 -0.1574
vn 0.4802 0.8377 -0.2603
vn 0.3672 0.8125 -0.4528
vn 0.3328 0.8334 -0.4412
vn 0.5259 0.8191 0.2290
vn 0.2938 0.9043 -0.3098
vn 0.2096 0.9050 -0.3702
vn 0.0921 0.8876 -0.4514
vn 0.3922 0.8111 -0.4339
vn 0.4207 0.8711 -0.2534
vn 0.4083 0.8424 -0.3516
vn 0.3710 0.7754 -0.5110
vn 0.3307 0.9064 -0.2630
vn 0.4067 0.9009 -0.1515
vn 0.4171 0.8902 -0.1830
vn 0.3754 0.8715 -0.3155
vn 0.4853 0.8723 -0.0598
vn 0.4243 0.8912 -0.1605
vn 0.4238 0.8915 -0.1602
vn 0.4491 0.8868 -0.1090
vn 0.1013 0.8874 0.4497
vn 0.1588 0.8833 0.4410
vn 0.1458 0.8858 0.4405
vn 0.1046 0.8884 0.4470
vn 0.2197 0.8772 0.4270
vn 0.2332 0.8744 0.4256
vn -0.0303 0.8790 0.4758
vn -0.1924 0.8580 0.4763
vn -0.0964 0.8510 0.5162
vn -0.0176 0.8704 0.4921
vn -0.1770 0.7564 0.6297
vn -0.1047 0.8016 0.5886
vn 0.2994 0.8419 0.4489
vn 0.2844 0.7736 0.5663
vn 0.1780 0.7836 0.5952
vn -0.0027 0.8539 0.5204
vn 0.0758 0.8171 0.5715
vn 0.1889 0.8209 0.5388
vn 0.4000 0.7869 0.4700
vn 0.3971 0.8086 0.4342
vn -0.2990 0.8265 0.4770
vn 0.2808 0.8861 0.3688
vn 0.3581 0.8843 0.2996
vn 0.4619 0.8635 0.2024
vn 0.3760 0.7863 0.4902
vn 0.1967 0.8551 0.4798
vn 0.2938 0.8216 0.4885
vn 0.4541 0.7469 0.4856
vn 0.2273 0.8903 0.3946
vn 0.1018 0.8899 0.4446
vn 0.1297 0.8777 0.4614
vn 0.2670 0.8526 0.4491
vn -0.0061 0.8655 0.5009
vn 0.1063 0.8797 0.4635
vn 0.1061 0.8800 0.4630
vn 0.0505 0.8777 0.4765
vn 0.1900 0.8874 -0.4200
vn 0.1389 0.8833 -0.4477
vn 0.1489 0.8858 -0.4395
vn 0.1858 0.8884 -0.4198
vn 0.0818 0.8772 -0.4732
vn 0.0702 0.8744 -0.4802
vn 0.3108 0.8790 -0.3616
vn 0.4405 0.8580 -0.2643
vn 0.3879 0.8510 -0.3540
vn 0.3105 0.8704 -0.3822
vn 0.5206 0.7564 -0.3961
vn 0.4381 0.8016 -0.4068
vn 0.0314 0.8419 -0.5387
vn 0.1141 0.7736 -0.6234
vn 0.2164 0.7836 -0.5823
vn 0.3156 0.8539 -0.4138
vn 0.2837 0.8171 -0.5019
vn 0.1737 0.8209 -0.5439
vn -0.0362 0.7869 -0.6161
vn -0.0555 0.8086 -0.5858
vn 0.5260 0.8265 -0.2007
vn -0.0020 0.8861 -0.4635
vn -0.1053 0.8843 -0.4548
vn -0.2468 0.8635 -0.4398
vn -0.0049 0.7863 -0.6178
vn 0.1320 0.8551 -0.5014
vn 0.0597 0.8216 -0.5669
vn -0.0700 0.7469 -0.6612
vn 0.0563 0.8903 -0.4519
vn 0.1865 0.8899 -0.4162
vn 0.1743 0.8777 -0.4465
vn 0.0574 0.8526 -0.5194
vn 0.3066 0.8655 -0.3962
vn 0.1944 0.8797 -0.4340
vn 0.1942 0.8800 -0.4335
vn 0.2467 0.8777 -0.4108
vn -0.2077 0.8085 -0.5507
vn -0.2638 0.8015 -0.5366
vn -0.2511 0.8050 -0.5376
vn -0.2108 0.8096 -0.5479
vn -0.3228 0.7931 -0.5166
vn -0.3358 0.7895 -0.5137
vn -0.0782 0.8058 -0.5869
vn 0.0846 0.7964 -0.5988
vn -0.0134 0.7773 -0.6289
vn -0.0914 0.7942 -0.6008
vn 0.0657 0.6741 -0.7357
vn -0.0067 0.7193 -0.6947
vn -0.4008 0.7496 -0.5267
vn -0.3893 0.6671 -0.6351
vn -0.2866 0.6807 -0.6742
vn -0.1070 0.7731 -0.6252
vn -0.1860 0.7241 -0.6641
vn -0.2962 0.7244 -0.6225
vn -0.4978 0.6853 -0.5316
vn -0.4940 0.7118 -0.4993
vn 0.1929 0.7728 -0.6047
vn -0.3797 0.8055 -0.4550
vn -0.4510 0.8077 -0.3797
vn -0.5450 0.7931 -0.2719
vn -0.4755 0.6837 -0.5536
vn -0.3021 0.7656 -0.5679
vn -0.3966 0.7245 -0.5637
vn -0.5496 0.6399 -0.5372
vn -0.3288 0.8099 -0.4857
vn -0.2080 0.8116 -0.5460
vn -0.2360 0.7952 -0.5585
vn -0.3695 0.7625 -0.5312
vn -0.1031 0.7873 -0.6078
vn -0.2130 0.7986 -0.5629
vn -0.2128 0.7989 -0.5625
vn -0.1585 0.7988 -0.5804
vn 0.3985 -0.9071 0.1355
vn 0.4245 -0.9015 0.0836
vn 0.4124 -0.9002 0.1395
vn 0.3917 -0.8996 0.1929
vn 0.4481 -0.8936 0.0260
vn 0.4548 -0.8905 0.0142
vn 0.4352 -0.8985 -0.0577
vn 0.4378 -0.8991 0.0034
vn 0.3448 -0.9023 0.2587
vn 0.2529 -0.8842 0.3927
vn 0.3226 -0.8920 0.3168
vn 0.3586 -0.8945 0.2671
vn 0.4859 -0.8434 0.2291
vn 0.4072 -0.7810 0.4735
vn 0.3969 -0.8321 0.3874
vn 0.5695 -0.8009 0.1850
vn 0.5830 -0.8001 0.1414
vn 0.5649 -0.8094 0.1603
vn 0.3978 -0.8791 0.2626
vn 0.3409 -0.8776 0.3371
vn 0.3656 -0.8943 0.2580
vn 0.5894 -0.8024 -0.0933
vn 0.5238 -0.8437 0.1176
vn 0.5427 -0.8399 0.0029
vn 0.6346 -0.7624 -0.1270
vn 0.1422 -0.8425 0.5195
vn 0.1654 -0.8518 0.4971
vn 0.1934 -0.8547 0.4818
vn 0.3963 -0.8555 -0.3334
vn 0.4254 -0.8668 -0.2602
vn 0.4034 -0.8643 -0.3003
vn 0.5923 -0.8033 -0.0620
vn 0.4788 -0.8746 0.0760
vn 0.4247 -0.8974 0.1193
vn 0.4941 -0.8694 0.0009
vn 0.4255 -0.9049 0.0007
vn 0.3946 -0.9093 0.1321
vn 0.4019 -0.9055 0.1365
vn 0.3797 -0.8896 0.2538
vn 0.4129 -0.9000 0.1397
vn 0.3545 -0.8827 -0.3084
vn 0.3193 -0.8787 -0.3548
vn 0.3639 -0.8751 -0.3190
vn 0.4023 -0.8727 -0.2766
vn 0.2777 -0.8728 -0.4014
vn 0.2700 -0.8700 -0.4126
vn 0.1975 -0.8823 -0.4272
vn 0.2533 -0.8798 -0.4023
vn 0.4405 -0.8739 -0.2054
vn 0.5184 -0.8528 -0.0632
vn 0.4819 -0.8616 -0.1595
vn 0.4536 -0.8652 -0.2139
vn 0.4730 -0.8111 -0.3441
vn 0.6527 -0.7397 -0.1640
vn 0.5743 -0.7954 -0.1938
vn 0.4680 -0.7675 -0.4380
vn 0.4350 -0.7683 -0.4695
vn 0.4444 -0.7775 -0.4450
vn 0.4661 -0.8484 -0.2508
vn 0.5073 -0.8455 -0.1666
vn 0.4486 -0.8651 -0.2243
vn 0.2282 -0.7821 -0.5798
vn 0.3901 -0.8154 -0.4278
vn 0.2958 -0.8166 -0.4957
vn 0.2156 -0.7421 -0.6347
vn 0.5800 -0.8093 0.0929
vn 0.5709 -0.8187 0.0620
vn 0.5698 -0.8213 0.0301
vn -0.0689 -0.8547 -0.5145
vn 0.0102 -0.8612 -0.5082
vn -0.0356 -0.8616 -0.5063
vn 0.2574 -0.7814 -0.5685
vn 0.3349 -0.8501 -0.4064
vn 0.3511 -0.8728 -0.3389
vn 0.2743 -0.8480 -0.4535
vn 0.2459 -0.8862 -0.3926
vn 0.3498 -0.8853 -0.3064
vn 0.3568 -0.8809 -0.3110
vn 0.4508 -0.8602 -0.2386
vn 0.3642 -0.8749 -0.3194
vn -0.4118 -0.8985 0.1523
vn -0.3909 -0.8969 0.2067
vn -0.4238 -0.8915 0.1602
vn -0.4491 -0.8868 0.1090
vn -0.3639 -0.8934 0.2633
vn -0.3597 -0.8912 0.2763
vn -0.2938 -0.9043 0.3098
vn -0.3406 -0.9004 0.2706
vn -0.4660 -0.8843 0.0300
vn -0.5019 -0.8556 -0.1269
vn -0.4933 -0.8695 -0.0248
vn -0.4811 -0.8760 0.0350
vn -0.5367 -0.8290 0.1574
vn -0.6606 -0.7482 -0.0616
vn -0.5927 -0.8053 -0.0142
vn -0.5586 -0.7905 0.2511
vn -0.5356 -0.7930 0.2903
vn -0.5377 -0.8008 0.2638
vn -0.5036 -0.8613 0.0678
vn -0.5200 -0.8538 -0.0242
vn -0.4792 -0.8765 0.0463
vn -0.3672 -0.8125 0.4528
vn -0.4802 -0.8377 0.2603
vn -0.4083 -0.8424 0.3516
vn -0.3709 -0.7754 0.5110
vn -0.5186 -0.8038 -0.2916
vn -0.5182 -0.8148 -0.2599
vn -0.5259 -0.8191 -0.2290
vn -0.0626 -0.8810 0.4689
vn -0.1366 -0.8873 0.4405
vn -0.0921 -0.8876 0.4514
vn -0.3922 -0.8111 0.4339
vn -0.4206 -0.8711 0.2534
vn -0.4171 -0.8902 0.1830
vn -0.3754 -0.8715 0.3155
vn -0.3307 -0.9064 0.2630
vn -0.4067 -0.9009 0.1515
vn -0.4147 -0.8968 0.1542
vn -0.4853 -0.8723 0.0598
vn -0.4243 -0.8912 0.1605
vn -0.1013 -0.8874 -0.4497
vn -0.1588 -0.8833 -0.4410
vn -0.1061 -0.8800 -0.4630
vn -0.0505 -0.8777 -0.4765
vn -0.2197 -0.8772 -0.4270
vn -0.2332 -0.8744 -0.4256
vn -0.2808 -0.8861 -0.3688
vn -0.2322 -0.8839 -0.4059
vn 0.0303 -0.8790 -0.4758
vn 0.1925 -0.8579 -0.4763
vn 0.0905 -0.8668 -0.4903
vn 0.0292 -0.8704 -0.4915
vn -0.0758 -0.8171 -0.5715
vn 0.1684 -0.7466 -0.6436
vn 0.1047 -0.8016 -0.5886
vn -0.1606 -0.7739 -0.6126
vn -0.2040 -0.7746 -0.5987
vn -0.1780 -0.7836 -0.5952
vn 0.0027 -0.8539 -0.5204
vn 0.0964 -0.8510 -0.5162
vn 0.0177 -0.8704 -0.4921
vn -0.4000 -0.7869 -0.4699
vn -0.1889 -0.8209 -0.5388
vn -0.2938 -0.8216 -0.4885
vn -0.4542 -0.7469 -0.4856
vn 0.3591 -0.8143 -0.4560
vn 0.3276 -0.8238 -0.4627
vn 0.2990 -0.8265 -0.4770
vn -0.4851 -0.8563 -0.1772
vn -0.4417 -0.8635 -0.2434
vn -0.4620 -0.8635 -0.2023
vn -0.3760 -0.7863 -0.4902
vn -0.1967 -0.8551 -0.4798
vn -0.1297 -0.8777 -0.4614
vn -0.2671 -0.8526 -0.4491
vn -0.2273 -0.8903 -0.3946
vn -0.1018 -0.8899 -0.4446
vn -0.1025 -0.8857 -0.4529
vn 0.0061 -0.8655 -0.5009
vn -0.1063 -0.8797 -0.4635
vn -0.1900 -0.8874 0.4200
vn -0.1388 -0.8833 0.4477
vn -0.1942 -0.8800 0.4335
vn -0.2467 -0.8777 0.4108
vn -0.0818 -0.8772 0.4732
vn -0.0701 -0.8744 0.4802
vn 0.0020 -0.8861 0.4635
vn -0.0591 -0.8839 0.4639
vn -0.3108 -0.8790 0.3616
vn -0.4405 -0.8579 0.2643
vn -0.3676 -0.8668 0.3369
vn -0.3193 -0.8704 0.3748
vn -0.2837 -0.8171 0.5019
vn -0.5221 -0.7466 0.4123
vn -0.4381 -0.8016 0.4068
vn -0.2408 -0.7739 0.5858
vn -0.1977 -0.7745 0.6008
vn -0.2164 -0.7836 0.5823
vn -0.3156 -0.8539 0.4137
vn -0.3879 -0.8510 0.3540
vn -0.3105 -0.8704 0.3822
vn 0.0362 -0.7869 0.6161
vn -0.1737 -0.8209 0.5439
vn -0.0597 -0.8216 0.5669
vn 0.0700 -0.7469 0.6612
vn -0.5613 -0.8143 0.1477
vn -0.5402 -0.8238 0.1721
vn -0.5260 -0.8265 0.2007
vn 0.2805 -0.8563 0.4336
vn 0.2059 -0.8635 0.4603
vn 0.2469 -0.8635 0.4398
vn 0.0049 -0.7863 0.6178
vn -0.1320 -0.8551 0.5014
vn -0.1743 -0.8777 0.4465
vn -0.0573 -0.8526 0.5194
vn -0.0563 -0.8903 0.4519
vn -0.1865 -0.8899 0.4162
vn -0.1910 -0.8857 0.4233
vn -0.3066 -0.8655 0.3962
vn -0.1944 -0.8797 0.4340
vn 0.2077 -0.8085 0.5507
vn 0.2638 -0.8015 0.5366
vn 0.2128 -0.7989 0.5625
vn 0.1585 -0.7988 0.5804
vn 0.3228 -0.7931 0.5166
vn 0.3358 -0.7895 0.5137
vn 0.3797 -0.8055 0.4550
vn 0.3341 -0.8017 0.4956
vn 0.0782 -0.8059 0.5869
vn -0.0846 -0.7964 0.5988
vn 0.0186 -0.7961 0.6049
vn 0.0799 -0.7951 0.6012
vn 0.1860 -0.7241 0.6641
vn -0.0569 -0.6619 0.7475
vn 0.0067 -0.7193 0.6947
vn 0.2699 -0.6699 0.6917
vn 0.3120 -0.6694 0.6742
vn 0.2867 -0.6807 0.6742
vn 0.1070 -0.7731 0.6252
vn 0.0134 -0.7773 0.6289
vn 0.0913 -0.7942 0.6008
vn 0.4978 -0.6853 0.5316
vn 0.2962 -0.7244 0.6225
vn 0.3966 -0.7245 0.5637
vn 0.5496 -0.6398 0.5371
vn -0.2553 -0.7678 0.5876
vn -0.2227 -0.7740 0.5927
vn -0.1930 -0.7727 0.6047
vn 0.5655 -0.7878 0.2441
vn 0.5281 -0.7890 0.3142
vn 0.5450 -0.7931 0.2719
vn 0.4755 -0.6837 0.5536
vn 0.3021 -0.7656 0.5679
vn 0.2360 -0.7952 0.5585
vn 0.3695 -0.7624 0.5312
vn 0.3288 -0.8099 0.4857
vn 0.2080 -0.8116 0.5460
vn 0.2089 -0.8062 0.5536
vn 0.1031 -0.7873 0.6078
vn 0.2130 -0.7986 0.5629
vn 0.0920 -0.7832 0.6150
vn 0.1680 -0.8028 0.5721
vn 0.4510 -0.8077 0.3797
vn 0.4007 -0.7496 0.5267
vn 0.3893 -0.6671 0.6351
vn 0.5300 -0.6510 0.5434
vn 0.5620 -0.6908 0.4549
vn 0.5437 -0.7058 0.4541
vn 0.4940 -0.7118 0.4993
vn -0.0657 -0.6741 0.7357
vn -0.0746 -0.6522 0.7543
vn 0.2511 -0.8050 0.5376
vn 0.2035 -0.8094 0.5509
vn 0.2070 -0.8097 0.5491
vn 0.2108 -0.8096 0.5479
vn -0.3198 -0.8614 0.3947
vn -0.2340 -0.8814 0.4104
vn 0.1054 -0.8843 0.4548
vn -0.0314 -0.8419 0.5387
vn -0.1141 -0.7736 0.6234
vn 0.0515 -0.7572 0.6512
vn 0.1353 -0.7876 0.6012
vn 0.1225 -0.8008 0.5862
vn 0.0555 -0.8086 0.5858
vn -0.5206 -0.7564 0.3960
vn -0.5401 -0.7365 0.4072
vn -0.1489 -0.8858 0.4395
vn -0.1933 -0.8880 0.4172
vn -0.1894 -0.8884 0.4182
vn -0.1858 -0.8884 0.4198
vn 0.0175 -0.8614 -0.5077
vn -0.0604 -0.8814 -0.4685
vn -0.3581 -0.8843 -0.2996
vn -0.2994 -0.8419 -0.4489
vn -0.2844 -0.7736 -0.5663
vn -0.4333 -0.7572 -0.4888
vn -0.4701 -0.7876 -0.3984
vn -0.4509 -0.8008 -0.3941
vn -0.3972 -0.8086 -0.4342
vn 0.1770 -0.7564 -0.6297
vn 0.1859 -0.7365 -0.6504
vn -0.1458 -0.8858 -0.4405
vn -0.0970 -0.8880 -0.4495
vn -0.1007 -0.8884 -0.4479
vn -0.1046 -0.8884 -0.4470
vn -0.4944 -0.8678 0.0503
vn -0.4391 -0.8908 0.1168
vn -0.2095 -0.9050 0.3702
vn -0.3682 -0.8624 0.3475
vn -0.4865 -0.7953 0.3617
vn -0.3785 -0.7847 0.4909
vn -0.2821 -0.8153 0.5056
vn -0.2821 -0.8276 0.4853
vn -0.3328 -0.8334 0.4412
vn -0.6488 -0.7574 -0.0735
vn -0.6710 -0.7374 -0.0767
vn -0.3932 -0.8988 0.1938
vn -0.4125 -0.8988 0.1480
vn -0.4102 -0.8994 0.1512
vn -0.4085 -0.8995 0.1548
vn 0.4621 -0.8560 -0.2319
vn 0.3906 -0.8765 -0.2815
vn 0.0997 -0.8813 -0.4618
vn 0.2585 -0.8374 -0.4817
vn 0.3681 -0.7677 -0.5245
vn 0.2284 -0.7523 -0.6180
vn 0.1318 -0.7836 -0.6071
vn 0.1374 -0.7969 -0.5882
vn 0.1984 -0.8042 -0.5603
vn 0.6447 -0.7496 -0.1498
vn 0.6669 -0.7295 -0.1518
vn 0.3251 -0.8812 -0.3431
vn 0.3564 -0.8833 -0.3046
vn 0.3532 -0.8837 -0.3070
vn 0.3506 -0.8837 -0.3100
vn 0.3788 -0.8861 0.2671
vn 0.3907 -0.9027 0.1801
vn 0.4229 -0.8919 -0.1605
vn 0.5128 -0.8581 -0.0253
vn 0.6025 -0.7960 0.0571
vn 0.6249 -0.7731 -0.1085
vn 0.5710 -0.7983 -0.1916
vn 0.5561 -0.8116 -0.1789
vn 0.5578 -0.8223 -0.1123
vn 0.3905 -0.7903 0.4722
vn 0.4030 -0.7716 0.4921
vn 0.4166 -0.9042 0.0939
vn 0.3959 -0.9077 0.1389
vn 0.3967 -0.9080 0.1350
vn 0.3982 -0.9079 0.1313
vn -0.0920 0.7832 -0.6150
vn -0.1680 0.8028 -0.5721
vn -0.0186 0.7961 -0.6049
vn -0.0799 0.7951 -0.6012
vn -0.2089 0.8062 -0.5536
vn -0.3341 0.8017 -0.4956
vn -0.5300 0.6510 -0.5434
vn -0.5280 0.7890 -0.3142
vn -0.5655 0.7878 -0.2441
vn 0.2226 0.7741 -0.5927
vn 0.2552 0.7678 -0.5876
vn -0.5620 0.6908 -0.4549
vn -0.5437 0.7058 -0.4541
vn -0.3120 0.6694 -0.6742
vn -0.2699 0.6699 -0.6917
vn 0.0568 0.6619 -0.7475
vn 0.0745 0.6523 -0.7543
vn -0.2035 0.8094 -0.5509
vn -0.2070 0.8097 -0.5491
vn 0.3198 0.8614 -0.3947
vn 0.2340 0.8814 -0.4104
vn 0.3675 0.8668 -0.3369
vn 0.3193 0.8704 -0.3748
vn 0.1910 0.8857 -0.4233
vn 0.0591 0.8839 -0.4639
vn -0.0515 0.7572 -0.6511
vn -0.2059 0.8635 -0.4603
vn -0.2805 0.8563 -0.4337
vn 0.5401 0.8238 -0.1721
vn 0.5613 0.8143 -0.1478
vn -0.1353 0.7876 -0.6012
vn -0.1225 0.8009 -0.5862
vn 0.1978 0.7746 -0.6008
vn 0.2408 0.7739 -0.5857
vn 0.5221 0.7466 -0.4124
vn 0.5401 0.7365 -0.4072
vn 0.1933 0.8880 -0.4172
vn 0.1894 0.8884 -0.4182
vn -0.0175 0.8614 0.5077
vn 0.0604 0.8814 0.4685
vn -0.0904 0.8668 0.4903
vn -0.0291 0.8704 0.4915
vn 0.1025 0.8856 0.4529
vn 0.2322 0.8839 0.4059
vn 0.4333 0.7572 0.4887
vn 0.4416 0.8635 0.2434
vn 0.4851 0.8563 0.1772
vn -0.3275 0.8238 0.4627
vn -0.3590 0.8143 0.4560
vn 0.4701 0.7876 0.3984
vn 0.4509 0.8009 0.3942
vn 0.2040 0.7746 0.5987
vn 0.1606 0.7739 0.6126
vn -0.1683 0.7466 0.6436
vn -0.1858 0.7365 0.6504
vn 0.0970 0.8880 0.4495
vn 0.1007 0.8884 0.4479
vn 0.4944 0.8678 -0.0503
vn 0.4391 0.8908 -0.1168
vn 0.4933 0.8695 0.0248
vn 0.4811 0.8760 -0.0350
vn 0.4147 0.8968 -0.1542
vn 0.3406 0.9004 -0.2706
vn 0.3785 0.7847 -0.4909
vn 0.1366 0.8873 -0.4405
vn 0.0626 0.8811 -0.4688
vn 0.5181 0.8149 0.2598
vn 0.5185 0.8038 0.2915
vn 0.2821 0.8153 -0.5056
vn 0.2821 0.8276 -0.4853
vn 0.5356 0.7930 -0.2903
vn 0.5586 0.7905 -0.2510
vn 0.6606 0.7482 0.0616
vn 0.6710 0.7375 0.0766
vn 0.4125 0.8988 -0.1480
vn 0.4102 0.8994 -0.1512
vn -0.4621 0.8560 0.2319
vn -0.3906 0.8765 0.2815
vn -0.4819 0.8616 0.1595
vn -0.4536 0.8652 0.2139
vn -0.3568 0.8809 0.3110
vn -0.2533 0.8798 0.4023
vn -0.2285 0.7523 0.6179
vn -0.0102 0.8612 0.5082
vn 0.0688 0.8547 0.5145
vn -0.5708 0.8187 -0.0620
vn -0.5800 0.8093 -0.0929
vn -0.1319 0.7836 0.6071
vn -0.1374 0.7969 0.5882
vn -0.4350 0.7684 0.4695
vn -0.4680 0.7675 0.4380
vn -0.6526 0.7397 0.1640
vn -0.6668 0.7296 0.1519
vn -0.3564 0.8833 0.3046
vn -0.3532 0.8837 0.3070
vn -0.3788 0.8861 -0.2671
vn -0.3907 0.9027 -0.1801
vn -0.3226 0.8920 -0.3168
vn -0.3586 0.8945 -0.2671
vn -0.4019 0.9055 -0.1365
vn -0.4378 0.8991 -0.0034
vn -0.6249 0.7732 0.1085
vn -0.4254 0.8668 0.2602
vn -0.3963 0.8555 0.3333
vn -0.1654 0.8518 -0.4971
vn -0.1422 0.8426 -0.5195
vn -0.5710 0.7983 0.1916
vn -0.5561 0.8117 0.1789
vn -0.5829 0.8001 -0.1415
vn -0.5695 0.8009 -0.1850
vn -0.4072 0.7810 -0.4735
vn -0.4031 0.7716 -0.4920
vn -0.3959 0.9077 -0.1388
vn -0.3967 0.9080 -0.1350
vn -0.1036 0.9313 -0.3491
vn 0.9998 0.0170 -0.0050
vn 0.7969 0.0080 0.6041
vn 0.8242 0.0255 -0.5657
vn -0.8506 0.0037 0.5258
vn -0.9972 0.0207 -0.0716
vn -0.3617 -0.0039 0.9323
vn 0.3746 0.0283 -0.9267
vn -0.2517 0.0332 -0.9672
vn 0.2646 -0.0038 0.9643
vn -0.7763 0.0288 -0.6297
vn 0.0088 0.8294 0.5586
vn -0.6224 0.0655 0.7799
vn 0.5971 0.7681 -0.2313
vn 0.5857 -0.0758 -0.8070
vn -0.0722 -0.8330 -0.5486
vn -0.6320 -0.7405 0.2287
vn 0.2440 0.8044 -0.5416
vn 0.8187 0.0177 -0.5740
vn -0.5408 0.8408 0.0250
vn -0.8045 0.0257 0.5934
vn -0.2155 -0.7949 0.5672
vn 0.5874 -0.8090 -0.0232
vn 0.4667 0.8439 0.2646
vn 0.5509 -0.1228 0.8255
vn -0.2316 0.8121 -0.5356
vn -0.6669 -0.0169 -0.7450
vn -0.5109 -0.8442 -0.1621
vn 0.0871 -0.8419 0.5325
vn -0.3308 0.8699 0.3658
vn -0.7203 0.0382 0.6926
vn 0.3465 0.8793 -0.3267
vn 0.6950 -0.0047 -0.7190
vn 0.2978 -0.8725 -0.3873
vn -0.3984 -0.8574 0.3258
vn 0.5945 -0.8041 -0.0011
vn -0.2109 -0.8244 0.5253
vn 0.8618 -0.0128 -0.5071
vn -0.8383 -0.0005 0.5452
vn -0.5602 0.8282 0.0163
vn 0.2730 0.8143 -0.5122
usemtl None
s 1
f 834/1/1 479/2/2 3/3/3 650/4/4
f 833/5/5 635/6/6 2/7/7 314/8/8
f 2/9/7 635/10/6 479/11/2
f 832/12/9 307/13/10 6/14/11 539/15/12
f 831/16/13 369/17/14 9/18/15 309/19/16
f 830/20/17 360/21/18 11/22/19 640/23/20
f 829/24/21 680/25/22 8/26/23 425/27/24
f 11/28/19 360/29/18 680/30/22
f 828/31/25 699/32/26 15/33/27 424/34/28
f 827/35/29 475/36/30 17/37/31 306/38/32
f 826/39/33 590/40/34 14/41/35 536/42/36
f 825/43/37 633/44/38 20/45/39 604/46/40
f 824/47/41 586/48/42 21/49/43 469/50/44
f 823/51/45 690/52/46 19/53/47 434/54/48
f 21/55/43 586/56/42 690/57/46
f 822/58/49 412/59/50 24/60/51 355/61/52
f 821/62/53 621/63/54 26/64/55 472/65/56
f 820/66/57 505/67/58 23/68/59 691/69/60
f 26/70/55 621/71/54 505/72/58
f 819/73/61 532/74/62 30/75/63 695/76/64
f 818/77/65 529/78/66 32/79/67 361/80/68
f 817/81/69 632/82/70 29/83/71 587/84/72
f 32/85/67 529/86/66 632/87/70
f 816/88/73 520/89/74 36/90/75 573/91/76
f 815/92/77 292/93/78 40/94/79 347/95/80
f 814/96/81 551/97/82 35/98/83 464/99/84
f 813/100/85 451/101/86 39/102/87 682/103/88
f 812/104/89 662/105/90 43/106/91 460/107/92
f 811/108/93 397/109/94 46/110/95 681/111/96
f 810/112/97 625/113/98 42/114/99 283/115/100
f 809/116/101 629/117/102 50/118/103 467/119/104
f 808/120/105 402/121/106 38/122/107 478/123/108
f 807/124/109 349/125/110 52/126/111 580/127/112
f 806/128/113 502/129/114 34/130/115 367/131/116
f 805/132/117 577/133/118 45/134/119 567/135/120
f 804/136/121 566/137/122 41/138/123 452/139/124
f 803/140/125 295/141/126 49/142/127 345/143/128
f 802/144/129 344/145/130 37/146/131 666/147/132
f 801/148/133 451/149/86 36/150/75 520/151/74
f 43/152/91 662/153/90 551/154/82
f 800/155/134 298/156/135 56/157/136 350/158/137
f 799/159/138 664/160/139 56/157/136 298/156/135
f 798/161/140 583/162/141 61/163/142 409/164/143
f 61/163/142 582/165/144 523/166/145
f 65/167/146 499/168/147 552/169/148
f 797/170/149 523/166/145 64/171/150 638/172/151
f 796/173/152 638/172/151 64/171/150 594/174/153
f 61/163/142 583/162/141 430/175/154
f 59/176/155 462/177/156 588/178/157
f 795/179/158 415/180/159 68/181/160 493/182/161
f 794/183/162 291/184/163 62/185/164 579/186/165
f 793/187/166 384/188/167 55/189/168 686/190/169
f 792/191/170 495/192/171 74/193/172 439/194/173
f 791/195/174 546/196/175 74/193/172 495/192/171
f 790/197/176 661/198/177 79/199/178 381/200/179
f 79/199/178 438/201/180 665/202/181
f 83/203/182 601/204/183 653/205/184
f 789/206/185 665/202/181 82/207/186 593/208/187
f 788/209/188 593/208/187 82/207/186 644/210/189
f 79/199/178 661/198/177 341/211/190
f 77/212/191 500/213/192 622/214/193
f 787/215/194 329/216/195 86/217/196 358/218/197
f 786/219/198 482/220/199 80/221/200 609/222/201
f 785/223/202 375/224/203 73/225/204 548/226/205
f 784/227/206 605/228/207 92/229/208 325/230/209
f 783/231/210 423/232/211 92/229/208 605/228/207
f 782/233/212 560/234/213 97/235/214 623/236/215
f 97/235/214 558/237/216 503/238/217
f 101/239/218 390/240/219 336/241/220
f 781/242/221 503/238/217 100/243/222 379/244/223
f 780/245/224 379/244/223 100/243/222 550/246/225
f 97/235/214 560/234/213 607/247/226
f 95/248/227 553/249/228 677/250/229
f 779/251/230 608/252/231 104/253/232 618/254/233
f 778/255/234 278/256/235 98/257/236 555/258/237
f 777/259/238 476/260/239 91/261/240 437/262/241
f 776/263/242 388/264/243 110/265/244 669/266/245
f 775/267/246 331/268/247 110/265/244 388/264/243
f 774/269/248 456/270/249 115/271/250 287/272/251
f 115/271/250 675/273/252 617/274/253
f 119/275/254 508/276/255 448/277/256
f 773/278/257 617/274/253 118/279/258 704/280/259
f 772/281/260 704/280/259 118/279/258 432/282/261
f 115/271/250 456/270/249 277/283/262
f 113/284/263 333/285/264 433/286/265
f 771/287/266 487/288/267 122/289/268 485/290/269
f 770/291/270 568/292/271 116/293/272 442/294/273
f 769/295/274 280/296/275 109/297/276 337/298/277
f 768/299/278 512/300/279 128/301/280 514/302/281
f 767/303/282 400/304/283 128/301/280 512/300/279
f 766/305/284 517/306/285 133/307/286 454/308/287
f 133/307/286 510/309/288 561/310/289
f 137/311/290 676/312/291 286/313/292
f 765/314/293 561/310/289 136/315/294 429/316/295
f 764/317/296 429/316/295 136/315/294 488/318/297
f 133/307/286 517/306/285 443/319/298
f 131/320/299 389/321/300 272/322/301
f 763/323/302 652/324/303 140/325/304 671/326/305
f 762/327/306 556/328/307 134/329/308 509/330/309
f 761/331/310 398/332/311 127/333/312 679/334/313
f 760/335/314 672/336/315 146/337/316 392/338/317
f 759/339/318 281/340/319 146/337/316 672/336/315
f 758/341/320 619/342/321 151/343/322 338/344/323
f 151/343/322 391/345/324 421/346/325
f 155/347/326 557/348/327 620/349/328
f 757/350/329 421/346/325 154/351/330 549/352/331
f 756/353/332 549/352/331 154/351/330 615/354/333
f 151/343/322 619/342/321 324/355/334
f 149/356/335 696/357/336 597/358/337
f 755/359/338 315/360/339 158/361/340 326/362/341
f 754/363/342 660/364/343 152/365/344 596/366/345
f 753/367/346 335/368/347 145/369/348 282/370/349
f 752/371/350 440/372/351 164/373/352 494/374/353
f 751/375/354 540/376/355 166/377/356 606/378/357
f 750/379/358 545/380/359 170/381/360 294/382/361
f 171/383/362 431/384/363 271/385/364
f 173/386/365 317/387/366 484/388/367
f 749/389/368 271/385/364 169/390/369 273/391/370
f 748/392/371 647/393/372 176/394/373 538/395/374
f 178/396/375 386/397/376 498/398/377
f 179/399/378 444/400/379 343/401/380
f 747/402/381 302/403/382 168/404/383 354/405/384
f 746/406/385 657/407/386 167/408/387 606/378/357
f 745/409/388 362/410/389 167/408/387 294/382/361
f 744/411/390 332/412/391 182/413/392 610/414/393
f 743/415/394 435/416/395 184/417/396 279/418/397
f 742/419/398 441/420/399 188/421/400 663/422/401
f 189/423/402 330/424/403 613/425/404
f 191/426/405 692/427/406 410/428/407
f 741/429/408 613/425/404 187/430/409 385/431/410
f 740/432/411 559/433/412 194/434/413 694/435/414
f 196/436/415 564/437/416 458/438/417
f 197/439/418 406/440/419 519/441/420
f 739/442/421 449/443/422 186/444/423 483/445/424
f 738/446/425 554/447/426 185/448/427 279/418/397
f 737/449/428 490/450/429 185/448/427 663/422/401
f 736/451/430 352/452/431 200/453/432 524/454/433
f 735/455/434 667/456/435 202/457/436 405/458/437
f 734/459/438 687/460/439 206/461/440 455/462/441
f 207/463/442 348/464/443 297/465/444
f 209/466/445 463/467/446 516/468/447
f 733/469/448 297/465/444 205/470/449 299/471/450
f 732/472/451 528/473/452 212/474/453 461/475/454
f 214/476/455 530/477/456 648/478/457
f 215/479/458 507/480/459 585/481/460
f 731/482/461 646/483/462 204/484/463 589/485/464
f 730/486/465 575/487/466 203/488/467 405/458/437
f 729/489/468 616/490/469 203/488/467 455/462/441
f 728/491/470 465/492/471 218/493/472 399/494/473
f 727/495/474 346/496/475 220/497/476 293/498/477
f 726/499/478 363/500/479 224/501/480 569/502/481
f 225/503/482 595/504/483 419/505/484
f 227/506/485 700/507/486 641/508/487
f 725/509/488 419/505/484 223/510/489 645/511/490
f 724/512/491 356/513/492 230/514/493 689/515/494
f 232/516/495 376/517/496 492/518/497
f 233/519/498 631/520/499 414/521/500
f 723/522/501 491/523/502 222/524/503 427/525/504
f 722/526/505 684/527/506 221/528/507 293/498/477
f 721/529/508 513/530/509 221/528/507 569/502/481
f 720/531/510 693/532/511 236/533/512 304/534/513
f 719/535/514 572/536/515 238/537/516 651/538/517
f 718/539/518 598/540/519 242/541/520 316/542/521
f 243/543/522 703/544/523 534/545/524
f 245/546/525 372/547/526 313/548/527
f 717/549/528 534/545/524 241/550/529 537/551/530
f 716/552/531 473/553/532 248/554/533 584/555/534
f 250/556/535 685/557/536 576/558/537
f 251/559/538 290/560/539 387/561/540
f 715/562/541 327/563/542 240/564/543 377/565/544
f 714/566/545 480/567/546 239/568/547 651/538/517
f 713/569/548 401/570/549 239/568/547 316/542/521
f 712/571/550 366/572/551 254/573/552 544/574/553
f 711/575/554 698/576/555 256/577/556 428/578/557
f 710/579/558 486/580/559 260/581/560 702/582/561
f 261/583/562 373/584/563 541/585/564
f 263/586/565 274/587/566 320/588/567
f 709/589/568 541/585/564 259/590/569 321/591/570
f 708/592/571 570/593/572 266/594/573 453/595/574
f 268/596/575 351/597/576 468/598/577
f 269/599/578 305/600/579 447/601/580
f 707/602/581 688/603/582 258/604/583 417/605/584
f 706/606/585 603/607/586 257/608/587 428/578/557
f 705/609/588 649/610/589 257/608/587 702/582/561
f 611/611/590 705/609/588 702/582/561 260/581/560
f 255/612/591 544/574/553 705/609/588 611/611/590
f 544/574/553 254/573/552 649/610/589 705/609/588
f 668/613/592 706/606/585 428/578/557 256/577/556
f 265/614/593 417/605/584 706/606/585 668/613/592
f 417/605/584 258/604/583 603/607/586 706/606/585
f 658/615/594 707/602/581 417/605/584 265/614/593
f 264/616/595 453/595/574 707/602/581 658/615/594
f 453/595/574 266/594/573 688/603/582 707/602/581
f 447/601/580 668/613/592 256/577/556
f 447/601/580 305/600/579 668/613/592
f 305/600/579 265/614/593 668/613/592
f 468/598/577 486/580/559 259/590/569
f 468/598/577 351/597/576 486/580/559
f 351/597/576 260/581/560 486/580/559
f 511/617/596 708/592/571 453/595/574 264/616/595
f 267/618/597 624/619/598 708/592/571 511/617/596
f 624/619/598 261/583/562 570/593/572 708/592/571
f 688/603/582 709/589/568 321/591/570 258/604/583
f 266/594/573 570/593/572 709/589/568 688/603/582
f 570/593/572 261/583/562 541/585/564 709/589/568
f 320/588/567 658/615/594 265/614/593
f 320/588/567 274/587/566 658/615/594
f 274/587/566 264/616/595 658/615/594
f 541/585/564 592/620/599 259/590/569
f 541/585/564 373/584/563 592/620/599
f 373/584/563 262/621/600 592/620/599
f 603/607/586 710/579/558 702/582/561 257/608/587
f 258/604/583 321/591/570 710/579/558 603/607/586
f 321/591/570 259/590/569 486/580/559 710/579/558
f 649/610/589 711/575/554 428/578/557 257/608/587
f 254/573/552 366/572/551 711/575/554 649/610/589
f 366/572/551 253/622/601 698/576/555 711/575/554
f 411/623/602 712/571/550 544/574/553 255/612/591
f 252/624/603 312/625/604 712/571/550 411/623/602
f 312/625/604 253/622/601 366/572/551 712/571/550
f 533/626/605 713/569/548 316/542/521 242/541/520
f 237/627/606 304/534/513 713/569/548 533/626/605
f 304/534/513 236/533/512 401/570/549 713/569/548
f 614/628/607 714/566/545 651/538/517 238/537/516
f 247/629/608 377/565/544 714/566/545 614/628/607
f 377/565/544 240/564/543 480/567/546 714/566/545
f 642/630/609 715/562/541 377/565/544 247/629/608
f 246/631/610 584/555/534 715/562/541 642/630/609
f 584/555/534 248/554/533 327/563/542 715/562/541
f 387/561/540 614/628/607 238/537/516
f 387/561/540 290/560/539 614/628/607
f 290/560/539 247/629/608 614/628/607
f 576/558/537 598/540/519 241/550/529
f 576/558/537 685/557/536 598/540/519
f 685/557/536 242/541/520 598/540/519
f 310/632/611 716/552/531 584/555/534 246/631/610
f 249/633/612 407/634/613 716/552/531 310/632/611
f 407/634/613 243/543/522 473/553/532 716/552/531
f 327/563/542 717/549/528 537/551/530 240/564/543
f 248/554/533 473/553/532 717/549/528 327/563/542
f 473/553/532 243/543/522 534/545/524 717/549/528
f 313/548/527 642/630/609 247/629/608
f 313/548/527 372/547/526 642/630/609
f 372/547/526 246/631/610 642/630/609
f 534/545/524 477/635/614 241/550/529
f 534/545/524 703/544/523 477/635/614
f 703/544/523 244/636/615 477/635/614
f 480/567/546 718/539/518 316/542/521 239/568/547
f 240/564/543 537/551/530 718/539/518 480/567/546
f 537/551/530 241/550/529 598/540/519 718/539/518
f 401/570/549 719/535/514 651/538/517 239/568/547
f 236/533/512 693/532/511 719/535/514 401/570/549
f 693/532/511 235/637/616 572/536/515 719/535/514
f 526/638/617 720/531/510 304/534/513 237/627/606
f 234/639/618 413/640/619 720/531/510 526/638/617
f 413/640/619 235/637/616 693/532/511 720/531/510
f 342/641/620 721/529/508 569/502/481 224/501/480
f 219/642/621 399/494/473 721/529/508 342/641/620
f 399/494/473 218/493/472 513/530/509 721/529/508
f 643/643/622 722/526/505 293/498/477 220/497/476
f 229/644/623 427/525/504 722/526/505 643/643/622
f 427/525/504 222/524/503 684/527/506 722/526/505
f 311/645/624 723/522/501 427/525/504 229/644/623
f 228/646/625 689/515/494 723/522/501 311/645/624
f 689/515/494 230/514/493 491/523/502 723/522/501
f 414/521/500 643/643/622 220/497/476
f 414/521/500 631/520/499 643/643/622
f 631/520/499 229/644/623 643/643/622
f 492/518/497 363/500/479 223/510/489
f 492/518/497 376/517/496 363/500/479
f 376/517/496 224/501/480 363/500/479
f 408/647/626 724/512/491 689/515/494 228/646/625
f 231/648/627 301/649/628 724/512/491 408/647/626
f 301/649/628 225/503/482 356/513/492 724/512/491
f 491/523/502 725/509/488 645/511/490 222/524/503
f 230/514/493 356/513/492 725/509/488 491/523/502
f 356/513/492 225/503/482 419/505/484 725/509/488
f 641/508/487 311/645/624 229/644/623
f 641/508/487 700/507/486 311/645/624
f 700/507/486 228/646/625 311/645/624
f 419/505/484 371/650/629 223/510/489
f 419/505/484 595/504/483 371/650/629
f 595/504/483 226/651/630 371/650/629
f 684/527/506 726/499/478 569/502/481 221/528/507
f 222/524/503 645/511/490 726/499/478 684/527/506
f 645/511/490 223/510/489 363/500/479 726/499/478
f 513/530/509 727/495/474 293/498/477 221/528/507
f 218/493/472 465/492/471 727/495/474 513/530/509
f 465/492/471 217/652/631 346/496/475 727/495/474
f 612/653/632 728/491/470 399/494/473 219/642/621
f 216/654/633 521/655/634 728/491/470 612/653/632
f 521/655/634 217/652/631 465/492/471 728/491/470
f 683/656/635 729/489/468 455/462/441 206/461/440
f 201/657/636 524/454/433 729/489/468 683/656/635
f 524/454/433 200/453/432 616/490/469 729/489/468
f 365/658/637 730/486/465 405/458/437 202/457/436
f 211/659/638 589/485/464 730/486/465 365/658/637
f 589/485/464 204/484/463 575/487/466 730/486/465
f 403/660/639 731/482/461 589/485/464 211/659/638
f 210/661/640 461/475/454 731/482/461 403/660/639
f 461/475/454 212/474/453 646/483/462 731/482/461
f 585/481/460 365/658/637 202/457/436
f 585/481/460 507/480/459 365/658/637
f 507/480/459 211/659/638 365/658/637
f 648/478/457 687/460/439 205/470/449
f 648/478/457 530/477/456 687/460/439
f 530/477/456 206/461/440 687/460/439
f 515/662/641 732/472/451 461/475/454 210/661/640
f 213/663/642 578/664/643 732/472/451 515/662/641
f 578/664/643 207/463/442 528/473/452 732/472/451
f 646/483/462 733/469/448 299/471/450 204/484/463
f 212/474/453 528/473/452 733/469/448 646/483/462
f 528/473/452 207/463/442 297/465/444 733/469/448
f 516/468/447 403/660/639 211/659/638
f 516/468/447 463/467/446 403/660/639
f 463/467/446 210/661/640 403/660/639
f 297/465/444 574/665/644 205/470/449
f 297/465/444 348/464/443 574/665/644
f 348/464/443 208/666/645 574/665/644
f 575/487/466 734/459/438 455/462/441 203/488/467
f 204/484/463 299/471/450 734/459/438 575/487/466
f 299/471/450 205/470/449 687/460/439 734/459/438
f 616/490/469 735/455/434 405/458/437 203/488/467
f 200/453/432 352/452/431 735/455/434 616/490/469
f 352/452/431 199/667/646 667/456/435 735/455/434
f 296/668/647 736/451/430 524/454/433 201/657/636
f 198/669/648 636/670/649 736/451/430 296/668/647
f 636/670/649 199/667/646 352/452/431 736/451/430
f 418/671/650 737/449/428 663/422/401 188/421/400
f 183/672/651 610/414/393 737/449/428 418/671/650
f 610/414/393 182/413/392 490/450/429 737/449/428
f 701/673/652 738/446/425 279/418/397 184/417/396
f 193/674/653 483/445/424 738/446/425 701/673/652
f 483/445/424 186/444/423 554/447/426 738/446/425
f 303/675/654 739/442/421 483/445/424 193/674/653
f 192/676/655 694/435/414 739/442/421 303/675/654
f 694/435/414 194/434/413 449/443/422 739/442/421
f 519/441/420 701/673/652 184/417/396
f 519/441/420 406/440/419 701/673/652
f 406/440/419 193/674/653 701/673/652
f 458/438/417 441/420/399 187/430/409
f 458/438/417 564/437/416 441/420/399
f 564/437/416 188/421/400 441/420/399
f 639/677/656 740/432/411 694/435/414 192/676/655
f 195/678/657 501/679/658 740/432/411 639/677/656
f 501/679/658 189/423/402 559/433/412 740/432/411
f 449/443/422 741/429/408 385/431/410 186/444/423
f 194/434/413 559/433/412 741/429/408 449/443/422
f 559/433/412 189/423/402 613/425/404 741/429/408
f 410/428/407 303/675/654 193/674/653
f 410/428/407 692/427/406 303/675/654
f 692/427/406 192/676/655 303/675/654
f 613/425/404 543/680/659 187/430/409
f 613/425/404 330/424/403 543/680/659
f 330/424/403 190/681/660 543/680/659
f 554/447/426 742/419/398 663/422/401 185/448/427
f 186/444/423 385/431/410 742/419/398 554/447/426
f 385/431/410 187/430/409 441/420/399 742/419/398
f 490/450/429 743/415/394 279/418/397 185/448/427
f 182/413/392 332/412/391 743/415/394 490/450/429
f 332/412/391 181/682/661 435/416/395 743/415/394
f 370/683/662 744/411/390 610/414/393 183/672/651
f 180/684/663 496/685/664 744/411/390 370/683/662
f 496/685/664 181/682/661 332/412/391 744/411/390
f 525/686/665 745/409/388 294/382/361 170/381/360
f 165/687/666 494/374/353 745/409/388 525/686/665
f 494/374/353 164/373/352 362/410/389 745/409/388
f 591/688/667 746/406/385 606/378/357 166/377/356
f 175/689/668 354/405/384 746/406/385 591/688/667
f 354/405/384 168/404/383 657/407/386 746/406/385
f 602/690/669 747/402/381 354/405/384 175/689/668
f 174/691/670 538/395/374 747/402/381 602/690/669
f 538/395/374 176/394/373 302/403/382 747/402/381
f 343/401/380 591/688/667 166/377/356
f 343/401/380 444/400/379 591/688/667
f 444/400/379 175/689/668 591/688/667
f 498/398/377 545/380/359 169/390/369
f 498/398/377 386/397/376 545/380/359
f 386/397/376 170/381/360 545/380/359
f 481/692/671 748/392/371 538/395/374 174/691/670
f 177/693/672 364/694/673 748/392/371 481/692/671
f 364/694/673 171/383/362 647/393/372 748/392/371
f 302/403/382 749/389/368 273/391/370 168/404/383
f 176/394/373 647/393/372 749/389/368 302/403/382
f 647/393/372 171/383/362 271/385/364 749/389/368
f 484/388/367 602/690/669 175/689/668
f 484/388/367 317/387/366 602/690/669
f 317/387/366 174/691/670 602/690/669
f 271/385/364 654/695/674 169/390/369
f 271/385/364 431/384/363 654/695/674
f 431/384/363 172/696/675 654/695/674
f 657/407/386 750/379/358 294/382/361 167/408/387
f 168/404/383 273/391/370 750/379/358 657/407/386
f 273/391/370 169/390/369 545/380/359 750/379/358
f 362/410/389 751/375/354 606/378/357 167/408/387
f 164/373/352 440/372/351 751/375/354 362/410/389
f 440/372/351 163/697/676 540/376/355 751/375/354
f 276/698/677 752/371/350 494/374/353 165/687/666
f 162/699/678 378/700/679 752/371/350 276/698/677
f 378/700/679 163/697/676 440/372/351 752/371/350
f 288/701/680 753/367/346 282/370/349 144/702/681
f 150/703/682 322/704/683 753/367/346 288/701/680
f 322/704/683 148/705/684 335/368/347 753/367/346
f 696/357/336 754/363/342 596/366/345 155/347/326
f 149/356/335 506/706/685 754/363/342 696/357/336
f 506/706/685 148/705/684 660/364/343 754/363/342
f 557/348/327 755/359/338 326/362/341 156/707/686
f 155/347/326 596/366/345 755/359/338 557/348/327
f 596/366/345 152/365/344 315/360/339 755/359/338
f 597/358/337 382/708/687 161/709/688
f 597/358/337 696/357/336 382/708/687
f 696/357/336 155/347/326 382/708/687
f 324/355/334 426/710/689 160/711/690
f 324/355/334 619/342/321 426/710/689
f 619/342/321 150/703/682 426/710/689
f 380/712/691 756/353/332 615/354/333 159/713/692
f 156/707/686 326/362/341 756/353/332 380/712/691
f 326/362/341 158/361/340 549/352/331 756/353/332
f 315/360/339 757/350/329 549/352/331 158/361/340
f 152/365/344 338/344/323 757/350/329 315/360/339
f 338/344/323 151/343/322 421/346/325 757/350/329
f 620/349/328 504/714/693 157/715/694
f 620/349/328 557/348/327 504/714/693
f 557/348/327 156/707/686 504/714/693
f 421/346/325 674/716/695 154/351/330
f 421/346/325 391/345/324 674/716/695
f 391/345/324 153/717/696 674/716/695
f 660/364/343 758/341/320 338/344/323 152/365/344
f 148/705/684 322/704/683 758/341/320 660/364/343
f 322/704/683 150/703/682 619/342/321 758/341/320
f 335/368/347 759/339/318 672/336/315 145/369/348
f 148/705/684 506/706/685 759/339/318 335/368/347
f 506/706/685 149/356/335 281/340/319 759/339/318
f 562/718/697 760/335/314 392/338/317 147/719/698
f 144/702/681 282/370/349 760/335/314 562/718/697
f 282/370/349 145/369/348 672/336/315 760/335/314
f 396/720/699 761/331/310 679/334/313 126/721/700
f 132/722/701 678/723/702 761/331/310 396/720/699
f 678/723/702 130/724/703 398/332/311 761/331/310
f 389/321/300 762/327/306 509/330/309 137/311/290
f 131/320/299 395/725/704 762/327/306 389/321/300
f 395/725/704 130/724/703 556/328/307 762/327/306
f 676/312/291 763/323/302 671/326/305 138/726/705
f 137/311/290 509/330/309 763/323/302 676/312/291
f 509/330/309 134/329/308 652/324/303 763/323/302
f 272/322/301 497/727/706 143/728/707
f 272/322/301 389/321/300 497/727/706
f 389/321/300 137/311/290 497/727/706
f 443/319/298 318/729/708 142/730/709
f 443/319/298 517/306/285 318/729/708
f 517/306/285 132/722/701 318/729/708
f 284/731/710 764/317/296 488/318/297 141/732/711
f 138/726/705 671/326/305 764/317/296 284/731/710
f 671/326/305 140/325/304 429/316/295 764/317/296
f 652/324/303 765/314/293 429/316/295 140/325/304
f 134/329/308 454/308/287 765/314/293 652/324/303
f 454/308/287 133/307/286 561/310/289 765/314/293
f 286/313/292 394/733/712 139/734/713
f 286/313/292 676/312/291 394/733/712
f 676/312/291 138/726/705 394/733/712
f 561/310/289 340/735/714 136/315/294
f 561/310/289 510/309/288 340/735/714
f 510/309/288 135/736/715 340/735/714
f 556/328/307 766/305/284 454/308/287 134/329/308
f 130/724/703 678/723/702 766/305/284 556/328/307
f 678/723/702 132/722/701 517/306/285 766/305/284
f 398/332/311 767/303/282 512/300/279 127/333/312
f 130/724/703 395/725/704 767/303/282 398/332/311
f 395/725/704 131/320/299 400/304/283 767/303/282
f 339/737/716 768/299/278 514/302/281 129/738/717
f 126/721/700 679/334/313 768/299/278 339/737/716
f 679/334/313 127/333/312 512/300/279 768/299/278
f 457/739/718 769/295/274 337/298/277 108/740/719
f 114/741/720 459/742/721 769/295/274 457/739/718
f 459/742/721 112/743/722 280/296/275 769/295/274
f 333/285/264 770/291/270 442/294/273 119/275/254
f 113/284/263 563/744/723 770/291/270 333/285/264
f 563/744/723 112/743/722 568/292/271 770/291/270
f 508/276/255 771/287/266 485/290/269 120/745/724
f 119/275/254 442/294/273 771/287/266 508/276/255
f 442/294/273 116/293/272 487/288/267 771/287/266
f 433/286/265 655/746/725 125/747/726
f 433/286/265 333/285/264 655/746/725
f 333/285/264 119/275/254 655/746/725
f 277/283/262 374/748/727 124/749/728
f 277/283/262 456/270/249 374/748/727
f 456/270/249 114/741/720 374/748/727
f 656/750/729 772/281/260 432/282/261 123/751/730
f 120/745/724 485/290/269 772/281/260 656/750/729
f 485/290/269 122/289/268 704/280/259 772/281/260
f 487/288/267 773/278/257 704/280/259 122/289/268
f 116/293/272 287/272/251 773/278/257 487/288/267
f 287/272/251 115/271/250 617/274/253 773/278/257
f 448/277/256 565/752/731 121/753/732
f 448/277/256 508/276/255 565/752/731
f 508/276/255 120/745/724 565/752/731
f 617/274/253 393/754/733 118/279/258
f 617/274/253 675/273/252 393/754/733
f 675/273/252 117/755/734 393/754/733
f 568/292/271 774/269/248 287/272/251 116/293/272
f 112/743/722 459/742/721 774/269/248 568/292/271
f 459/742/721 114/741/720 456/270/249 774/269/248
f 280/296/275 775/267/246 388/264/243 109/297/276
f 112/743/722 563/744/723 775/267/246 280/296/275
f 563/744/723 113/284/263 331/268/247 775/267/246
f 436/756/735 776/263/242 669/266/245 111/757/736
f 108/740/719 337/298/277 776/263/242 436/756/735
f 337/298/277 109/297/276 388/264/243 776/263/242
f 697/758/737 777/259/238 437/262/241 90/759/738
f 96/760/739 270/761/740 777/259/238 697/758/737
f 270/761/740 94/762/741 476/260/239 777/259/238
f 553/249/228 778/255/234 555/258/237 101/239/218
f 95/248/227 659/763/742 778/255/234 553/249/228
f 659/763/742 94/762/741 278/256/235 778/255/234
f 390/240/219 779/251/230 618/254/233 102/764/743
f 101/239/218 555/258/237 779/251/230 390/240/219
f 555/258/237 98/257/236 608/252/231 779/251/230
f 677/250/229 535/765/744 107/766/745
f 677/250/229 553/249/228 535/765/744
f 553/249/228 101/239/218 535/765/744
f 607/247/226 522/767/746 106/768/747
f 607/247/226 560/234/213 522/767/746
f 560/234/213 96/760/739 522/767/746
f 334/769/748 780/245/224 550/246/225 105/770/749
f 102/764/743 618/254/233 780/245/224 334/769/748
f 618/254/233 104/253/232 379/244/223 780/245/224
f 608/252/231 781/242/221 379/244/223 104/253/232
f 98/257/236 623/236/215 781/242/221 608/252/231
f 623/236/215 97/235/214 503/238/217 781/242/221
f 336/241/220 670/771/750 103/772/751
f 336/241/220 390/240/219 670/771/750
f 390/240/219 102/764/743 670/771/750
f 503/238/217 285/773/752 100/243/222
f 503/238/217 558/237/216 285/773/752
f 558/237/216 99/774/753 285/773/752
f 278/256/235 782/233/212 623/236/215 98/257/236
f 94/762/741 270/761/740 782/233/212 278/256/235
f 270/761/740 96/760/739 560/234/213 782/233/212
f 476/260/239 783/231/210 605/228/207 91/261/240
f 94/762/741 659/763/742 783/231/210 476/260/239
f 659/763/742 95/248/227 423/232/211 783/231/210
f 542/775/754 784/227/206 325/230/209 93/776/755
f 90/759/738 437/262/241 784/227/206 542/775/754
f 437/262/241 91/261/240 605/228/207 784/227/206
f 357/777/756 785/223/202 548/226/205 72/778/757
f 78/779/758 368/780/759 785/223/202 357/777/756
f 368/780/759 76/781/760 375/224/203 785/223/202
f 500/213/192 786/219/198 609/222/201 83/203/182
f 77/212/191 328/782/761 786/219/198 500/213/192
f 328/782/761 76/781/760 482/220/199 786/219/198
f 601/204/183 787/215/194 358/218/197 84/783/762
f 83/203/182 609/222/201 787/215/194 601/204/183
f 609/222/201 80/221/200 329/216/195 787/215/194
f 622/214/193 420/784/763 89/785/764
f 622/214/193 500/213/192 420/784/763
f 500/213/192 83/203/182 420/784/763
f 341/211/190 673/786/765 88/787/766
f 341/211/190 661/198/177 673/786/765
f 661/198/177 78/779/758 673/786/765
f 416/788/767 788/209/188 644/210/189 87/789/768
f 84/783/762 358/218/197 788/209/188 416/788/767
f 358/218/197 86/217/196 593/208/187 788/209/188
f 329/216/195 789/206/185 593/208/187 86/217/196
f 80/221/200 381/200/179 789/206/185 329/216/195
f 381/200/179 79/199/178 665/202/181 789/206/185
f 653/205/184 319/790/769 85/791/770
f 653/205/184 601/204/183 319/790/769
f 601/204/183 84/783/762 319/790/769
f 665/202/181 489/792/771 82/207/186
f 665/202/181 438/201/180 489/792/771
f 438/201/180 81/793/772 489/792/771
f 482/220/199 790/197/176 381/200/179 80/221/200
f 76/781/760 368/780/759 790/197/176 482/220/199
f 368/780/759 78/779/758 661/198/177 790/197/176
f 375/224/203 791/195/174 495/192/171 73/225/204
f 76/781/760 328/782/761 791/195/174 375/224/203
f 328/782/761 77/212/191 546/196/175 791/195/174
f 630/794/773 792/191/170 439/194/173 75/795/774
f 72/778/757 548/226/205 792/191/170 630/794/773
f 548/226/205 73/225/204 495/192/171 792/191/170
f 383/796/775 793/187/166 686/190/169 54/797/776
f 60/798/777 404/799/778 793/187/166 383/796/775
f 404/799/778 58/800/779 384/188/167 793/187/166
f 462/177/156 794/183/162 579/186/165 65/167/146
f 59/176/155 470/801/780 794/183/162 462/177/156
f 470/801/780 58/800/779 291/184/163 794/183/162
f 499/168/147 795/179/158 493/182/161 66/802/781
f 65/167/146 579/186/165 795/179/158 499/168/147
f 579/186/165 62/185/164 415/180/159 795/179/158
f 588/178/157 323/803/782 71/804/783
f 588/178/157 462/177/156 323/803/782
f 462/177/156 65/167/146 323/803/782
f 430/175/154 531/805/784 70/806/785
f 430/175/154 583/162/141 531/805/784
f 583/162/141 60/798/777 531/805/784
f 547/807/786 796/173/152 594/174/153 69/808/787
f 66/802/781 493/182/161 796/173/152 547/807/786
f 493/182/161 68/181/160 638/172/151 796/173/152
f 415/180/159 797/170/149 638/172/151 68/181/160
f 62/185/164 409/164/143 797/170/149 415/180/159
f 409/164/143 61/163/142 523/166/145 797/170/149
f 552/169/148 445/809/788 67/810/789
f 552/169/148 499/168/147 445/809/788
f 499/168/147 66/802/781 445/809/788
f 523/166/145 300/811/790 64/171/150
f 523/166/145 582/165/144 300/811/790
f 582/165/144 63/812/791 300/811/790
f 291/184/163 798/161/140 409/164/143 62/185/164
f 58/800/779 404/799/778 798/161/140 291/184/163
f 404/799/778 60/798/777 583/162/141 798/161/140
f 384/188/167 799/159/138 298/156/135 55/189/168
f 58/800/779 470/801/780 799/159/138 384/188/167
f 470/801/780 59/176/155 664/160/139 799/159/138
f 571/813/792 800/155/134 350/158/137 57/814/793
f 54/797/776 686/190/169 800/155/134 571/813/792
f 686/190/169 55/189/168 298/156/135 800/155/134
f 551/154/82 289/815/794 35/816/83
f 551/154/82 662/153/90 289/815/794
f 662/153/90 40/817/79 289/815/794
f 289/815/794 801/148/133 520/151/74 35/816/83
f 40/817/79 292/818/78 801/148/133 289/815/794
f 292/818/78 39/819/87 451/149/86 801/148/133
f 295/141/126 802/144/129 666/147/132 49/142/127
f 52/126/111 367/131/116 802/144/129 295/141/126
f 367/131/116 34/130/115 344/145/130 802/144/129
f 527/820/795 803/140/125 345/143/128 48/821/796
f 53/822/797 580/127/112 803/140/125 527/820/795
f 580/127/112 52/126/111 295/141/126 803/140/125
f 577/133/118 804/136/121 452/139/124 45/134/119
f 50/823/103 478/824/108 804/136/121 577/133/118
f 478/824/108 38/825/107 566/137/122 804/136/121
f 634/826/798 805/132/117 567/135/120 44/827/799
f 51/828/800 467/829/104 805/132/117 634/826/798
f 467/829/104 50/823/103 577/133/118 805/132/117
f 349/125/110 806/128/113 367/131/116 52/126/111
f 46/110/95 283/115/100 806/128/113 349/125/110
f 283/115/100 42/114/99 502/129/114 806/128/113
f 628/830/801 807/124/109 580/127/112 53/822/797
f 47/831/802 681/111/96 807/124/109 628/830/801
f 681/111/96 46/110/95 349/125/110 807/124/109
f 629/117/102 808/120/105 478/123/108 50/118/103
f 49/142/127 666/147/132 808/120/105 629/117/102
f 666/147/132 37/146/131 402/121/106 808/120/105
f 627/832/803 809/116/101 467/119/104 51/833/800
f 48/821/796 345/143/128 809/116/101 627/832/803
f 345/143/128 49/142/127 629/117/102 809/116/101
f 397/109/94 810/112/97 283/115/100 46/110/95
f 45/134/119 452/139/124 810/112/97 397/109/94
f 452/139/124 41/138/123 625/113/98 810/112/97
f 446/834/804 811/108/93 681/111/96 47/831/802
f 44/827/799 567/135/120 811/108/93 446/834/804
f 567/135/120 45/134/119 397/109/94 811/108/93
f 625/835/98 812/104/89 460/107/92 42/836/99
f 41/837/123 347/95/80 812/104/89 625/835/98
f 347/95/80 40/94/79 662/105/90 812/104/89
f 402/838/106 813/100/85 682/103/88 38/839/107
f 37/840/131 573/91/76 813/100/85 402/838/106
f 573/91/76 36/90/75 451/101/86 813/100/85
f 502/841/114 814/96/81 464/99/84 34/842/115
f 42/836/99 460/107/92 814/96/81 502/841/114
f 460/107/92 43/106/91 551/97/82 814/96/81
f 566/843/122 815/92/77 347/95/80 41/837/123
f 38/844/107 682/845/88 815/92/77 566/843/122
f 682/845/88 39/846/87 292/93/78 815/92/77
f 344/847/130 816/88/73 573/91/76 37/840/131
f 34/842/115 464/99/84 816/88/73 344/847/130
f 464/99/84 35/98/83 520/89/74 816/88/73
f 632/87/70 532/848/62 29/849/71
f 632/87/70 529/86/66 532/848/62
f 529/86/66 30/850/63 532/848/62
f 353/851/805 817/81/69 587/84/72 28/852/806
f 33/853/807 361/80/68 817/81/69 353/851/805
f 361/80/68 32/79/67 632/82/70 817/81/69
f 471/854/808 818/77/65 361/80/68 33/853/807
f 31/855/809 695/856/64 818/77/65 471/854/808
f 695/856/64 30/857/63 529/78/66 818/77/65
f 466/858/810 819/73/61 695/76/64 31/859/809
f 28/852/806 587/84/72 819/73/61 466/858/810
f 587/84/72 29/83/71 532/74/62 819/73/61
f 505/72/58 412/860/50 23/861/59
f 505/72/58 621/71/54 412/860/50
f 621/71/54 24/862/51 412/860/50
f 450/863/811 820/66/57 691/69/60 22/864/812
f 27/865/813 472/65/56 820/66/57 450/863/811
f 472/65/56 26/64/55 505/67/58 820/66/57
f 359/866/814 821/62/53 472/65/56 27/865/813
f 25/867/815 355/868/52 821/62/53 359/866/814
f 355/868/52 24/869/51 621/63/54 821/62/53
f 581/870/816 822/58/49 355/61/52 25/871/815
f 22/864/812 691/69/60 822/58/49 581/870/816
f 691/69/60 23/68/59 412/59/50 822/58/49
f 690/57/46 633/872/38 19/873/47
f 690/57/46 586/56/42 633/872/38
f 586/56/42 20/874/39 633/872/38
f 590/40/34 823/51/45 434/54/48 14/41/35
f 17/37/31 469/50/44 823/51/45 590/40/34
f 469/50/44 21/49/43 690/52/46 823/51/45
f 475/36/30 824/47/41 469/50/44 17/37/31
f 15/875/27 604/876/40 824/47/41 475/36/30
f 604/876/40 20/877/39 586/48/42 824/47/41
f 699/32/26 825/43/37 604/46/40 15/33/27
f 14/41/35 434/54/48 825/43/37 699/32/26
f 434/54/48 19/53/47 633/44/38 825/43/37
f 275/878/817 826/39/33 536/42/36 13/879/818
f 18/880/819 306/38/32 826/39/33 275/878/817
f 306/38/32 17/37/31 590/40/34 826/39/33
f 600/881/820 827/35/29 306/38/32 18/880/819
f 16/882/821 424/883/28 827/35/29 600/881/820
f 424/883/28 15/875/27 475/36/30 827/35/29
f 637/884/822 828/31/25 424/34/28 16/885/821
f 13/879/818 536/42/36 828/31/25 637/884/822
f 536/42/36 14/41/35 699/32/26 828/31/25
f 680/30/22 369/886/14 8/887/23
f 680/30/22 360/29/18 369/886/14
f 360/29/18 9/888/15 369/886/14
f 626/889/823 829/24/21 425/27/24 7/890/824
f 12/891/825 640/23/20 829/24/21 626/889/823
f 640/23/20 11/22/19 680/25/22 829/24/21
f 308/892/826 830/20/17 640/23/20 12/891/825
f 10/893/827 309/894/16 830/20/17 308/892/826
f 309/894/16 9/895/15 360/21/18 830/20/17
f 518/896/828 831/16/13 309/19/16 10/897/827
f 7/890/824 425/27/24 831/16/13 518/896/828
f 425/27/24 8/26/23 369/17/14 831/16/13
f 599/898/829 832/12/9 539/15/12 5/899/830
f 4/900/831 650/4/4 832/12/9 599/898/829
f 650/4/4 3/3/3 307/13/10 832/12/9
f 479/11/2 307/901/10 3/902/3
f 479/11/2 635/10/6 307/901/10
f 635/10/6 6/903/11 307/901/10
f 474/904/832 833/5/5 314/8/8 1/905/833
f 5/906/830 539/907/12 833/5/5 474/904/832
f 539/907/12 6/908/11 635/6/6 833/5/5
f 422/909/834 834/1/1 650/4/4 4/900/831
f 1/905/833 314/8/8 834/1/1 422/909/834
f 314/8/8 2/7/7 479/2/2 834/1/1
