# Blender v2.78 (sub 0) OBJ File: ''
# www.blender.org
mtllib Dead_Pine_Tree_crk_l_04.mtl
o Dead_Pine_Tree_crk_l_04
v -0.054023 5.537957 -0.167823
v -0.405525 5.845334 -0.784952
v -0.427906 5.834570 -0.779708
v -0.103092 5.509051 -0.149396
v -0.065178 5.482598 -0.187407
v -0.413268 5.825640 -0.798395
v 0.102260 0.018762 0.260638
v -0.019064 3.249007 0.175251
v -0.310015 3.187444 0.115292
v -0.247595 0.013476 0.186226
v 0.003589 6.524905 0.115711
v -0.198672 6.693628 0.049992
v 0.030719 0.017559 -0.330460
v -0.049419 3.240213 -0.282202
v 0.155436 3.241601 -0.053886
v 0.281661 0.017711 -0.053960
v 0.001437 6.628445 -0.186440
v 0.108503 6.629726 -0.066495
v -0.320689 3.271483 -0.161355
v -0.278968 0.020036 -0.164933
v -0.209918 6.620199 -0.124074
v -0.696131 2.993433 -0.310263
v -0.892276 2.917349 -0.262762
v -0.754047 2.996782 -0.117500
v -0.340105 3.182545 -0.101469
v -1.184715 2.773091 -0.348119
v -1.246066 2.740111 -0.119377
v -1.109644 2.732517 -0.571461
v -1.635331 2.455596 -0.852268
v -1.737879 2.507419 -0.509702
v -1.991047 2.185617 -1.008649
v -2.126484 2.250871 -0.786919
v -1.840436 2.463747 -0.165480
v -2.181891 2.174953 -0.472411
v -2.223241 2.190358 -0.221547
v -2.018994 2.363951 -0.591670
v -2.486153 2.035251 -0.726318
v -1.314638 2.497203 -0.900398
v -1.610021 2.508930 0.046724
v -0.335929 4.269552 0.393002
v -0.321461 4.185856 0.598103
v -0.152759 4.280536 0.489220
v -0.067399 4.489024 0.079830
v -0.455728 4.021386 0.872486
v -0.234797 3.996764 0.978093
v -0.664282 3.971291 0.751844
v -1.033170 3.651017 1.219689
v -0.710246 3.717673 1.391688
v -1.244037 3.351185 1.540326
v -1.050210 3.424090 1.722377
v -0.380102 3.686324 1.561130
v -0.739071 3.360012 1.837417
v -0.494760 3.387039 1.928603
v -0.838952 3.554651 1.655319
v -1.046004 3.191081 2.090993
v -1.022204 3.704338 0.887610
v -0.124034 3.753017 1.371151
v 0.464706 5.032497 -0.222655
v 0.562741 4.958664 -0.411814
v 0.357323 5.051203 -0.402683
v 0.062158 5.242132 -0.083774
v 0.827618 4.804573 -0.585817
v 0.693155 4.788170 -0.795917
v 0.944592 4.744563 -0.373226
v 1.517922 4.439529 -0.597481
v 1.329101 4.520597 -0.914446
v 1.875882 4.149560 -0.777698
v 1.803965 4.235761 -1.034283
v 1.134270 4.502223 -1.238159
v 1.597146 4.181054 -1.302612
v 1.433942 4.216588 -1.510012
v 1.583420 4.367477 -1.082050
v 2.000358 4.019009 -1.366952
v 1.330787 4.476170 -0.313809
v 0.810573 4.563257 -1.206983
v 0.325277 6.018707 0.327185
v 0.534449 5.898961 0.305523
v 0.430533 6.025686 0.127469
v 0.018938 6.315186 0.048382
v 0.806785 5.674339 0.441201
v 0.916878 5.643434 0.198506
v 0.669426 5.627467 0.666807
v 1.128130 5.194387 1.048552
v 1.323222 5.257368 0.698802
v 1.430598 4.813030 1.260485
v 1.637671 4.874732 1.051537
v 1.501099 5.215349 0.336311
v 1.751996 4.804440 0.708561
v 1.854086 4.832569 0.443112
v 1.584148 5.036170 0.828587
v 2.001472 4.569313 1.032210
v 0.777291 5.301328 1.042066
v 1.305330 5.328234 0.062403
v -0.339979 3.182258 -0.101427
v -0.753917 2.996495 -0.117467
v -0.892146 2.917064 -0.262718
v -0.696008 2.993146 -0.310210
v -1.245930 2.739826 -0.119388
v -1.184588 2.772805 -0.348076
v -1.737736 2.507140 -0.509664
v -1.635225 2.455321 -0.852158
v -1.109540 2.732233 -0.571368
v -2.126321 2.250606 -0.786878
v -1.990918 2.185367 -1.008507
v -2.223062 2.190102 -0.221502
v -2.181704 2.174699 -0.472424
v -1.840276 2.463475 -0.165497
v -2.018825 2.363684 -0.591653
v -2.485966 2.035000 -0.726358
v -1.314583 2.496934 -0.900245
v -1.609891 2.508658 0.046635
v -0.067318 4.488744 0.079707
v -0.152687 4.280257 0.489090
v -0.321378 4.185578 0.597974
v -0.335837 4.269275 0.392883
v -0.234766 3.996485 0.977949
v -0.455647 4.021108 0.872360
v -0.710168 3.717402 1.391548
v -1.033027 3.650750 1.219597
v -0.664155 3.971017 0.751751
v -1.050125 3.423832 1.722218
v -1.243861 3.350948 1.540219
v -0.494668 3.386794 1.928427
v -0.739033 3.359765 1.837223
v -0.380074 3.686058 1.560963
v -0.838889 3.554391 1.655149
v -1.045994 3.190836 2.090794
v -1.022027 3.704078 0.887577
v -0.124082 3.752746 1.370999
v 0.062028 5.241847 -0.083726
v 0.357197 5.050919 -0.402624
v 0.562607 4.958383 -0.411763
v 0.464569 5.032214 -0.222615
v 0.693058 4.787884 -0.795825
v 0.827487 4.804290 -0.585768
v 1.328964 4.520320 -0.914382
v 1.517757 4.439262 -0.597490
v 0.944439 4.744287 -0.373227
v 1.803813 4.235497 -1.034205
v 1.875680 4.149322 -0.777711
v 1.433776 4.216336 -1.509924
v 1.597015 4.180798 -1.302480
v 1.134163 4.501950 -1.238046
v 1.583280 4.367210 -1.081953
v 2.000249 4.018754 -1.366800
v 1.330624 4.475912 -0.313886
v 0.810538 4.562977 -1.206843
v 0.018777 6.314929 0.048288
v 0.430366 6.025430 0.127384
v 0.534284 5.898707 0.305427
v 0.325120 6.018452 0.327081
v 0.916697 5.643179 0.198462
v 0.806623 5.674084 0.441106
v 1.323045 5.257123 0.698712
v 1.128002 5.194144 1.048398
v 0.669296 5.627215 0.666668
v 1.637478 4.874502 1.051441
v 1.430460 4.812819 1.260298
v 1.853879 4.832353 0.443010
v 1.751770 4.804224 0.708514
v 1.500897 5.215110 0.336272
v 1.583945 5.035939 0.828513
v 2.001241 4.569098 1.032191
v 0.777223 5.301084 1.041878
v 1.305143 5.327984 0.062439
v -0.592790 3.381160 1.877108
v -0.583099 3.869397 1.132315
v 0.051634 6.635847 0.029762
v 1.797538 4.828617 0.549921
v 1.691110 4.306246 -1.064262
v -1.683873 2.488112 -0.681358
v -0.285055 0.016756 0.013736
v 0.482347 5.963128 0.215635
v 0.187383 5.161486 -0.223728
v 1.394495 4.474904 -0.423640
v 0.237037 5.152836 -0.140483
v -0.236287 4.233872 0.543437
v 1.208498 5.435072 0.250583
v 1.593733 4.275352 -1.186160
v 0.197637 6.191778 0.079197
v -0.871832 3.690952 1.302940
v 1.468024 4.439027 -1.005786
v -1.056309 3.527717 1.482685
v 1.375478 4.332076 -1.286785
v 0.855157 5.667660 0.318790
v -1.208043 2.763168 -0.233426
v -0.283332 1.492780 0.154947
v -0.077558 0.016119 0.245535
v 1.230000 4.592550 -0.468403
v -0.543296 3.708662 1.474363
v -0.492231 3.102277 -0.194384
v -0.009905 1.523342 -0.312701
v 0.855329 5.667914 0.318860
v -1.236385 2.595798 -0.761907
v 0.733604 5.659841 0.549825
v -0.176183 3.854828 1.211137
v 1.826930 4.084867 -1.335923
v -2.098323 2.270974 -0.538366
v 1.315864 4.335183 -1.398041
v -0.452007 3.511152 1.780054
v 1.422200 4.486896 -0.753208
v -0.519011 3.103826 -0.105251
v 0.660076 5.844895 0.168472
v -0.238915 5.653110 -0.493722
v 1.797754 4.828832 0.549998
v 1.679953 4.328094 -0.818671
v -2.075248 2.311115 -0.683206
v -0.492105 3.101990 -0.194337
v 1.422049 4.486622 -0.753179
v -0.225519 3.740971 1.435478
v -0.915768 3.260132 1.978918
v -0.328950 4.228033 0.494592
v -0.429527 5.839474 -0.805922
v 1.173688 4.588483 -0.345110
v 1.465977 5.138753 0.769892
v -2.028961 2.309795 -0.315943
v 1.615859 4.959753 0.934394
v 0.932856 4.553360 -1.209252
v 0.910849 5.274723 1.037084
v 0.494119 5.833890 0.483363
v -1.236307 2.595522 -0.761780
v 0.768834 4.657342 -1.035745
v -1.359717 2.595385 -0.721849
v 0.691207 4.897704 -0.300791
v -0.228948 5.692695 -0.476302
v 1.373211 5.300652 0.171769
v 0.683941 4.887983 -0.491451
v -2.037684 2.223282 -0.910757
v 1.711879 4.990518 0.404018
v -1.850618 2.300150 -0.943434
v -1.786608 2.491882 -0.335855
v -1.850738 2.300411 -0.943560
v 0.882874 5.413948 0.866094
v 0.660249 5.845151 0.168539
v -0.207551 6.701253 -0.042695
v 1.916897 4.118157 -1.227506
v -0.101207 4.400687 0.257430
v 0.429049 5.959594 0.316764
v -1.156578 3.393258 1.607811
v -0.185904 4.395609 0.212939
v -0.328784 3.228410 -0.021492
v 0.494265 5.834144 0.483482
v 1.664682 4.921916 0.775270
v 1.644756 4.996009 0.521603
v -0.856413 3.812526 0.970959
v 0.236904 5.152552 -0.140438
v 0.879586 4.781837 -0.476918
v -0.094708 6.808758 -0.071965
v -0.780566 3.630404 1.535469
v 1.827047 4.085122 -1.336068
v -1.157908 3.478155 1.414770
v 0.733456 5.659588 0.549708
v -1.018787 3.696269 1.012275
v 1.223846 5.233673 0.874297
v 1.316004 4.335444 -1.398142
v -0.856275 3.812255 0.970871
v 1.228863 4.518085 -1.075189
v 1.615659 4.959522 0.934311
v 0.513429 4.995864 -0.316252
v -0.555685 4.003444 0.806885
v -1.690326 2.504650 -0.038700
v -0.020545 5.010163 -0.239003
v -0.487139 4.129232 0.568236
v 1.835297 4.196736 -0.880312
v -1.461405 2.639855 -0.428941
v 0.740435 5.436237 0.885460
v -2.352875 2.091845 -0.619536
v 1.732478 4.272853 -0.708523
v 0.148970 6.188551 0.171538
v 1.690965 4.305980 -1.064172
v -0.822772 2.957669 -0.189356
v -0.780637 3.630669 1.535625
v 1.732293 4.272601 -0.708532
v -0.198342 4.146552 0.719939
v -2.192245 2.188565 -0.324712
v 0.428887 5.959339 0.316665
v -0.305127 1.539611 -0.165631
v 1.078446 4.662180 -0.750220
v -1.461540 2.640138 -0.428981
v -0.168593 3.216160 0.157274
v -2.069026 2.304096 -0.202157
v -0.822641 2.957383 -0.189316
v -0.795026 3.458403 1.742857
v -0.133523 0.018797 -0.268516
v -0.987502 2.875958 -0.124929
v 1.850004 4.706228 1.039564
v -1.018949 3.696532 1.012333
v -1.046705 3.296921 1.936318
v -0.086433 5.492573 -0.168422
v 1.147582 5.458980 0.125625
v -0.915789 3.260377 1.979116
v 1.373405 5.300898 0.171766
v -0.225504 3.741241 1.435637
v -0.555789 4.003720 0.806996
v -0.452070 3.511405 1.780228
v 0.659043 5.795995 0.367589
v -0.038453 6.804958 -0.008888
v -0.592724 3.380914 1.876924
v 1.410929 5.243944 0.515861
v -1.895192 2.345096 -0.831928
v 1.394072 5.021514 1.065385
v -1.895057 2.344826 -0.831849
v 0.521870 4.927203 -0.584688
v -1.683748 2.487834 -0.681286
v -0.543243 3.708393 1.474208
v -0.382891 4.110428 0.723658
v 1.664466 4.921693 0.775211
v -0.176196 3.854553 1.210987
v 1.712085 4.990744 0.404091
v -2.037827 2.223540 -0.910855
v 1.228741 4.517810 -1.075098
v 1.890641 4.667137 0.894821
v 0.513564 4.996146 -0.316298
v 1.313560 4.972859 1.174100
v -0.987634 2.876244 -0.124943
v -0.091700 6.650056 0.087437
v -0.266113 5.000609 0.087872
v 0.755402 4.803471 -0.685115
v -0.487246 4.129509 0.568344
v 1.223693 5.233427 0.874176
v -0.793318 2.955688 -0.286915
v -2.075414 2.311382 -0.683232
v 0.459059 5.005336 -0.407403
v -0.291765 3.845660 1.268427
v -0.871941 3.691222 1.303057
v -1.891306 2.431036 -0.554472
v 0.172258 0.017635 -0.208299
v -1.025970 2.850888 -0.301776
v 1.835478 4.196988 -0.880338
v -0.343902 4.016145 0.918133
v 1.680114 4.328359 -0.818704
v 0.768771 4.657060 -1.035625
v -0.382808 4.110149 0.723532
v -0.793445 2.955974 -0.286964
v 1.147396 5.458727 0.125625
v 1.849788 4.706006 1.039513
v 0.224043 1.523966 -0.053700
v 1.916770 4.117898 -1.227384
v 0.882998 5.414197 0.866243
v 1.065230 5.465671 0.570114
v -1.433270 2.493021 -0.874703
v 1.375355 4.331813 -1.286664
v -1.046664 3.296671 1.936135
v -0.518883 3.103539 -0.105212
v -0.291789 3.845933 1.268582
v 0.211954 0.018237 0.115054
v -0.267038 5.050894 -0.143164
v -0.419234 5.844343 -0.808228
v -1.891150 2.430764 -0.554445
v 0.899548 4.649805 -1.024258
v -0.110088 6.683932 -0.151745
v 0.683808 4.887701 -0.491401
v -0.101129 4.400407 0.257303
v 0.043329 1.530012 0.223307
v 0.899450 4.649524 -1.024152
v 0.482181 5.962873 0.215545
v -2.098145 2.270714 -0.538365
v -2.192062 2.188310 -0.324693
v 0.755286 4.803186 -0.685044
v -0.795074 3.458656 1.743039
v -1.539244 2.605296 -0.127485
v -0.266633 5.671771 -0.463817
v 0.740531 5.436486 0.885627
v -0.190308 3.258250 -0.234008
v -0.079599 5.526664 -0.156422
v 1.394331 4.474640 -0.423688
v 0.149130 6.188807 0.171635
v -1.141081 2.759296 -0.456300
v -0.939210 3.493651 1.692854
v -1.208175 2.763454 -0.233443
v -0.559402 3.512528 1.717367
v -1.157748 3.477905 1.414668
v -1.433193 2.492748 -0.874569
v 0.197800 6.192034 0.079287
v -0.559439 3.512783 1.717548
v -1.359616 2.595105 -0.721744
v 1.890411 4.666923 0.894791
v -0.343959 4.016424 0.918268
v 1.644542 4.995783 0.521555
v -0.896188 2.870677 -0.428851
v -0.198396 4.146832 0.720075
v 0.932790 4.553082 -1.209123
v 1.394233 5.021749 1.065513
v 1.491412 4.206577 -1.413663
v 0.459190 5.005619 -0.407457
v 1.313425 4.972633 1.173929
v 0.879444 4.781558 -0.476893
v 0.187255 5.161201 -0.223675
v 1.509551 4.852930 1.166785
v 1.509390 4.852709 1.166638
v 1.467886 4.438754 -1.005704
v -1.026099 2.851174 -0.301819
v 1.465786 5.138515 0.769810
v -0.009839 4.989037 0.144646
v -0.896304 2.870964 -0.428922
v 1.065061 5.465420 0.570022
v -0.583018 3.869122 1.132182
v -1.056426 3.527979 1.482810
v 0.063766 3.239584 -0.176352
v -2.334728 2.133492 -0.750342
v 1.078579 4.662460 -0.750276
v -1.690469 2.504923 -0.038642
v -0.872882 3.815647 0.838510
v -0.329037 4.228310 0.494715
v 0.910756 5.274478 1.036911
v -1.462908 2.605656 -0.027549
v 0.080167 3.247344 0.067678
v 0.691064 4.897424 -0.300769
v 1.593599 4.275090 -1.186044
v -0.873037 3.815913 0.838571
v -1.786455 2.491606 -0.335846
v -1.463042 2.605934 -0.027495
v -0.939138 3.493392 1.692688
v -2.353064 2.092096 -0.619506
v 0.658880 5.795740 0.367493
v 1.491263 4.206323 -1.413554
v -0.236209 4.233593 0.543307
v -2.069198 2.304358 -0.202173
v -2.334550 2.133234 -0.750349
v -0.185819 4.395329 0.212817
v 0.136667 5.011739 -0.063362
v 1.229841 4.592278 -0.468414
v 0.521756 4.926918 -0.584615
v -0.056262 5.510370 -0.179782
v -2.028786 2.309533 -0.315953
v 0.055033 6.662626 -0.126824
v -1.156441 3.393011 1.607682
v -0.425877 5.848345 -0.799589
v 1.410739 5.243701 0.515797
v 1.173847 4.588749 -0.345067
v -1.141198 2.759582 -0.456367
v 1.208307 5.434824 0.250547
v -1.539098 2.605017 -0.127504
v 0.575294 5.813869 0.431187
v 1.135719 5.456357 0.413697
v 1.546281 5.077955 0.643623
v 1.764000 4.804936 0.915358
v 1.424566 5.093617 0.913008
v 0.976463 5.445792 0.715883
v 0.663569 5.819723 0.263691
v 0.304738 6.084044 0.190928
v 0.691504 4.891660 -0.392415
v 0.990438 4.661491 -0.883922
v 1.414436 4.393564 -1.138876
v 1.765853 4.189774 -1.209264
v 1.566113 4.394799 -0.908505
v 1.152916 4.633186 -0.611533
v 0.601446 4.907348 -0.543397
v 0.339708 5.084604 -0.265694
v -0.440289 4.118925 0.644865
v -0.440252 3.863075 1.198631
v -0.667624 3.580089 1.617020
v -0.928560 3.370633 1.846789
v -0.913645 3.590553 1.502550
v -0.717397 3.846452 1.053054
v -0.286673 4.128138 0.725558
v -0.208250 4.320572 0.367199
v -0.961107 2.860303 -0.370602
v -1.498959 2.628057 -0.280980
v -1.950245 2.378111 -0.434264
v -2.224975 2.195911 -0.650699
v -1.885565 2.398488 -0.689226
v -1.411335 2.622988 -0.572638
v -1.009678 2.863111 -0.208942
v -0.646276 3.035150 -0.190898
v 0.575449 5.814123 0.431295
v 1.135900 5.456606 0.413764
v 1.546484 5.078188 0.643684
v 1.764216 4.805159 0.915413
v 1.424742 5.093856 0.913112
v 0.976611 5.446042 0.716003
v 0.663738 5.819979 0.263772
v 0.304901 6.084299 0.191023
v 0.691642 4.891941 -0.392450
v 0.990556 4.661771 -0.884002
v 1.414564 4.393832 -1.138980
v 1.765984 4.190034 -1.209383
v 1.566261 4.395070 -0.908563
v 1.153063 4.633462 -0.611558
v 0.601569 4.907632 -0.543459
v 0.339840 5.084888 -0.265743
v -0.440385 4.119203 0.644982
v -0.440306 3.863350 1.198776
v -0.667675 3.580350 1.617190
v -0.928605 3.370884 1.846973
v -0.913737 3.590818 1.502691
v -0.717505 3.846725 1.053166
v -0.286741 4.128417 0.725690
v -0.208332 4.320851 0.367324
v -0.961228 2.860589 -0.370660
v -1.499101 2.628338 -0.280993
v -1.950411 2.378379 -0.434269
v -2.225153 2.196170 -0.650696
v -1.885710 2.398761 -0.689277
v -1.411454 2.623271 -0.572709
v -1.009809 2.863398 -0.208970
v -0.646404 3.035436 -0.190941
v -0.147570 5.031692 -0.200823
v -0.163668 1.532678 -0.253088
v 0.073345 5.000257 0.046229
v 0.147174 1.528009 0.092695
v -0.278647 5.027080 -0.026719
v -0.309110 1.515669 -0.003414
v 0.067474 5.010455 -0.158490
v 0.118474 1.522993 -0.193387
v -0.141470 4.992959 0.126792
v -0.123861 1.510363 0.203417
v -0.254014 5.660866 -0.478898
v -0.232230 5.672961 -0.486115
v -0.248252 5.683748 -0.468828
vt 0.8430 0.9128
vt 0.8363 0.9129
vt 0.8363 0.9126
vt 0.8430 0.9124
vt 0.8429 0.9136
vt 0.8363 0.9132
vt 0.8363 0.9131
vt 0.8429 0.9132
vt 0.8362 0.9318
vt 0.8363 0.9316
vt 0.8364 0.9318
vt 0.8429 0.9120
vt 0.8363 0.9124
vt 0.8362 0.9122
vt 0.8429 0.9116
vt 0.8081 0.9112
vt 0.8073 0.9361
vt 0.8050 0.9354
vt 0.8055 0.9109
vt 0.8066 0.9622
vt 0.8058 0.9884
vt 0.8040 0.9891
vt 0.8045 0.9622
vt 0.7926 0.9115
vt 0.7937 0.9366
vt 0.7912 0.9367
vt 0.7899 0.9115
vt 0.7949 0.9626
vt 0.7961 0.9886
vt 0.7949 0.9888
vt 0.7930 0.9627
vt 0.8030 0.9112
vt 0.8029 0.9362
vt 0.8007 0.9370
vt 0.8005 0.9117
vt 0.8027 0.9627
vt 0.8025 0.9891
vt 0.8010 0.9892
vt 0.8009 0.9631
vt 0.8134 0.9116
vt 0.8119 0.9367
vt 0.8096 0.9368
vt 0.8108 0.9116
vt 0.8106 0.9625
vt 0.8094 0.9883
vt 0.8076 0.9877
vt 0.8086 0.9622
vt 0.7980 0.9115
vt 0.7984 0.9367
vt 0.7961 0.9364
vt 0.7954 0.9114
vt 0.7988 0.9628
vt 0.7991 0.9888
vt 0.7973 0.9885
vt 0.7967 0.9625
vt 0.7974 0.8093
vt 0.8087 0.8043
vt 0.8153 0.8112
vt 0.7974 0.8257
vt 0.7974 0.8175
vt 0.8153 0.8195
vt 0.8194 0.8355
vt 0.8084 0.8306
vt 0.8263 0.8243
vt 0.6872 0.3490
vt 0.6893 0.3418
vt 0.6914 0.3459
vt 0.6893 0.3562
vt 0.6905 0.3336
vt 0.6939 0.3356
vt 0.6812 0.3121
vt 0.6751 0.3121
vt 0.6723 0.2989
vt 0.6797 0.2989
vt 0.6710 0.2888
vt 0.6768 0.2888
vt 0.7021 0.2989
vt 0.6975 0.2888
vt 0.7033 0.2888
vt 0.6820 0.2909
vt 0.6814 0.2787
vt 0.6843 0.2828
vt 0.6872 0.2763
vt 0.6843 0.2696
vt 0.6691 0.3043
vt 0.6963 0.3253
vt 0.6992 0.3121
vt 0.7024 0.3172
vt 0.6924 0.2909
vt 0.6872 0.2930
vt 0.6872 0.2870
vt 0.6901 0.2828
vt 0.6932 0.3121
vt 0.6872 0.3121
vt 0.6872 0.2989
vt 0.6946 0.2989
vt 0.6839 0.3336
vt 0.6872 0.3315
vt 0.6872 0.3377
vt 0.6851 0.3418
vt 0.9351 0.3490
vt 0.9372 0.3418
vt 0.9393 0.3459
vt 0.9372 0.3562
vt 0.9384 0.3336
vt 0.9418 0.3356
vt 0.9291 0.3121
vt 0.9232 0.3121
vt 0.9203 0.2989
vt 0.9277 0.2989
vt 0.9190 0.2888
vt 0.9248 0.2888
vt 0.9500 0.2989
vt 0.9455 0.2888
vt 0.9513 0.2888
vt 0.9299 0.2909
vt 0.9293 0.2787
vt 0.9322 0.2828
vt 0.9351 0.2763
vt 0.9322 0.2696
vt 0.9171 0.3043
vt 0.9443 0.3253
vt 0.9471 0.3121
vt 0.9503 0.3172
vt 0.9403 0.2909
vt 0.9351 0.2930
vt 0.9351 0.2870
vt 0.9381 0.2828
vt 0.9411 0.3121
vt 0.9351 0.3121
vt 0.9351 0.2989
vt 0.9426 0.2989
vt 0.9318 0.3336
vt 0.9351 0.3315
vt 0.9351 0.3377
vt 0.9331 0.3418
vt 0.9351 0.3490
vt 0.9372 0.3418
vt 0.9393 0.3459
vt 0.9372 0.3562
vt 0.9384 0.3336
vt 0.9418 0.3356
vt 0.9291 0.3121
vt 0.9232 0.3121
vt 0.9203 0.2989
vt 0.9277 0.2989
vt 0.9190 0.2888
vt 0.9248 0.2888
vt 0.9500 0.2989
vt 0.9455 0.2888
vt 0.9513 0.2888
vt 0.9299 0.2909
vt 0.9293 0.2787
vt 0.9322 0.2828
vt 0.9351 0.2763
vt 0.9322 0.2696
vt 0.9171 0.3043
vt 0.9443 0.3253
vt 0.9471 0.3121
vt 0.9503 0.3172
vt 0.9403 0.2909
vt 0.9351 0.2930
vt 0.9351 0.2870
vt 0.9381 0.2828
vt 0.9411 0.3121
vt 0.9351 0.3121
vt 0.9351 0.2989
vt 0.9426 0.2989
vt 0.9318 0.3336
vt 0.9351 0.3315
vt 0.9351 0.3377
vt 0.9331 0.3418
vt 0.9351 0.3490
vt 0.9372 0.3418
vt 0.9393 0.3459
vt 0.9372 0.3562
vt 0.9384 0.3336
vt 0.9418 0.3356
vt 0.9291 0.3121
vt 0.9232 0.3121
vt 0.9203 0.2989
vt 0.9277 0.2989
vt 0.9190 0.2888
vt 0.9248 0.2888
vt 0.9500 0.2989
vt 0.9455 0.2888
vt 0.9513 0.2888
vt 0.9299 0.2909
vt 0.9293 0.2787
vt 0.9322 0.2828
vt 0.9351 0.2763
vt 0.9322 0.2696
vt 0.9171 0.3043
vt 0.9443 0.3253
vt 0.9471 0.3121
vt 0.9503 0.3172
vt 0.9403 0.2909
vt 0.9351 0.2930
vt 0.9351 0.2870
vt 0.9381 0.2828
vt 0.9411 0.3121
vt 0.9351 0.3121
vt 0.9351 0.2989
vt 0.9426 0.2989
vt 0.9318 0.3336
vt 0.9351 0.3315
vt 0.9351 0.3377
vt 0.9331 0.3418
vt 0.6872 0.3490
vt 0.6893 0.3418
vt 0.6872 0.3377
vt 0.6851 0.3418
vt 0.6905 0.3336
vt 0.6939 0.3356
vt 0.6963 0.3253
vt 0.6918 0.3253
vt 0.6812 0.3121
vt 0.6751 0.3121
vt 0.6780 0.3253
vt 0.6826 0.3253
vt 0.6814 0.2787
vt 0.6755 0.2787
vt 0.6768 0.2888
vt 0.7046 0.2787
vt 0.6988 0.2787
vt 0.7033 0.2888
vt 0.6820 0.2909
vt 0.6723 0.2989
vt 0.6797 0.2989
vt 0.6872 0.2763
vt 0.6843 0.2828
vt 0.6872 0.2870
vt 0.6901 0.2828
vt 0.6660 0.3096
vt 0.6720 0.3174
vt 0.6691 0.3043
vt 0.7084 0.3091
vt 0.7053 0.3040
vt 0.7024 0.3172
vt 0.6924 0.2909
vt 0.6872 0.2930
vt 0.6872 0.2989
vt 0.6946 0.2989
vt 0.6932 0.3121
vt 0.6872 0.3121
vt 0.6872 0.3253
vt 0.6839 0.3336
vt 0.6872 0.3315
vt 0.9351 0.3490
vt 0.9372 0.3418
vt 0.9351 0.3377
vt 0.9331 0.3418
vt 0.9384 0.3336
vt 0.9418 0.3356
vt 0.9443 0.3253
vt 0.9397 0.3253
vt 0.9291 0.3121
vt 0.9232 0.3121
vt 0.9260 0.3253
vt 0.9305 0.3253
vt 0.9293 0.2787
vt 0.9235 0.2787
vt 0.9248 0.2888
vt 0.9526 0.2787
vt 0.9468 0.2787
vt 0.9513 0.2888
vt 0.9299 0.2909
vt 0.9203 0.2989
vt 0.9277 0.2989
vt 0.9351 0.2763
vt 0.9322 0.2828
vt 0.9351 0.2870
vt 0.9381 0.2828
vt 0.9139 0.3096
vt 0.9200 0.3174
vt 0.9171 0.3043
vt 0.9564 0.3091
vt 0.9532 0.3040
vt 0.9503 0.3172
vt 0.9403 0.2909
vt 0.9351 0.2930
vt 0.9351 0.2989
vt 0.9426 0.2989
vt 0.9411 0.3121
vt 0.9351 0.3121
vt 0.9351 0.3253
vt 0.9318 0.3336
vt 0.9351 0.3315
vt 0.9351 0.3490
vt 0.9372 0.3418
vt 0.9351 0.3377
vt 0.9331 0.3418
vt 0.9384 0.3336
vt 0.9418 0.3356
vt 0.9443 0.3253
vt 0.9397 0.3253
vt 0.9291 0.3121
vt 0.9232 0.3121
vt 0.9260 0.3253
vt 0.9305 0.3253
vt 0.9293 0.2787
vt 0.9235 0.2787
vt 0.9248 0.2888
vt 0.9526 0.2787
vt 0.9468 0.2787
vt 0.9513 0.2888
vt 0.9299 0.2909
vt 0.9203 0.2989
vt 0.9277 0.2989
vt 0.9351 0.2763
vt 0.9322 0.2828
vt 0.9351 0.2870
vt 0.9381 0.2828
vt 0.9139 0.3096
vt 0.9200 0.3174
vt 0.9171 0.3043
vt 0.9564 0.3091
vt 0.9532 0.3040
vt 0.9503 0.3172
vt 0.9403 0.2909
vt 0.9351 0.2930
vt 0.9351 0.2989
vt 0.9426 0.2989
vt 0.9411 0.3121
vt 0.9351 0.3121
vt 0.9351 0.3253
vt 0.9318 0.3336
vt 0.9351 0.3315
vt 0.9351 0.3490
vt 0.9372 0.3418
vt 0.9351 0.3377
vt 0.9331 0.3418
vt 0.9384 0.3336
vt 0.9418 0.3356
vt 0.9443 0.3253
vt 0.9397 0.3253
vt 0.9291 0.3121
vt 0.9232 0.3121
vt 0.9260 0.3253
vt 0.9305 0.3253
vt 0.9293 0.2787
vt 0.9235 0.2787
vt 0.9248 0.2888
vt 0.9526 0.2787
vt 0.9468 0.2787
vt 0.9513 0.2888
vt 0.9299 0.2909
vt 0.9203 0.2989
vt 0.9277 0.2989
vt 0.9351 0.2763
vt 0.9322 0.2828
vt 0.9351 0.2870
vt 0.9381 0.2828
vt 0.9139 0.3096
vt 0.9200 0.3174
vt 0.9171 0.3043
vt 0.9564 0.3091
vt 0.9532 0.3040
vt 0.9503 0.3172
vt 0.9403 0.2909
vt 0.9351 0.2930
vt 0.9351 0.2989
vt 0.9426 0.2989
vt 0.9411 0.3121
vt 0.9351 0.3121
vt 0.9351 0.3253
vt 0.9318 0.3336
vt 0.9351 0.3315
vt 0.9285 0.3356
vt 0.9310 0.3459
vt 0.9471 0.3121
vt 0.9500 0.2989
vt 0.9455 0.2888
vt 0.9410 0.2787
vt 0.9381 0.2696
vt 0.9351 0.2606
vt 0.9322 0.2696
vt 0.9190 0.2888
vt 0.9177 0.2787
vt 0.9393 0.3459
vt 0.9331 0.3562
vt 0.9351 0.3666
vt 0.9372 0.3562
vt 0.9285 0.3356
vt 0.9310 0.3459
vt 0.9471 0.3121
vt 0.9500 0.2989
vt 0.9455 0.2888
vt 0.9410 0.2787
vt 0.9381 0.2696
vt 0.9351 0.2606
vt 0.9322 0.2696
vt 0.9190 0.2888
vt 0.9177 0.2787
vt 0.9393 0.3459
vt 0.9331 0.3562
vt 0.9351 0.3666
vt 0.9372 0.3562
vt 0.9285 0.3356
vt 0.9310 0.3459
vt 0.9471 0.3121
vt 0.9500 0.2989
vt 0.9455 0.2888
vt 0.9410 0.2787
vt 0.9381 0.2696
vt 0.9351 0.2606
vt 0.9322 0.2696
vt 0.9190 0.2888
vt 0.9177 0.2787
vt 0.9393 0.3459
vt 0.9331 0.3562
vt 0.9351 0.3666
vt 0.9372 0.3562
vt 0.6805 0.3356
vt 0.6830 0.3459
vt 0.6992 0.3121
vt 0.7021 0.2989
vt 0.6975 0.2888
vt 0.6930 0.2787
vt 0.6901 0.2696
vt 0.6872 0.2606
vt 0.6843 0.2696
vt 0.6710 0.2888
vt 0.6697 0.2787
vt 0.6914 0.3459
vt 0.6851 0.3562
vt 0.6872 0.3666
vt 0.6893 0.3562
vt 0.9285 0.3356
vt 0.9310 0.3459
vt 0.9260 0.3253
vt 0.9305 0.3253
vt 0.9351 0.3253
vt 0.9397 0.3253
vt 0.9410 0.2787
vt 0.9532 0.3040
vt 0.9564 0.3091
vt 0.9200 0.3174
vt 0.9139 0.3096
vt 0.9381 0.2696
vt 0.9351 0.2606
vt 0.9468 0.2787
vt 0.9526 0.2787
vt 0.9235 0.2787
vt 0.9177 0.2787
vt 0.9331 0.3562
vt 0.9351 0.3666
vt 0.9285 0.3356
vt 0.9310 0.3459
vt 0.9260 0.3253
vt 0.9305 0.3253
vt 0.9351 0.3253
vt 0.9397 0.3253
vt 0.9410 0.2787
vt 0.9532 0.3040
vt 0.9564 0.3091
vt 0.9200 0.3174
vt 0.9139 0.3096
vt 0.9381 0.2696
vt 0.9351 0.2606
vt 0.9468 0.2787
vt 0.9526 0.2787
vt 0.9235 0.2787
vt 0.9177 0.2787
vt 0.9331 0.3562
vt 0.9351 0.3666
vt 0.9285 0.3356
vt 0.9310 0.3459
vt 0.9260 0.3253
vt 0.9305 0.3253
vt 0.9351 0.3253
vt 0.9397 0.3253
vt 0.9410 0.2787
vt 0.9532 0.3040
vt 0.9564 0.3091
vt 0.9200 0.3174
vt 0.9139 0.3096
vt 0.9381 0.2696
vt 0.9351 0.2606
vt 0.9468 0.2787
vt 0.9526 0.2787
vt 0.9235 0.2787
vt 0.9177 0.2787
vt 0.9331 0.3562
vt 0.9351 0.3666
vt 0.6805 0.3356
vt 0.6830 0.3459
vt 0.6780 0.3253
vt 0.6826 0.3253
vt 0.6872 0.3253
vt 0.6918 0.3253
vt 0.6930 0.2787
vt 0.7053 0.3040
vt 0.7084 0.3091
vt 0.6720 0.3174
vt 0.6660 0.3096
vt 0.6901 0.2696
vt 0.6872 0.2606
vt 0.6988 0.2787
vt 0.7046 0.2787
vt 0.6755 0.2787
vt 0.6697 0.2787
vt 0.6851 0.3562
vt 0.6872 0.3666
vt 0.8331 0.8132
vt 0.8266 0.8062
vt 0.8200 0.7993
vt 0.7975 0.8863
vt 0.7947 0.8863
vt 0.8003 0.8863
vt 0.8141 0.9367
vt 0.8126 0.9628
vt 0.8111 0.9889
vt 0.8148 0.8865
vt 0.8119 0.8863
vt 0.8178 0.8866
vt 0.8160 0.9117
vt 0.8032 0.8863
vt 0.8061 0.8863
vt 0.7917 0.8864
vt 0.7886 0.8864
vt 0.8090 0.8863
vt 0.8497 0.9117
vt 0.8496 0.9111
vt 0.8497 0.9123
vt 0.8365 0.9316
vt 0.8366 0.9318
vt 0.8364 0.9314
vt 0.8496 0.9140
vt 0.8496 0.9134
vt 0.8496 0.9146
vt 0.8429 0.9140
vt 0.8362 0.9134
vt 0.8497 0.9129
vn -0.2618 0.7982 0.5425
vn -0.4638 0.8840 -0.0575
vn -0.9114 0.0410 0.4095
vn -0.8869 0.0165 0.4616
vn 0.8670 0.0002 -0.4984
vn 0.2758 0.3812 -0.8824
vn 0.5771 0.8166 0.0017
vn 0.6037 0.7957 0.0488
vn -0.6182 -0.7809 -0.0899
vn -0.7713 -0.1405 -0.6208
vn 0.2141 -0.7365 -0.6416
vn 0.2469 -0.7762 -0.5801
vn -0.2073 0.0226 0.9780
vn -0.2153 0.0196 0.9763
vn -0.7631 0.0109 0.6462
vn -0.7521 0.0017 0.6590
vn -0.2291 0.0270 0.9730
vn -0.0005 0.3057 0.9521
vn -0.6785 0.4097 0.6098
vn -0.7685 0.0361 0.6389
vn 0.7417 0.0307 -0.6700
vn 0.7436 0.0181 -0.6684
vn 0.9981 0.0258 -0.0562
vn 0.9957 0.0419 -0.0824
vn 0.7453 0.0107 -0.6666
vn 0.6746 0.4455 -0.5886
vn 0.9612 0.2702 -0.0559
vn 0.9982 0.0143 -0.0589
vn -0.9978 -0.0138 0.0647
vn -0.9991 0.0086 0.0420
vn -0.8469 0.0150 -0.5315
vn -0.8657 -0.0093 -0.5004
vn -0.9990 0.0349 0.0275
vn -0.8719 0.4621 -0.1620
vn -0.7838 0.1951 -0.5895
vn -0.8222 0.0368 -0.5679
vn 0.8366 0.0414 0.5463
vn 0.8123 0.0251 0.5827
vn 0.3515 0.0233 0.9359
vn 0.3773 0.0379 0.9253
vn 0.8235 0.0117 0.5672
vn 0.6947 0.3168 0.6458
vn 0.3741 0.1126 0.9205
vn 0.3616 0.0185 0.9322
vn -0.4433 0.0006 -0.8964
vn -0.4059 0.0147 -0.9138
vn 0.2011 0.0196 -0.9794
vn 0.1889 0.0194 -0.9818
vn -0.3555 0.0295 -0.9342
vn -0.3241 0.3864 -0.8635
vn 0.2544 0.2353 -0.9380
vn 0.2300 0.0241 -0.9729
vn -0.1898 0.9242 -0.3315
vn 0.3192 0.8885 0.3298
vn -0.3983 0.9072 -0.1354
vn -0.4249 0.9013 -0.0842
vn -0.4158 0.9043 -0.0970
vn -0.3979 0.9079 -0.1319
vn -0.4485 0.8934 -0.0253
vn -0.4557 0.8900 -0.0152
vn -0.3447 0.9027 -0.2577
vn -0.2511 0.8847 -0.3927
vn -0.3405 0.8779 -0.3366
vn -0.3663 0.8946 -0.2561
vn -0.3922 0.7874 -0.4755
vn -0.3979 0.8317 -0.3873
vn -0.5119 0.8587 0.0236
vn -0.6053 0.7937 -0.0605
vn -0.5650 0.8085 -0.1649
vn -0.3961 0.8795 -0.2638
vn -0.4877 0.8432 -0.2264
vn -0.5249 0.8433 -0.1155
vn -0.5912 0.7999 0.1026
vn -0.5565 0.8226 0.1165
vn -0.1864 0.8531 -0.4874
vn -0.4346 0.8989 0.0564
vn -0.4207 0.8926 0.1619
vn -0.4022 0.8628 0.3064
vn -0.5962 0.8002 0.0655
vn -0.4785 0.8747 -0.0770
vn -0.5424 0.8401 -0.0022
vn -0.6387 0.7577 0.1343
vn -0.4243 0.9055 -0.0018
vn -0.3939 0.9096 -0.1323
vn -0.4248 0.8973 -0.1203
vn -0.4954 0.8687 -0.0036
vn -0.3796 0.8894 -0.2546
vn -0.4125 0.9002 -0.1396
vn -0.4121 0.9004 -0.1394
vn -0.3923 0.8995 -0.1926
vn -0.2588 0.8829 0.3919
vn -0.2132 0.8785 0.4275
vn -0.2242 0.8812 0.4163
vn -0.2553 0.8837 0.3922
vn -0.1594 0.8726 0.4617
vn -0.1507 0.8694 0.4705
vn -0.3684 0.8743 0.3160
vn -0.4822 0.8534 0.1980
vn -0.4436 0.8459 0.2961
vn -0.3704 0.8655 0.3373
vn -0.5844 0.7466 0.3179
vn -0.5014 0.7949 0.3416
vn -0.1215 0.8379 0.5321
vn -0.2178 0.7651 0.6059
vn -0.3134 0.7763 0.5470
vn -0.3827 0.8489 0.3646
vn -0.3612 0.8109 0.4605
vn -0.2594 0.8151 0.5181
vn -0.0556 0.7801 0.6232
vn -0.0368 0.8048 0.5925
vn -0.5611 0.8196 0.1156
vn -0.0770 0.8827 0.4636
vn 0.0294 0.8822 0.4699
vn 0.1762 0.8604 0.4782
vn -0.0929 0.7782 0.6211
vn -0.2147 0.8502 0.4808
vn -0.1514 0.8168 0.5566
vn -0.0310 0.7376 0.6746
vn -0.1326 0.8868 0.4427
vn -0.2550 0.8855 0.3883
vn -0.2484 0.8726 0.4205
vn -0.1456 0.8471 0.5111
vn -0.3711 0.8599 0.3505
vn -0.2651 0.8751 0.4048
vn -0.2650 0.8753 0.4045
vn -0.3133 0.8725 0.3749
vn 0.4116 0.8986 -0.1521
vn 0.3915 0.8967 -0.2065
vn 0.3949 0.8986 -0.1911
vn 0.4088 0.8995 -0.1542
vn 0.3637 0.8933 -0.2641
vn 0.3610 0.8907 -0.2763
vn 0.4652 0.8847 -0.0306
vn 0.5007 0.8561 0.1283
vn 0.5194 0.8542 0.0242
vn 0.4783 0.8769 -0.0481
vn 0.6523 0.7543 0.0744
vn 0.5932 0.8049 0.0133
vn 0.3689 0.8628 -0.3456
vn 0.4908 0.7927 -0.3616
vn 0.5411 0.7995 -0.2608
vn 0.5033 0.8616 -0.0657
vn 0.5359 0.8289 -0.1605
vn 0.4793 0.8374 -0.2625
vn 0.3615 0.8107 -0.4606
vn 0.3289 0.8340 -0.4430
vn 0.5252 0.8170 0.2379
vn 0.2944 0.9045 -0.3084
vn 0.2071 0.9059 -0.3695
vn 0.0867 0.8864 -0.4547
vn 0.3921 0.8082 -0.4393
vn 0.4212 0.8711 -0.2525
vn 0.4075 0.8427 -0.3519
vn 0.3680 0.7713 -0.5193
vn 0.3307 0.9069 -0.2613
vn 0.4065 0.9011 -0.1509
vn 0.4179 0.8900 -0.1824
vn 0.3782 0.8706 -0.3146
vn 0.4859 0.8720 -0.0593
vn 0.4239 0.8914 -0.1602
vn 0.4235 0.8916 -0.1600
vn 0.4493 0.8866 -0.1097
vn 0.5080 0.8089 0.2960
vn 0.5426 0.8019 0.2500
vn 0.5319 0.8055 0.2612
vn 0.5085 0.8099 0.2925
vn 0.5756 0.7939 0.1957
vn 0.5839 0.7900 0.1868
vn 0.4318 0.8056 0.4057
vn 0.3122 0.7955 0.5193
vn 0.4084 0.7766 0.4796
vn 0.4517 0.7939 0.4071
vn 0.4168 0.6689 0.6156
vn 0.4466 0.7174 0.5347
vn 0.6407 0.7518 0.1557
vn 0.7041 0.6654 0.2480
vn 0.6473 0.6799 0.3445
vn 0.4765 0.7732 0.4184
vn 0.5664 0.7236 0.3944
vn 0.6238 0.7247 0.2926
vn 0.7230 0.6854 0.0865
vn 0.6959 0.7148 0.0691
vn 0.2262 0.7695 0.5972
vn 0.5788 0.8075 0.1139
vn 0.5848 0.8112 0.0075
vn 0.5898 0.7953 -0.1402
vn 0.7207 0.6821 0.1237
vn 0.5916 0.7666 0.2498
vn 0.6622 0.7263 0.1844
vn 0.7681 0.6376 0.0596
vn 0.5587 0.8118 0.1697
vn 0.5048 0.8122 0.2924
vn 0.5350 0.7954 0.2849
vn 0.6211 0.7627 0.1804
vn 0.4641 0.7865 0.4075
vn 0.5198 0.7992 0.3019
vn 0.5195 0.7995 0.3017
vn 0.4899 0.7984 0.3501
vn 0.3983 -0.9072 0.1354
vn 0.4249 -0.9013 0.0842
vn 0.4121 -0.9004 0.1394
vn 0.3923 -0.8995 0.1926
vn 0.4485 -0.8934 0.0253
vn 0.4557 -0.8900 0.0152
vn 0.4346 -0.8989 -0.0564
vn 0.4378 -0.8991 0.0021
vn 0.3447 -0.9027 0.2577
vn 0.2511 -0.8847 0.3928
vn 0.3228 -0.8924 0.3154
vn 0.3579 -0.8944 0.2682
vn 0.4877 -0.8432 0.2264
vn 0.4065 -0.7793 0.4768
vn 0.3979 -0.8317 0.3873
vn 0.5695 -0.8009 0.1850
vn 0.5810 -0.8003 0.1485
vn 0.5650 -0.8085 0.1649
vn 0.3960 -0.8795 0.2638
vn 0.3404 -0.8779 0.3366
vn 0.3663 -0.8946 0.2561
vn 0.5912 -0.7999 -0.1026
vn 0.5249 -0.8433 0.1155
vn 0.5424 -0.8401 0.0022
vn 0.6387 -0.7577 -0.1344
vn 0.1422 -0.8425 0.5195
vn 0.1612 -0.8501 0.5013
vn 0.1864 -0.8531 0.4874
vn 0.3963 -0.8555 -0.3334
vn 0.4217 -0.8655 -0.2705
vn 0.4022 -0.8628 -0.3064
vn 0.5962 -0.8002 -0.0655
vn 0.4785 -0.8747 0.0770
vn 0.4248 -0.8973 0.1203
vn 0.4954 -0.8687 0.0036
vn 0.4243 -0.9055 0.0018
vn 0.3939 -0.9096 0.1323
vn 0.4015 -0.9057 0.1364
vn 0.3796 -0.8894 0.2546
vn 0.4125 -0.9002 0.1396
vn 0.2588 -0.8829 -0.3919
vn 0.2132 -0.8785 -0.4275
vn 0.2650 -0.8753 -0.4045
vn 0.3133 -0.8725 -0.3749
vn 0.1594 -0.8726 -0.4617
vn 0.1507 -0.8694 -0.4705
vn 0.0770 -0.8827 -0.4636
vn 0.1350 -0.8798 -0.4557
vn 0.3684 -0.8743 -0.3160
vn 0.4823 -0.8534 -0.1980
vn 0.4203 -0.8621 -0.2832
vn 0.3807 -0.8651 -0.3267
vn 0.3612 -0.8109 -0.4605
vn 0.5879 -0.7379 -0.3315
vn 0.5015 -0.7949 -0.3415
vn 0.3335 -0.7675 -0.5474
vn 0.2999 -0.7683 -0.5656
vn 0.3134 -0.7762 -0.5470
vn 0.3827 -0.8489 -0.3645
vn 0.4436 -0.8459 -0.2961
vn 0.3704 -0.8655 -0.3373
vn 0.0556 -0.7800 -0.6232
vn 0.2594 -0.8151 -0.5181
vn 0.1514 -0.8168 -0.5566
vn 0.0309 -0.7376 -0.6746
vn 0.5837 -0.8093 -0.0658
vn 0.5699 -0.8170 -0.0881
vn 0.5611 -0.8196 -0.1156
vn -0.2042 -0.8547 -0.4773
vn -0.1372 -0.8605 -0.4906
vn -0.1763 -0.8604 -0.4782
vn 0.0929 -0.7782 -0.6211
vn 0.2147 -0.8502 -0.4808
vn 0.2484 -0.8726 -0.4205
vn 0.1456 -0.8471 -0.5111
vn 0.1326 -0.8868 -0.4427
vn 0.2550 -0.8855 -0.3883
vn 0.2602 -0.8811 -0.3948
vn 0.3711 -0.8599 -0.3505
vn 0.2651 -0.8751 -0.4048
vn -0.4116 -0.8986 0.1521
vn -0.3915 -0.8967 0.2065
vn -0.4235 -0.8916 0.1600
vn -0.4493 -0.8866 0.1097
vn -0.3637 -0.8933 0.2641
vn -0.3610 -0.8907 0.2763
vn -0.2944 -0.9045 0.3084
vn -0.3397 -0.9005 0.2715
vn -0.4652 -0.8847 0.0306
vn -0.5007 -0.8561 -0.1283
vn -0.4924 -0.8700 -0.0238
vn -0.4815 -0.8758 0.0337
vn -0.5359 -0.8289 0.1605
vn -0.6625 -0.7463 -0.0643
vn -0.5932 -0.8049 -0.0133
vn -0.5586 -0.7905 0.2511
vn -0.5394 -0.7927 0.2841
vn -0.5411 -0.7995 0.2609
vn -0.5033 -0.8616 0.0657
vn -0.5193 -0.8542 -0.0242
vn -0.4783 -0.8769 0.0481
vn -0.3615 -0.8107 0.4606
vn -0.4793 -0.8374 0.2625
vn -0.4075 -0.8427 0.3519
vn -0.3680 -0.7713 0.5193
vn -0.5186 -0.8038 -0.2916
vn -0.5183 -0.8128 -0.2657
vn -0.5252 -0.8170 -0.2379
vn -0.0626 -0.8810 0.4689
vn -0.1265 -0.8867 0.4447
vn -0.0867 -0.8864 0.4547
vn -0.3921 -0.8082 0.4393
vn -0.4212 -0.8711 0.2525
vn -0.4179 -0.8900 0.1824
vn -0.3782 -0.8706 0.3146
vn -0.3307 -0.9069 0.2613
vn -0.4064 -0.9011 0.1509
vn -0.4144 -0.8970 0.1540
vn -0.4859 -0.8720 0.0592
vn -0.4239 -0.8914 0.1602
vn -0.5080 -0.8089 -0.2960
vn -0.5426 -0.8019 -0.2500
vn -0.5195 -0.7995 -0.3017
vn -0.4899 -0.7984 -0.3501
vn -0.5756 -0.7939 -0.1957
vn -0.5839 -0.7900 -0.1868
vn -0.5788 -0.8075 -0.1138
vn -0.5707 -0.8030 -0.1717
vn -0.4318 -0.8056 -0.4057
vn -0.3122 -0.7955 -0.5194
vn -0.3977 -0.7955 -0.4572
vn -0.4412 -0.7944 -0.4174
vn -0.5664 -0.7236 -0.3944
vn -0.4290 -0.6583 -0.6186
vn -0.4466 -0.7174 -0.5348
vn -0.6466 -0.6703 -0.3642
vn -0.6646 -0.6701 -0.3304
vn -0.6474 -0.6799 -0.3445
vn -0.4765 -0.7732 -0.4185
vn -0.4084 -0.7766 -0.4796
vn -0.4517 -0.7939 -0.4071
vn -0.7230 -0.6854 -0.0865
vn -0.6238 -0.7247 -0.2925
vn -0.6622 -0.7263 -0.1844
vn -0.7681 -0.6375 -0.0595
vn -0.1755 -0.7650 -0.6197
vn -0.1986 -0.7702 -0.6060
vn -0.2262 -0.7695 -0.5972
vn -0.5881 -0.7910 0.1684
vn -0.6022 -0.7919 0.1013
vn -0.5898 -0.7952 0.1403
vn -0.7207 -0.6821 -0.1237
vn -0.5916 -0.7666 -0.2498
vn -0.5350 -0.7954 -0.2849
vn -0.6211 -0.7627 -0.1804
vn -0.5587 -0.8118 -0.1697
vn -0.5048 -0.8122 -0.2924
vn -0.5107 -0.8067 -0.2973
vn -0.4640 -0.7865 -0.4075
vn -0.5198 -0.7992 -0.3019
vn -0.4615 -0.7819 -0.4191
vn -0.4929 -0.8030 -0.3351
vn -0.5848 -0.8112 -0.0075
vn -0.6407 -0.7518 -0.1557
vn -0.7041 -0.6654 -0.2480
vn -0.7543 -0.6517 -0.0799
vn -0.7194 -0.6945 0.0090
vn -0.7036 -0.7106 -0.0056
vn -0.6959 -0.7148 -0.0690
vn -0.4167 -0.6689 -0.6156
vn -0.4214 -0.6502 -0.6321
vn -0.5319 -0.8055 -0.2612
vn -0.5054 -0.8097 -0.2984
vn -0.5067 -0.8100 -0.2953
vn -0.5085 -0.8099 -0.2925
vn -0.4950 -0.8674 0.0516
vn -0.4376 -0.8912 0.1195
vn -0.2071 -0.9059 0.3695
vn -0.3689 -0.8628 0.3456
vn -0.4908 -0.7927 0.3616
vn -0.3763 -0.7832 0.4949
vn -0.2776 -0.8159 0.5071
vn -0.2798 -0.8292 0.4839
vn -0.3289 -0.8340 0.4431
vn -0.6523 -0.7543 -0.0745
vn -0.6710 -0.7375 -0.0767
vn -0.3949 -0.8986 0.1911
vn -0.4121 -0.8989 0.1486
vn -0.4102 -0.8994 0.1512
vn -0.4088 -0.8995 0.1542
vn 0.3830 -0.8555 -0.3485
vn 0.2981 -0.8767 -0.3774
vn -0.0294 -0.8822 -0.4699
vn 0.1215 -0.8379 -0.5322
vn 0.2178 -0.7651 -0.6059
vn 0.0506 -0.7506 -0.6588
vn -0.0402 -0.7842 -0.6191
vn -0.0264 -0.7987 -0.6012
vn 0.0367 -0.8047 -0.5925
vn 0.5845 -0.7466 -0.3179
vn 0.6018 -0.7295 -0.3249
vn 0.2242 -0.8812 -0.4163
vn 0.2611 -0.8834 -0.3892
vn 0.2581 -0.8837 -0.3904
vn 0.2553 -0.8837 -0.3922
vn 0.3801 -0.8856 0.2668
vn 0.3917 -0.9029 0.1770
vn 0.4207 -0.8926 -0.1619
vn 0.5119 -0.8587 -0.0236
vn 0.6053 -0.7937 0.0605
vn 0.6264 -0.7713 -0.1127
vn 0.5691 -0.7986 -0.1960
vn 0.5535 -0.8132 -0.1798
vn 0.5565 -0.8226 -0.1165
vn 0.3922 -0.7874 0.4756
vn 0.4030 -0.7716 0.4921
vn 0.4158 -0.9043 0.0970
vn 0.3960 -0.9078 0.1382
vn 0.3967 -0.9080 0.1349
vn 0.3979 -0.9079 0.1319
vn 0.4615 0.7819 0.4191
vn 0.4929 0.8030 0.3351
vn 0.3978 0.7955 0.4572
vn 0.4412 0.7944 0.4174
vn 0.5107 0.8067 0.2973
vn 0.5707 0.8030 0.1717
vn 0.7543 0.6517 0.0799
vn 0.6022 0.7919 -0.1013
vn 0.5881 0.7910 -0.1684
vn 0.1986 0.7703 0.6060
vn 0.1755 0.7650 0.6197
vn 0.7194 0.6945 -0.0090
vn 0.7036 0.7106 0.0056
vn 0.6646 0.6701 0.3304
vn 0.6466 0.6703 0.3642
vn 0.4291 0.6583 0.6185
vn 0.4215 0.6503 0.6321
vn 0.5054 0.8097 0.2984
vn 0.5067 0.8100 0.2953
vn 0.4950 0.8674 -0.0516
vn 0.4376 0.8912 -0.1195
vn 0.4924 0.8700 0.0238
vn 0.4815 0.8758 -0.0337
vn 0.4144 0.8970 -0.1540
vn 0.3397 0.9005 -0.2715
vn 0.3763 0.7832 -0.4949
vn 0.1265 0.8867 -0.4447
vn 0.0626 0.8811 -0.4688
vn 0.5183 0.8129 0.2657
vn 0.5185 0.8038 0.2915
vn 0.2776 0.8159 -0.5071
vn 0.2798 0.8292 -0.4839
vn 0.5394 0.7927 -0.2841
vn 0.5586 0.7905 -0.2510
vn 0.6625 0.7463 0.0642
vn 0.6710 0.7375 0.0766
vn 0.4121 0.8989 -0.1486
vn 0.4102 0.8994 -0.1512
vn -0.3830 0.8555 0.3485
vn -0.2981 0.8767 0.3774
vn -0.4203 0.8621 0.2832
vn -0.3806 0.8651 0.3267
vn -0.2602 0.8811 0.3948
vn -0.1350 0.8798 0.4557
vn -0.0506 0.7506 0.6588
vn 0.1372 0.8605 0.4906
vn 0.2041 0.8547 0.4773
vn -0.5698 0.8170 0.0882
vn -0.5837 0.8093 0.0659
vn 0.0402 0.7843 0.6191
vn 0.0264 0.7987 0.6012
vn -0.2999 0.7683 0.5655
vn -0.3336 0.7675 0.5474
vn -0.5879 0.7379 0.3316
vn -0.6017 0.7296 0.3250
vn -0.2611 0.8834 0.3892
vn -0.2581 0.8837 0.3904
vn -0.3801 0.8857 -0.2668
vn -0.3917 0.9029 -0.1770
vn -0.3228 0.8924 -0.3154
vn -0.3579 0.8944 -0.2681
vn -0.4015 0.9057 -0.1364
vn -0.4378 0.8991 -0.0021
vn -0.6264 0.7713 0.1127
vn -0.4217 0.8655 0.2704
vn -0.3963 0.8555 0.3333
vn -0.1612 0.8501 -0.5013
vn -0.1422 0.8426 -0.5195
vn -0.5691 0.7986 0.1960
vn -0.5535 0.8132 0.1797
vn -0.5809 0.8003 -0.1485
vn -0.5695 0.8009 -0.1850
vn -0.4066 0.7794 -0.4768
vn -0.4031 0.7716 -0.4920
vn -0.3960 0.9078 -0.1382
vn -0.3967 0.9080 -0.1349
vn -0.4567 -0.0021 -0.8896
vn 0.1906 0.0183 -0.9815
vn -0.8739 -0.0130 -0.4859
vn 0.8542 0.0424 0.5183
vn 0.3994 0.0386 0.9160
vn 0.9943 0.0422 -0.0975
vn -0.9966 -0.0168 0.0804
vn -0.7439 -0.0007 0.6683
vn 0.7414 0.0311 -0.6703
vn -0.2065 0.0190 0.9783
vn -0.6242 -0.7769 -0.0824
vn 0.2065 -0.7991 -0.5646
vn -0.8900 -0.0072 0.4559
vn 0.8673 -0.0025 -0.4978
vn 0.5915 0.8037 0.0648
vn -0.2689 0.7935 0.5460
usemtl None
s 1
f 510/1/1 428/2/2 3/3/3 362/4/4
f 509/5/5 348/6/6 2/7/7 225/8/8
f 2/9/7 348/10/6 428/11/2
f 508/12/9 213/13/10 6/14/11 204/15/12
f 507/16/13 280/17/14 9/18/15 187/19/16
f 506/20/17 316/21/18 12/22/19 317/23/20
f 505/24/21 399/25/22 15/26/23 337/27/24
f 504/28/25 426/29/26 18/30/27 421/31/28
f 503/32/29 241/33/30 19/34/31 277/35/32
f 502/36/33 235/37/34 21/38/35 347/39/36
f 501/40/37 407/41/38 8/42/39 354/43/40
f 500/44/41 168/45/42 11/46/43 394/47/44
f 499/48/45 364/49/46 14/50/47 192/51/48
f 498/52/49 351/53/50 17/54/51 262/55/52
f 17/56/51 351/57/50 248/58/53
f 18/59/27 426/60/26 297/61/54
f 11/62/43 168/63/42 316/64/18
f 497/65/55 271/66/56 24/67/57 202/68/58
f 496/69/59 315/70/60 24/67/57 271/66/56
f 495/71/61 223/72/62 29/73/63 171/74/64
f 29/73/63 232/75/65 300/76/66
f 33/77/67 216/78/68 418/79/69
f 494/80/70 300/76/66 32/81/71 322/82/72
f 493/83/73 322/82/72 32/81/71 400/84/74
f 29/73/63 223/72/62 341/85/75
f 27/86/76 361/87/77 412/88/78
f 492/89/79 326/90/80 36/91/81 198/92/82
f 491/93/83 279/94/84 30/95/85 231/96/86
f 490/97/87 392/98/88 23/99/89 334/100/90
f 489/101/91 177/102/92 42/103/93 237/104/94
f 488/105/95 381/106/96 42/103/93 177/102/92
f 487/107/97 245/108/98 47/109/99 325/110/100
f 47/109/99 251/111/101 398/112/102
f 51/113/103 375/114/104 295/115/105
f 486/116/106 398/112/102 50/117/107 369/118/108
f 485/119/109 369/118/108 50/117/107 288/120/110
f 47/109/99 245/108/98 287/121/111
f 45/122/112 345/123/113 196/124/114
f 484/125/115 272/126/116 54/127/117 360/128/118
f 483/129/119 167/130/120 48/131/121 190/132/122
f 482/133/123 306/134/124 41/135/125 404/136/126
f 481/137/127 385/138/128 60/139/129 174/140/130
f 480/141/131 303/142/132 60/139/129 385/138/128
f 479/143/133 189/144/134 65/145/135 201/146/136
f 65/145/135 268/147/137 331/148/138
f 69/149/139 184/150/140 255/151/141
f 478/152/142 331/148/138 68/153/143 170/154/144
f 477/155/145 170/154/144 68/153/143 236/156/146
f 65/145/135 189/144/134 175/157/147
f 63/158/148 350/159/149 222/160/150
f 476/161/151 182/162/152 72/163/153 179/164/154
f 475/165/155 401/166/156 66/167/157 257/168/158
f 474/169/159 227/170/160 59/171/161 313/172/162
f 473/173/163 173/174/164 78/175/165 374/176/166
f 472/177/167 234/178/168 78/175/165 173/174/164
f 471/179/169 339/180/170 83/181/171 254/182/172
f 83/181/171 314/183/173 383/184/174
f 87/185/175 244/186/176 309/187/177
f 470/188/178 383/184/174 86/189/179 217/190/180
f 469/191/181 217/190/180 86/189/179 286/192/182
f 83/181/171 339/180/170 219/193/183
f 81/194/184 178/195/185 290/196/186
f 468/197/187 215/198/188 90/199/189 243/200/190
f 467/201/191 340/202/192 84/203/193 299/204/194
f 466/205/195 296/206/196 77/207/197 238/208/198
f 465/209/199 282/210/200 96/211/201 321/212/202
f 464/213/203 285/214/204 98/215/205 186/216/206
f 463/217/207 376/218/208 102/219/209 368/220/210
f 103/221/211 228/222/212 302/223/213
f 105/224/214 358/225/215 281/226/216
f 462/227/217 302/223/213 101/228/218 304/229/219
f 461/230/220 207/231/221 108/232/222 357/233/223
f 110/234/224 221/235/225 373/236/226
f 111/237/227 261/238/228 406/239/229
f 460/240/230 349/241/231 100/242/232 411/243/233
f 459/244/234 265/245/235 99/246/236 186/216/206
f 458/247/237 328/248/238 99/246/236 368/220/210
f 457/249/239 417/250/240 114/251/241 212/252/242
f 456/253/243 274/254/244 116/255/245 330/256/246
f 455/257/247 256/258/248 120/259/249 260/260/250
f 121/261/251 427/262/252 183/263/253
f 123/264/254 298/265/255 200/266/256
f 454/267/257 183/263/253 119/268/258 181/269/259
f 453/270/260 413/271/261 126/272/262 283/273/263
f 128/274/264 403/275/265 253/276/266
f 129/277/267 210/278/268 308/279/269
f 452/280/270 249/281/271 118/282/272 305/283/273
f 451/284/274 397/285/275 117/286/276 330/256/246
f 450/287/277 333/288/278 117/286/276 260/260/250
f 449/289/279 323/290/280 132/291/281 259/292/282
f 448/293/283 423/294/284 134/295/285 359/296/286
f 447/297/287 422/298/288 138/299/289 387/300/290
f 139/301/291 264/302/292 206/303/293
f 141/304/294 416/305/295 199/306/296
f 446/307/297 206/303/293 137/308/298 209/309/299
f 445/310/300 270/311/301 144/312/302 409/313/303
f 146/314/304 214/315/305 366/316/306
f 147/317/307 382/318/308 332/319/309
f 444/320/310 391/321/311 136/322/312 311/323/313
f 443/324/314 278/325/315 135/326/316 359/296/286
f 442/327/317 352/328/318 135/326/316 387/300/290
f 441/329/319 356/330/320 150/331/321 276/332/322
f 440/333/323 203/334/324 152/335/325 185/336/326
f 439/337/327 233/338/328 156/339/329 252/340/330
f 157/341/331 390/342/332 301/343/333
f 159/344/334 169/345/335 229/346/336
f 438/347/337 301/343/333 155/348/338 320/349/339
f 437/350/340 258/351/341 162/352/342 307/353/343
f 164/354/344 266/355/345 405/356/346
f 165/357/347 226/358/348 335/359/349
f 436/360/350 393/361/351 154/362/352 429/363/353
f 435/364/354 396/365/355 153/366/356 185/336/326
f 434/367/357 415/368/358 153/366/356 252/340/330
f 220/369/359 434/367/357 252/340/330 156/339/329
f 151/370/360 276/332/322 434/367/357 220/369/359
f 276/332/322 150/331/321 415/368/358 434/367/357
f 432/371/361 435/364/354 185/336/326 152/335/325
f 161/372/362 429/363/353 435/364/354 432/371/361
f 429/363/353 154/362/352 396/365/355 435/364/354
f 379/373/363 436/360/350 429/363/353 161/372/362
f 160/374/364 307/353/343 436/360/350 379/373/363
f 307/353/343 162/352/342 393/361/351 436/360/350
f 335/359/349 432/371/361 152/335/325
f 335/359/349 226/358/348 432/371/361
f 226/358/348 161/372/362 432/371/361
f 405/356/346 233/338/328 155/348/338
f 405/356/346 266/355/345 233/338/328
f 266/355/345 156/339/329 233/338/328
f 377/375/365 437/350/340 307/353/343 160/374/364
f 163/376/366 336/377/367 437/350/340 377/375/365
f 336/377/367 157/341/331 258/351/341 437/350/340
f 393/361/351 438/347/337 320/349/339 154/362/352
f 162/352/342 258/351/341 438/347/337 393/361/351
f 258/351/341 157/341/331 301/343/333 438/347/337
f 229/346/336 379/373/363 161/372/362
f 229/346/336 169/345/335 379/373/363
f 169/345/335 160/374/364 379/373/363
f 301/343/333 386/378/368 155/348/338
f 301/343/333 390/342/332 386/378/368
f 390/342/332 158/379/369 386/378/368
f 396/365/355 439/337/327 252/340/330 153/366/356
f 154/362/352 320/349/339 439/337/327 396/365/355
f 320/349/339 155/348/338 233/338/328 439/337/327
f 415/368/358 440/333/323 185/336/326 153/366/356
f 150/331/321 356/330/320 440/333/323 415/368/358
f 356/330/320 149/380/370 203/334/324 440/333/323
f 269/381/371 441/329/319 276/332/322 151/370/360
f 148/382/372 180/383/373 441/329/319 269/381/371
f 180/383/373 149/380/370 356/330/320 441/329/319
f 408/384/374 442/327/317 387/300/290 138/299/289
f 133/385/375 259/292/282 442/327/317 408/384/374
f 259/292/282 132/291/281 352/328/318 442/327/317
f 355/386/376 443/324/314 359/296/286 134/295/285
f 143/387/377 311/323/313 443/324/314 355/386/376
f 311/323/313 136/322/312 278/325/315 443/324/314
f 342/388/378 444/320/310 311/323/313 143/387/377
f 142/389/379 409/313/303 444/320/310 342/388/378
f 409/313/303 144/312/302 391/321/311 444/320/310
f 332/319/309 355/386/376 134/295/285
f 332/319/309 382/318/308 355/386/376
f 382/318/308 143/387/377 355/386/376
f 366/316/306 422/298/288 137/308/298
f 366/316/306 214/315/305 422/298/288
f 214/315/305 138/299/289 422/298/288
f 197/390/380 445/310/300 409/313/303 142/389/379
f 145/391/381 338/392/382 445/310/300 197/390/380
f 338/392/382 139/301/291 270/311/301 445/310/300
f 391/321/311 446/307/297 209/309/299 136/322/312
f 144/312/302 270/311/301 446/307/297 391/321/311
f 270/311/301 139/301/291 206/303/293 446/307/297
f 199/306/296 342/388/378 143/387/377
f 199/306/296 416/305/295 342/388/378
f 416/305/295 142/389/379 342/388/378
f 206/303/293 273/393/383 137/308/298
f 206/303/293 264/302/292 273/393/383
f 264/302/292 140/394/384 273/393/383
f 278/325/315 447/297/287 387/300/290 135/326/316
f 136/322/312 209/309/299 447/297/287 278/325/315
f 209/309/299 137/308/298 422/298/288 447/297/287
f 352/328/318 448/293/283 359/296/286 135/326/316
f 132/291/281 323/290/280 448/293/283 352/328/318
f 323/290/280 131/395/385 423/294/284 448/293/283
f 246/396/386 449/289/279 259/292/282 133/385/375
f 130/397/387 388/398/388 449/289/279 246/396/386
f 388/398/388 131/395/385 323/290/280 449/289/279
f 263/399/389 450/287/277 260/260/250 120/259/249
f 115/400/390 212/252/242 450/287/277 263/399/389
f 212/252/242 114/251/241 333/288/278 450/287/277
f 324/401/391 451/284/274 330/256/246 116/255/245
f 125/402/392 305/283/273 451/284/274 324/401/391
f 305/283/273 118/282/272 397/285/275 451/284/274
f 371/403/393 452/280/270 305/283/273 125/402/392
f 124/404/394 283/273/263 452/280/270 371/403/393
f 283/273/263 126/272/262 249/281/271 452/280/270
f 308/279/269 324/401/391 116/255/245
f 308/279/269 210/278/268 324/401/391
f 210/278/268 125/402/392 324/401/391
f 253/276/266 256/258/248 119/268/258
f 253/276/266 403/275/265 256/258/248
f 403/275/265 120/259/249 256/258/248
f 211/405/395 453/270/260 283/273/263 124/404/394
f 127/406/396 343/407/397 453/270/260 211/405/395
f 343/407/397 121/261/251 413/271/261 453/270/260
f 249/281/271 454/267/257 181/269/259 118/282/272
f 126/272/262 413/271/261 454/267/257 249/281/271
f 413/271/261 121/261/251 183/263/253 454/267/257
f 200/266/256 371/403/393 125/402/392
f 200/266/256 298/265/255 371/403/393
f 298/265/255 124/404/394 371/403/393
f 183/263/253 372/408/398 119/268/258
f 183/263/253 427/262/252 372/408/398
f 427/262/252 122/409/399 372/408/398
f 397/285/275 455/257/247 260/260/250 117/286/276
f 118/282/272 181/269/259 455/257/247 397/285/275
f 181/269/259 119/268/258 256/258/248 455/257/247
f 333/288/278 456/253/243 330/256/246 117/286/276
f 114/251/241 417/250/240 456/253/243 333/288/278
f 417/250/240 113/410/400 274/254/244 456/253/243
f 420/411/401 457/249/239 212/252/242 115/400/390
f 112/412/402 353/413/403 457/249/239 420/411/401
f 353/413/403 113/410/400 417/250/240 457/249/239
f 380/414/404 458/247/237 368/220/210 102/219/209
f 97/415/405 321/212/202 458/247/237 380/414/404
f 321/212/202 96/211/201 328/248/238 458/247/237
f 433/416/406 459/244/234 186/216/206 98/215/205
f 107/417/407 411/243/233 459/244/234 433/416/406
f 411/243/233 100/242/232 265/245/235 459/244/234
f 425/418/408 460/240/230 411/243/233 107/417/407
f 106/419/409 357/233/223 460/240/230 425/418/408
f 357/233/223 108/232/222 349/241/231 460/240/230
f 406/239/229 433/416/406 98/215/205
f 406/239/229 261/238/228 433/416/406
f 261/238/228 107/417/407 433/416/406
f 373/236/226 376/218/208 101/228/218
f 373/236/226 221/235/225 376/218/208
f 221/235/225 102/219/209 376/218/208
f 267/420/410 461/230/220 357/233/223 106/419/409
f 109/421/411 419/422/412 461/230/220 267/420/410
f 419/422/412 103/221/211 207/231/221 461/230/220
f 349/241/231 462/227/217 304/229/219 100/242/232
f 108/232/222 207/231/221 462/227/217 349/241/231
f 207/231/221 103/221/211 302/223/213 462/227/217
f 281/226/216 425/418/408 107/417/407
f 281/226/216 358/225/215 425/418/408
f 358/225/215 106/419/409 425/418/408
f 302/223/213 230/423/413 101/228/218
f 302/223/213 228/222/212 230/423/413
f 228/222/212 104/424/414 230/423/413
f 265/245/235 463/217/207 368/220/210 99/246/236
f 100/242/232 304/229/219 463/217/207 265/245/235
f 304/229/219 101/228/218 376/218/208 463/217/207
f 328/248/238 464/213/203 186/216/206 99/246/236
f 96/211/201 282/210/200 464/213/203 328/248/238
f 282/210/200 95/425/415 285/214/204 464/213/203
f 208/426/416 465/209/199 321/212/202 97/415/405
f 94/427/417 344/428/418 465/209/199 208/426/416
f 344/428/418 95/425/415 282/210/200 465/209/199
f 242/429/419 466/205/195 238/208/198 76/430/420
f 82/431/421 195/432/422 466/205/195 242/429/419
f 195/432/422 80/433/423 296/206/196 466/205/195
f 178/195/185 467/201/191 299/204/194 87/185/175
f 81/194/184 193/434/424 467/201/191 178/195/185
f 193/434/424 80/433/423 340/202/192 467/201/191
f 244/186/176 468/197/187 243/200/190 88/435/425
f 87/185/175 299/204/194 468/197/187 244/186/176
f 299/204/194 84/203/193 215/198/188 468/197/187
f 290/196/186 292/436/426 93/437/427
f 290/196/186 178/195/185 292/436/426
f 178/195/185 87/185/175 292/436/426
f 219/193/183 363/438/428 92/439/429
f 219/193/183 339/180/170 363/438/428
f 339/180/170 82/431/421 363/438/428
f 312/440/430 469/191/181 286/192/182 91/441/431
f 88/435/425 243/200/190 469/191/181 312/440/430
f 243/200/190 90/199/189 217/190/180 469/191/181
f 215/198/188 470/188/178 217/190/180 90/199/189
f 84/203/193 254/182/172 470/188/178 215/198/188
f 254/182/172 83/181/171 383/184/174 470/188/178
f 309/187/177 205/442/432 89/443/433
f 309/187/177 244/186/176 205/442/432
f 244/186/176 88/435/425 205/442/432
f 383/184/174 389/444/434 86/189/179
f 383/184/174 314/183/173 389/444/434
f 314/183/173 85/445/435 389/444/434
f 340/202/192 471/179/169 254/182/172 84/203/193
f 80/433/423 195/432/422 471/179/169 340/202/192
f 195/432/422 82/431/421 339/180/170 471/179/169
f 296/206/196 472/177/167 173/174/164 77/207/197
f 80/433/423 193/434/424 472/177/167 296/206/196
f 193/434/424 81/194/184 234/178/168 472/177/167
f 367/446/436 473/173/163 374/176/166 79/447/437
f 76/430/420 238/208/198 473/173/163 367/446/436
f 238/208/198 77/207/197 173/174/164 473/173/163
f 224/448/438 474/169/159 313/172/162 58/449/439
f 64/450/440 247/451/441 474/169/159 224/448/438
f 247/451/441 62/452/442 227/170/160 474/169/159
f 350/159/149 475/165/155 257/168/158 69/149/139
f 63/158/148 318/453/443 475/165/155 350/159/149
f 318/453/443 62/452/442 401/166/156 475/165/155
f 184/150/140 476/161/151 179/164/154 70/454/444
f 69/149/139 257/168/158 476/161/151 184/150/140
f 257/168/158 66/167/157 182/162/152 476/161/151
f 222/160/150 218/455/445 75/456/446
f 222/160/150 350/159/149 218/455/445
f 350/159/149 69/149/139 218/455/445
f 175/157/147 430/457/447 74/458/448
f 175/157/147 189/144/134 430/457/447
f 189/144/134 64/450/440 430/457/447
f 250/459/449 477/155/145 236/156/146 73/460/450
f 70/454/444 179/164/154 477/155/145 250/459/449
f 179/164/154 72/163/153 170/154/144 477/155/145
f 182/162/152 478/152/142 170/154/144 72/163/153
f 66/167/157 201/146/136 478/152/142 182/162/152
f 201/146/136 65/145/135 331/148/138 478/152/142
f 255/151/141 384/461/451 71/462/452
f 255/151/141 184/150/140 384/461/451
f 184/150/140 70/454/444 384/461/451
f 331/148/138 329/463/453 68/153/143
f 331/148/138 268/147/137 329/463/453
f 268/147/137 67/464/454 329/463/453
f 401/166/156 479/143/133 201/146/136 66/167/157
f 62/452/442 247/451/441 479/143/133 401/166/156
f 247/451/441 64/450/440 189/144/134 479/143/133
f 227/170/160 480/141/131 385/138/128 59/171/161
f 62/452/442 318/453/443 480/141/131 227/170/160
f 318/453/443 63/158/148 303/142/132 480/141/131
f 176/465/455 481/137/127 174/140/130 61/466/456
f 58/449/439 313/172/162 481/137/127 176/465/455
f 313/172/162 59/171/161 385/138/128 481/137/127
f 319/467/457 482/133/123 404/136/126 40/468/458
f 46/469/459 294/470/460 482/133/123 319/467/457
f 294/470/460 44/471/461 306/134/124 482/133/123
f 345/123/113 483/129/119 190/132/122 51/113/103
f 45/122/112 378/472/462 483/129/119 345/123/113
f 378/472/462 44/471/461 167/130/120 483/129/119
f 375/114/104 484/125/115 360/128/118 52/473/463
f 51/113/103 190/132/122 484/125/115 375/114/104
f 190/132/122 48/131/121 272/126/116 484/125/115
f 196/124/114 293/474/464 57/475/465
f 196/124/114 345/123/113 293/474/464
f 345/123/113 51/113/103 293/474/464
f 287/121/111 410/476/466 56/477/467
f 287/121/111 245/108/98 410/476/466
f 245/108/98 46/469/459 410/476/466
f 291/478/468 485/119/109 288/120/110 55/479/469
f 52/473/463 360/128/118 485/119/109 291/478/468
f 360/128/118 54/127/117 369/118/108 485/119/109
f 272/126/116 486/116/106 369/118/108 54/127/117
f 48/131/121 325/110/100 486/116/106 272/126/116
f 325/110/100 47/109/99 398/112/102 486/116/106
f 295/115/105 166/480/470 53/481/471
f 295/115/105 375/114/104 166/480/470
f 375/114/104 52/473/463 166/480/470
f 398/112/102 239/482/472 50/117/107
f 398/112/102 251/111/101 239/482/472
f 251/111/101 49/483/473 239/482/472
f 167/130/120 487/107/97 325/110/100 48/131/121
f 44/471/461 294/470/460 487/107/97 167/130/120
f 294/470/460 46/469/459 245/108/98 487/107/97
f 306/134/124 488/105/95 177/102/92 41/135/125
f 44/471/461 378/472/462 488/105/95 306/134/124
f 378/472/462 45/122/112 381/106/96 488/105/95
f 240/484/474 489/101/91 237/104/94 43/485/475
f 40/468/458 404/136/126 489/101/91 240/484/474
f 404/136/126 41/135/125 177/102/92 489/101/91
f 395/486/476 490/97/87 334/100/90 22/487/477
f 28/488/478 431/489/479 490/97/87 395/486/476
f 431/489/479 26/490/480 392/98/88 490/97/87
f 361/87/77 491/93/83 231/96/86 33/77/67
f 27/86/76 370/491/481 491/93/83 361/87/77
f 370/491/481 26/490/480 279/94/84 491/93/83
f 216/78/68 492/89/79 198/92/82 34/492/482
f 33/77/67 231/96/86 492/89/79 216/78/68
f 231/96/86 30/95/85 326/90/80 492/89/79
f 412/88/78 402/493/483 39/494/484
f 412/88/78 361/87/77 402/493/483
f 361/87/77 33/77/67 402/493/483
f 341/85/75 194/495/485 38/496/486
f 341/85/75 223/72/62 194/495/485
f 223/72/62 28/488/478 194/495/485
f 414/497/487 493/83/73 400/84/74 37/498/488
f 34/492/482 198/92/82 493/83/73 414/497/487
f 198/92/82 36/91/81 322/82/72 493/83/73
f 326/90/80 494/80/70 322/82/72 36/91/81
f 30/95/85 171/74/64 494/80/70 326/90/80
f 171/74/64 29/73/63 300/76/66 494/80/70
f 418/79/69 275/499/489 35/500/490
f 418/79/69 216/78/68 275/499/489
f 216/78/68 34/492/482 275/499/489
f 300/76/66 310/501/491 32/81/71
f 300/76/66 232/75/65 310/501/491
f 232/75/65 31/502/492 310/501/491
f 279/94/84 495/71/61 171/74/64 30/95/85
f 26/490/480 431/489/479 495/71/61 279/94/84
f 431/489/479 28/488/478 223/72/62 495/71/61
f 392/98/88 496/69/59 271/66/56 23/99/89
f 26/490/480 370/491/481 496/69/59 392/98/88
f 370/491/481 27/86/76 315/70/60 496/69/59
f 191/503/493 497/65/55 202/68/58 25/504/494
f 22/487/477 334/100/90 497/65/55 191/503/493
f 334/100/90 23/99/89 271/66/56 497/65/55
f 316/64/18 297/61/54 12/505/19
f 316/64/18 168/63/42 297/61/54
f 168/63/42 18/59/27 297/61/54
f 297/61/54 248/58/53 12/505/19
f 297/61/54 426/60/26 248/58/53
f 426/60/26 17/56/51 248/58/53
f 248/58/53 235/506/34 12/505/19
f 248/58/53 351/57/50 235/506/34
f 351/57/50 21/507/35 235/506/34
f 364/49/46 498/52/49 262/55/52 14/50/47
f 19/34/31 347/39/36 498/52/49 364/49/46
f 347/39/36 21/38/35 351/53/50 498/52/49
f 284/508/495 499/48/45 192/51/48 13/509/496
f 20/510/497 277/35/32 499/48/45 284/508/495
f 277/35/32 19/34/31 364/49/46 499/48/45
f 407/41/38 500/44/41 394/47/44 8/42/39
f 15/511/23 421/512/28 500/44/41 407/41/38
f 421/512/28 18/513/27 168/45/42 500/44/41
f 346/514/498 501/40/37 354/43/40 7/515/499
f 16/516/500 337/517/24 501/40/37 346/514/498
f 337/517/24 15/511/23 407/41/38 501/40/37
f 241/33/30 502/36/33 347/39/36 19/34/31
f 9/18/15 317/23/20 502/36/33 241/33/30
f 317/23/20 12/22/19 235/37/34 502/36/33
f 172/518/501 503/32/29 277/35/32 20/510/497
f 10/519/502 187/19/16 503/32/29 172/518/501
f 187/19/16 9/18/15 241/33/30 503/32/29
f 399/25/22 504/28/25 421/31/28 15/26/23
f 14/50/47 262/55/52 504/28/25 399/25/22
f 262/55/52 17/54/51 426/29/26 504/28/25
f 327/520/503 505/24/21 337/27/24 16/521/500
f 13/509/496 192/51/48 505/24/21 327/520/503
f 192/51/48 14/50/47 399/25/22 505/24/21
f 280/17/14 506/20/17 317/23/20 9/18/15
f 8/42/39 394/47/44 506/20/17 280/17/14
f 394/47/44 11/46/43 316/21/18 506/20/17
f 188/522/504 507/16/13 187/19/16 10/519/502
f 7/515/499 354/43/40 507/16/13 188/522/504
f 354/43/40 8/42/39 280/17/14 507/16/13
f 289/523/505 508/12/9 204/15/12 5/524/506
f 4/525/507 362/4/4 508/12/9 289/523/505
f 362/4/4 3/3/3 213/13/10 508/12/9
f 428/11/2 213/526/10 3/527/3
f 428/11/2 348/10/6 213/526/10
f 348/10/6 6/528/11 213/526/10
f 424/529/508 509/5/5 225/8/8 1/530/509
f 5/531/506 204/532/12 509/5/5 424/529/508
f 204/532/12 6/533/11 348/6/6 509/5/5
f 365/534/510 510/1/1 362/4/4 4/525/507
f 1/530/509 225/8/8 510/1/1 365/534/510
f 225/8/8 2/7/7 428/2/2 510/1/1
