# Blender v2.78 (sub 0) OBJ File: ''
# www.blender.org
mtllib Pine_Tree_m_06.mtl
o Pine_Tree_m_06
v -0.186311 0.771061 0.223013
v -0.286676 3.049221 0.184090
v -0.357278 3.050407 -0.043575
v -0.259829 0.776291 -0.071273
v -0.003298 0.775610 -0.231489
v -0.161233 3.050650 -0.182075
v 0.030308 3.034527 -0.037411
v 0.231856 0.756976 -0.032636
v 0.115802 0.764833 0.245105
v -0.048735 3.042097 0.189632
v 0.315012 0.017546 -0.078370
v 0.178013 0.017744 0.276216
v -0.305653 0.018402 -0.113596
v 0.016737 0.018508 -0.322355
v -0.204350 0.017919 0.258251
v -0.927720 1.530127 -1.402504
v -0.942024 2.984246 -0.908008
v -0.203478 2.929902 -1.166618
v 0.337629 0.994407 -1.789549
v 0.555820 2.938547 -0.809219
v 1.280373 1.525377 -0.914005
v 1.679464 1.011787 0.399987
v 0.782907 2.906685 -0.054761
v 0.432697 2.963171 0.700858
v 0.746147 1.558680 1.391083
v -0.501234 1.032492 1.806385
v -0.306058 2.964100 0.940578
v -1.056626 3.007034 0.592616
v -1.468881 1.562371 0.861847
v -1.801064 1.013052 -0.404141
v -1.287047 2.970005 -0.150215
v -0.275144 2.569201 1.804002
v -1.640059 2.074971 1.023368
v -1.885694 2.438807 -0.161152
v -1.042006 1.971699 -1.609677
v 1.491463 2.068482 -1.268350
v 1.675377 2.552460 0.149340
v 0.920213 2.162952 1.571520
v 0.095657 2.413049 -2.044784
v -0.249183 5.360728 -0.270585
v -0.013808 5.346363 -0.166629
v 0.074411 5.335917 0.072567
v -0.026800 5.349199 0.310677
v -0.258083 5.364950 0.402151
v -0.493943 5.385017 0.300262
v -0.584513 5.384126 0.065496
v -0.482131 5.383801 -0.175221
v 1.108758 4.114753 1.368759
v -0.149244 3.585347 1.854813
v -1.422033 4.280406 1.348155
v -1.921000 3.772534 0.075096
v -1.405270 4.384881 -1.205441
v -0.088851 3.726050 -1.725921
v 1.151088 4.200300 -1.185190
v 1.639840 3.531959 0.109062
v 0.039168 6.514157 -0.166995
v 0.128418 6.499038 0.061923
v 0.036316 6.507901 0.289555
v -0.188608 6.524822 0.380550
v -0.414470 6.550127 0.289240
v -0.505161 6.557079 0.060134
v -0.413822 6.560476 -0.169337
v -0.185723 6.532912 -0.261051
v 1.146947 5.780963 0.045891
v 0.832374 5.401261 1.106696
v -0.201325 5.808221 1.406791
v -1.242599 5.495435 1.105106
v -1.547366 5.923938 0.039557
v -1.238928 5.566505 -1.000399
v 0.837498 5.468238 -0.991858
v -0.193805 5.896554 -1.321612
v -0.177833 7.201261 -0.446421
v -0.555881 7.228677 -0.292462
v -0.008308 8.732370 0.145629
v 0.227568 7.161852 -0.289863
v 0.226188 7.166995 0.469913
v 0.380534 7.157496 0.090309
v -0.555856 7.230081 0.469106
v -0.178933 7.208224 0.623859
v -0.709211 7.244503 0.088181
v -0.174797 2.363154 0.033920
v -0.406957 1.989034 1.381591
v -0.985759 1.304306 1.337641
v -0.149484 0.018466 -0.225717
v -1.033879 1.680995 -0.197099
v -1.407646 5.710098 0.579374
v -0.055933 2.662252 -1.616536
v -0.864393 1.944997 0.475675
v -0.753915 4.056779 -1.482903
v 1.310544 2.358448 0.871614
v -1.553237 1.983404 -0.281201
v -0.574581 1.928071 -0.727923
v -1.688419 4.027248 0.718960
v -0.167800 3.045746 0.192509
v 1.482072 1.275546 -0.254046
v 0.117743 0.766211 -0.136122
v -0.267363 3.980691 1.097362
v -0.075436 3.897935 -1.152060
v -1.367241 1.278333 -0.902414
v -0.191937 6.485910 1.029752
v 0.024296 7.211527 0.544685
v -0.364239 7.243029 0.544292
v 0.429689 5.960637 0.693694
v -1.253901 4.579451 0.072517
v -0.377046 5.375140 0.353744
v 0.616421 2.934597 0.327577
v -0.003878 3.038017 0.077967
v 0.095835 1.671249 -0.925752
v -0.910458 5.472688 -0.689403
v 1.390806 3.822049 0.746574
v -0.293260 1.269157 -1.597565
v -0.363730 7.238539 -0.365623
v 1.004842 5.624153 -0.479956
v -0.203171 4.473335 1.129190
v -0.082914 1.927080 -0.206616
v 0.026287 5.342320 0.192668
v -0.997483 2.459166 -1.267761
v -0.966478 2.322476 1.426780
v 0.542460 6.289047 -0.653013
v 0.113539 7.967214 -0.074359
v -1.020361 6.255223 0.049251
v -0.462269 6.553787 0.175728
v 0.856322 4.431742 0.090504
v 0.130499 1.909404 -0.034854
v 0.322456 5.604113 1.269526
v 0.008344 0.373406 -0.279091
v 0.800782 1.680878 0.230499
v -0.013612 0.017827 0.276364
v -0.910671 6.372735 -0.658671
v 0.302552 7.186093 0.279575
v -0.919284 5.414881 0.820896
v -0.075140 6.516237 0.337525
v 0.598352 1.926099 -0.465568
v -0.535829 5.384160 -0.055921
v 0.598745 5.356358 -0.677995
v 0.328863 5.682568 -1.169483
v -0.309200 1.927247 -0.057202
v 0.180720 2.934024 -0.996899
v -1.783795 2.256622 0.437419
v -0.300781 6.546869 -0.217699
v -0.262520 3.050746 -0.117441
v -0.754001 3.677324 -0.889244
v 0.682529 2.545883 1.141695
v -0.576607 2.957155 -1.047194
v -0.228256 0.773737 0.077146
v -0.627491 7.260112 -0.099972
v -0.956666 4.842871 0.827508
v -1.063648 3.731358 0.655751
v -1.123193 2.977305 -0.533428
v -0.284466 8.003423 0.310575
v 0.486782 3.848986 1.628473
v -0.685852 2.985918 0.775366
v -0.092336 7.983720 -0.154868
v -0.723255 5.732193 -1.173857
v 0.538972 3.963267 -1.472720
v -1.405813 5.746150 -0.487521
v -0.825224 6.027924 0.692931
v -0.288764 2.758808 1.377288
v -0.237113 1.924025 0.203759
v -0.263860 0.018159 0.074733
v -0.195332 0.370817 0.242224
v 0.112865 7.970643 0.311006
v 1.002256 5.590226 0.583328
v -0.363530 8.006703 0.117517
v 0.067035 2.963745 0.830478
v 1.031138 2.485575 -1.048266
v 1.239847 1.949394 0.174088
v -0.283302 0.373701 -0.093341
v 0.440372 3.759958 0.939275
v 0.119438 1.302502 1.602443
v 1.215067 1.292303 0.896431
v -1.680312 4.080132 -0.572292
v -0.940794 2.259200 -1.161686
v -0.366693 5.372396 -0.225453
v 0.276956 0.363638 -0.055939
v -0.130438 5.353430 -0.221131
v -0.947990 4.896390 -0.686562
v -0.062053 3.042498 -0.114292
v 0.802474 2.240369 -1.673916
v -1.637842 1.294549 0.227068
v -0.190829 6.229815 -0.785312
v 0.433330 5.997177 -0.576163
v 0.630224 6.155964 0.053039
v -0.912525 6.337317 0.798076
v -0.141405 5.357011 0.358934
v -0.478398 2.191195 -1.848253
v 0.593277 2.261145 1.050016
v -1.216011 5.154944 0.067874
v 1.603773 2.310917 -0.565602
v -0.035658 0.767975 0.239366
v -0.284499 8.001871 -0.075640
v -0.823179 6.068410 -0.581489
v -0.792822 3.932667 1.618104
v 0.542271 4.739749 0.837925
v 0.808341 1.266811 -1.353758
v 0.736617 3.709792 -0.711994
v -1.593778 2.695417 -0.155246
v 0.679204 2.922153 -0.435657
v -1.476637 2.204517 -0.892345
v -0.627460 7.260907 0.278130
v -0.302546 6.537579 0.337379
v 0.178815 0.760667 0.108294
v -0.728908 5.651614 1.268762
v 0.922483 2.232546 -0.865900
v -0.350430 1.691506 0.970092
v 0.539167 6.257584 0.799297
v 0.575793 5.310227 0.831541
v 0.255067 0.017639 0.102211
v 0.312189 1.943549 0.758883
v 0.032796 5.340888 -0.048061
v 0.868373 3.958432 0.112598
v 0.069104 1.953730 -1.486466
v -0.167781 5.044460 1.121881
v 1.412196 3.865102 -0.544863
v 1.235718 2.721491 0.043613
v 0.171647 0.018029 -0.207445
v 0.564830 4.782746 -0.675214
v 0.149415 0.367644 0.262453
v -0.134425 0.776180 -0.155964
v -0.171340 4.544326 -0.995350
v -1.145070 6.563069 0.063102
v -0.195531 6.181989 0.886721
v 0.084800 6.503206 0.176771
v -0.327363 3.049893 0.071919
v -0.092846 7.988293 0.390446
v 0.889500 5.004658 0.086020
v -0.541724 5.384754 0.183940
v 0.328323 2.367076 1.708570
v -1.181536 2.988792 0.224989
v -0.135628 5.119431 -0.997441
v 0.032928 1.917273 0.217598
v -0.187561 6.527317 -0.899907
v 0.025526 7.205118 -0.364321
v -1.227950 3.922158 -0.048025
v 0.777205 6.446423 0.067402
v 0.303243 7.183379 -0.097618
v -0.072240 6.523409 -0.216503
v -1.268923 2.286235 0.730712
v 0.086249 6.506364 -0.053544
v 0.192816 7.961466 0.118598
v -0.461956 6.559062 -0.055637
v -1.355349 2.523048 0.812371
v -0.553697 6.450465 -0.788146
v 0.181961 6.408155 -0.785252
v 0.667018 6.351352 0.437875
v -0.556839 6.411638 0.922741
v -1.036607 6.468555 -0.302346
v 0.668684 6.367283 -0.297286
v 0.178073 6.371381 0.923334
v -1.037526 6.450573 0.435117
v 0.125277 6.113519 -0.688351
v -0.510953 6.149532 -0.691079
v -0.930351 6.141871 0.375133
v 0.121048 6.070936 0.797835
v 0.539315 6.076230 -0.265552
v -0.929335 6.162423 -0.270187
v -0.514354 6.104901 0.797475
v 0.537471 6.057726 0.377400
v -1.073055 5.314671 -0.314842
v -0.547628 5.229618 0.980940
v 0.742117 5.156658 0.463128
v 0.236004 5.237877 -0.847540
v -0.526974 5.296803 -0.853285
v -1.077326 5.285393 0.448573
v 0.208022 5.176750 0.986290
v 0.753716 5.179877 -0.299891
v 0.720190 4.606605 -0.296270
v -1.110787 4.738731 -0.311111
v -0.584027 4.658076 0.987928
v 0.708791 4.584973 0.468569
v 0.201201 4.663525 -0.845126
v -0.563609 4.721081 -0.850842
v -1.114984 4.711641 0.454211
v 0.173581 4.605979 0.993160
v -0.417848 3.787106 -1.032438
v -1.157506 3.826715 0.307549
v 0.089918 3.870793 1.029982
v 0.813918 3.834209 -0.303262
v -0.998622 3.799471 -0.472629
v -0.670459 3.856298 0.884372
v 0.661988 3.859447 0.532051
v 0.335576 3.803608 -0.941963
v 0.969808 2.633893 0.600511
v 0.494334 2.573615 -1.345566
v -0.531248 2.560160 -1.457600
v -1.489873 2.609236 0.333612
v 0.201635 2.652900 1.274776
v 1.148525 2.603524 -0.507208
v -1.306353 2.577013 -0.717127
v -0.828749 2.641299 1.105761
v -1.424598 2.135015 0.226800
v 0.095080 2.125223 1.229807
v 1.094924 2.090666 -0.348193
v -1.258891 2.121324 -0.727685
v -0.844454 2.137917 1.068483
v 0.928657 2.105169 0.618493
v 0.502087 2.092934 -1.188714
v -0.438006 2.106440 -1.337838
v 0.086208 1.913109 0.093098
v -0.245232 0.372289 0.075981
v 0.146547 0.368482 -0.172201
v -0.023327 0.369243 0.258416
v -0.140794 0.373673 -0.191410
v 0.218887 0.365520 0.105519
v -0.198712 1.927360 -0.135932
v -0.102330 1.920696 0.215450
v 0.026803 1.918167 -0.124471
v -0.277770 1.925697 0.074539
vt 0.7997 0.9476
vt 0.7995 0.9769
vt 0.7933 0.9769
vt 0.7936 0.9475
vt 0.8365 0.9477
vt 0.8363 0.9775
vt 0.8302 0.9775
vt 0.8303 0.9477
vt 0.8119 0.9476
vt 0.8119 0.9770
vt 0.8058 0.9769
vt 0.8058 0.9476
vt 0.7874 0.9475
vt 0.7872 0.9770
vt 0.7810 0.9772
vt 0.7812 0.9475
vt 0.8244 0.9068
vt 0.8242 0.9180
vt 0.8180 0.9181
vt 0.8182 0.9070
vt 0.7874 0.9070
vt 0.7876 0.9181
vt 0.7815 0.9179
vt 0.7812 0.9068
vt 0.8120 0.9072
vt 0.8119 0.9182
vt 0.8058 0.9183
vt 0.8059 0.9073
vt 0.8367 0.9068
vt 0.8367 0.9180
vt 0.8304 0.9179
vt 0.8305 0.9067
vt 0.7997 0.9073
vt 0.7998 0.9182
vt 0.7938 0.9182
vt 0.7936 0.9073
vt 0.8242 0.9477
vt 0.8241 0.9773
vt 0.8181 0.9772
vt 0.8181 0.9476
vt 0.9653 0.4639
vt 0.9577 0.4525
vt 0.9641 0.4464
vt 0.9763 0.4540
vt 0.9765 0.4391
vt 0.9642 0.4376
vt 0.9642 0.4289
vt 0.9768 0.4241
vt 0.9403 0.4027
vt 0.9428 0.4158
vt 0.9337 0.4154
vt 0.9253 0.4025
vt 0.9043 0.4372
vt 0.9202 0.4366
vt 0.9199 0.4457
vt 0.9042 0.4516
vt 0.9395 0.4731
vt 0.9421 0.4586
vt 0.9512 0.4587
vt 0.9543 0.4739
vt 0.9661 0.4135
vt 0.9581 0.4226
vt 0.9519 0.4162
vt 0.9554 0.4029
vt 0.9148 0.4127
vt 0.9270 0.4215
vt 0.9204 0.4275
vt 0.9044 0.4229
vt 0.9144 0.4620
vt 0.9265 0.4521
vt 0.9330 0.4584
vt 0.9246 0.4724
vt 0.8986 0.4369
vt 0.8985 0.4523
vt 0.8875 0.4563
vt 0.8878 0.4371
vt 0.9370 0.3996
vt 0.9209 0.3997
vt 0.9154 0.3910
vt 0.9359 0.3906
vt 0.9642 0.4632
vt 0.9771 0.4517
vt 0.9883 0.4544
vt 0.9710 0.4697
vt 0.9094 0.4633
vt 0.9203 0.4744
vt 0.9144 0.4840
vt 0.9009 0.4701
vt 0.9099 0.4105
vt 0.8988 0.4214
vt 0.8880 0.4179
vt 0.9017 0.4044
vt 0.9652 0.4100
vt 0.9531 0.3995
vt 0.9563 0.3902
vt 0.9723 0.4029
vt 0.9772 0.4361
vt 0.9773 0.4205
vt 0.9883 0.4156
vt 0.9883 0.4350
vt 0.9359 0.4746
vt 0.9514 0.4748
vt 0.9536 0.4849
vt 0.9340 0.4844
vt 0.9702 0.4396
vt 0.9704 0.4514
vt 0.9508 0.4440
vt 0.9505 0.4388
vt 0.9374 0.4089
vt 0.9495 0.4089
vt 0.9427 0.4265
vt 0.9376 0.4265
vt 0.9086 0.4385
vt 0.9085 0.4263
vt 0.9255 0.4341
vt 0.9258 0.4392
vt 0.9392 0.4679
vt 0.9265 0.4678
vt 0.9336 0.4510
vt 0.9385 0.4512
vt 0.9598 0.4183
vt 0.9701 0.4278
vt 0.9502 0.4336
vt 0.9464 0.4301
vt 0.9169 0.4176
vt 0.9253 0.4090
vt 0.9324 0.4265
vt 0.9289 0.4303
vt 0.9176 0.4592
vt 0.9087 0.4507
vt 0.9260 0.4443
vt 0.9298 0.4477
vt 0.9612 0.4597
vt 0.9520 0.4681
vt 0.9435 0.4514
vt 0.9471 0.4477
vt 0.9167 0.4617
vt 0.9261 0.4710
vt 0.9190 0.4854
vt 0.9055 0.4719
vt 0.9166 0.4167
vt 0.9073 0.4261
vt 0.8917 0.4205
vt 0.9052 0.4067
vt 0.9618 0.4167
vt 0.9525 0.4072
vt 0.9574 0.3929
vt 0.9709 0.4067
vt 0.9711 0.4393
vt 0.9711 0.4262
vt 0.9844 0.4205
vt 0.9843 0.4396
vt 0.9392 0.4710
vt 0.9525 0.4711
vt 0.9572 0.4855
vt 0.9381 0.4854
vt 0.9073 0.4392
vt 0.9074 0.4524
vt 0.8920 0.4585
vt 0.8918 0.4395
vt 0.9392 0.4072
vt 0.9259 0.4072
vt 0.9187 0.3929
vt 0.9381 0.3929
vt 0.9618 0.4618
vt 0.9711 0.4525
vt 0.9842 0.4586
vt 0.9707 0.4721
vt 0.9586 0.4201
vt 0.9664 0.4279
vt 0.9461 0.4376
vt 0.9448 0.4362
vt 0.9210 0.4201
vt 0.9288 0.4125
vt 0.9394 0.4347
vt 0.9379 0.4361
vt 0.9207 0.4577
vt 0.9130 0.4497
vt 0.9365 0.4416
vt 0.9380 0.4430
vt 0.9585 0.4579
vt 0.9507 0.4658
vt 0.9432 0.4442
vt 0.9445 0.4428
vt 0.9664 0.4389
vt 0.9663 0.4499
vt 0.9458 0.4414
vt 0.9460 0.4395
vt 0.9398 0.4124
vt 0.9508 0.4123
vt 0.9434 0.4347
vt 0.9414 0.4347
vt 0.9131 0.4388
vt 0.9132 0.4279
vt 0.9364 0.4375
vt 0.9365 0.4395
vt 0.9396 0.4657
vt 0.9284 0.4657
vt 0.9394 0.4444
vt 0.9413 0.4443
vt 0.9590 0.4575
vt 0.9676 0.4490
vt 0.9860 0.4591
vt 0.9716 0.4732
vt 0.9180 0.4573
vt 0.9265 0.4657
vt 0.9174 0.4869
vt 0.9032 0.4729
vt 0.9179 0.4163
vt 0.9094 0.4248
vt 0.8887 0.4187
vt 0.9029 0.4043
vt 0.9677 0.4369
vt 0.9678 0.4248
vt 0.9866 0.4187
vt 0.9863 0.4389
vt 0.9384 0.4658
vt 0.9504 0.4659
vt 0.9572 0.4872
vt 0.9373 0.4870
vt 0.9095 0.4369
vt 0.9096 0.4489
vt 0.8891 0.4589
vt 0.8889 0.4388
vt 0.9385 0.4076
vt 0.9264 0.4076
vt 0.9170 0.3898
vt 0.9374 0.3898
vt 0.9592 0.4163
vt 0.9506 0.4076
vt 0.9577 0.3898
vt 0.9721 0.4043
vt 0.9409 0.5850
vt 0.9351 0.5846
vt 0.9389 0.5778
vt 0.9507 0.5766
vt 0.9458 0.5808
vt 0.9438 0.5737
vt 0.9432 0.5541
vt 0.9474 0.5591
vt 0.9401 0.5624
vt 0.9207 0.5638
vt 0.9250 0.5591
vt 0.9288 0.5673
vt 0.9292 0.5843
vt 0.9254 0.5799
vt 0.9331 0.5775
vt 0.9516 0.5641
vt 0.9512 0.5704
vt 0.9442 0.5674
vt 0.9292 0.5544
vt 0.9362 0.5543
vt 0.9331 0.5626
vt 0.9217 0.5756
vt 0.9212 0.5697
vt 0.9293 0.5732
vt 0.9053 0.5680
vt 0.9051 0.5543
vt 0.9384 0.5360
vt 0.9519 0.5365
vt 0.9694 0.5688
vt 0.9692 0.5819
vt 0.9148 0.5911
vt 0.9054 0.5817
vt 0.9150 0.5449
vt 0.9249 0.5355
vt 0.9607 0.5461
vt 0.9696 0.5558
vt 0.9598 0.5912
vt 0.9504 0.6005
vt 0.9372 0.6006
vt 0.9241 0.6006
vt 0.9839 0.4196
vt 0.9839 0.4374
vt 0.9622 0.4292
vt 0.9581 0.4810
vt 0.9398 0.4814
vt 0.9493 0.4599
vt 0.8958 0.4571
vt 0.8958 0.4392
vt 0.9182 0.4480
vt 0.9217 0.3956
vt 0.9399 0.3952
vt 0.9311 0.4172
vt 0.9839 0.4552
vt 0.9710 0.4681
vt 0.9622 0.4470
vt 0.9216 0.4818
vt 0.9087 0.4694
vt 0.9311 0.4603
vt 0.8958 0.4214
vt 0.9087 0.4085
vt 0.9182 0.4301
vt 0.9582 0.3948
vt 0.9711 0.4072
vt 0.9494 0.4168
vt 0.9406 0.4388
vt 0.9598 0.6161
vt 0.9394 0.6165
vt 0.9190 0.6170
vt 0.9876 0.5871
vt 0.9737 0.6016
vt 0.9606 0.5188
vt 0.9741 0.5331
vt 0.9876 0.5474
vt 0.8896 0.5448
vt 0.9051 0.5308
vt 0.9206 0.5167
vt 0.9041 0.6023
vt 0.8892 0.5877
vt 0.9876 0.5673
vt 0.9406 0.5178
vt 0.8894 0.5662
vt 0.9369 0.5707
vt 0.9491 0.4310
vt 0.9463 0.4283
vt 0.9436 0.4255
vt 0.9397 0.4255
vt 0.9358 0.4255
vt 0.9302 0.4310
vt 0.9301 0.4349
vt 0.9300 0.4389
vt 0.9356 0.4446
vt 0.9396 0.4446
vt 0.9436 0.4446
vt 0.9492 0.4389
vt 0.9491 0.4349
vt 0.9330 0.4283
vt 0.9328 0.4417
vt 0.9464 0.4417
vt 0.9582 0.4874
vt 0.9378 0.4872
vt 0.9175 0.4869
vt 0.8895 0.4578
vt 0.8898 0.4380
vt 0.8901 0.4182
vt 0.9182 0.3902
vt 0.9382 0.3901
vt 0.9582 0.3900
vt 0.9868 0.4181
vt 0.9868 0.4383
vt 0.9868 0.4585
vt 0.9725 0.4729
vt 0.9035 0.4724
vt 0.9042 0.4042
vt 0.9725 0.4040
vt 0.9477 0.4566
vt 0.9528 0.4514
vt 0.9579 0.4463
vt 0.9475 0.4216
vt 0.9403 0.4216
vt 0.9331 0.4216
vt 0.9228 0.4317
vt 0.9228 0.4390
vt 0.9228 0.4462
vt 0.9331 0.4566
vt 0.9404 0.4566
vt 0.9578 0.4391
vt 0.9577 0.4318
vt 0.9526 0.4267
vt 0.9280 0.4266
vt 0.9280 0.4514
vt 0.9899 0.4588
vt 0.9752 0.4718
vt 0.9605 0.4848
vt 0.9194 0.4845
vt 0.9054 0.4708
vt 0.8915 0.4571
vt 0.8915 0.4185
vt 0.9049 0.4050
vt 0.9182 0.3915
vt 0.9562 0.3912
vt 0.9731 0.4066
vt 0.9900 0.4220
vt 0.9399 0.4847
vt 0.8915 0.4378
vt 0.9372 0.3914
vt 0.9900 0.4404
vt 0.9262 0.4647
vt 0.9377 0.4647
vt 0.9493 0.4648
vt 0.9658 0.4489
vt 0.9661 0.4372
vt 0.9663 0.4255
vt 0.9581 0.4172
vt 0.9499 0.4088
vt 0.9264 0.4083
vt 0.9180 0.4166
vt 0.9096 0.4248
vt 0.9094 0.4484
vt 0.9178 0.4566
vt 0.9575 0.4568
vt 0.9381 0.4086
vt 0.9095 0.4366
vt 0.9023 0.4719
vt 0.9162 0.4864
vt 0.8885 0.4574
vt 0.9026 0.4040
vt 0.8883 0.4183
vt 0.9169 0.3896
vt 0.9742 0.4045
vt 0.9589 0.3896
vt 0.9894 0.4194
vt 0.9368 0.4877
vt 0.9575 0.4890
vt 0.8884 0.4378
vt 0.9379 0.3896
vt 0.9890 0.4405
vt 0.9885 0.4616
vt 0.9730 0.4753
vt 0.7997 0.8964
vt 0.7934 0.8963
vt 0.8060 0.8964
vt 0.8368 0.8957
vt 0.8307 0.8954
vt 0.8430 0.8959
vt 0.8429 0.9070
vt 0.8429 0.9181
vt 0.8122 0.8961
vt 0.8184 0.8959
vt 0.7872 0.8960
vt 0.7810 0.8956
vt 0.8246 0.8957
vt 0.8426 0.9477
vt 0.8424 0.9774
vn -0.9630 -0.0410 0.2664
vn -0.9593 -0.0410 0.2792
vn -0.9431 -0.0371 -0.3305
vn -0.9359 -0.0363 -0.3504
vn 0.6284 0.0574 -0.7758
vn 0.6151 0.0566 -0.7864
vn 0.9538 0.0834 -0.2888
vn 0.9624 0.0841 -0.2583
vn -0.0498 0.0180 0.9986
vn -0.0399 0.0186 0.9990
vn -0.6333 -0.0154 0.7738
vn -0.6250 -0.0147 0.7805
vn -0.5515 -0.0166 -0.8340
vn -0.5644 -0.0178 -0.8253
vn -0.0059 0.0208 -0.9998
vn 0.0476 0.0246 -0.9986
vn 0.9248 0.0903 0.3696
vn 0.9239 0.0852 0.3731
vn 0.5304 0.0705 0.8448
vn 0.5337 0.0813 0.8417
vn -0.5351 0.0868 -0.8403
vn -0.5362 0.0336 -0.8434
vn 0.0737 0.0742 -0.9945
vn 0.0647 0.1232 -0.9903
vn -0.0584 0.0459 0.9972
vn -0.0631 0.0315 0.9975
vn -0.6325 0.0186 0.7744
vn -0.6323 0.0530 0.7729
vn 0.6372 0.1171 -0.7617
vn 0.6409 0.0868 -0.7627
vn 0.9670 0.1059 -0.2316
vn 0.9624 0.1251 -0.2412
vn -0.9663 0.0434 0.2536
vn -0.9679 -0.0004 0.2512
vn -0.9305 0.0193 -0.3658
vn -0.9286 0.0783 -0.3627
vn 0.9309 0.0797 0.3564
vn 0.9358 0.0801 0.3433
vn 0.5315 0.0589 0.8450
vn 0.5440 0.0595 0.8370
vn -0.2224 0.2712 -0.9365
vn 0.1296 -0.8419 -0.5238
vn 0.1063 -0.8892 -0.4450
vn 0.1321 0.3307 -0.9345
vn 0.4702 0.3519 -0.8094
vn 0.1908 -0.8007 -0.5679
vn 0.3015 -0.9243 -0.2338
vn 0.7393 0.4159 -0.5296
vn 0.7921 0.4375 0.4257
vn 0.6319 -0.7478 0.2038
vn 0.2081 -0.9017 0.3791
vn 0.5314 0.4631 0.7093
vn -0.4795 0.3546 0.8027
vn -0.1422 -0.8232 0.5496
vn -0.2173 -0.9698 0.1111
vn -0.7741 0.3261 0.5427
vn -0.8334 0.2302 -0.5025
vn -0.4007 -0.9120 -0.0874
vn 0.0679 -0.9713 -0.2281
vn -0.5730 0.2628 -0.7763
vn 0.8928 0.4205 -0.1614
vn 0.6620 -0.7485 0.0391
vn 0.5940 -0.7995 0.0896
vn 0.8839 0.4466 0.1388
vn 0.1844 0.4214 0.8879
vn -0.0438 -0.7384 0.6729
vn -0.0299 -0.8393 0.5429
vn -0.1576 0.4113 0.8978
vn -0.9466 0.2586 0.1926
vn -0.4887 -0.8705 -0.0581
vn -0.3300 -0.9437 0.0212
vn -0.9508 0.2615 -0.1660
vn 0.4331 -0.7214 -0.5404
vn 0.0740 -0.8703 -0.4869
vn -0.1624 -0.5076 0.8461
vn -0.1503 -0.7937 0.5894
vn 0.6912 -0.5430 0.4769
vn 0.7131 -0.6932 0.1051
vn -0.7514 -0.6298 -0.1970
vn -0.4740 -0.8685 -0.1449
vn -0.5036 -0.8226 0.2641
vn -0.4754 -0.7864 0.3943
vn 0.5805 -0.7152 -0.3892
vn 0.7241 -0.6868 0.0623
vn -0.2913 -0.8299 -0.4759
vn -0.3916 -0.8052 -0.4453
vn 0.4074 -0.7293 0.5497
vn -0.0219 -0.6987 0.7150
vn 0.6975 -0.6578 -0.2843
vn 0.6040 -0.6540 -0.4555
vn -0.4639 -0.8126 0.3528
vn -0.5803 -0.8132 -0.0435
vn 0.3736 -0.6501 0.6617
vn 0.5648 -0.5476 0.6173
vn -0.3754 -0.8553 -0.3571
vn -0.0899 -0.8156 -0.5716
vn -0.3701 -0.7976 0.4763
vn 0.0140 -0.8206 0.5713
vn 0.0059 -0.5097 -0.8603
vn 0.2430 -0.7287 -0.6402
vn -0.4276 -0.8381 -0.3386
vn -0.4326 -0.9012 -0.0258
vn 0.8656 -0.4851 0.1242
vn 0.6602 -0.7184 0.2193
vn 0.4923 0.4845 -0.7232
vn 0.0376 0.5134 -0.8573
vn -0.2189 -0.9676 -0.1257
vn 0.8334 -0.5463 -0.0836
vn 0.7591 0.4362 0.4833
vn 0.8615 0.4945 0.1148
vn 0.1925 -0.9441 0.2677
vn 0.1011 -0.5486 0.8299
vn -0.5237 0.3702 0.7672
vn -0.1153 0.4422 0.8895
vn -0.4479 -0.8876 0.1070
vn -0.8311 -0.5511 0.0747
vn -0.7693 0.3649 -0.5245
vn -0.9054 0.4055 -0.1261
vn -0.1526 -0.9443 -0.2917
vn -0.1047 -0.6059 -0.7886
vn 0.8333 0.4788 -0.2763
vn 0.6927 0.4967 -0.5229
vn 0.5369 -0.7574 -0.3715
vn 0.3041 -0.6107 -0.7312
vn 0.3229 0.4307 0.8428
vn 0.5681 0.4459 0.6917
vn 0.3244 -0.7914 0.5182
vn 0.6363 -0.7099 0.3018
vn -0.8762 0.3723 0.3061
vn -0.7323 0.3811 0.5643
vn -0.5163 -0.8206 0.2452
vn -0.3492 -0.7759 0.5254
vn -0.4323 0.4215 -0.7972
vn -0.6199 0.3940 -0.6785
vn -0.4117 -0.8012 -0.4343
vn -0.7962 -0.5764 -0.1840
vn -0.0754 -0.6600 -0.7475
vn -0.4550 -0.7707 -0.4461
vn 0.5810 -0.5005 0.6418
vn 0.4703 -0.7492 0.4663
vn 0.7464 -0.6608 -0.0788
vn 0.4239 -0.7721 -0.4734
vn -0.6471 -0.4824 0.5903
vn -0.4670 -0.7518 0.4656
vn -0.0060 -0.6890 0.7247
vn 0.4198 -0.7968 0.4346
vn -0.6472 -0.4613 -0.6070
vn -0.5238 -0.6980 -0.4883
vn -0.1061 -0.6925 0.7136
vn -0.0583 -0.6767 0.7340
vn -0.0152 -0.8050 -0.5931
vn 0.4692 -0.7437 -0.4762
vn -0.7352 -0.6761 -0.0491
vn -0.7466 -0.6645 -0.0317
vn 0.5715 -0.8206 -0.0011
vn 0.4625 -0.7239 0.5119
vn 0.0011 -0.6580 -0.7531
vn -0.0391 -0.6435 -0.7645
vn -0.0287 -0.8281 0.5598
vn -0.5445 -0.7012 0.4603
vn 0.7432 -0.6676 0.0436
vn 0.7614 -0.6481 -0.0183
vn -0.5718 -0.8202 -0.0178
vn -0.4648 -0.7246 -0.5088
vn -0.7335 -0.6795 -0.0132
vn -0.4697 -0.7914 0.3913
vn 0.6130 -0.4803 -0.6273
vn 0.4859 -0.7006 -0.5225
vn 0.8760 0.4636 -0.1329
vn 0.6303 0.5381 -0.5596
vn 0.1081 -0.9616 -0.2524
vn 0.6663 -0.6563 0.3540
vn 0.1888 0.4593 0.8680
vn 0.6010 0.5288 0.5993
vn 0.0820 -0.9715 0.2223
vn -0.3828 -0.6206 0.6843
vn -0.8658 0.4613 0.1939
vn -0.5780 0.5336 0.6175
vn -0.2427 -0.9664 0.0847
vn -0.6994 -0.6364 -0.3253
vn -0.1441 0.4683 -0.8717
vn -0.5859 0.5424 -0.6021
vn -0.2262 -0.9634 -0.1438
vn 0.2865 -0.6659 -0.6888
vn 0.2301 0.4720 -0.8511
vn 0.0444 0.4688 -0.8822
vn -0.0349 -0.7734 -0.6330
vn -0.3172 -0.6191 -0.7184
vn 0.8673 0.4615 0.1867
vn 0.8879 0.4591 0.0280
vn 0.6098 -0.7926 0.0006
vn 0.6745 -0.6553 -0.3401
vn -0.1386 0.4571 0.8785
vn 0.0258 0.4543 0.8905
vn -0.0461 -0.7956 0.6040
vn 0.3193 -0.6764 0.6637
vn -0.8703 0.4623 -0.1696
vn -0.8882 0.4592 0.0130
vn -0.6221 -0.7826 -0.0242
vn -0.6976 -0.6547 0.2910
vn -0.5618 -0.7333 -0.3829
vn -0.5921 -0.8057 -0.0185
vn 0.8225 -0.5682 -0.0247
vn 0.6742 -0.7367 -0.0518
vn 0.3399 -0.7535 -0.5627
vn -0.0396 -0.8088 -0.5867
vn -0.0229 -0.5604 0.8279
vn 0.0095 -0.7388 0.6738
vn 0.5036 -0.7800 0.3714
vn 0.5366 -0.8436 -0.0188
vn -0.8626 -0.5052 -0.0268
vn -0.7207 -0.6932 0.0104
vn -0.5612 -0.7508 0.3484
vn -0.5085 -0.7450 0.4317
vn 0.4426 -0.7490 -0.4930
vn 0.6743 -0.7384 0.0052
vn -0.4127 -0.7320 -0.5421
vn -0.4995 -0.7246 -0.4748
vn 0.4423 -0.7684 0.4625
vn -0.0757 -0.7189 0.6909
vn 0.5071 -0.7605 -0.4056
vn 0.4382 -0.7480 -0.4985
vn -0.4924 -0.7462 0.4481
vn -0.7200 -0.6911 -0.0621
vn 0.3459 -0.7835 0.5162
vn 0.4404 -0.7712 0.4597
vn -0.4894 -0.7261 -0.4830
vn -0.0088 -0.6987 -0.7154
vn -0.4309 -0.7582 0.4893
vn -0.0463 -0.8451 0.5326
vn -0.0151 -0.4913 -0.8709
vn -0.0497 -0.6780 -0.7334
vn 0.0179 0.4642 -0.8856
vn -0.3363 0.4323 -0.8367
vn 0.0237 0.3594 -0.9329
vn 0.6585 0.4043 -0.6348
vn 0.3833 0.3872 -0.8385
vn 0.6838 0.2898 -0.6696
vn 0.6627 0.3636 0.6547
vn 0.8768 0.3120 0.3659
vn 0.6878 0.2460 0.6829
vn -0.6284 0.4346 0.6452
vn -0.3458 0.3770 0.8592
vn -0.6422 0.3796 0.6659
vn -0.6144 0.4735 -0.6311
vn -0.8175 0.4475 -0.3626
vn -0.6252 0.4212 -0.6570
vn 0.9268 0.3755 0.0030
vn 0.8706 0.3360 -0.3594
vn 0.9704 0.2415 0.0017
vn 0.0078 0.3997 0.9166
vn 0.3741 0.3312 0.8662
vn 0.0127 0.2998 0.9539
vn -0.8765 0.4813 0.0026
vn -0.8279 0.4240 0.3671
vn -0.9041 0.4274 0.0005
vn -0.7889 0.4737 0.3915
vn -0.6044 0.4773 0.6378
vn 0.3903 0.4388 0.8094
vn 0.6383 0.4485 0.6256
vn 0.8126 0.4564 -0.3625
vn 0.6437 0.4833 -0.5934
vn -0.7786 0.4985 -0.3813
vn -0.8491 0.5282 0.0059
vn -0.3539 0.4544 0.8175
vn 0.0191 0.4811 0.8765
vn 0.8196 0.4328 0.3755
vn 0.8781 0.4784 0.0072
vn 0.4150 0.4897 -0.7668
vn 0.0274 0.5454 -0.8377
vn -0.3638 0.5072 -0.7813
vn -0.6016 0.5139 -0.6115
vn 0.1595 -0.7687 -0.6194
vn 0.6289 -0.7061 -0.3253
vn -0.1288 -0.8112 0.5705
vn 0.6616 -0.7343 0.1519
vn 0.3657 -0.6773 0.6384
vn -0.5681 -0.8141 -0.1206
vn -0.1051 -0.7474 0.6560
vn -0.6121 -0.7232 0.3200
vn 0.1379 -0.8044 -0.5778
vn -0.5813 -0.8060 -0.1117
vn -0.2780 -0.7768 -0.5651
vn 0.6046 -0.7810 0.1564
vn 0.7609 -0.5028 -0.4102
vn 0.5708 -0.6790 -0.4618
vn -0.3656 -0.8988 0.2421
vn 0.4756 -0.4870 0.7325
vn 0.4983 -0.6708 0.5494
vn -0.2380 -0.8959 -0.3752
vn -0.6870 -0.5616 0.4611
vn -0.4878 -0.7373 0.4674
vn 0.4090 -0.8842 -0.2254
vn -0.4406 -0.5843 -0.6815
vn -0.4747 -0.7222 -0.5030
vn 0.2480 -0.8867 0.3902
vn 0.0243 -0.9997 0.0008
vn 0.1010 0.9944 0.0323
vn -0.9650 0.0467 0.2580
vn -0.9259 0.0828 -0.3685
vn -0.6258 0.0549 0.7780
vn 0.6326 0.1190 -0.7653
vn 0.9576 0.1260 -0.2592
vn 0.0656 0.1265 -0.9898
vn -0.0514 0.0462 0.9976
vn 0.5530 0.0816 0.8292
vn -0.5376 0.0910 -0.8383
vn 0.9276 0.0897 0.3627
usemtl None
s 1
f 308/1/1 224/2/2 3/3/3 137/4/4
f 307/5/5 178/6/6 7/7/7 124/8/8
f 306/9/9 94/10/10 2/11/11 159/12/12
f 305/13/13 141/14/14 6/15/15 115/16/16
f 304/17/17 202/18/18 9/19/19 218/20/20
f 303/21/21 219/22/22 5/23/23 126/24/24
f 302/25/25 190/26/26 1/27/27 161/28/28
f 301/29/29 96/30/30 8/31/31 175/32/32
f 300/33/33 145/34/34 4/35/35 168/36/36
f 299/37/37 107/38/38 10/39/39 231/40/40
f 298/41/41 144/42/42 18/43/43 212/44/44
f 297/45/45 138/46/46 20/47/47 204/48/48
f 296/49/49 106/50/50 24/51/51 187/52/52
f 295/53/53 152/54/54 28/55/55 238/56/56
f 294/57/57 149/58/58 17/59/59 173/60/60
f 293/61/61 198/62/62 23/63/63 167/64/64
f 292/65/65 165/66/66 27/67/67 82/68/68
f 291/69/69 229/70/70 31/71/71 91/72/72
f 290/73/73 158/74/74 32/75/75 118/76/76
f 289/77/77 197/78/78 34/79/79 199/80/80
f 288/81/81 166/82/82 36/83/83 189/84/84
f 287/85/85 143/86/86 38/87/87 228/88/88
f 286/89/89 242/90/90 33/91/91 139/92/92
f 285/93/93 117/94/94 35/95/95 186/96/96
f 284/97/97 87/98/98 39/99/99 179/100/100
f 283/101/101 215/102/102 37/103/103 90/104/104
f 282/105/105 98/106/106 40/107/107 176/108/108
f 281/109/109 211/110/110 42/111/111 116/112/112
f 280/113/113 97/114/114 44/115/115 105/116/116
f 279/117/117 234/118/118 46/119/119 134/120/120
f 278/121/121 196/122/122 41/123/123 210/124/124
f 277/125/125 169/126/126 43/127/127 185/128/128
f 276/129/129 148/130/130 45/131/131 227/132/132
f 275/133/133 142/134/134 47/135/135 174/136/136
f 274/137/137 194/138/138 48/139/139 151/140/140
f 273/141/141 147/142/142 50/143/143 93/144/144
f 272/145/145 177/146/146 52/147/147 89/148/148
f 271/149/149 220/150/150 53/151/151 155/152/152
f 270/153/153 123/154/154 55/155/155 110/156/156
f 269/157/157 114/158/158 49/159/159 193/160/160
f 268/161/161 104/162/162 51/163/163 172/164/164
f 267/165/165 217/166/166 54/167/167 214/168/168
f 266/169/169 135/170/170 56/171/171 239/172/172
f 265/173/173 207/174/174 58/175/175 132/176/176
f 264/177/177 131/178/178 60/179/179 122/180/180
f 263/181/181 109/182/182 62/183/183 140/184/184
f 262/185/185 230/186/186 63/187/187 237/188/188
f 261/189/189 226/190/190 57/191/191 223/192/192
f 260/193/193 213/194/194 59/195/195 201/196/196
f 259/197/197 188/198/198 61/199/199 241/200/200
f 258/201/201 183/202/202 64/203/203 163/204/204
f 257/205/205 222/206/206 66/207/207 203/208/208
f 256/209/209 121/210/210 68/211/211 156/212/212
f 255/213/213 182/214/214 70/215/215 113/216/216
f 254/217/217 103/218/218 65/219/219 125/220/220
f 253/221/221 157/222/222 67/223/223 86/224/224
f 252/225/225 192/226/226 69/227/227 154/228/228
f 251/229/229 181/230/230 71/231/231 136/232/232
f 72/233/233 112/234/234 153/235/235
f 75/236/236 233/237/237 120/238/238
f 76/239/239 130/240/240 162/241/241
f 78/242/242 102/243/243 150/244/244
f 73/245/245 146/246/246 191/247/247
f 77/248/248 236/249/249 240/250/250
f 79/251/251 101/252/252 225/253/253
f 80/254/254 200/255/255 164/256/256
f 250/257/257 184/258/258 78/242/242 200/255/255
f 249/259/259 206/260/260 76/239/239 101/252/252
f 248/261/261 119/262/262 75/236/236 236/249/249
f 247/263/263 221/264/264 80/254/254 146/246/246
f 246/265/265 100/266/266 79/251/251 102/243/243
f 245/267/267 235/268/268 77/248/248 130/240/240
f 244/269/269 232/270/270 72/233/233 233/237/237
f 243/271/271 129/272/272 73/245/245 112/234/234
f 19/273/273 195/274/274 108/275/275
f 22/276/276 171/277/277 127/278/278
f 26/279/279 83/280/280 205/281/281
f 30/282/282 99/283/283 85/284/284
f 21/285/285 95/286/286 133/287/287
f 25/288/288 170/289/289 209/290/290
f 29/291/291 180/292/292 88/293/293
f 16/294/294 111/295/295 92/296/296
f 92/296/296 108/275/275 81/297/297
f 92/296/296 111/295/295 108/275/275
f 111/295/295 19/273/273 108/275/275
f 88/293/293 85/284/284 81/297/297
f 88/293/293 180/292/292 85/284/284
f 180/292/292 30/282/282 85/284/284
f 209/290/290 205/281/281 81/297/297
f 209/290/290 170/289/289 205/281/281
f 170/289/289 26/279/279 205/281/281
f 133/287/287 127/278/278 81/297/297
f 133/287/287 95/286/286 127/278/278
f 95/286/286 22/276/276 127/278/278
f 85/284/284 92/296/296 81/297/297
f 85/284/284 99/283/283 92/296/296
f 99/283/283 16/294/294 92/296/296
f 205/281/281 88/293/293 81/297/297
f 205/281/281 83/280/280 88/293/293
f 83/280/280 29/291/291 88/293/293
f 127/278/278 209/290/290 81/297/297
f 127/278/278 171/277/277 209/290/290
f 171/277/277 25/288/288 209/290/290
f 108/275/275 133/287/287 81/297/297
f 108/275/275 195/274/274 133/287/287
f 195/274/274 21/285/285 133/287/287
f 232/270/270 243/271/271 112/234/234 72/233/233
f 71/298/231 154/299/228 243/271/271 232/270/270
f 154/299/228 69/300/227 129/272/272 243/271/271
f 119/262/262 244/269/269 233/237/237 75/236/236
f 70/301/215 136/302/232 244/269/269 119/262/262
f 136/302/232 71/298/231 232/270/270 244/269/269
f 206/260/260 245/267/267 130/240/240 76/239/239
f 65/303/219 163/304/204 245/267/267 206/260/260
f 163/304/204 64/305/203 235/268/268 245/267/267
f 184/258/258 246/265/265 102/243/243 78/242/242
f 67/306/223 203/307/208 246/265/265 184/258/258
f 203/307/208 66/308/207 100/266/266 246/265/265
f 129/272/272 247/263/263 146/246/246 73/245/245
f 69/300/227 156/309/212 247/263/263 129/272/272
f 156/309/212 68/310/211 221/264/264 247/263/263
f 235/268/268 248/261/261 236/249/249 77/248/248
f 64/305/203 113/311/216 248/261/261 235/268/268
f 113/311/216 70/301/215 119/262/262 248/261/261
f 100/266/266 249/259/259 101/252/252 79/251/251
f 66/308/207 125/312/220 249/259/259 100/266/266
f 125/312/220 65/303/219 206/260/260 249/259/259
f 221/264/264 250/257/257 200/255/255 80/254/254
f 68/310/211 86/313/224 250/257/257 221/264/264
f 86/313/224 67/306/223 184/258/258 250/257/257
f 164/256/256 150/244/244 74/314/298
f 164/256/256 200/255/255 150/244/244
f 200/255/255 78/242/242 150/244/244
f 225/253/253 162/241/241 74/314/298
f 225/253/253 101/252/252 162/241/241
f 101/252/252 76/239/239 162/241/241
f 240/250/250 120/238/238 74/314/298
f 240/250/250 236/249/249 120/238/238
f 236/249/249 75/236/236 120/238/238
f 191/247/247 164/256/256 74/314/298
f 191/247/247 146/246/246 164/256/256
f 146/246/246 80/254/254 164/256/256
f 150/244/244 225/253/253 74/314/298
f 150/244/244 102/243/243 225/253/253
f 102/243/243 79/251/251 225/253/253
f 162/241/241 240/250/250 74/314/298
f 162/241/241 130/240/240 240/250/250
f 130/240/240 77/248/248 240/250/250
f 120/238/238 153/235/235 74/314/298
f 120/238/238 233/237/237 153/235/235
f 233/237/237 72/233/233 153/235/235
f 153/235/235 191/247/247 74/314/298
f 153/235/235 112/234/234 191/247/247
f 112/234/234 73/245/245 191/247/247
f 182/214/214 251/229/229 136/232/232 70/215/215
f 56/315/171 237/316/188 251/229/229 182/214/214
f 237/316/188 63/317/187 181/230/230 251/229/229
f 181/230/230 252/225/225 154/228/228 71/231/231
f 63/317/187 140/318/184 252/225/225 181/230/230
f 140/318/184 62/319/183 192/226/226 252/225/225
f 121/210/210 253/221/221 86/224/224 68/211/211
f 61/320/199 122/321/180 253/221/221 121/210/210
f 122/321/180 60/322/179 157/222/222 253/221/221
f 222/206/206 254/217/217 125/220/220 66/207/207
f 59/323/195 132/324/176 254/217/217 222/206/206
f 132/324/176 58/325/175 103/218/218 254/217/217
f 183/202/202 255/213/213 113/216/216 64/203/203
f 57/326/191 239/327/172 255/213/213 183/202/202
f 239/327/172 56/315/171 182/214/214 255/213/213
f 192/226/226 256/209/209 156/212/212 69/227/227
f 62/319/183 241/328/200 256/209/209 192/226/226
f 241/328/200 61/320/199 121/210/210 256/209/209
f 157/222/222 257/205/205 203/208/208 67/223/223
f 60/322/179 201/329/196 257/205/205 157/222/222
f 201/329/196 59/323/195 222/206/206 257/205/205
f 103/218/218 258/201/201 163/204/204 65/219/219
f 58/325/175 223/330/192 258/201/201 103/218/218
f 223/330/192 57/326/191 183/202/202 258/201/201
f 109/182/182 259/197/197 241/200/200 62/183/183
f 52/331/147 172/332/164 259/197/197 109/182/182
f 172/332/164 51/333/163 188/198/198 259/197/197
f 131/178/178 260/193/193 201/196/196 60/179/179
f 50/334/143 193/335/160 260/193/193 131/178/178
f 193/335/160 49/336/159 213/194/194 260/193/193
f 207/174/174 261/189/189 223/192/192 58/175/175
f 48/337/139 110/338/156 261/189/189 207/174/174
f 110/338/156 55/339/155 226/190/190 261/189/189
f 135/170/170 262/185/185 237/188/188 56/171/171
f 54/340/167 155/341/152 262/185/185 135/170/170
f 155/341/152 53/342/151 230/186/186 262/185/185
f 230/186/186 263/181/181 140/184/184 63/187/187
f 53/342/151 89/343/148 263/181/181 230/186/186
f 89/343/148 52/331/147 109/182/182 263/181/181
f 188/198/198 264/177/177 122/180/180 61/199/199
f 51/333/163 93/344/144 264/177/177 188/198/198
f 93/344/144 50/334/143 131/178/178 264/177/177
f 213/194/194 265/173/173 132/176/176 59/195/195
f 49/336/159 151/345/140 265/173/173 213/194/194
f 151/345/140 48/337/139 207/174/174 265/173/173
f 226/190/190 266/169/169 239/172/172 57/191/191
f 55/339/155 214/346/168 266/169/169 226/190/190
f 214/346/168 54/340/167 135/170/170 266/169/169
f 123/154/154 267/165/165 214/168/168 55/155/155
f 42/347/111 210/348/124 267/165/165 123/154/154
f 210/348/124 41/349/123 217/166/166 267/165/165
f 177/146/146 268/161/161 172/164/164 52/147/147
f 47/350/135 134/351/120 268/161/161 177/146/146
f 134/351/120 46/352/119 104/162/162 268/161/161
f 147/142/142 269/157/157 193/160/160 50/143/143
f 45/353/131 105/354/116 269/157/157 147/142/142
f 105/354/116 44/355/115 114/158/158 269/157/157
f 194/138/138 270/153/153 110/156/156 48/139/139
f 43/356/127 116/357/112 270/153/153 194/138/138
f 116/357/112 42/347/111 123/154/154 270/153/153
f 217/166/166 271/149/149 155/152/152 54/167/167
f 41/349/123 176/358/108 271/149/149 217/166/166
f 176/358/108 40/359/107 220/150/150 271/149/149
f 220/150/150 272/145/145 89/148/148 53/151/151
f 40/359/107 174/360/136 272/145/145 220/150/150
f 174/360/136 47/350/135 177/146/146 272/145/145
f 104/162/162 273/141/141 93/144/144 51/163/163
f 46/352/119 227/361/132 273/141/141 104/162/162
f 227/361/132 45/353/131 147/142/142 273/141/141
f 114/158/158 274/137/137 151/140/140 49/159/159
f 44/355/115 185/362/128 274/137/137 114/158/158
f 185/362/128 43/356/127 194/138/138 274/137/137
f 98/106/106 275/133/133 174/136/136 40/107/107
f 39/363/99 186/364/96 275/133/133 98/106/106
f 186/364/96 35/365/95 142/134/134 275/133/133
f 234/118/118 276/129/129 227/132/132 46/119/119
f 34/366/79 139/367/92 276/129/129 234/118/118
f 139/367/92 33/368/91 148/130/130 276/129/129
f 97/114/114 277/125/125 185/128/128 44/115/115
f 32/369/75 228/370/88 277/125/125 97/114/114
f 228/370/88 38/371/87 169/126/126 277/125/125
f 211/110/110 278/121/121 210/124/124 42/111/111
f 37/372/103 189/373/84 278/121/121 211/110/110
f 189/373/84 36/374/83 196/122/122 278/121/121
f 142/134/134 279/117/117 134/120/120 47/135/135
f 35/365/95 199/375/80 279/117/117 142/134/134
f 199/375/80 34/366/79 234/118/118 279/117/117
f 148/130/130 280/113/113 105/116/116 45/131/131
f 33/368/91 118/376/76 280/113/113 148/130/130
f 118/376/76 32/369/75 97/114/114 280/113/113
f 169/126/126 281/109/109 116/112/112 43/127/127
f 38/371/87 90/377/104 281/109/109 169/126/126
f 90/377/104 37/372/103 211/110/110 281/109/109
f 196/122/122 282/105/105 176/108/108 41/123/123
f 36/374/83 179/378/100 282/105/105 196/122/122
f 179/378/100 39/363/99 98/106/106 282/105/105
f 143/86/86 283/101/101 90/104/104 38/87/87
f 24/379/51 106/380/50 283/101/101 143/86/86
f 106/380/50 23/381/63 215/102/102 283/101/101
f 166/82/82 284/97/97 179/100/100 36/83/83
f 20/382/47 138/383/46 284/97/97 166/82/82
f 138/383/46 18/384/43 87/98/98 284/97/97
f 87/98/98 285/93/93 186/96/96 39/99/99
f 18/384/43 144/385/42 285/93/93 87/98/98
f 144/385/42 17/386/59 117/94/94 285/93/93
f 197/78/78 286/89/89 139/92/92 34/79/79
f 31/387/71 229/388/70 286/89/89 197/78/78
f 229/388/70 28/389/55 242/90/90 286/89/89
f 158/74/74 287/85/85 228/88/88 32/75/75
f 27/390/67 165/391/66 287/85/85 158/74/74
f 165/391/66 24/379/51 143/86/86 287/85/85
f 215/102/102 288/81/81 189/84/84 37/103/103
f 23/381/63 198/392/62 288/81/81 215/102/102
f 198/392/62 20/382/47 166/82/82 288/81/81
f 117/94/94 289/77/77 199/80/80 35/95/95
f 17/386/59 149/393/58 289/77/77 117/94/94
f 149/393/58 31/387/71 197/78/78 289/77/77
f 242/90/90 290/73/73 118/76/76 33/91/91
f 28/389/55 152/394/54 290/73/73 242/90/90
f 152/394/54 27/390/67 158/74/74 290/73/73
f 180/395/292 291/69/69 91/72/72 30/396/282
f 29/397/291 238/56/56 291/69/69 180/395/292
f 238/56/56 28/55/55 229/70/70 291/69/69
f 170/398/289 292/65/65 82/68/68 26/399/279
f 25/400/288 187/52/52 292/65/65 170/398/289
f 187/52/52 24/51/51 165/66/66 292/65/65
f 95/401/286 293/61/61 167/64/64 22/402/276
f 21/403/285 204/48/48 293/61/61 95/401/286
f 204/48/48 20/47/47 198/62/62 293/61/61
f 99/404/283 294/57/57 173/60/60 16/405/294
f 30/396/282 91/72/72 294/57/57 99/404/283
f 91/72/72 31/71/71 149/58/58 294/57/57
f 83/406/280 295/53/53 238/56/56 29/397/291
f 26/399/279 82/68/68 295/53/53 83/406/280
f 82/68/68 27/67/67 152/54/54 295/53/53
f 171/407/277 296/49/49 187/52/52 25/400/288
f 22/402/276 167/64/64 296/49/49 171/407/277
f 167/64/64 23/63/63 106/50/50 296/49/49
f 195/408/274 297/45/45 204/48/48 21/403/285
f 19/409/273 212/44/44 297/45/45 195/408/274
f 212/44/44 18/43/43 138/46/46 297/45/45
f 111/410/295 298/41/41 212/44/44 19/409/273
f 16/405/294 173/60/60 298/41/41 111/410/295
f 173/60/60 17/59/59 144/42/42 298/41/41
f 202/18/18 299/37/37 231/40/40 9/19/19
f 8/31/31 124/8/8 299/37/37 202/18/18
f 124/8/8 7/7/7 107/38/38 299/37/37
f 160/411/299 300/33/33 168/36/36 13/412/300
f 15/413/301 161/28/28 300/33/33 160/411/299
f 161/28/28 1/27/27 145/34/34 300/33/33
f 216/414/302 301/29/29 175/32/32 11/415/303
f 14/416/304 126/417/24 301/29/29 216/414/302
f 126/417/24 5/418/23 96/30/30 301/29/29
f 128/419/305 302/25/25 161/28/28 15/413/301
f 12/420/306 218/20/20 302/25/25 128/419/305
f 218/20/20 9/19/19 190/26/26 302/25/25
f 84/421/307 303/21/21 126/24/24 14/422/304
f 13/412/300 168/36/36 303/21/21 84/421/307
f 168/36/36 4/35/35 219/22/22 303/21/21
f 208/423/308 304/17/17 218/20/20 12/420/306
f 11/415/303 175/32/32 304/17/17 208/423/308
f 175/32/32 8/31/31 202/18/18 304/17/17
f 219/22/22 305/13/13 115/16/16 5/23/23
f 4/35/35 137/4/4 305/13/13 219/22/22
f 137/4/4 3/3/3 141/14/14 305/13/13
f 190/26/26 306/9/9 159/12/12 1/27/27
f 9/19/19 231/40/40 306/9/9 190/26/26
f 231/40/40 10/39/39 94/10/10 306/9/9
f 96/30/30 307/5/5 124/8/8 8/31/31
f 5/418/23 115/424/16 307/5/5 96/30/30
f 115/424/16 6/425/15 178/6/6 307/5/5
f 145/34/34 308/1/1 137/4/4 4/35/35
f 1/27/27 159/12/12 308/1/1 145/34/34
f 159/12/12 2/11/11 224/2/2 308/1/1
