# Blender v2.78 (sub 0) OBJ File: ''
# www.blender.org
mtllib Pine_Tree_s_03.mtl
o Pine_Tree_s_03
v -0.050669 0.266990 0.078890
v -0.046442 0.739846 0.072599
v -0.075429 0.739433 -0.016241
v -0.082580 0.266968 -0.019309
v 0.000955 0.267004 -0.079999
v 0.000227 0.738999 -0.071221
v 0.075744 0.739478 -0.016030
v 0.084486 0.267007 -0.019304
v 0.052581 0.266993 0.078891
v 0.046933 0.739699 0.072647
v 0.101688 0.005707 -0.033675
v 0.062855 0.005706 0.085841
v -0.101646 0.005706 -0.033675
v 0.000021 0.005707 -0.107541
v -0.062812 0.005706 0.085841
v -0.009172 0.682174 0.011818
v 0.309656 0.434582 0.470925
v -0.254289 0.294508 0.536011
v -0.329165 0.316026 -0.481411
v 0.209382 0.440589 -0.543930
v -0.551023 0.494274 0.092083
v 0.601907 0.289464 -0.068054
v -0.112045 1.552958 -0.116068
v 0.036293 1.544622 -0.055863
v 0.092583 1.545893 0.226014
v -0.059488 1.552588 0.171521
v 0.097971 1.545015 0.028231
v 0.081697 0.846038 0.570151
v -0.387011 0.999683 0.342618
v -0.119580 1.545293 0.022644
v -0.079850 1.001849 -0.439861
v 0.418112 0.893502 -0.308666
v -0.542238 0.783329 -0.133346
v 0.098576 2.003646 0.221160
v -0.051596 2.005735 0.164245
v 0.536055 1.064305 0.224115
v 0.047020 2.003466 -0.055815
v 0.108096 2.007050 0.027462
v -0.098526 2.001822 -0.117422
v -0.109159 2.002564 0.016598
v 0.083175 1.604311 0.356134
v -0.292965 1.512265 0.301193
v 0.450600 1.481798 0.086991
v -0.161956 1.511744 -0.377454
v 0.187778 1.606237 -0.231058
v -0.352864 1.655245 -0.058445
v -0.074757 2.290757 -0.081928
v 0.074522 2.295666 -0.043969
v 0.104323 2.296322 0.201509
v -0.053681 2.294086 0.172080
v 0.172784 2.302726 0.042060
v 0.083656 2.863964 0.053482
v -0.120780 2.294266 0.040889
v -0.131135 1.758718 -0.247155
v -0.038364 1.548852 -0.087575
v -0.176801 0.491952 -0.245785
v 0.124393 2.307692 -0.001205
v -0.229170 1.834083 -0.020456
v 0.090845 1.808166 0.286915
v 0.068184 1.544725 -0.014881
v -0.223577 0.935960 -0.300090
v 0.000021 0.005706 0.088522
v -0.079108 0.506658 -0.017738
v -0.097177 2.300773 -0.020508
v -0.120251 1.891895 -0.233102
v 0.115142 1.808640 -0.142794
v 0.313822 0.955305 0.403616
v -0.026223 2.002602 -0.088242
v -0.316580 0.891653 -0.291710
v -0.117376 1.549139 -0.048367
v 0.000492 0.131692 -0.094331
v 0.132279 1.942468 -0.139856
v 0.228889 1.218906 -0.180216
v 0.085090 1.195456 0.398926
v -0.137590 0.480862 0.286652
v 0.278003 1.745503 0.055899
v 0.322904 1.536084 0.126934
v -0.052388 0.005706 -0.072777
v -0.327287 1.389297 -0.059049
v -0.406441 0.394056 0.317180
v -0.041769 0.266986 -0.050971
v 0.079290 2.587251 0.004002
v 0.203908 0.994148 0.349332
v 0.121363 0.996134 -0.302350
v 0.000598 0.506455 -0.075652
v 0.172096 0.948090 -0.381380
v -0.224437 1.278347 0.255415
v 0.000248 0.739779 0.074601
v 0.096879 1.545398 0.128124
v 0.058036 0.131680 0.082772
v 0.026401 2.303524 0.187390
v 0.234642 1.446216 -0.182972
v -0.171407 1.760957 0.232269
v -0.293716 0.578403 0.053585
v -0.018985 2.585974 0.047720
v 0.316322 1.307372 0.128690
v 0.027344 0.363606 0.507891
v -0.443935 0.405064 -0.196305
v -0.176618 1.893818 0.238840
v 0.017059 1.549321 0.201487
v 0.106203 0.550895 -0.279675
v 0.052431 0.005707 -0.072777
v -0.062819 0.739647 0.028791
v 0.315437 1.882719 0.064975
v 0.272316 1.542778 0.224695
v 0.023991 2.004691 0.195428
v 0.004009 2.585502 -0.013579
v 0.128383 2.591924 0.047987
v 0.093741 1.941813 0.281267
v -0.327687 1.584197 0.123628
v -0.472535 0.890958 0.105270
v -0.090649 1.548934 0.097690
v 0.080228 0.506701 -0.017627
v 0.078638 2.005290 -0.015265
v 0.093601 0.131689 -0.026683
v -0.068173 0.266978 0.030294
v -0.060918 0.377513 -0.517752
v 0.158004 0.547497 0.251551
v 0.090210 1.422168 0.397463
v -0.336148 1.024739 0.059393
v 0.049830 0.506804 0.075933
v 0.351267 0.917879 -0.022306
v 0.070082 0.267000 0.030297
v 0.325289 1.543779 -0.073024
v 0.016397 2.587210 0.113804
v -0.038766 0.739206 -0.045336
v 0.000273 2.301507 -0.062671
v 0.460457 0.361509 0.203296
v 0.000956 0.266991 0.080519
v 0.104964 2.005363 0.125334
v -0.057052 0.131677 0.082772
v -0.081536 2.004176 0.091022
v -0.155223 0.922850 0.463309
v -0.156115 0.924842 0.356672
v 0.309937 0.477593 -0.030144
v -0.105424 2.002160 -0.052049
v -0.330896 1.162752 -0.057259
v 0.084821 0.005706 0.026911
v -0.220021 1.502230 0.253745
v 0.039150 0.739231 -0.045226
v -0.240703 1.966674 -0.009538
v -0.086366 2.302477 0.106654
v -0.048616 0.506879 0.075909
v 0.139710 2.308004 0.121694
v -0.088386 1.501339 -0.279183
v 0.485185 0.979850 -0.044094
v -0.092617 0.131670 -0.026684
v -0.260817 1.583912 -0.222240
v -0.107588 1.558108 0.333945
v 0.409689 0.364409 -0.308862
v 0.043678 0.267006 -0.050968
v -0.093891 1.279475 -0.277561
v 0.063220 0.739592 0.028924
v 0.012255 1.558824 -0.309643
v 0.095785 2.587652 0.127947
v -0.084778 0.005706 0.026911
v 0.208354 1.912170 0.175150
v -0.183073 1.929470 -0.124155
v 0.227787 1.912526 -0.038448
v -0.211877 1.930470 0.116155
v -0.042771 1.917698 0.263897
v 0.005465 1.917053 -0.190012
v -0.203254 1.797754 0.107334
v 0.200163 1.776968 -0.044487
v -0.182646 1.796593 -0.136769
v -0.008559 1.783575 -0.198479
v 0.187953 1.776704 0.173485
v -0.211395 1.444834 -0.172487
v 0.209844 1.479200 0.265952
v -0.041377 1.784472 0.263596
v -0.278188 1.445503 0.097965
v 0.074376 1.473963 -0.235448
v 0.283364 1.491640 -0.029473
v 0.277182 1.263565 -0.027205
v -0.215943 1.220652 -0.170791
v 0.203980 1.251453 0.267550
v -0.065938 1.462194 0.330429
v -0.282179 1.220273 0.099698
v 0.068738 1.249429 -0.233252
v -0.250032 0.974952 0.211061
v 0.240384 0.956874 -0.165417
v -0.284189 0.980682 -0.122788
v -0.070701 1.236937 0.331992
v 0.282469 0.955944 0.165762
v 0.024154 0.959295 0.358531
v -0.052088 0.965956 -0.306498
v 0.066509 0.506754 0.029635
v -0.076565 0.131673 0.028606
v 0.048116 0.131691 -0.061979
v 0.000492 0.131679 0.084592
v -0.047132 0.131681 -0.061980
v 0.077549 0.131685 0.028607
v -0.040170 0.506553 -0.047955
v 0.000608 0.506844 0.077477
v 0.041328 0.506575 -0.047899
v -0.065343 0.506771 0.029567
vt 0.7997 0.9333
vt 0.7997 0.9484
vt 0.7935 0.9484
vt 0.7937 0.9333
vt 0.8365 0.9333
vt 0.8364 0.9485
vt 0.8303 0.9485
vt 0.8303 0.9332
vt 0.8119 0.9333
vt 0.8119 0.9484
vt 0.8058 0.9484
vt 0.8058 0.9333
vt 0.7875 0.9332
vt 0.7874 0.9484
vt 0.7813 0.9484
vt 0.7814 0.9332
vt 0.8244 0.9068
vt 0.8242 0.9180
vt 0.8180 0.9181
vt 0.8182 0.9070
vt 0.7874 0.9070
vt 0.7876 0.9181
vt 0.7815 0.9179
vt 0.7812 0.9068
vt 0.8120 0.9072
vt 0.8119 0.9182
vt 0.8058 0.9183
vt 0.8059 0.9073
vt 0.8367 0.9068
vt 0.8367 0.9180
vt 0.8304 0.9179
vt 0.8305 0.9067
vt 0.7997 0.9073
vt 0.7998 0.9182
vt 0.7938 0.9182
vt 0.7936 0.9073
vt 0.8242 0.9332
vt 0.8241 0.9484
vt 0.8180 0.9484
vt 0.8180 0.9333
vt 0.5451 0.3266
vt 0.5381 0.3320
vt 0.5288 0.3128
vt 0.5776 0.2929
vt 0.5846 0.2843
vt 0.5942 0.3057
vt 0.5482 0.2814
vt 0.5423 0.2721
vt 0.5699 0.2786
vt 0.5867 0.3160
vt 0.5987 0.3173
vt 0.5820 0.3395
vt 0.5342 0.3033
vt 0.5234 0.3012
vt 0.5353 0.2831
vt 0.5859 0.3227
vt 0.5707 0.3177
vt 0.5731 0.3109
vt 0.5913 0.3102
vt 0.5726 0.3416
vt 0.5749 0.3523
vt 0.5519 0.3395
vt 0.5381 0.3092
vt 0.5440 0.2966
vt 0.5529 0.3052
vt 0.5500 0.3112
vt 0.5584 0.2893
vt 0.5727 0.2819
vt 0.5656 0.3008
vt 0.5592 0.3030
vt 0.5377 0.3216
vt 0.5440 0.3370
vt 0.5345 0.3504
vt 0.5252 0.3270
vt 0.5644 0.3399
vt 0.5483 0.3448
vt 0.5558 0.3270
vt 0.5621 0.3257
vt 0.5821 0.2961
vt 0.5694 0.3058
vt 0.5403 0.3333
vt 0.5322 0.3218
vt 0.5471 0.3172
vt 0.5515 0.3221
vt 0.5875 0.3052
vt 0.5813 0.2894
vt 0.5890 0.2764
vt 0.5985 0.3010
vt 0.5395 0.2933
vt 0.5314 0.3063
vt 0.5159 0.3036
vt 0.5280 0.2843
vt 0.5422 0.3102
vt 0.5480 0.2994
vt 0.5614 0.3114
vt 0.5595 0.3133
vt 0.5600 0.3426
vt 0.5760 0.3483
vt 0.5810 0.3637
vt 0.5577 0.3571
vt 0.5645 0.2848
vt 0.5476 0.2803
vt 0.5400 0.2650
vt 0.5645 0.2707
vt 0.5849 0.3347
vt 0.5938 0.3211
vt 0.6080 0.3256
vt 0.5945 0.3447
vt 0.5809 0.2980
vt 0.5877 0.3102
vt 0.5689 0.3137
vt 0.5676 0.3116
vt 0.5831 0.3214
vt 0.5784 0.3325
vt 0.5670 0.3184
vt 0.5680 0.3160
vt 0.5434 0.3318
vt 0.5365 0.3210
vt 0.5575 0.3151
vt 0.5597 0.3174
vt 0.5480 0.3296
vt 0.5599 0.3342
vt 0.5576 0.3512
vt 0.5378 0.3436
vt 0.5611 0.2926
vt 0.5742 0.2857
vt 0.5663 0.3096
vt 0.5638 0.3105
vt 0.5644 0.3375
vt 0.5503 0.3425
vt 0.5620 0.3198
vt 0.5645 0.3191
vt 0.5760 0.3295
vt 0.5921 0.3248
vt 0.6118 0.3356
vt 0.5847 0.3434
vt 0.5726 0.2899
vt 0.5601 0.2852
vt 0.5583 0.2691
vt 0.5794 0.2770
vt 0.5451 0.2921
vt 0.5301 0.2990
vt 0.5080 0.2925
vt 0.5332 0.2808
vt 0.5886 0.3097
vt 0.5850 0.2946
vt 0.6005 0.2848
vt 0.6062 0.3102
vt 0.5331 0.3121
vt 0.5360 0.3251
vt 0.5179 0.3360
vt 0.5130 0.3142
vt 0.4528 0.3376
vt 0.4453 0.3241
vt 0.4513 0.3214
vt 0.4654 0.3310
vt 0.4288 0.2847
vt 0.4425 0.2791
vt 0.4410 0.2965
vt 0.4345 0.2994
vt 0.4489 0.2999
vt 0.4412 0.3041
vt 0.4393 0.3267
vt 0.4325 0.3224
vt 0.4403 0.3192
vt 0.4567 0.3033
vt 0.4540 0.3123
vt 0.4491 0.3075
vt 0.4257 0.3181
vt 0.4268 0.3102
vt 0.4336 0.3149
vt 0.4120 0.3081
vt 0.4151 0.2904
vt 0.4279 0.3024
vt 0.4704 0.3118
vt 0.4246 0.3350
vt 0.4089 0.3259
vt 0.4589 0.2858
vt 0.4753 0.2925
vt 0.4463 0.3165
vt 0.4414 0.3117
vt 0.4440 0.2617
vt 0.4690 0.2717
vt 0.4940 0.2817
vt 0.4402 0.3441
vt 0.4412 0.3615
vt 0.4166 0.3476
vt 0.3921 0.3336
vt 0.4868 0.3112
vt 0.4796 0.3407
vt 0.4347 0.3070
vt 0.3972 0.3060
vt 0.4024 0.2784
vt 0.4232 0.2700
vt 0.4604 0.3511
vt 0.5522 0.3056
vt 0.5531 0.3099
vt 0.5541 0.3142
vt 0.5725 0.3140
vt 0.5710 0.3092
vt 0.5696 0.3044
vt 0.5619 0.3013
vt 0.5570 0.3034
vt 0.5658 0.3029
vt 0.5623 0.3171
vt 0.5674 0.3155
vt 0.5899 0.3467
vt 0.5643 0.3559
vt 0.5387 0.3652
vt 0.5345 0.2875
vt 0.5583 0.2746
vt 0.5821 0.2618
vt 0.5582 0.3156
vt 0.5271 0.3461
vt 0.5155 0.3270
vt 0.6064 0.3068
vt 0.5982 0.3268
vt 0.5942 0.2843
vt 0.5709 0.3329
vt 0.5753 0.3248
vt 0.5796 0.3166
vt 0.5736 0.3024
vt 0.5645 0.2990
vt 0.5553 0.2955
vt 0.5536 0.3235
vt 0.5623 0.3282
vt 0.5250 0.3072
vt 0.5511 0.3022
vt 0.5468 0.3090
vt 0.5766 0.3095
vt 0.5408 0.3626
vt 0.5290 0.3445
vt 0.5173 0.3264
vt 0.5799 0.2631
vt 0.5948 0.2863
vt 0.6096 0.3095
vt 0.5805 0.3351
vt 0.5684 0.3245
vt 0.5926 0.3457
vt 0.5667 0.3541
vt 0.5502 0.3162
vt 0.5350 0.2881
vt 0.5575 0.2756
vt 0.5261 0.3073
vt 0.5542 0.3502
vt 0.5312 0.3374
vt 0.5772 0.3630
vt 0.6011 0.3276
vt 0.5245 0.2810
vt 0.5365 0.2629
vt 0.5126 0.2991
vt 0.5940 0.3408
vt 0.6108 0.3185
vt 0.5640 0.2693
vt 0.5916 0.2758
vt 0.6012 0.2972
vt 0.5219 0.3183
vt 0.7997 0.8964
vt 0.7934 0.8963
vt 0.8060 0.8964
vt 0.8368 0.8957
vt 0.8307 0.8954
vt 0.8430 0.8959
vt 0.8429 0.9070
vt 0.8429 0.9181
vt 0.8122 0.8961
vt 0.8184 0.8959
vt 0.7872 0.8960
vt 0.7810 0.8956
vt 0.8246 0.8957
vt 0.8427 0.9333
vt 0.8426 0.9486
vn -0.9508 0.0123 0.3096
vn -0.9507 0.0124 0.3099
vn -0.9518 0.0157 -0.3062
vn -0.9511 0.0158 -0.3086
vn 0.5888 0.0160 -0.8081
vn 0.5894 0.0159 -0.8077
vn 0.9517 0.0190 -0.3063
vn 0.9511 0.0190 -0.3083
vn -0.0002 0.0131 0.9999
vn -0.0004 0.0135 0.9999
vn -0.5872 0.0156 0.8093
vn -0.5875 0.0153 0.8091
vn -0.5877 0.0139 -0.8089
vn -0.5879 0.0138 -0.8088
vn 0.0006 0.0178 -0.9998
vn 0.0007 0.0180 -0.9998
vn 0.9499 0.0483 0.3087
vn 0.9505 0.0318 0.3091
vn 0.5854 0.0319 0.8101
vn 0.5869 0.0461 0.8084
vn -0.5854 0.0898 -0.8057
vn -0.5871 0.0515 -0.8079
vn 0.0011 0.0628 -0.9980
vn 0.0002 0.1064 -0.9943
vn 0.0000 0.0293 0.9996
vn -0.0000 0.0214 0.9998
vn -0.5842 0.0331 0.8110
vn -0.5866 0.0503 0.8083
vn 0.5857 0.0856 -0.8060
vn 0.5875 0.0505 -0.8076
vn 0.9516 0.0502 -0.3031
vn 0.9483 0.0808 -0.3070
vn -0.9496 0.0551 0.3086
vn -0.9504 0.0336 0.3093
vn -0.9514 0.0520 -0.3036
vn -0.9477 0.0876 -0.3068
vn 0.9510 0.0153 0.3090
vn 0.9509 0.0155 0.3090
vn 0.5863 0.0174 0.8099
vn 0.5875 0.0171 0.8090
vn -0.0241 -0.9996 -0.0150
vn -0.2237 -0.9145 -0.3372
vn 0.1742 -0.8330 -0.5251
vn 0.2979 -0.8521 0.4302
vn -0.1495 -0.9273 0.3432
vn 0.3182 -0.9459 -0.0633
vn -0.5307 -0.8464 0.0445
vn -0.0344 0.3445 -0.9382
vn -0.7871 -0.4629 -0.4076
vn -0.3855 -0.8220 -0.4191
vn 0.4109 0.4047 -0.8170
vn -0.0495 0.2509 0.9667
vn 0.5436 0.3081 0.7807
vn 0.4851 -0.7787 -0.3978
vn 0.6090 -0.6949 0.3824
vn 0.9110 0.2987 0.2844
vn 0.9210 0.3666 -0.1317
vn 0.3873 -0.8607 -0.3303
vn 0.5553 -0.5190 -0.6498
vn 0.2793 -0.4349 -0.8560
vn -0.1608 -0.4721 -0.8668
vn 0.1113 -0.8755 0.4701
vn -0.3867 -0.8897 0.2427
vn -0.8936 0.2991 -0.3347
vn -0.9246 0.3614 0.1202
vn -0.0498 -0.6028 0.7963
vn -0.4999 -0.5066 0.7025
vn 0.7685 0.3559 -0.5317
vn 0.1630 -0.8319 -0.5305
vn -0.7723 0.3154 0.5514
vn -0.4454 0.3085 0.8405
vn 0.3083 -0.7881 0.5328
vn 0.1219 -0.4795 0.8690
vn -0.3322 -0.5045 0.7969
vn 0.2464 -0.5162 0.8202
vn -0.1417 -0.7512 -0.6446
vn -0.0678 -0.8807 -0.4687
vn 0.8588 -0.4965 -0.1262
vn 0.6409 -0.5332 -0.5522
vn -0.4797 -0.6996 0.5296
vn -0.3329 -0.8211 0.4636
vn -0.3424 0.2790 0.8972
vn 0.1861 0.3082 0.9329
vn -0.6297 -0.4907 0.6022
vn -0.6334 -0.7727 0.0415
vn -0.5929 -0.4995 -0.6317
vn -0.7410 -0.6576 -0.1358
vn 0.7850 -0.5753 0.2298
vn 0.5164 -0.8456 0.1354
vn 0.7446 -0.4185 0.5200
vn 0.8404 -0.4963 0.2178
vn -0.5393 -0.8299 -0.1428
vn 0.0269 -0.8510 -0.5244
vn -0.7356 -0.5619 0.3783
vn -0.5591 -0.5589 0.6124
vn 0.4308 -0.8092 -0.3996
vn 0.5429 -0.8321 0.1131
vn 0.8622 0.3522 -0.3641
vn 0.6399 0.3605 -0.6787
vn 0.3395 -0.9356 0.0971
vn 0.5889 -0.6330 0.5025
vn 0.3222 0.3087 -0.8949
vn -0.2552 0.3193 -0.9126
vn 0.2726 -0.9261 -0.2608
vn 0.2313 -0.9226 -0.3088
vn -0.9221 0.3252 0.2096
vn -0.7073 0.3395 0.6201
vn -0.4066 -0.8566 -0.3178
vn -0.4876 -0.8022 -0.3446
vn 0.2555 -0.3544 -0.8995
vn -0.3248 -0.3704 -0.8702
vn 0.1157 -0.8266 0.5508
vn 0.2773 -0.8906 0.3604
vn 0.6941 0.3060 0.6516
vn 0.8999 0.4071 0.1564
vn 0.1235 -0.7027 0.7006
vn -0.2494 -0.4169 0.8741
vn -0.7467 0.2746 -0.6059
vn -0.9116 0.3401 -0.2309
vn -0.2306 -0.8537 -0.4670
vn -0.0378 -0.7922 -0.6090
vn -0.7811 -0.3831 -0.4931
vn -0.8547 -0.5191 -0.0094
vn 0.5886 -0.8062 0.0597
vn -0.0967 -0.8428 0.5295
vn -0.2753 -0.4471 0.8511
vn 0.2889 -0.5060 0.8127
vn -0.2504 -0.7866 -0.5643
vn 0.2237 -0.9135 -0.3398
vn 0.7614 -0.4633 0.4534
vn 0.8339 -0.5486 0.0601
vn -0.6784 -0.7140 -0.1733
vn -0.4408 -0.8917 -0.1025
vn -0.7505 -0.4602 0.4743
vn -0.5337 -0.4811 0.6955
vn 0.2025 -0.8026 -0.5611
vn 0.0900 -0.8611 -0.5004
vn 0.8057 -0.4959 -0.3239
vn 0.5821 -0.4652 -0.6668
vn -0.3409 -0.8420 0.4182
vn -0.4815 -0.8627 -0.1543
vn 0.2713 0.3080 -0.9119
vn 0.2464 0.2290 -0.9417
vn 0.4760 0.2251 -0.8502
vn 0.5288 0.2950 -0.7958
vn -0.1879 0.2221 0.9568
vn 0.3086 0.2232 0.9246
vn 0.3998 0.2277 0.8879
vn -0.1797 0.2305 0.9563
vn 0.8580 0.1747 0.4830
vn 0.4719 0.2410 0.8481
vn -0.4099 0.3531 -0.8410
vn -0.8584 0.3228 -0.3987
vn -0.4326 0.3204 -0.8427
vn 0.9600 0.2375 -0.1483
vn 0.6831 0.1801 -0.7078
vn 0.9618 0.1590 -0.2227
vn -0.9415 0.3369 0.0073
vn -0.8651 0.2992 0.4027
vn -0.9389 0.3388 0.0607
vn -0.8924 0.3086 0.3292
vn -0.6173 0.3031 0.7260
vn -0.5783 0.2925 0.7616
vn 0.7494 0.2553 -0.6109
vn -0.7904 0.3261 -0.5185
vn -0.9318 0.3491 -0.0994
vn 0.7270 0.2138 0.6525
vn 0.9499 0.3108 0.0345
vn 0.4517 0.1474 -0.8799
vn 0.1044 0.9944 -0.0162
vn -0.3085 0.3733 -0.8749
vn -0.5590 0.2984 0.7736
vn -0.6524 -0.7432 0.1485
vn -0.8867 -0.4539 0.0877
vn -0.7049 -0.6972 0.1307
vn -0.3463 -0.7402 0.5764
vn 0.7149 -0.6907 -0.1090
vn 0.3960 -0.7328 -0.5533
vn 0.3507 -0.4849 -0.8012
vn -0.5555 0.3449 -0.7566
vn -0.4122 -0.7289 -0.5466
vn -0.6863 -0.7272 -0.0096
vn 0.4809 -0.5643 0.6710
vn 0.5002 -0.7669 0.4020
vn 0.2085 -0.7834 0.5856
vn 0.1463 -0.7266 -0.6713
vn -0.9498 0.0552 0.3078
vn -0.9441 0.0884 -0.3176
vn -0.5934 0.0499 0.8034
vn 0.5852 0.0865 -0.8063
vn 0.9444 0.0815 -0.3186
vn -0.0012 0.1074 -0.9942
vn -0.0001 0.0286 0.9996
vn 0.5918 0.0454 0.8048
vn -0.5850 0.0909 -0.8059
vn 0.9502 0.0481 0.3080
usemtl None
s 1
f 196/1/1 103/2/2 3/3/3 63/4/4
f 195/5/5 140/6/6 7/7/7 113/8/8
f 194/9/9 88/10/10 2/11/11 143/12/12
f 193/13/13 126/14/14 6/15/15 85/16/16
f 192/17/17 123/18/18 9/19/19 90/20/20
f 191/21/21 81/22/22 5/23/23 71/24/24
f 190/25/25 129/26/26 1/27/27 131/28/28
f 189/29/29 151/30/30 8/31/31 115/32/32
f 188/33/33 116/34/34 4/35/35 147/36/36
f 187/37/37 153/38/38 10/39/39 121/40/40
f 16/41/41 118/42/42 75/43/43
f 16/44/41 56/45/44 101/46/45
f 16/47/41 94/48/46 56/49/44
f 16/50/41 101/51/45 135/52/47
f 16/53/41 75/54/43 94/55/46
f 186/56/48 55/57/49 24/58/50 84/59/51
f 16/60/41 135/61/47 118/62/42
f 185/63/52 83/64/53 25/65/54 100/66/55
f 184/67/56 122/68/57 27/69/58 89/70/59
f 183/71/60 74/72/61 28/73/62 133/74/63
f 182/75/64 120/76/65 30/77/66 70/78/67
f 181/79/68 84/59/51 24/58/50 60/80/69
f 180/81/70 134/82/71 26/83/72 112/84/73
f 179/85/74 152/86/75 31/87/76 86/88/77
f 178/89/78 87/90/79 29/91/80 111/92/81
f 177/93/82 119/94/83 34/95/84 106/96/85
f 176/97/86 96/98/87 36/99/88 67/100/89
f 175/101/90 137/102/91 33/103/92 69/104/93
f 174/105/94 73/106/95 32/107/96 146/108/97
f 173/109/98 92/110/99 37/111/100 114/112/101
f 172/113/102 145/114/103 39/115/104 68/116/105
f 171/117/106 139/118/107 35/119/108 132/120/109
f 170/121/110 59/122/111 41/123/112 149/124/113
f 169/125/114 77/126/115 38/127/116 130/128/117
f 168/129/118 79/130/119 40/131/120 136/132/121
f 167/133/122 76/134/123 43/135/124 105/136/125
f 166/137/126 54/138/127 44/139/128 154/140/129
f 165/141/130 58/142/131 46/143/132 148/144/133
f 164/145/134 66/146/135 45/147/136 124/148/137
f 163/149/138 93/150/139 42/151/140 110/152/141
f 162/153/142 127/154/143 48/155/144 72/156/145
f 161/157/146 109/158/147 49/159/148 91/160/149
f 49/159/148 144/161/150 155/162/151
f 47/163/152 64/164/153 107/165/154
f 51/166/155 57/167/156 108/168/157
f 53/169/158 142/170/159 95/171/160
f 160/172/161 99/173/162 50/174/163 142/170/159
f 49/159/148 155/162/151 91/160/149
f 159/175/164 72/156/145 48/155/144 57/167/156
f 158/176/165 141/177/166 53/169/158 64/164/153
f 157/178/167 104/179/168 51/166/155 144/161/150
f 48/155/144 127/154/143 82/180/169
f 82/180/169 107/165/154 52/181/170
f 82/180/169 127/154/143 107/165/154
f 127/154/143 47/163/152 107/165/154
f 109/158/147 157/178/167 144/161/150 49/159/148
f 41/182/112 105/183/125 157/178/167 109/158/147
f 105/183/125 43/184/124 104/179/168 157/178/167
f 65/185/171 158/176/165 64/164/153 47/163/152
f 44/186/128 148/187/133 158/176/165 65/185/171
f 148/187/133 46/188/132 141/177/166 158/176/165
f 104/179/168 159/175/164 57/167/156 51/166/155
f 43/184/124 124/189/137 159/175/164 104/179/168
f 124/189/137 45/190/136 72/156/145 159/175/164
f 91/160/149 125/191/172 50/174/163
f 91/160/149 155/162/151 125/191/172
f 155/162/151 52/181/170 125/191/172
f 141/177/166 160/172/161 142/170/159 53/169/158
f 46/188/132 110/192/141 160/172/161 141/177/166
f 110/192/141 42/193/140 99/173/162 160/172/161
f 95/171/160 125/191/172 52/181/170
f 95/171/160 142/170/159 125/191/172
f 142/170/159 50/174/163 125/191/172
f 108/168/157 82/180/169 52/181/170
f 108/168/157 57/167/156 82/180/169
f 57/167/156 48/155/144 82/180/169
f 107/165/154 95/171/160 52/181/170
f 107/165/154 64/164/153 95/171/160
f 64/164/153 53/169/158 95/171/160
f 155/162/151 108/168/157 52/181/170
f 155/162/151 144/161/150 108/168/157
f 144/161/150 51/166/155 108/168/157
f 99/173/162 161/157/146 91/160/149 50/174/163
f 42/193/140 149/194/113 161/157/146 99/173/162
f 149/194/113 41/182/112 109/158/147 161/157/146
f 154/195/129 162/153/142 72/156/145 45/190/136
f 44/186/128 65/185/171 162/153/142 154/195/129
f 65/185/171 47/163/152 127/154/143 162/153/142
f 58/142/131 163/149/138 110/152/141 46/143/132
f 40/196/120 132/197/109 163/149/138 58/142/131
f 132/197/109 35/198/108 93/150/139 163/149/138
f 76/134/123 164/145/134 124/148/137 43/135/124
f 38/199/116 114/200/101 164/145/134 76/134/123
f 114/200/101 37/201/100 66/146/135 164/145/134
f 54/138/127 165/141/130 148/144/133 44/139/128
f 39/202/104 136/203/121 165/141/130 54/138/127
f 136/203/121 40/196/120 58/142/131 165/141/130
f 66/146/135 166/137/126 154/140/129 45/147/136
f 37/201/100 68/204/105 166/137/126 66/146/135
f 68/204/105 39/202/104 54/138/127 166/137/126
f 59/122/111 167/133/122 105/136/125 41/123/112
f 34/205/84 130/206/117 167/133/122 59/122/111
f 130/206/117 38/199/116 76/134/123 167/133/122
f 145/114/103 168/129/118 136/132/121 39/115/104
f 31/207/76 69/208/93 168/129/118 145/114/103
f 69/208/93 33/209/92 79/130/119 168/129/118
f 119/94/83 169/125/114 130/128/117 34/95/84
f 28/210/62 67/211/89 169/125/114 119/94/83
f 67/211/89 36/212/88 77/126/115 169/125/114
f 93/150/139 170/121/110 149/124/113 42/151/140
f 35/198/108 106/213/85 170/121/110 93/150/139
f 106/213/85 34/205/84 59/122/111 170/121/110
f 79/130/119 171/117/106 132/120/109 40/131/120
f 33/209/92 111/214/81 171/117/106 79/130/119
f 111/214/81 29/215/80 139/118/107 171/117/106
f 92/110/99 172/113/102 68/116/105 37/111/100
f 32/216/96 86/217/77 172/113/102 92/110/99
f 86/217/77 31/207/76 145/114/103 172/113/102
f 77/126/115 173/109/98 114/112/101 38/127/116
f 36/212/88 146/218/97 173/109/98 77/126/115
f 146/218/97 32/216/96 92/110/99 173/109/98
f 96/98/87 174/105/94 146/108/97 36/99/88
f 27/219/58 60/220/69 174/105/94 96/98/87
f 60/220/69 24/221/50 73/106/95 174/105/94
f 152/86/75 175/101/90 69/104/93 31/87/76
f 23/222/173 70/223/67 175/101/90 152/86/75
f 70/223/67 30/224/66 137/102/91 175/101/90
f 74/72/61 176/97/86 67/100/89 28/73/62
f 25/225/54 89/226/59 176/97/86 74/72/61
f 89/226/59 27/219/58 96/98/87 176/97/86
f 139/118/107 177/93/82 106/96/85 35/119/108
f 29/215/80 133/227/63 177/93/82 139/118/107
f 133/227/63 28/210/62 119/94/83 177/93/82
f 137/102/91 178/89/78 111/92/81 33/103/92
f 30/224/66 112/228/73 178/89/78 137/102/91
f 112/228/73 26/229/72 87/90/79 178/89/78
f 73/106/95 179/85/74 86/88/77 32/107/96
f 24/221/50 55/230/49 179/85/74 73/106/95
f 55/230/49 23/222/173 152/86/75 179/85/74
f 120/76/65 180/81/70 112/84/73 30/77/66
f 21/231/174 80/232/175 180/81/70 120/76/65
f 80/232/175 18/233/176 134/82/71 180/81/70
f 122/68/57 181/79/68 60/80/69 27/69/58
f 22/234/177 150/235/178 181/79/68 122/68/57
f 150/235/178 20/236/179 84/59/51 181/79/68
f 61/237/180 182/75/64 70/78/67 23/238/173
f 19/239/181 98/240/182 182/75/64 61/237/180
f 98/240/182 21/231/174 120/76/65 182/75/64
f 87/90/79 183/71/60 133/74/63 29/91/80
f 26/229/72 100/241/55 183/71/60 87/90/79
f 100/241/55 25/225/54 74/72/61 183/71/60
f 83/64/53 184/67/56 89/70/59 25/65/54
f 17/242/183 128/243/184 184/67/56 83/64/53
f 128/243/184 22/234/177 122/68/57 184/67/56
f 134/82/71 185/63/52 100/66/55 26/83/72
f 18/233/176 97/244/185 185/63/52 134/82/71
f 97/244/185 17/242/183 83/64/53 185/63/52
f 118/62/42 128/245/184 17/246/183
f 118/62/42 135/61/47 128/245/184
f 135/61/47 22/247/177 128/245/184
f 117/248/186 186/56/48 84/59/51 20/236/179
f 19/239/181 61/237/180 186/56/48 117/248/186
f 61/237/180 23/238/173 55/57/49 186/56/48
f 94/55/46 80/249/175 21/250/174
f 94/55/46 75/54/43 80/249/175
f 75/54/43 18/251/176 80/249/175
f 135/52/47 150/252/178 22/247/177
f 135/52/47 101/51/45 150/252/178
f 101/51/45 20/253/179 150/252/178
f 56/49/44 98/254/182 19/255/181
f 56/49/44 94/48/46 98/254/182
f 94/48/46 21/250/174 98/254/182
f 101/46/45 117/256/186 20/253/179
f 101/46/45 56/45/44 117/256/186
f 56/45/44 19/255/181 117/256/186
f 75/43/43 97/257/185 18/251/176
f 75/43/43 118/42/42 97/257/185
f 118/42/42 17/246/183 97/257/185
f 123/18/18 187/37/37 121/40/40 9/19/19
f 8/31/31 113/8/8 187/37/37 123/18/18
f 113/8/8 7/7/7 153/38/38 187/37/37
f 156/258/187 188/33/33 147/36/36 13/259/188
f 15/260/189 131/28/28 188/33/33 156/258/187
f 131/28/28 1/27/27 116/34/34 188/33/33
f 102/261/190 189/29/29 115/32/32 11/262/191
f 14/263/192 71/264/24 189/29/29 102/261/190
f 71/264/24 5/265/23 151/30/30 189/29/29
f 62/266/193 190/25/25 131/28/28 15/260/189
f 12/267/194 90/20/20 190/25/25 62/266/193
f 90/20/20 9/19/19 129/26/26 190/25/25
f 78/268/195 191/21/21 71/24/24 14/269/192
f 13/259/188 147/36/36 191/21/21 78/268/195
f 147/36/36 4/35/35 81/22/22 191/21/21
f 138/270/196 192/17/17 90/20/20 12/267/194
f 11/262/191 115/32/32 192/17/17 138/270/196
f 115/32/32 8/31/31 123/18/18 192/17/17
f 81/22/22 193/13/13 85/16/16 5/23/23
f 4/35/35 63/4/4 193/13/13 81/22/22
f 63/4/4 3/3/3 126/14/14 193/13/13
f 129/26/26 194/9/9 143/12/12 1/27/27
f 9/19/19 121/40/40 194/9/9 129/26/26
f 121/40/40 10/39/39 88/10/10 194/9/9
f 151/30/30 195/5/5 113/8/8 8/31/31
f 5/265/23 85/271/16 195/5/5 151/30/30
f 85/271/16 6/272/15 140/6/6 195/5/5
f 116/34/34 196/1/1 63/4/4 4/35/35
f 1/27/27 143/12/12 196/1/1 116/34/34
f 143/12/12 2/11/11 103/2/2 196/1/1
