# Blender v2.78 (sub 0) OBJ File: ''
# www.blender.org
mtllib Pine_Tree_m_02.mtl
o Pine_Tree_m_02
v -1.662782 1.481980 -1.644318
v -0.942604 3.947764 -0.915221
v -0.126732 3.933348 -1.253030
v -0.066187 2.215064 -2.179762
v 0.690164 3.926382 -0.916005
v 1.531675 1.527987 -1.651510
v 2.048774 2.290506 -0.002850
v 1.026770 3.937821 -0.093816
v 0.692603 3.954432 0.724786
v 1.536211 1.593580 1.648131
v -0.060531 2.301067 2.184068
v -0.122799 3.972615 1.060721
v -0.939478 3.975149 0.723554
v -1.658634 1.546295 1.656229
v -2.175541 2.228595 0.007198
v -1.276695 3.967552 -0.095565
v -0.009729 3.121091 2.043602
v -1.523311 3.716601 1.545704
v -2.019264 3.267340 0.023219
v -1.513183 3.802484 -1.613404
v 1.525741 3.668958 -1.830690
v 2.012728 3.084277 0.028707
v 1.514620 3.579154 1.551423
v 0.004793 3.233103 -2.313030
v -0.034246 6.410326 -0.245374
v 0.191060 6.409796 -0.151138
v 0.284014 6.411389 0.079882
v 0.190380 6.414478 0.307385
v -0.035239 6.416662 0.401235
v -0.260704 6.417272 0.306690
v -0.353508 6.415449 0.078892
v -0.259993 6.412886 -0.149819
v 1.297423 4.652662 1.336734
v 0.102996 5.085368 1.950343
v -1.106184 4.629221 1.328420
v -1.693637 5.231855 0.134362
v -1.085512 4.847581 -1.072993
v 0.129411 5.410492 -1.669115
v 1.312076 4.865513 -1.064673
v 1.924552 5.263007 0.146898
v 0.224250 7.791326 -0.157897
v 0.320566 7.794490 0.070710
v 0.223327 7.798955 0.298852
v -0.003251 7.796289 0.396021
v -0.229484 7.793950 0.297949
v -0.325706 7.787531 0.069416
v -0.228522 7.786534 -0.158807
v -0.001905 7.785727 -0.255895
v 1.289605 6.401988 0.065920
v 0.782155 7.103444 0.811232
v 0.040360 6.435082 1.326141
v -0.685036 7.098688 0.808756
v -1.207325 6.395475 0.061613
v -0.684270 7.057149 -0.674714
v 0.782904 7.059989 -0.672127
v 0.041634 6.362746 -1.198589
v -0.036537 8.562233 -0.376822
v -0.371708 8.565695 -0.235907
v -0.036142 10.132049 0.161197
v 0.325551 8.574175 -0.234525
v 0.324768 8.584612 0.439455
v 0.466113 8.574459 0.102694
v -0.372357 8.575769 0.438101
v -0.037547 8.576845 0.580272
v -0.512714 8.562343 0.100775
v -0.061303 3.253662 0.048584
v -0.197650 0.859794 0.307234
v -0.133099 3.241064 0.214027
v -0.214198 3.240379 -0.034744
v -0.321714 0.859842 -0.074588
v 0.003086 0.859886 -0.310564
v -0.002280 3.238664 -0.188168
v 0.209797 3.238309 -0.034216
v 0.327887 0.859859 -0.074583
v 0.203826 0.859803 0.307237
v 0.128945 3.239813 0.214353
v 0.355763 0.009871 -0.115498
v 0.219888 0.009870 0.302683
v -0.355689 0.009871 -0.115498
v 0.000037 0.009871 -0.373947
v -0.219814 0.009870 0.302683
v 0.001581 0.423054 -0.343665
v 0.238812 6.410576 -0.036160
v 0.064288 6.600057 -0.964704
v -0.885450 5.114111 -0.880602
v 1.110143 3.796254 -1.377545
v -1.303476 2.754123 1.193290
v -0.002076 3.240452 0.217120
v -0.165443 2.057667 0.260874
v -0.204837 8.587999 0.508453
v 0.769877 3.451100 -2.083277
v -0.951751 6.747090 0.436122
v -1.732103 3.096671 -0.044905
v -0.883427 2.363158 -0.819765
v 0.801511 7.099851 0.067811
v 0.851227 5.003103 0.928502
v -0.480597 5.129757 -1.379147
v -0.308381 6.416375 0.193323
v 0.412191 6.769432 1.074320
v 0.047991 5.914039 -0.954327
v 1.778208 3.376355 -0.905637
v 0.863455 3.931998 -0.506980
v 1.626398 5.064551 -0.461483
v 1.619059 4.957678 0.744467
v -0.441245 8.575758 -0.066794
v -0.063505 2.723249 -1.097567
v -0.763434 7.093250 0.065050
v -0.116918 7.795142 0.348320
v 1.103737 5.840805 0.113939
v 1.793702 1.945996 0.824411
v 0.146282 9.367302 0.302736
v -1.651384 3.611066 -0.036870
v 0.105483 3.238467 -0.113560
v 1.114195 2.720501 -1.287135
v -0.531543 7.800949 -0.459418
v -0.277062 9.359174 0.131237
v 0.273270 7.796749 0.185337
v 0.857125 5.045209 -0.990930
v -0.292473 0.009870 0.095127
v -0.209505 0.422996 0.305992
v 0.757077 2.386993 -0.823485
v -0.206993 9.362759 0.302048
v -1.408029 4.930217 0.733986
v 0.269080 0.859831 0.117374
v 1.542652 3.113729 -0.049125
v 0.000037 0.009870 0.307647
v 1.025309 2.762229 0.023279
v -1.775174 3.535450 -0.798760
v 0.884502 7.474741 0.084021
v 0.500693 7.432165 -0.412851
v 0.018423 7.118246 0.857390
v -0.206661 9.357744 -0.039293
v -0.278437 7.787006 -0.045251
v 0.001598 7.492625 0.959297
v -0.036661 9.359258 -0.109642
v -0.322252 6.709788 -0.942286
v -0.758733 3.518239 -1.972630
v -0.533195 3.973997 0.897140
v 0.734154 1.875383 -1.916391
v -0.161306 0.859864 -0.195318
v -0.097069 3.072745 -1.721456
v 0.759402 2.420692 0.871261
v 0.499919 7.458848 0.552006
v -0.669625 6.206570 0.815509
v -0.147646 6.411586 -0.198885
v -0.066423 3.539504 1.554467
v 0.702790 4.868323 1.651631
v 0.739253 1.951239 1.917691
v -0.060597 2.767551 1.149311
v -0.339964 0.423024 -0.095518
v -0.771119 3.418807 1.803602
v -0.865657 1.852308 -1.912787
v 0.558370 7.806639 -0.457420
v -0.670967 5.628664 -0.608939
v 1.105744 3.764773 1.139521
v 0.238471 6.412938 0.194169
v 0.212667 0.423006 0.305992
v -0.441569 8.580765 0.269444
v -0.951367 6.726274 -0.307507
v -1.918054 1.891267 0.833503
v -0.176441 3.240740 0.090543
v -0.881301 2.396213 0.875439
v -0.681704 5.521077 0.816595
v -1.183679 4.843498 0.051343
v -1.307191 2.707476 -1.284106
v 0.003088 0.859798 0.310625
v 0.762865 6.220907 0.820145
v 0.723415 5.138743 -1.374969
v -0.022599 4.770975 1.219850
v -1.920130 1.859058 -0.819485
v 0.166467 2.057042 0.261039
v -1.149434 2.730075 0.028486
v 0.413208 6.711205 -0.940989
v 0.172164 3.239051 0.090977
v 0.770717 6.324656 -0.613130
v 0.750439 5.636732 -0.604416
v 1.772613 3.331148 0.796201
v -0.658718 6.313196 -0.617771
v 0.078936 6.410035 -0.199543
v -0.323277 6.767041 1.073079
v 0.111724 7.788503 -0.208232
v 1.522896 3.503457 -0.033169
v -0.453906 7.428434 -0.414571
v 0.217130 9.365404 0.132209
v 1.791429 1.913139 -0.828119
v 0.180818 0.009871 -0.248738
v 1.145403 4.749096 0.054555
v 0.394613 8.586064 -0.065147
v -0.148500 6.416992 0.355250
v 0.034237 5.753679 1.175405
v -0.454681 7.454070 0.550346
v 0.110584 7.797657 0.348774
v -0.014874 4.822989 -1.277542
v -1.397626 5.039895 -0.471967
v -0.308024 6.414164 -0.035999
v 0.756986 3.349671 1.806480
v 0.268969 2.056313 -0.054295
v -0.532253 7.826943 0.626969
v 0.019621 7.075020 -0.724520
v 1.041449 6.752761 0.439532
v -0.504286 4.856533 1.647456
v -0.180744 0.009871 -0.248738
v 0.146682 9.362114 -0.038591
v -0.061058 3.576630 -1.788104
v 0.864679 3.946099 0.317562
v 0.167479 0.859873 -0.195316
v -0.037177 9.366470 0.373078
v -0.092166 3.136443 1.627398
v 0.283777 3.929750 -1.089521
v 0.292546 0.009871 0.095127
v -0.109966 3.239520 -0.113828
v 0.557600 7.833781 0.628897
v 0.143940 8.579984 -0.304166
v -1.011758 6.510678 0.102171
v 0.273733 7.792911 -0.044144
v -1.780264 3.492239 0.789553
v -1.230248 3.874594 -1.267560
v -0.860755 1.927516 1.921754
v -0.866149 7.465374 0.080885
v 0.286977 3.963588 0.897760
v -1.233796 3.844764 1.135980
v -0.890839 5.073863 0.925309
v -0.204008 8.575739 -0.304856
v -1.022260 5.826344 0.107155
v -0.536745 3.940497 -1.089132
v 0.143043 8.592425 0.509129
v -0.278920 7.790737 0.184234
v 1.125595 6.529886 0.109125
v 0.050293 6.441007 1.175983
v 1.117763 2.768145 1.189801
v 0.000409 2.056505 -0.249349
v -1.113073 3.971449 0.316063
v -0.115760 7.786096 -0.208688
v 0.078097 6.415592 0.355599
v 0.002745 7.448822 -0.794391
v -1.114647 3.957686 -0.507470
v 0.343126 0.423042 -0.095518
v -0.268071 2.057347 -0.054564
v -0.262905 0.859818 0.117370
v 0.394221 8.591252 0.271077
v 1.041825 6.730970 -0.304040
v 0.742758 5.532091 0.821110
v 0.220377 2.056674 0.104237
v -0.278117 0.423009 0.106336
v 0.174444 0.423048 -0.222468
v 0.001581 0.423001 0.309548
v -0.171282 0.423039 -0.222468
v 0.281279 0.423024 0.106336
v -0.135475 2.056925 -0.154217
v 0.000512 2.057359 0.263750
v 0.136332 2.056402 -0.154081
v -0.219416 2.057513 0.104017
v -0.265357 7.624787 -0.630769
v 0.281458 7.627642 -0.629766
v 0.724937 7.654302 0.357372
v -0.266291 7.659874 0.796993
v -0.702670 7.633120 -0.190180
v 0.725323 7.640685 -0.187599
v 0.280495 7.663312 0.797961
v -0.703026 7.646152 0.354827
v 0.260902 7.253500 -0.572168
v -0.217883 7.251630 -0.573031
v -0.612505 7.273663 0.308442
v 0.259910 7.288649 0.708184
v 0.654550 7.266000 -0.173264
v -0.612116 7.260809 -0.175517
v -0.218874 7.286247 0.707351
v 0.654161 7.279385 0.310665
v -0.839926 6.412012 -0.259403
v -0.311288 6.323419 1.000451
v 0.948928 6.375332 0.466238
v 0.419114 6.462716 -0.793622
v -0.298761 6.456970 -0.795952
v -0.845414 6.358462 0.460413
v 0.408143 6.330629 1.002779
v 0.952861 6.427418 -0.253575
v 0.931768 5.738905 -0.246802
v -0.851276 5.727590 -0.252485
v -0.325344 5.637010 1.000681
v 0.927921 5.686372 0.469118
v 0.400815 5.775743 -0.784053
v -0.313024 5.771701 -0.786324
v -0.856678 5.673557 0.463438
v 0.390051 5.642550 1.002949
v -0.452694 4.968762 -1.084423
v -1.042385 4.958822 0.491138
v 0.416848 4.886824 1.079304
v 1.006388 4.897014 -0.470776
v -1.039677 4.979072 -0.416731
v -0.459283 4.922412 1.077698
v 1.003421 4.875818 0.494864
v 0.423695 4.934120 -1.140588
v 1.321286 3.633818 0.557282
v 0.527878 3.686419 -1.591035
v -0.648960 3.725806 -1.535042
v -1.449572 3.728098 0.553135
v 0.522969 3.651945 1.353981
v 1.323501 3.649673 -0.708714
v -1.447790 3.743113 -0.655087
v -0.653437 3.692172 1.352200
v -1.524980 2.925428 0.577743
v 0.516267 2.952456 1.415952
v 1.335614 2.917085 -0.671679
v -1.526849 2.901973 -0.668038
v -0.701267 2.945396 1.417709
v 1.337408 2.941047 0.573868
v 0.512011 2.896500 -1.511659
v -0.705598 2.889948 -1.510136
vt 0.9665 0.4629
vt 0.9583 0.4506
vt 0.9653 0.4439
vt 0.9784 0.4521
vt 0.9787 0.4360
vt 0.9654 0.4345
vt 0.9654 0.4250
vt 0.9790 0.4198
vt 0.9396 0.3967
vt 0.9422 0.4108
vt 0.9324 0.4104
vt 0.9233 0.3965
vt 0.9006 0.4340
vt 0.9178 0.4333
vt 0.9175 0.4432
vt 0.9006 0.4495
vt 0.9386 0.4728
vt 0.9414 0.4571
vt 0.9512 0.4573
vt 0.9547 0.4736
vt 0.9674 0.4084
vt 0.9587 0.4182
vt 0.9520 0.4113
vt 0.9558 0.3970
vt 0.9120 0.4075
vt 0.9252 0.4169
vt 0.9180 0.4235
vt 0.9007 0.4185
vt 0.9115 0.4607
vt 0.9245 0.4500
vt 0.9316 0.4569
vt 0.9225 0.4720
vt 0.8945 0.4336
vt 0.8943 0.4503
vt 0.8825 0.4546
vt 0.8828 0.4338
vt 0.9359 0.3934
vt 0.9186 0.3934
vt 0.9126 0.3841
vt 0.9347 0.3837
vt 0.9653 0.4621
vt 0.9792 0.4495
vt 0.9914 0.4525
vt 0.9726 0.4690
vt 0.9061 0.4622
vt 0.9179 0.4741
vt 0.9115 0.4845
vt 0.8970 0.4696
vt 0.9066 0.4051
vt 0.8947 0.4169
vt 0.8831 0.4131
vt 0.8978 0.3986
vt 0.9664 0.4047
vt 0.9533 0.3933
vt 0.9568 0.3832
vt 0.9741 0.3970
vt 0.9793 0.4328
vt 0.9795 0.4161
vt 0.9914 0.4107
vt 0.9914 0.4316
vt 0.9347 0.4744
vt 0.9515 0.4747
vt 0.9538 0.4855
vt 0.9326 0.4850
vt 0.9718 0.4366
vt 0.9719 0.4493
vt 0.9508 0.4413
vt 0.9505 0.4357
vt 0.9363 0.4035
vt 0.9493 0.4033
vt 0.9421 0.4224
vt 0.9366 0.4224
vt 0.9053 0.4354
vt 0.9051 0.4222
vt 0.9235 0.4306
vt 0.9238 0.4362
vt 0.9384 0.4672
vt 0.9246 0.4669
vt 0.9322 0.4489
vt 0.9376 0.4491
vt 0.9605 0.4136
vt 0.9717 0.4238
vt 0.9502 0.4301
vt 0.9462 0.4262
vt 0.9142 0.4129
vt 0.9233 0.4035
vt 0.9310 0.4224
vt 0.9273 0.4265
vt 0.9150 0.4578
vt 0.9054 0.4486
vt 0.9240 0.4417
vt 0.9281 0.4453
vt 0.9621 0.4584
vt 0.9521 0.4674
vt 0.9430 0.4493
vt 0.9469 0.4453
vt 0.9140 0.4604
vt 0.9241 0.4705
vt 0.9165 0.4861
vt 0.9019 0.4715
vt 0.9139 0.4118
vt 0.9039 0.4219
vt 0.8870 0.4159
vt 0.9016 0.4011
vt 0.9627 0.4119
vt 0.9527 0.4017
vt 0.9580 0.3862
vt 0.9726 0.4011
vt 0.9728 0.4363
vt 0.9728 0.4220
vt 0.9872 0.4159
vt 0.9871 0.4365
vt 0.9383 0.4705
vt 0.9526 0.4706
vt 0.9577 0.4861
vt 0.9371 0.4861
vt 0.9039 0.4362
vt 0.9039 0.4503
vt 0.8873 0.4570
vt 0.8872 0.4365
vt 0.9383 0.4017
vt 0.9239 0.4017
vt 0.9162 0.3862
vt 0.9371 0.3862
vt 0.9627 0.4605
vt 0.9728 0.4505
vt 0.9870 0.4571
vt 0.9724 0.4716
vt 0.9593 0.4155
vt 0.9678 0.4239
vt 0.9458 0.4344
vt 0.9443 0.4329
vt 0.9187 0.4156
vt 0.9270 0.4072
vt 0.9385 0.4313
vt 0.9369 0.4328
vt 0.9184 0.4561
vt 0.9101 0.4475
vt 0.9354 0.4388
vt 0.9369 0.4403
vt 0.9592 0.4563
vt 0.9507 0.4649
vt 0.9427 0.4416
vt 0.9441 0.4401
vt 0.9677 0.4358
vt 0.9676 0.4477
vt 0.9455 0.4385
vt 0.9456 0.4365
vt 0.9389 0.4072
vt 0.9508 0.4072
vt 0.9428 0.4313
vt 0.9406 0.4313
vt 0.9102 0.4357
vt 0.9103 0.4239
vt 0.9353 0.4343
vt 0.9354 0.4366
vt 0.9387 0.4648
vt 0.9267 0.4647
vt 0.9385 0.4417
vt 0.9406 0.4417
vt 0.9597 0.4559
vt 0.9690 0.4467
vt 0.9889 0.4577
vt 0.9733 0.4728
vt 0.9155 0.4557
vt 0.9246 0.4649
vt 0.9147 0.4877
vt 0.8995 0.4725
vt 0.9154 0.4114
vt 0.9062 0.4207
vt 0.8838 0.4140
vt 0.8990 0.3984
vt 0.9691 0.4337
vt 0.9692 0.4207
vt 0.9895 0.4140
vt 0.9892 0.4359
vt 0.9375 0.4649
vt 0.9504 0.4649
vt 0.9577 0.4879
vt 0.9362 0.4878
vt 0.9063 0.4337
vt 0.9064 0.4466
vt 0.8843 0.4574
vt 0.8841 0.4357
vt 0.9376 0.4021
vt 0.9245 0.4021
vt 0.9143 0.3828
vt 0.9363 0.3828
vt 0.9600 0.4114
vt 0.9507 0.4021
vt 0.9583 0.3828
vt 0.9739 0.3984
vt 0.9393 0.5781
vt 0.9331 0.5777
vt 0.9372 0.5705
vt 0.9496 0.5692
vt 0.9445 0.5737
vt 0.9423 0.5660
vt 0.9417 0.5453
vt 0.9462 0.5506
vt 0.9383 0.5541
vt 0.9178 0.5556
vt 0.9223 0.5507
vt 0.9264 0.5592
vt 0.9268 0.5773
vt 0.9229 0.5727
vt 0.9309 0.5701
vt 0.9506 0.5559
vt 0.9501 0.5625
vt 0.9428 0.5594
vt 0.9268 0.5457
vt 0.9342 0.5455
vt 0.9309 0.5543
vt 0.9189 0.5682
vt 0.9183 0.5619
vt 0.9269 0.5655
vt 0.9015 0.5600
vt 0.9013 0.5455
vt 0.9366 0.5261
vt 0.9510 0.5266
vt 0.9694 0.5609
vt 0.9692 0.5747
vt 0.9115 0.5846
vt 0.9017 0.5746
vt 0.9118 0.5356
vt 0.9223 0.5257
vt 0.9603 0.5368
vt 0.9697 0.5470
vt 0.9592 0.5847
vt 0.9493 0.5947
vt 0.9354 0.5947
vt 0.9214 0.5947
vt 0.9866 0.4149
vt 0.9865 0.4341
vt 0.9632 0.4253
vt 0.9587 0.4813
vt 0.9390 0.4817
vt 0.9493 0.4585
vt 0.8915 0.4555
vt 0.8915 0.4362
vt 0.9157 0.4456
vt 0.9194 0.3890
vt 0.9391 0.3887
vt 0.9296 0.4123
vt 0.9865 0.4534
vt 0.9726 0.4674
vt 0.9632 0.4445
vt 0.9193 0.4821
vt 0.9054 0.4688
vt 0.9296 0.4589
vt 0.8915 0.4169
vt 0.9054 0.4029
vt 0.9157 0.4263
vt 0.9588 0.3883
vt 0.9727 0.4016
vt 0.9493 0.4120
vt 0.9302 0.9483
vt 0.9301 0.9812
vt 0.9231 0.9812
vt 0.9233 0.9483
vt 0.9714 0.9486
vt 0.9712 0.9818
vt 0.9644 0.9818
vt 0.9645 0.9485
vt 0.9439 0.9484
vt 0.9439 0.9813
vt 0.9370 0.9811
vt 0.9370 0.9484
vt 0.9165 0.9483
vt 0.9162 0.9813
vt 0.9093 0.9814
vt 0.9096 0.9483
vt 0.9579 0.9028
vt 0.9577 0.9153
vt 0.9507 0.9154
vt 0.9510 0.9030
vt 0.9165 0.9030
vt 0.9168 0.9153
vt 0.9099 0.9152
vt 0.9096 0.9027
vt 0.9441 0.9032
vt 0.9439 0.9155
vt 0.9371 0.9156
vt 0.9372 0.9034
vt 0.9717 0.9028
vt 0.9715 0.9153
vt 0.9646 0.9152
vt 0.9648 0.9026
vt 0.9303 0.9033
vt 0.9304 0.9155
vt 0.9236 0.9155
vt 0.9234 0.9032
vt 0.9576 0.9485
vt 0.9576 0.9816
vt 0.9508 0.9815
vt 0.9507 0.9485
vt 0.9302 0.8911
vt 0.9232 0.8910
vt 0.9372 0.8912
vt 0.9718 0.8902
vt 0.9649 0.8900
vt 0.9786 0.8905
vt 0.9786 0.9030
vt 0.9785 0.9154
vt 0.9442 0.8909
vt 0.9512 0.8906
vt 0.9162 0.8906
vt 0.9093 0.8902
vt 0.9581 0.8903
vt 0.9783 0.9486
vt 0.9780 0.9818
vt 0.9399 0.4357
vt 0.9593 0.6112
vt 0.9376 0.6116
vt 0.9160 0.6121
vt 0.9888 0.5803
vt 0.9740 0.5957
vt 0.9602 0.5079
vt 0.9745 0.5231
vt 0.9888 0.5382
vt 0.8848 0.5354
vt 0.9013 0.5205
vt 0.9177 0.5056
vt 0.9002 0.5965
vt 0.8844 0.5809
vt 0.9888 0.5592
vt 0.9390 0.5067
vt 0.8846 0.5581
vt 0.9350 0.5629
vt 0.9490 0.4273
vt 0.9460 0.4244
vt 0.9431 0.4214
vt 0.9389 0.4214
vt 0.9347 0.4214
vt 0.9286 0.4273
vt 0.9285 0.4316
vt 0.9284 0.4359
vt 0.9345 0.4420
vt 0.9388 0.4420
vt 0.9431 0.4420
vt 0.9491 0.4358
vt 0.9491 0.4315
vt 0.9317 0.4244
vt 0.9315 0.4390
vt 0.9461 0.4389
vt 0.9588 0.4882
vt 0.9369 0.4879
vt 0.9149 0.4876
vt 0.8847 0.4563
vt 0.8850 0.4349
vt 0.8853 0.4135
vt 0.9156 0.3832
vt 0.9372 0.3831
vt 0.9588 0.3830
vt 0.9897 0.4134
vt 0.9897 0.4351
vt 0.9897 0.4569
vt 0.9743 0.4726
vt 0.8998 0.4719
vt 0.9004 0.3984
vt 0.9743 0.3982
vt 0.9475 0.4550
vt 0.9530 0.4494
vt 0.9585 0.4438
vt 0.9473 0.4172
vt 0.9395 0.4172
vt 0.9317 0.4171
vt 0.9207 0.4280
vt 0.9207 0.4358
vt 0.9206 0.4437
vt 0.9317 0.4549
vt 0.9396 0.4550
vt 0.9584 0.4360
vt 0.9583 0.4282
vt 0.9528 0.4227
vt 0.9262 0.4226
vt 0.9261 0.4493
vt 0.9931 0.4574
vt 0.9772 0.4714
vt 0.9613 0.4854
vt 0.9170 0.4850
vt 0.9019 0.4703
vt 0.8868 0.4555
vt 0.8868 0.4138
vt 0.9012 0.3993
vt 0.9156 0.3847
vt 0.9566 0.3843
vt 0.9748 0.4010
vt 0.9931 0.4176
vt 0.9391 0.4852
vt 0.8868 0.4347
vt 0.9361 0.3845
vt 0.9931 0.4375
vt 0.9243 0.4637
vt 0.9367 0.4638
vt 0.9492 0.4638
vt 0.9670 0.4466
vt 0.9673 0.4340
vt 0.9676 0.4214
vt 0.9587 0.4124
vt 0.9498 0.4034
vt 0.9245 0.4028
vt 0.9154 0.4117
vt 0.9063 0.4206
vt 0.9062 0.4460
vt 0.9153 0.4549
vt 0.9581 0.4552
vt 0.9372 0.4031
vt 0.9062 0.4333
vt 0.8986 0.4715
vt 0.9135 0.4871
vt 0.8836 0.4558
vt 0.8989 0.3981
vt 0.8834 0.4135
vt 0.9143 0.3826
vt 0.9761 0.3986
vt 0.9596 0.3826
vt 0.9925 0.4147
vt 0.9358 0.4885
vt 0.9581 0.4899
vt 0.8835 0.4347
vt 0.9369 0.3826
vt 0.9920 0.4376
vt 0.9915 0.4604
vt 0.9748 0.4751
vn -0.4111 0.3913 -0.8233
vn -0.4699 -0.6835 -0.5585
vn -0.0136 -0.8654 -0.5008
vn -0.0022 0.4565 -0.8897
vn 0.4083 0.4178 -0.8116
vn 0.4608 -0.6824 -0.5674
vn 0.4261 -0.7547 -0.4988
vn 0.6356 0.4300 -0.6412
vn 0.7894 0.4687 0.3965
vn 0.4940 -0.6857 0.5345
vn 0.4476 -0.7729 0.4497
vn 0.6326 0.4778 0.6095
vn -0.4194 0.4605 0.7823
vn -0.5619 -0.6645 0.4927
vn -0.4461 -0.7784 0.4417
vn -0.6498 0.4414 0.6188
vn -0.8328 0.3809 -0.4016
vn -0.5122 -0.7203 -0.4678
vn -0.4378 -0.7705 -0.4633
vn -0.6560 0.3909 -0.6457
vn 0.8013 0.4353 -0.4103
vn 0.5017 -0.6821 -0.5320
vn 0.4447 -0.8947 -0.0417
vn 0.8614 0.5079 -0.0088
vn 0.4195 0.4848 0.7675
vn 0.5426 -0.6813 0.4913
vn -0.0541 -0.8963 0.4401
vn -0.0007 0.5368 0.8437
vn -0.8188 0.4166 0.3950
vn -0.4981 -0.7229 0.4789
vn -0.4099 -0.9120 -0.0141
vn -0.8957 0.4446 -0.0047
vn -0.0208 -0.8508 -0.5250
vn -0.0336 -0.8004 -0.5986
vn -0.0198 -0.7623 0.6469
vn -0.3920 -0.6800 0.6196
vn 0.5308 -0.8474 0.0137
vn 0.6237 -0.7815 -0.0162
vn -0.6492 -0.7606 -0.0082
vn -0.6351 -0.6900 -0.3471
vn -0.5210 -0.8535 -0.0103
vn -0.2204 -0.9600 0.1728
vn 0.6610 -0.3367 -0.6706
vn 0.6479 -0.6904 -0.3217
vn -0.0426 -0.8391 -0.5422
vn -0.2730 -0.9274 -0.2556
vn 0.6479 -0.4126 0.6404
vn 0.3397 -0.7142 0.6119
vn 0.5588 -0.8281 -0.0446
vn 0.2380 -0.9406 -0.2420
vn -0.6904 -0.3728 0.6199
vn -0.6124 -0.7143 0.3387
vn -0.0249 -0.9003 0.4346
vn 0.2014 -0.9645 0.1708
vn -0.7094 -0.3258 -0.6249
vn -0.4610 -0.6022 -0.6518
vn 0.0049 -0.9002 0.4355
vn -0.0109 -0.8672 0.4979
vn -0.0504 -0.6825 -0.7291
vn 0.3353 -0.6264 -0.7037
vn -0.5514 -0.8340 -0.0215
vn -0.6002 -0.7997 -0.0172
vn 0.6495 -0.7602 0.0151
vn 0.6113 -0.7054 0.3586
vn 0.1416 0.5546 -0.8200
vn -0.0307 0.5495 -0.8349
vn 0.0074 -0.6403 -0.7681
vn -0.6625 -0.3602 -0.6568
vn 0.8688 0.4652 0.1694
vn 0.8840 0.4669 0.0239
vn 0.6859 -0.7276 -0.0130
vn 0.6637 -0.4561 -0.5928
vn -0.1529 0.4550 0.8773
vn 0.0160 0.4520 0.8919
vn 0.1021 -0.7501 0.6534
vn 0.6898 -0.4170 0.5919
vn -0.8643 0.4800 -0.1504
vn -0.8808 0.4734 0.0130
vn -0.6950 -0.7185 -0.0258
vn -0.5933 -0.4175 0.6883
vn 0.8713 0.4760 -0.1192
vn 0.5863 0.6040 -0.5399
vn -0.0022 -0.9871 0.1600
vn 0.6422 -0.4969 0.5837
vn 0.1827 0.4531 0.8726
vn 0.6010 0.5324 0.5961
vn 0.0769 -0.9883 -0.1318
vn -0.5591 -0.5175 0.6478
vn -0.8643 0.4708 0.1770
vn -0.5845 0.5401 0.6056
vn 0.2434 -0.9399 -0.2396
vn -0.6082 -0.3798 -0.6971
vn -0.2003 0.5421 -0.8161
vn -0.6018 0.5842 -0.5446
vn 0.1743 -0.9244 0.3392
vn 0.7097 -0.3227 -0.6262
vn -0.4768 -0.6692 -0.5700
vn -0.5005 -0.6607 -0.5595
vn 0.4185 -0.8292 0.3704
vn 0.0521 -0.7762 0.6283
vn 0.5825 -0.6205 -0.5250
vn 0.5434 -0.6065 -0.5804
vn -0.3917 -0.8514 0.3488
vn -0.6454 -0.7623 -0.0483
vn 0.5086 -0.6507 0.5638
vn 0.5731 -0.6302 0.5238
vn -0.3572 -0.8380 -0.4125
vn 0.0186 -0.7646 -0.6443
vn -0.5036 -0.7094 0.4931
vn 0.0051 -0.8036 0.5952
vn -0.0095 -0.4755 -0.8796
vn 0.0306 -0.7266 -0.6864
vn -0.5065 -0.6800 -0.5302
vn -0.5887 -0.8071 -0.0443
vn 0.8794 -0.4761 -0.0073
vn 0.6874 -0.7263 0.0085
vn 0.4906 -0.6193 -0.6130
vn 0.0091 -0.7468 -0.6649
vn -0.0166 -0.5433 0.8394
vn -0.0199 -0.8024 0.5964
vn 0.6175 -0.6359 0.4629
vn 0.6764 -0.7357 -0.0347
vn -0.8377 -0.5454 -0.0284
vn -0.5820 -0.8119 -0.0456
vn -0.5463 -0.7057 0.4513
vn -0.5370 -0.6941 0.4794
vn 0.3981 -0.8105 -0.4296
vn 0.6360 -0.7674 -0.0812
vn 0.7519 0.4467 -0.4848
vn 0.6505 0.4411 -0.6183
vn 0.5064 -0.7593 -0.4088
vn -0.0487 -0.4527 -0.8903
vn 0.4967 0.4343 0.7515
vn 0.6152 0.4349 0.6576
vn 0.4046 -0.7570 0.5131
vn 0.8859 -0.4611 -0.0510
vn -0.7572 0.3978 0.5180
vn -0.6412 0.3983 0.6559
vn -0.3758 -0.8025 0.4635
vn 0.0916 -0.4556 0.8854
vn -0.5111 0.4040 -0.7586
vn -0.6629 0.3975 -0.6345
vn -0.4451 -0.8112 -0.3792
vn -0.8754 -0.4788 0.0666
vn 0.5206 0.4413 -0.7309
vn 0.0046 0.5015 -0.8652
vn 0.0022 -0.9121 0.4099
vn 0.9114 -0.3928 0.1229
vn 0.7146 0.4445 0.5402
vn 0.8496 0.5264 0.0310
vn -0.3989 -0.8874 0.2310
vn -0.1118 -0.3884 0.9147
vn -0.5025 0.4039 0.7644
vn -0.0038 0.4897 0.8719
vn 0.0060 -0.9642 -0.2652
vn -0.8539 -0.5199 -0.0259
vn -0.7830 0.3936 -0.4816
vn -0.8859 0.4635 0.0198
vn 0.3075 -0.9377 0.1617
vn 0.0327 -0.5321 -0.8460
vn -0.7960 -0.6009 -0.0722
vn -0.8114 -0.5843 0.0162
vn 0.5034 -0.8641 0.0024
vn 0.2316 -0.6528 0.7213
vn 0.1222 -0.5868 -0.8005
vn 0.0060 -0.5765 -0.8171
vn 0.0066 -0.8660 0.5001
vn -0.7010 -0.6885 0.1857
vn 0.8169 -0.5554 0.1556
vn 0.8375 -0.5463 0.0156
vn -0.4814 -0.8765 -0.0003
vn -0.1616 -0.7073 -0.6882
vn -0.7946 -0.5983 0.1037
vn -0.5063 -0.6949 0.5106
vn 0.5887 -0.5358 -0.6053
vn 0.2302 -0.6716 -0.7043
vn -0.1067 -0.5928 -0.7982
vn -0.5061 -0.7106 -0.4889
vn 0.6012 -0.5305 0.5976
vn 0.6988 -0.6827 0.2135
vn 0.8206 -0.5575 -0.1254
vn 0.5281 -0.6747 -0.5157
vn -0.5806 -0.5866 0.5646
vn -0.1610 -0.6919 0.7038
vn 0.1211 -0.5734 0.8102
vn 0.5235 -0.6612 0.5373
vn -0.5725 -0.5854 -0.5741
vn -0.7176 -0.6709 -0.1868
vn -0.1127 -0.5790 0.8075
vn 0.0025 -0.5640 0.8257
vn 0.0069 -0.8667 -0.4988
vn 0.7144 -0.6678 -0.2092
vn -0.0179 0.3376 -0.9411
vn -0.3587 0.3100 -0.8804
vn -0.0144 0.3249 -0.9456
vn 0.6518 0.3540 -0.6707
vn 0.3307 0.3233 -0.8867
vn 0.6582 0.3259 -0.6787
vn 0.6646 0.3239 0.6733
vn 0.8873 0.3041 0.3467
vn 0.6687 0.2806 0.6885
vn -0.6862 0.2890 0.6675
vn -0.3743 0.2662 0.8883
vn -0.6862 0.2695 0.6757
vn -0.6706 0.3208 -0.6688
vn -0.8853 0.2851 -0.3674
vn -0.6725 0.3147 -0.6699
vn 0.9424 0.3344 -0.0055
vn 0.8795 0.3207 -0.3516
vn 0.9514 0.3079 -0.0013
vn -0.0219 0.2965 0.9548
vn 0.3398 0.2806 0.8976
vn -0.0176 0.2609 0.9652
vn -0.9549 0.2969 -0.0060
vn -0.8937 0.2668 0.3607
vn -0.9566 0.2914 -0.0032
vn -0.8903 0.2803 0.3590
vn -0.6763 0.3102 0.6682
vn 0.3291 0.3238 0.8871
vn 0.6625 0.3642 0.6545
vn 0.8809 0.3487 -0.3200
vn 0.6507 0.3812 -0.6568
vn -0.8836 0.2914 -0.3665
vn -0.9524 0.3047 -0.0042
vn -0.3640 0.2974 0.8826
vn -0.0181 0.3284 0.9443
vn 0.8872 0.3409 0.3108
vn 0.9340 0.3573 -0.0053
vn 0.3144 0.3465 -0.8838
vn -0.0139 0.3507 -0.9364
vn -0.3421 0.3231 -0.8824
vn -0.6617 0.3312 -0.6726
vn 0.0207 -0.4499 -0.8928
vn -0.0632 -0.6718 -0.7380
vn 0.0110 -0.9052 0.4248
vn 0.9055 -0.4227 0.0365
vn 0.7574 -0.6499 -0.0641
vn -0.4173 -0.9087 0.0137
vn 0.0249 -0.3950 0.9184
vn 0.0786 -0.6363 0.7675
vn 0.0095 -0.9121 -0.4098
vn -0.8821 -0.4695 0.0386
vn -0.7268 -0.6806 0.0924
vn 0.4384 -0.8987 0.0122
vn 0.4718 -0.7581 -0.4502
vn 0.7571 -0.6481 0.0821
vn -0.4118 -0.8041 0.4287
vn 0.4713 -0.7424 0.4761
vn -0.0530 -0.6347 0.7710
vn -0.4278 -0.8064 -0.4083
vn -0.4450 -0.7565 0.4794
vn -0.7287 -0.6814 -0.0680
vn 0.4448 -0.7988 -0.4050
vn -0.4481 -0.7733 -0.4487
vn 0.0844 -0.6743 -0.7336
vn 0.4324 -0.7965 0.4227
vn -0.9502 0.0382 0.3091
vn -0.9502 0.0384 0.3094
vn -0.9507 0.0481 -0.3064
vn -0.9499 0.0479 -0.3088
vn 0.5871 0.0433 -0.8083
vn 0.5870 0.0434 -0.8084
vn 0.9501 0.0524 -0.3075
vn 0.9498 0.0522 -0.3086
vn -0.0004 0.0394 0.9992
vn -0.0008 0.0397 0.9992
vn -0.5879 0.0476 0.8075
vn -0.5871 0.0473 0.8081
vn -0.5866 0.0405 -0.8088
vn -0.5863 0.0406 -0.8090
vn -0.0020 0.0512 -0.9987
vn 0.0003 0.0511 -0.9987
vn 0.9509 0.0174 0.3090
vn 0.9506 0.0304 0.3090
vn 0.5851 0.0293 0.8104
vn 0.5876 0.0076 0.8091
vn -0.5866 0.0634 -0.8074
vn -0.5869 0.0520 -0.8080
vn 0.0011 0.0636 -0.9980
vn 0.0001 0.0752 -0.9972
vn 0.0000 -0.0043 1.0000
vn -0.0001 0.0183 0.9998
vn -0.5838 0.0301 0.8113
vn -0.5875 0.0118 0.8091
vn 0.5868 0.0592 -0.8076
vn 0.5871 0.0514 -0.8079
vn 0.9519 0.0497 -0.3025
vn 0.9503 0.0468 -0.3079
vn -0.9506 0.0276 0.3091
vn -0.9515 0.0316 0.3059
vn -0.9518 0.0470 -0.3032
vn -0.9512 0.0538 -0.3040
vn 0.9502 0.0423 0.3088
vn 0.9502 0.0426 0.3089
vn 0.5841 0.0501 0.8102
vn 0.5868 0.0498 0.8082
vn -0.9509 0.0232 0.3085
vn -0.9459 0.0533 -0.3201
vn -0.5950 0.0102 0.8036
vn 0.5865 0.0589 -0.8078
vn 0.9460 0.0463 -0.3210
vn -0.0013 0.0749 -0.9972
vn -0.0000 -0.0061 1.0000
vn 0.5933 0.0057 0.8050
vn -0.5864 0.0633 -0.8075
vn 0.9511 0.0161 0.3086
vn 0.0103 -0.9999 0.0051
vn -0.0079 0.9994 0.0339
usemtl None
s 1
f 308/1/1 225/2/2 3/3/3 141/4/4
f 307/5/5 209/6/6 5/7/7 114/8/8
f 306/9/9 205/10/10 9/11/11 230/12/12
f 305/13/13 138/14/14 13/15/15 87/16/16
f 304/17/17 236/18/18 2/19/19 165/20/20
f 303/21/21 102/22/22 8/23/23 125/24/24
f 302/25/25 220/26/26 12/27/27 208/28/28
f 301/29/29 232/30/30 16/31/31 93/32/32
f 300/33/33 146/34/34 17/35/35 151/36/36
f 299/37/37 112/38/38 19/39/39 128/40/40
f 298/41/41 86/42/42 21/43/43 101/44/44
f 297/45/45 155/46/46 23/47/47 196/48/48
f 296/49/49 221/50/50 18/51/51 216/52/52
f 295/53/53 217/54/54 20/55/55 137/56/56
f 294/57/57 204/58/58 24/59/59 91/60/60
f 293/61/61 182/62/62 22/63/63 177/64/64
f 292/65/65 193/66/66 25/67/67 179/68/68
f 291/69/69 187/70/70 27/71/71 156/72/72
f 290/73/73 169/74/74 29/75/75 189/76/76
f 289/77/77 164/78/78 31/79/79 195/80/80
f 288/81/81 118/82/82 26/83/83 83/84/84
f 287/85/85 96/86/86 28/87/87 234/88/88
f 286/89/89 222/90/90 30/91/91 98/92/92
f 285/93/93 85/94/94 32/95/95 145/96/96
f 284/97/97 242/98/98 33/99/99 147/100/100
f 283/101/101 163/102/102 35/103/103 123/104/104
f 282/105/105 154/106/106 37/107/107 97/108/108
f 281/109/109 100/110/110 38/111/111 168/112/112
f 280/113/113 109/114/114 40/115/115 104/116/116
f 279/117/117 190/118/118 34/119/119 201/120/120
f 278/121/121 224/122/122 36/123/123 194/124/124
f 277/125/125 176/126/126 39/127/127 103/128/128
f 276/129/129 175/130/130 41/131/131 215/132/132
f 275/133/133 167/134/134 43/135/135 192/136/136
f 274/137/137 144/138/138 45/139/139 227/140/140
f 273/141/141 178/142/142 47/143/143 233/144/144
f 272/145/145 84/146/146 48/147/147 181/148/148
f 271/149/149 228/150/150 42/151/151 117/152/152
f 270/153/153 229/154/154 44/155/155 108/156/156
f 269/157/157 214/158/158 46/159/159 133/160/160
f 268/161/161 95/162/162 49/163/163 200/164/164
f 267/165/165 131/166/166 51/167/167 180/168/168
f 266/169/169 107/170/170 53/171/171 159/172/172
f 265/173/173 130/174/174 55/175/175 241/176/176
f 264/177/177 143/178/178 50/179/179 99/180/180
f 263/181/181 191/182/182 52/183/183 92/184/184
f 262/185/185 183/186/186 54/187/187 136/188/188
f 261/189/189 199/190/190 56/191/191 173/192/192
f 57/193/193 223/194/194 135/195/195
f 60/196/196 213/197/197 203/198/198
f 61/199/199 240/200/200 111/201/201
f 63/202/202 90/203/203 122/204/204
f 58/205/205 105/206/206 132/207/207
f 62/208/208 188/209/209 184/210/210
f 64/211/211 226/212/212 207/213/213
f 65/214/214 158/215/215 116/216/216
f 260/217/217 198/218/218 63/202/202 158/215/215
f 259/219/219 212/220/220 61/199/199 226/212/212
f 258/221/221 153/222/222 60/196/196 188/209/209
f 257/223/223 219/224/224 65/214/214 105/206/206
f 256/225/225 134/226/226 64/211/211 90/203/203
f 255/227/227 129/228/228 62/208/208 240/200/200
f 254/229/229 235/230/230 57/193/193 213/197/197
f 253/231/231 115/232/232 58/205/205 223/194/194
f 4/233/233 139/234/234 106/235/235
f 7/236/236 110/237/237 127/238/238
f 11/239/239 218/240/240 149/241/241
f 15/242/242 170/243/243 172/244/244
f 6/245/245 185/246/246 121/247/247
f 10/248/248 148/249/249 142/250/250
f 14/251/251 160/252/252 162/253/253
f 1/254/254 152/255/255 94/256/256
f 252/257/257 161/258/258 69/259/259 238/260/260
f 251/261/261 113/262/262 73/263/263 197/264/264
f 250/265/265 88/266/266 68/267/267 89/268/268
f 249/269/269 211/270/270 72/271/271 231/272/272
f 248/273/273 124/274/274 75/275/275 157/276/276
f 247/277/277 140/278/278 71/279/279 82/280/280
f 246/281/281 166/282/282 67/283/283 120/284/284
f 245/285/285 206/286/286 74/287/287 237/288/288
f 244/289/289 239/290/290 70/291/291 150/292/292
f 243/293/293 174/294/294 76/295/295 171/296/296
f 124/274/274 243/293/293 171/296/296 75/275/275
f 74/287/287 197/264/264 243/293/293 124/274/274
f 197/264/264 73/263/263 174/294/294 243/293/293
f 119/297/297 244/289/289 150/292/292 79/298/298
f 81/299/299 120/284/284 244/289/289 119/297/297
f 120/284/284 67/283/283 239/290/290 244/289/289
f 186/300/300 245/285/285 237/288/288 77/301/301
f 80/302/302 82/303/280 245/285/285 186/300/300
f 82/303/280 71/304/279 206/286/286 245/285/285
f 126/305/303 246/281/281 120/284/284 81/299/299
f 78/306/304 157/276/276 246/281/281 126/305/303
f 157/276/276 75/275/275 166/282/282 246/281/281
f 202/307/305 247/277/277 82/280/280 80/308/302
f 79/298/298 150/292/292 247/277/277 202/307/305
f 150/292/292 70/291/291 140/278/278 247/277/277
f 210/309/306 248/273/273 157/276/276 78/306/304
f 77/301/301 237/288/288 248/273/273 210/309/306
f 237/288/288 74/287/287 124/274/274 248/273/273
f 140/278/278 249/269/269 231/272/272 71/279/279
f 70/291/291 238/260/260 249/269/269 140/278/278
f 238/260/260 69/259/259 211/270/270 249/269/269
f 166/282/282 250/265/265 89/268/268 67/283/283
f 75/275/275 171/296/296 250/265/265 166/282/282
f 171/296/296 76/295/295 88/266/266 250/265/265
f 206/286/286 251/261/261 197/264/264 74/287/287
f 71/304/279 231/310/272 251/261/261 206/286/286
f 231/310/272 72/311/271 113/262/262 251/261/261
f 239/290/290 252/257/257 238/260/260 70/291/291
f 67/283/283 89/268/268 252/257/257 239/290/290
f 89/268/268 68/267/267 161/258/258 252/257/257
f 94/256/256 106/235/235 66/312/307
f 94/256/256 152/255/255 106/235/235
f 152/255/255 4/233/233 106/235/235
f 162/253/253 172/244/244 66/312/307
f 162/253/253 160/252/252 172/244/244
f 160/252/252 15/242/242 172/244/244
f 142/250/250 149/241/241 66/312/307
f 142/250/250 148/249/249 149/241/241
f 148/249/249 11/239/239 149/241/241
f 121/247/247 127/238/238 66/312/307
f 121/247/247 185/246/246 127/238/238
f 185/246/246 7/236/236 127/238/238
f 172/244/244 94/256/256 66/312/307
f 172/244/244 170/243/243 94/256/256
f 170/243/243 1/254/254 94/256/256
f 149/241/241 162/253/253 66/312/307
f 149/241/241 218/240/240 162/253/253
f 218/240/240 14/251/251 162/253/253
f 127/238/238 142/250/250 66/312/307
f 127/238/238 110/237/237 142/250/250
f 110/237/237 10/248/248 142/250/250
f 106/235/235 121/247/247 66/312/307
f 106/235/235 139/234/234 121/247/247
f 139/234/234 6/245/245 121/247/247
f 235/230/230 253/231/231 223/194/194 57/193/193
f 56/313/191 136/314/188 253/231/231 235/230/230
f 136/314/188 54/315/187 115/232/232 253/231/231
f 153/222/222 254/229/229 213/197/197 60/196/196
f 55/316/175 173/317/192 254/229/229 153/222/222
f 173/317/192 56/313/191 235/230/230 254/229/229
f 212/220/220 255/227/227 240/200/200 61/199/199
f 50/318/179 200/319/164 255/227/227 212/220/220
f 200/319/164 49/320/163 129/228/228 255/227/227
f 198/218/218 256/225/225 90/203/203 63/202/202
f 52/321/183 180/322/168 256/225/225 198/218/218
f 180/322/168 51/323/167 134/226/226 256/225/225
f 115/232/232 257/223/223 105/206/206 58/205/205
f 54/315/187 159/324/172 257/223/223 115/232/232
f 159/324/172 53/325/171 219/224/224 257/223/223
f 129/228/228 258/221/221 188/209/209 62/208/208
f 49/320/163 241/326/176 258/221/221 129/228/228
f 241/326/176 55/316/175 153/222/222 258/221/221
f 134/226/226 259/219/219 226/212/212 64/211/211
f 51/323/167 99/327/180 259/219/219 134/226/226
f 99/327/180 50/318/179 212/220/220 259/219/219
f 219/224/224 260/217/217 158/215/215 65/214/214
f 53/325/171 92/328/184 260/217/217 219/224/224
f 92/328/184 52/321/183 198/218/218 260/217/217
f 116/216/216 122/204/204 59/329/308
f 116/216/216 158/215/215 122/204/204
f 158/215/215 63/202/202 122/204/204
f 207/213/213 111/201/201 59/329/308
f 207/213/213 226/212/212 111/201/201
f 226/212/212 61/199/199 111/201/201
f 184/210/210 203/198/198 59/329/308
f 184/210/210 188/209/209 203/198/198
f 188/209/209 60/196/196 203/198/198
f 132/207/207 116/216/216 59/329/308
f 132/207/207 105/206/206 116/216/216
f 105/206/206 65/214/214 116/216/216
f 122/204/204 207/213/213 59/329/308
f 122/204/204 90/203/203 207/213/213
f 90/203/203 64/211/211 207/213/213
f 111/201/201 184/210/210 59/329/308
f 111/201/201 240/200/200 184/210/210
f 240/200/200 62/208/208 184/210/210
f 203/198/198 135/195/195 59/329/308
f 203/198/198 213/197/197 135/195/195
f 213/197/197 57/193/193 135/195/195
f 135/195/195 132/207/207 59/329/308
f 135/195/195 223/194/194 132/207/207
f 223/194/194 58/205/205 132/207/207
f 130/174/174 261/189/189 173/192/192 55/175/175
f 41/330/131 181/331/148 261/189/189 130/174/174
f 181/331/148 48/332/147 199/190/190 261/189/189
f 199/190/190 262/185/185 136/188/188 56/191/191
f 48/332/147 233/333/144 262/185/185 199/190/190
f 233/333/144 47/334/143 183/186/186 262/185/185
f 107/170/170 263/181/181 92/184/184 53/171/171
f 46/335/159 227/336/140 263/181/181 107/170/170
f 227/336/140 45/337/139 191/182/182 263/181/181
f 131/166/166 264/177/177 99/180/180 51/167/167
f 44/338/155 192/339/136 264/177/177 131/166/166
f 192/339/136 43/340/135 143/178/178 264/177/177
f 95/162/162 265/173/173 241/176/176 49/163/163
f 42/341/151 215/342/132 265/173/173 95/162/162
f 215/342/132 41/330/131 130/174/174 265/173/173
f 183/186/186 266/169/169 159/172/172 54/187/187
f 47/334/143 133/343/160 266/169/169 183/186/186
f 133/343/160 46/335/159 107/170/170 266/169/169
f 191/182/182 267/165/165 180/168/168 52/183/183
f 45/337/139 108/344/156 267/165/165 191/182/182
f 108/344/156 44/338/155 131/166/166 267/165/165
f 143/178/178 268/161/161 200/164/164 50/179/179
f 43/340/135 117/345/152 268/161/161 143/178/178
f 117/345/152 42/341/151 95/162/162 268/161/161
f 178/142/142 269/157/157 133/160/160 47/143/143
f 37/346/107 194/347/124 269/157/157 178/142/142
f 194/347/124 36/348/123 214/158/158 269/157/157
f 144/138/138 270/153/153 108/156/156 45/139/139
f 35/349/103 201/350/120 270/153/153 144/138/138
f 201/350/120 34/351/119 229/154/154 270/153/153
f 167/134/134 271/149/149 117/152/152 43/135/135
f 33/352/99 104/353/116 271/149/149 167/134/134
f 104/353/116 40/354/115 228/150/150 271/149/149
f 175/130/130 272/145/145 181/148/148 41/131/131
f 39/355/127 168/356/112 272/145/145 175/130/130
f 168/356/112 38/357/111 84/146/146 272/145/145
f 84/146/146 273/141/141 233/144/144 48/147/147
f 38/357/111 97/358/108 273/141/141 84/146/146
f 97/358/108 37/346/107 178/142/142 273/141/141
f 214/158/158 274/137/137 227/140/140 46/159/159
f 36/348/123 123/359/104 274/137/137 214/158/158
f 123/359/104 35/349/103 144/138/138 274/137/137
f 229/154/154 275/133/133 192/136/136 44/155/155
f 34/351/119 147/360/100 275/133/133 229/154/154
f 147/360/100 33/352/99 167/134/134 275/133/133
f 228/150/150 276/129/129 215/132/132 42/151/151
f 40/354/115 103/361/128 276/129/129 228/150/150
f 103/361/128 39/355/127 175/130/130 276/129/129
f 109/114/114 277/125/125 103/128/128 40/115/115
f 27/362/71 83/363/84 277/125/125 109/114/114
f 83/363/84 26/364/83 176/126/126 277/125/125
f 154/106/106 278/121/121 194/124/124 37/107/107
f 32/365/95 195/366/80 278/121/121 154/106/106
f 195/366/80 31/367/79 224/122/122 278/121/121
f 163/102/102 279/117/117 201/120/120 35/103/103
f 30/368/91 189/369/76 279/117/117 163/102/102
f 189/369/76 29/370/75 190/118/118 279/117/117
f 242/98/98 280/113/113 104/116/116 33/99/99
f 28/371/87 156/372/72 280/113/113 242/98/98
f 156/372/72 27/362/71 109/114/114 280/113/113
f 176/126/126 281/109/109 168/112/112 39/127/127
f 26/364/83 179/373/68 281/109/109 176/126/126
f 179/373/68 25/374/67 100/110/110 281/109/109
f 100/110/110 282/105/105 97/108/108 38/111/111
f 25/374/67 145/375/96 282/105/105 100/110/110
f 145/375/96 32/365/95 154/106/106 282/105/105
f 224/122/122 283/101/101 123/104/104 36/123/123
f 31/367/79 98/376/92 283/101/101 224/122/122
f 98/376/92 30/368/91 163/102/102 283/101/101
f 190/118/118 284/97/97 147/100/100 34/119/119
f 29/370/75 234/377/88 284/97/97 190/118/118
f 234/377/88 28/371/87 242/98/98 284/97/97
f 193/66/66 285/93/93 145/96/96 25/67/67
f 24/378/59 137/379/56 285/93/93 193/66/66
f 137/379/56 20/380/55 85/94/94 285/93/93
f 164/78/78 286/89/89 98/92/92 31/79/79
f 19/381/39 216/382/52 286/89/89 164/78/78
f 216/382/52 18/383/51 222/90/90 286/89/89
f 169/74/74 287/85/85 234/88/88 29/75/75
f 17/384/35 196/385/48 287/85/85 169/74/74
f 196/385/48 23/386/47 96/86/86 287/85/85
f 187/70/70 288/81/81 83/84/84 27/71/71
f 22/387/63 101/388/44 288/81/81 187/70/70
f 101/388/44 21/389/43 118/82/82 288/81/81
f 85/94/94 289/77/77 195/80/80 32/95/95
f 20/380/55 128/390/40 289/77/77 85/94/94
f 128/390/40 19/381/39 164/78/78 289/77/77
f 222/90/90 290/73/73 189/76/76 30/91/91
f 18/383/51 151/391/36 290/73/73 222/90/90
f 151/391/36 17/384/35 169/74/74 290/73/73
f 96/86/86 291/69/69 156/72/72 28/87/87
f 23/386/47 177/392/64 291/69/69 96/86/86
f 177/392/64 22/387/63 187/70/70 291/69/69
f 118/82/82 292/65/65 179/68/68 26/83/83
f 21/389/43 91/393/60 292/65/65 118/82/82
f 91/393/60 24/378/59 193/66/66 292/65/65
f 155/46/46 293/61/61 177/64/64 23/47/47
f 9/394/11 205/395/10 293/61/61 155/46/46
f 205/395/10 8/396/23 182/62/62 293/61/61
f 86/42/42 294/57/57 91/60/60 21/43/43
f 5/397/7 209/398/6 294/57/57 86/42/42
f 209/398/6 3/399/3 204/58/58 294/57/57
f 204/58/58 295/53/53 137/56/56 24/59/59
f 3/399/3 225/400/2 295/53/53 204/58/58
f 225/400/2 2/401/19 217/54/54 295/53/53
f 112/38/38 296/49/49 216/52/52 19/39/39
f 16/402/31 232/403/30 296/49/49 112/38/38
f 232/403/30 13/404/15 221/50/50 296/49/49
f 146/34/34 297/45/45 196/48/48 17/35/35
f 12/405/27 220/406/26 297/45/45 146/34/34
f 220/406/26 9/394/11 155/46/46 297/45/45
f 182/62/62 298/41/41 101/44/44 22/63/63
f 8/396/23 102/407/22 298/41/41 182/62/62
f 102/407/22 5/397/7 86/42/42 298/41/41
f 217/54/54 299/37/37 128/40/40 20/55/55
f 2/401/19 236/408/18 299/37/37 217/54/54
f 236/408/18 16/402/31 112/38/38 299/37/37
f 221/50/50 300/33/33 151/36/36 18/51/51
f 13/404/15 138/409/14 300/33/33 221/50/50
f 138/409/14 12/405/27 146/34/34 300/33/33
f 160/410/252 301/29/29 93/32/32 15/411/242
f 14/412/251 87/16/16 301/29/29 160/410/252
f 87/16/16 13/15/15 232/30/30 301/29/29
f 148/413/249 302/25/25 208/28/28 11/414/239
f 10/415/248 230/12/12 302/25/25 148/413/249
f 230/12/12 9/11/11 220/26/26 302/25/25
f 185/416/246 303/21/21 125/24/24 7/417/236
f 6/418/245 114/8/8 303/21/21 185/416/246
f 114/8/8 5/7/7 102/22/22 303/21/21
f 170/419/243 304/17/17 165/20/20 1/420/254
f 15/411/242 93/32/32 304/17/17 170/419/243
f 93/32/32 16/31/31 236/18/18 304/17/17
f 218/421/240 305/13/13 87/16/16 14/412/251
f 11/414/239 208/28/28 305/13/13 218/421/240
f 208/28/28 12/27/27 138/14/14 305/13/13
f 110/422/237 306/9/9 230/12/12 10/415/248
f 7/417/236 125/24/24 306/9/9 110/422/237
f 125/24/24 8/23/23 205/10/10 306/9/9
f 139/423/234 307/5/5 114/8/8 6/418/245
f 4/424/233 141/4/4 307/5/5 139/423/234
f 141/4/4 3/3/3 209/6/6 307/5/5
f 152/425/255 308/1/1 141/4/4 4/424/233
f 1/420/254 165/20/20 308/1/1 152/425/255
f 165/20/20 2/19/19 225/2/2 308/1/1
