# Blender v2.78 (sub 0) OBJ File: ''
# www.blender.org
mtllib Pine_Tree_NoLeaves_crk_l_02.mtl
o Pine_Tree_NoLeaves_crk_l_02
v 0.049019 6.947728 0.013080
v 0.441013 7.196421 0.616857
v 0.462027 7.185596 0.610120
v 0.096904 6.917334 -0.010502
v 0.059017 6.889275 0.028864
v 0.448634 7.176545 0.628611
v -0.066781 8.682980 -0.050027
v -0.433301 8.706400 -0.437090
v -0.415965 8.689368 -0.461650
v -0.033150 8.651902 -0.091725
v -0.410664 8.723022 -0.457243
v -0.028591 8.713537 -0.088020
v -0.033455 4.262298 0.110898
v -0.414071 4.391273 0.377948
v -0.447221 4.371963 0.353986
v -0.089782 4.210080 0.039772
v -0.429342 4.410586 0.340002
v -0.088918 4.314516 0.039096
v -0.796795 4.551957 0.666838
v -0.816303 4.541049 0.653453
v -0.805086 4.562864 0.644679
v 0.066386 5.066090 0.122255
v 0.346767 5.258080 0.533630
v 0.328278 5.244295 0.559359
v 0.031284 5.039769 0.165965
v 0.318392 5.274024 0.545269
v 0.017369 5.096342 0.145008
v -0.072734 5.893179 -0.041864
v -0.605860 6.206378 -0.498080
v -0.600869 6.196325 -0.519926
v -0.054269 5.862094 -0.091512
v -0.587643 6.215150 -0.512057
v -0.033577 5.918994 -0.081525
v 0.193852 6.520618 -0.120658
v 0.135035 9.701620 -0.103657
v 0.132677 9.665316 0.042535
v 0.159326 6.474785 0.100727
v 0.005774 6.477995 0.141479
v -0.006911 9.665640 0.079920
v -0.081284 9.698215 -0.045738
v -0.107361 6.424904 -0.041162
v 0.036318 6.511749 -0.208500
v 0.006046 9.667269 -0.158094
v -0.277062 0.020225 -0.018757
v -0.201891 3.150096 0.031442
v -0.023962 3.084239 -0.192682
v -0.057543 0.016755 -0.290291
v 0.270196 0.019435 0.179460
v 0.204730 3.138529 0.204831
v -0.082977 3.140175 0.281921
v -0.081768 0.019535 0.276116
v 0.218462 3.170979 -0.080978
v 0.261457 0.021061 -0.162587
v 0.342584 5.255019 0.553800
v -0.059816 4.292260 0.076750
v 0.098862 0.019485 0.241972
v 0.167278 5.185972 0.345135
v 0.280181 7.051440 0.299284
v 0.106613 0.018908 -0.240104
v -0.178790 0.018490 -0.163949
v -0.055580 6.449939 0.053531
v 0.118081 6.518619 -0.170943
v -0.042508 5.890414 -0.088712
v -0.092091 4.262299 0.035929
v -0.150087 3.146475 0.161618
v -0.153566 4.785641 -0.003971
v 0.329003 5.262624 0.559344
v 0.179604 5.141279 0.363284
v -0.214743 4.323453 0.239162
v 0.079375 6.901116 0.008980
v 0.145805 8.139566 0.070176
v -0.053110 5.908256 -0.060237
v -0.639751 4.459971 0.510504
v -0.192210 0.019880 0.136906
v 0.021784 8.160519 -0.184217
v 0.253625 7.032223 0.329246
v -0.439084 4.391274 0.345968
v 0.022277 5.068151 0.157106
v 0.062546 3.138484 0.252141
v 0.063049 9.700134 0.062058
v 0.136689 9.700817 -0.029429
v 0.207356 5.162048 0.327324
v 0.280805 0.020248 0.009116
v 0.242325 1.526526 -0.122762
v -0.251497 4.360524 0.182492
v 0.051912 6.918558 0.022518
v -0.310067 6.067729 -0.297004
v -0.807692 4.560006 0.660907
v -0.260890 4.286383 0.189839
v -0.118750 3.115812 -0.086557
v 0.337821 5.269196 0.547023
v -0.420466 8.706624 -0.465945
v 0.458370 7.195557 0.624769
v 0.167793 8.163481 -0.113858
v 0.007320 4.796464 -0.199699
v -0.250706 8.694695 -0.242818
v 0.083847 6.476606 0.127698
v -0.428726 8.714758 -0.454183
v -0.029121 8.682707 -0.091814
v 0.073653 6.934662 -0.000055
v -0.035826 9.720699 -0.104445
v 0.050365 5.050811 0.144062
v -0.813076 4.549535 0.665118
v 0.240693 1.509885 0.195097
v -0.327631 6.028514 -0.306251
v -0.613624 4.474579 0.528429
v -0.224313 8.669782 -0.277130
v 0.181216 4.805400 0.154139
v -0.084799 1.510662 0.283554
v 0.042398 5.083239 0.132061
v -0.431308 8.698687 -0.456331
v -0.096526 8.112532 -0.043681
v -0.606673 6.216153 -0.513278
v 0.100338 3.126918 -0.145151
v 0.181517 6.497652 -0.009161
v -0.817055 4.554770 0.654482
v 0.462048 7.186280 0.630439
v -0.048400 8.700518 -0.067922
v -0.430730 4.380673 0.366861
v 0.025643 9.804105 -0.076910
v -0.038359 4.807987 0.212725
v -0.042523 1.479998 -0.243995
v -0.339778 6.049817 -0.269227
v -0.046037 9.699236 0.019505
v -0.219207 8.719128 -0.272929
v 0.066797 9.722061 -0.131926
v -0.060248 4.232335 0.077088
v 0.000568 8.141376 0.108884
v 0.244501 7.072786 0.314985
v -0.064962 5.875598 -0.065952
v -0.624728 4.489188 0.498753
v -0.039957 6.467236 -0.129240
v -0.604381 6.211476 -0.523617
v 0.452105 7.191347 0.633546
v 0.206224 4.845955 -0.099649
v -0.051002 8.665194 -0.070037
v -0.243794 1.517160 0.007149
v -0.420819 4.401875 0.359109
v 0.220316 3.156331 0.062482
v -0.613024 6.207381 -0.517080
v 0.044706 9.804105 -0.005766
v 0.200543 4.826441 0.027925
v 0.251486 1.518994 0.036700
v -0.102182 4.796728 0.108532
v -0.172921 1.514580 0.150905
v 0.109813 4.822082 -0.157016
v 0.103191 1.502916 -0.192663
v 0.072911 4.806367 0.191113
v 0.080525 1.509839 0.249027
v -0.078252 4.789829 -0.107008
v -0.150378 1.497901 -0.124926
v -0.041356 8.135980 -0.117585
v 0.074424 8.140579 0.095025
v 0.097102 8.163217 -0.154343
v -0.052280 8.126199 0.035527
v 0.161535 8.151499 -0.021320
v -0.324829 6.059816 -0.282318
v -0.318127 6.048063 -0.302745
v -0.334520 6.038180 -0.287419
v 0.187583 5.175138 0.335297
v 0.172272 5.163680 0.355136
v 0.194384 5.150481 0.345310
v -0.618466 4.482639 0.513698
v -0.632881 4.474579 0.503808
v -0.626755 4.466519 0.520181
v -0.232163 4.343906 0.211551
v -0.257623 4.323453 0.184338
v -0.237345 4.303000 0.215604
v -0.235324 8.708192 -0.257210
v -0.220762 8.694447 -0.276140
v -0.238141 8.680966 -0.259527
v 0.267675 7.040764 0.314240
v 0.247990 7.052541 0.322902
v 0.262641 7.063144 0.306372
vt 0.8326 0.9179
vt 0.8266 0.9179
vt 0.8266 0.9177
vt 0.8326 0.9175
vt 0.8325 0.9186
vt 0.8266 0.9182
vt 0.8266 0.9181
vt 0.8326 0.9182
vt 0.8265 0.9347
vt 0.8266 0.9346
vt 0.8267 0.9347
vt 0.8325 0.9172
vt 0.8266 0.9175
vt 0.8265 0.9174
vt 0.8325 0.9169
vt 0.8307 0.9218
vt 0.8349 0.9216
vt 0.8349 0.9218
vt 0.8307 0.9222
vt 0.8307 0.9202
vt 0.8349 0.9205
vt 0.8348 0.9208
vt 0.8306 0.9207
vt 0.8306 0.9210
vt 0.8348 0.9210
vt 0.8348 0.9213
vt 0.8306 0.9214
vt 0.8265 0.9325
vt 0.8267 0.9323
vt 0.8268 0.9325
vt 0.8302 0.9087
vt 0.8339 0.9082
vt 0.8339 0.9085
vt 0.8302 0.9093
vt 0.8302 0.9062
vt 0.8338 0.9068
vt 0.8337 0.9071
vt 0.8302 0.9068
vt 0.8302 0.9074
vt 0.8338 0.9075
vt 0.8338 0.9078
vt 0.8302 0.9081
vt 0.8375 0.9080
vt 0.8413 0.9079
vt 0.8413 0.9081
vt 0.8376 0.9083
vt 0.8375 0.9069
vt 0.8412 0.9071
vt 0.8411 0.9073
vt 0.8374 0.9072
vt 0.8374 0.9075
vt 0.8411 0.9075
vt 0.8412 0.9077
vt 0.8375 0.9078
vt 0.8269 0.9338
vt 0.8267 0.9339
vt 0.8267 0.9337
vt 0.8307 0.9234
vt 0.8266 0.9236
vt 0.8265 0.9233
vt 0.8306 0.9230
vt 0.8307 0.9249
vt 0.8266 0.9246
vt 0.8266 0.9244
vt 0.8307 0.9245
vt 0.8307 0.9241
vt 0.8266 0.9241
vt 0.8266 0.9239
vt 0.8307 0.9238
vt 0.8265 0.9330
vt 0.8265 0.9327
vt 0.8268 0.9329
vt 0.8325 0.9124
vt 0.8385 0.9121
vt 0.8386 0.9122
vt 0.8326 0.9127
vt 0.8325 0.9109
vt 0.8385 0.9113
vt 0.8384 0.9115
vt 0.8325 0.9113
vt 0.8325 0.9117
vt 0.8385 0.9117
vt 0.8385 0.9119
vt 0.8325 0.9121
vt 0.8265 0.9344
vt 0.8266 0.9342
vt 0.8267 0.9344
vt 0.8189 0.9163
vt 0.8195 0.9409
vt 0.8183 0.9409
vt 0.8175 0.9161
vt 0.8272 0.9160
vt 0.8263 0.9410
vt 0.8252 0.9410
vt 0.8258 0.9158
vt 0.8216 0.9164
vt 0.8217 0.9409
vt 0.8206 0.9409
vt 0.8203 0.9165
vt 0.8163 0.9162
vt 0.8171 0.9410
vt 0.8160 0.9410
vt 0.8152 0.9162
vt 0.8243 0.9161
vt 0.8241 0.9410
vt 0.8229 0.9409
vt 0.8229 0.9164
vt 0.8043 0.9149
vt 0.8027 0.9390
vt 0.8005 0.9382
vt 0.8018 0.9144
vt 0.8011 0.9639
vt 0.7994 0.9889
vt 0.7977 0.9896
vt 0.7991 0.9639
vt 0.7894 0.9148
vt 0.7895 0.9390
vt 0.7871 0.9390
vt 0.7867 0.9148
vt 0.7899 0.9638
vt 0.7903 0.9887
vt 0.7891 0.9888
vt 0.7881 0.9639
vt 0.7994 0.9147
vt 0.7984 0.9389
vt 0.7963 0.9396
vt 0.7970 0.9151
vt 0.7973 0.9642
vt 0.7963 0.9896
vt 0.7949 0.9896
vt 0.7956 0.9646
vt 0.8092 0.9155
vt 0.8070 0.9398
vt 0.8049 0.9397
vt 0.8067 0.9153
vt 0.8049 0.9643
vt 0.8028 0.9888
vt 0.8012 0.9882
vt 0.8030 0.9640
vt 0.7945 0.9149
vt 0.7941 0.9392
vt 0.7919 0.9389
vt 0.7921 0.9147
vt 0.7937 0.9642
vt 0.7932 0.9891
vt 0.7915 0.9887
vt 0.7917 0.9638
vt 0.8169 0.8054
vt 0.8130 0.8000
vt 0.8186 0.7959
vt 0.8243 0.8000
vt 0.8256 0.8174
vt 0.8187 0.8174
vt 0.8278 0.8108
vt 0.8209 0.8108
vt 0.8300 0.8041
vt 0.8117 0.8174
vt 0.8095 0.8108
vt 0.8073 0.8041
vt 0.7950 0.8905
vt 0.7922 0.8905
vt 0.7977 0.8905
vt 0.8092 0.9398
vt 0.8068 0.9646
vt 0.8044 0.9894
vt 0.8114 0.8913
vt 0.8086 0.8910
vt 0.8142 0.8916
vt 0.8117 0.9157
vt 0.8004 0.8906
vt 0.8031 0.8906
vt 0.7893 0.8906
vt 0.7863 0.8906
vt 0.8059 0.8908
vt 0.8246 0.8912
vt 0.8229 0.8919
vt 0.8264 0.8905
vt 0.8155 0.8914
vt 0.8143 0.8915
vt 0.8166 0.8913
vt 0.8215 0.8920
vt 0.8201 0.8920
vt 0.8281 0.8910
vt 0.8298 0.8915
vt 0.8286 0.9162
vt 0.8275 0.9410
vt 0.8184 0.8917
vt 0.8268 0.9342
vt 0.8269 0.9344
vt 0.8267 0.9341
vt 0.8266 0.9116
vt 0.8265 0.9122
vt 0.8266 0.9111
vt 0.8266 0.9106
vt 0.8266 0.9101
vt 0.8326 0.9106
vt 0.8386 0.9111
vt 0.8266 0.9127
vt 0.8266 0.9132
vt 0.8268 0.9326
vt 0.8270 0.9328
vt 0.8265 0.9325
vt 0.8349 0.9241
vt 0.8349 0.9236
vt 0.8349 0.9247
vt 0.8349 0.9252
vt 0.8348 0.9257
vt 0.8306 0.9253
vt 0.8265 0.9249
vt 0.8349 0.9231
vt 0.8348 0.9226
vt 0.8265 0.9338
vt 0.8265 0.9336
vt 0.8265 0.9340
vt 0.8339 0.9065
vt 0.8376 0.9067
vt 0.8413 0.9069
vt 0.8266 0.9074
vt 0.8265 0.9083
vt 0.8267 0.9066
vt 0.8266 0.9057
vt 0.8265 0.9048
vt 0.8302 0.9057
vt 0.8265 0.9092
vt 0.8265 0.9101
vt 0.8269 0.9323
vt 0.8270 0.9325
vt 0.8268 0.9320
vt 0.8265 0.9210
vt 0.8265 0.9215
vt 0.8265 0.9205
vt 0.8266 0.9200
vt 0.8266 0.9195
vt 0.8307 0.9198
vt 0.8349 0.9202
vt 0.8266 0.9220
vt 0.8266 0.9226
vt 0.8385 0.9169
vt 0.8385 0.9164
vt 0.8386 0.9174
vt 0.8268 0.9346
vt 0.8269 0.9347
vt 0.8267 0.9344
vt 0.8385 0.9189
vt 0.8385 0.9184
vt 0.8385 0.9195
vt 0.8325 0.9189
vt 0.8265 0.9184
vt 0.8385 0.9179
vn 0.2658 0.8197 -0.5074
vn 0.4986 0.8609 0.1014
vn 0.9080 0.0490 -0.4160
vn 0.8610 0.0110 -0.5084
vn -0.8378 0.0029 0.5459
vn -0.1985 0.3703 0.9075
vn -0.5169 0.8484 0.1139
vn -0.5709 0.8202 0.0353
vn 0.5887 -0.8083 0.0069
vn 0.8075 -0.1767 0.5628
vn -0.1696 -0.7296 0.6625
vn -0.2475 -0.8002 0.5463
vn -0.3964 -0.8611 0.3185
vn -0.8364 -0.4677 -0.2859
vn 0.0598 -0.8022 -0.5940
vn 0.2957 -0.8679 -0.3992
vn 0.6921 -0.0116 -0.7217
vn -0.0694 0.1216 -0.9901
vn 0.1903 0.8422 -0.5045
vn 0.3623 0.8608 -0.3575
vn -0.3308 0.8720 0.3608
vn -0.7029 0.6765 -0.2198
vn -0.8712 0.0287 0.4901
vn -0.7282 0.0123 0.6852
vn 0.0919 -0.8349 0.5427
vn 0.0834 -0.8297 0.5519
vn -0.5447 -0.8132 -0.2052
vn -0.5503 -0.8094 -0.2048
vn -0.6629 0.0118 -0.7486
vn -0.6452 0.0130 -0.7639
vn -0.1596 0.8405 -0.5178
vn -0.1940 0.8501 -0.4895
vn 0.4604 0.8498 0.2567
vn 0.4857 0.8414 0.2369
vn 0.5883 -0.0028 0.8086
vn 0.5748 0.0114 0.8182
vn 0.0745 -0.8246 0.5608
vn -0.4979 -0.1961 0.8448
vn -0.7347 -0.6771 -0.0419
vn -0.5477 -0.8087 -0.2146
vn -0.6294 0.0078 -0.7770
vn -0.9198 0.3688 -0.1341
vn -0.2337 0.8665 -0.4411
vn -0.1133 0.8274 -0.5500
vn 0.5117 0.8308 0.2189
vn -0.1240 0.8604 0.4943
vn 0.4201 0.0850 0.9035
vn 0.6029 0.0072 0.7978
vn 0.5847 -0.8111 -0.0154
vn 0.8354 -0.2006 0.5118
vn -0.0343 -0.6288 0.7768
vn -0.2165 -0.7871 0.5776
vn -0.8011 0.0204 0.5982
vn -0.1343 0.3696 0.9194
vn -0.4159 0.8810 0.2254
vn -0.5587 0.8274 0.0573
vn 0.2427 0.8076 -0.5374
vn 0.5292 0.8402 0.1188
vn 0.9294 0.0890 -0.3582
vn 0.8293 -0.0034 -0.5588
vn -0.6299 -0.7451 0.2192
vn -0.9680 -0.0861 -0.2359
vn -0.1499 -0.7324 -0.6642
vn -0.0432 -0.8122 -0.5817
vn 0.5853 -0.0723 -0.8076
vn -0.1009 0.3628 -0.9264
vn 0.5242 0.7941 -0.3075
vn 0.5995 0.7594 -0.2526
vn 0.0143 0.8341 0.5515
vn -0.4142 0.9079 0.0641
vn -0.6916 0.1331 0.7099
vn -0.6189 0.0891 0.7804
vn 0.9940 0.0146 0.1084
vn 0.8987 0.4074 0.1624
vn 0.7561 0.2096 0.6200
vn 0.7631 0.0196 0.6460
vn -0.8494 0.0079 0.5278
vn -0.7186 0.4016 0.5678
vn -0.9470 0.3177 -0.0473
vn -0.9974 0.0077 -0.0719
vn 0.4357 0.0171 -0.8999
vn 0.2434 0.4226 -0.8730
vn 0.8108 0.3340 -0.4807
vn 0.8767 0.0192 -0.4807
vn 0.2574 0.0206 0.9661
vn 0.2309 0.4316 0.8720
vn -0.3614 0.2111 0.9082
vn -0.3736 0.0171 0.9274
vn -0.7679 0.0053 -0.6405
vn -0.6412 0.4111 -0.6480
vn -0.2363 0.1787 -0.9551
vn -0.2179 0.0141 -0.9759
vn -0.7780 0.0300 -0.6275
vn -0.7781 0.0205 -0.6279
vn -0.2373 0.0207 -0.9712
vn -0.2460 0.0349 -0.9686
vn -0.7722 0.0101 -0.6353
vn -0.7644 0.0064 -0.6447
vn -0.1954 0.0046 -0.9807
vn -0.2134 -0.0005 -0.9770
vn 0.2620 -0.0008 0.9651
vn 0.2589 0.0175 0.9657
vn -0.4043 0.0250 0.9143
vn -0.3798 0.0007 0.9251
vn 0.2577 0.0347 0.9656
vn 0.2575 0.0278 0.9659
vn -0.3828 0.0308 0.9233
vn -0.4022 0.0480 0.9143
vn 0.3887 0.0285 -0.9209
vn 0.4161 0.0095 -0.9093
vn 0.8601 0.0117 -0.5099
vn 0.8358 0.0268 -0.5484
vn 0.4506 -0.0090 -0.8927
vn 0.4644 0.0029 -0.8856
vn 0.8935 0.0090 -0.4490
vn 0.8824 0.0014 -0.4705
vn -0.8675 0.0071 0.4973
vn -0.8888 0.0249 0.4577
vn -0.9947 0.0261 -0.0994
vn -0.9964 0.0238 -0.0810
vn -0.8822 0.0404 0.4691
vn -0.8597 0.0243 0.5103
vn -0.9960 0.0187 -0.0868
vn -0.9944 0.0281 -0.1019
vn 0.9998 0.0185 0.0085
vn 0.9986 0.0159 0.0510
vn 0.7752 0.0208 0.6314
vn 0.7905 0.0113 0.6124
vn 0.9949 0.0134 0.0998
vn 0.9910 0.0132 0.1331
vn 0.7605 0.0244 0.6489
vn 0.7668 0.0292 0.6412
vn 0.0989 0.9135 0.3945
vn -0.0936 0.9448 -0.3139
vn 0.9998 0.0184 -0.0106
vn 0.8002 0.0102 0.5997
vn 0.8235 0.0273 -0.5667
vn -0.8501 0.0048 0.5266
vn -0.9973 0.0228 -0.0702
vn -0.3630 -0.0019 0.9318
vn 0.3776 0.0293 -0.9255
vn -0.2502 0.0353 -0.9676
vn 0.2643 -0.0026 0.9644
vn -0.7768 0.0301 -0.6290
vn 0.0104 0.8311 0.5560
vn -0.6263 0.0645 0.7769
vn 0.5942 0.7695 -0.2340
vn 0.5856 -0.0741 -0.8072
vn -0.0770 -0.8322 -0.5491
vn -0.6321 -0.7409 0.2269
vn 0.2445 0.8051 -0.5404
vn 0.8213 0.0192 -0.5702
vn -0.5376 0.8427 0.0282
vn -0.8033 0.0242 0.5951
vn -0.2123 -0.7934 0.5705
vn 0.5865 -0.8097 -0.0204
vn 0.4629 0.8464 0.2633
vn 0.5394 -0.1291 0.8321
vn -0.2440 0.8109 -0.5318
vn -0.6671 -0.0075 -0.7449
vn -0.5163 -0.8426 -0.1528
vn 0.0883 -0.8390 0.5370
vn -0.3316 0.8701 0.3646
vn -0.7236 0.0382 0.6891
vn 0.3426 0.8798 -0.3296
vn 0.6939 -0.0068 -0.7200
vn 0.2939 -0.8726 -0.3902
vn -0.3977 -0.8587 0.3231
vn 0.5940 -0.8045 0.0006
vn -0.2065 -0.8241 0.5275
vn 0.8642 -0.0142 -0.5029
vn -0.8381 0.0012 0.5455
vn -0.5584 0.8293 0.0199
vn 0.2708 0.8162 -0.5104
usemtl None
s 1
f 174/1/1 93/2/2 3/3/3 58/4/4
f 173/5/5 134/6/6 2/7/7 129/8/8
f 2/9/7 134/10/6 93/11/2
f 172/12/9 117/13/10 6/14/11 76/15/12
f 171/16/13 111/17/14 9/18/15 107/19/16
f 170/20/17 92/21/18 11/22/19 125/23/20
f 169/24/21 98/25/22 8/26/23 96/27/24
f 11/28/19 92/29/18 98/30/22
f 168/31/25 119/32/26 15/33/27 89/34/28
f 167/35/29 77/36/30 17/37/31 85/38/32
f 166/39/33 138/40/34 14/41/35 69/42/36
f 165/43/37 103/44/38 20/45/39 73/46/40
f 164/47/41 116/48/42 21/49/43 131/50/44
f 163/51/45 88/52/46 19/53/47 106/54/48
f 21/55/43 116/56/42 88/57/46
f 162/58/49 54/59/50 24/60/51 68/61/52
f 161/62/53 67/63/54 26/64/55 57/65/56
f 160/66/57 91/67/58 23/68/59 82/69/60
f 26/70/55 67/71/54 91/72/58
f 159/73/61 140/74/62 30/75/63 105/76/64
f 158/77/65 133/78/66 32/79/67 87/80/68
f 157/81/69 113/82/70 29/83/71 123/84/72
f 32/85/67 133/86/66 113/87/70
f 156/88/73 81/89/74 36/90/75 71/91/76
f 155/92/77 124/93/78 40/94/79 112/95/80
f 154/96/81 126/97/82 35/98/83 94/99/84
f 153/100/85 80/101/86 39/102/87 128/103/88
f 152/104/89 101/105/90 43/106/91 75/107/92
f 151/108/93 90/109/94 46/110/95 122/111/96
f 150/112/97 132/113/98 42/114/99 95/115/100
f 149/116/101 79/117/102 50/118/103 109/119/104
f 148/120/105 97/121/106 38/122/107 121/123/108
f 147/124/109 114/125/110 52/126/111 84/127/112
f 146/128/113 62/129/114 34/130/115 135/131/116
f 145/132/117 65/133/118 45/134/119 137/135/120
f 144/136/121 61/137/122 41/138/123 66/139/124
f 143/140/125 139/141/126 49/142/127 104/143/128
f 142/144/129 115/145/130 37/146/131 108/147/132
f 141/148/133 80/149/86 36/150/75 81/151/74
f 43/152/91 101/153/90 126/154/82
f 126/154/82 120/155/134 35/156/83
f 126/154/82 101/153/90 120/155/134
f 101/153/90 40/157/79 120/155/134
f 120/155/134 141/148/133 81/151/74 35/156/83
f 40/157/79 124/158/78 141/148/133 120/155/134
f 124/158/78 39/159/87 80/149/86 141/148/133
f 139/141/126 142/144/129 108/147/132 49/142/127
f 52/126/111 135/131/116 142/144/129 139/141/126
f 135/131/116 34/130/115 115/145/130 142/144/129
f 83/160/135 143/140/125 104/143/128 48/161/136
f 53/162/137 84/127/112 143/140/125 83/160/135
f 84/127/112 52/126/111 139/141/126 143/140/125
f 65/133/118 144/136/121 66/139/124 45/134/119
f 50/163/103 121/164/108 144/136/121 65/133/118
f 121/164/108 38/165/107 61/137/122 144/136/121
f 74/166/138 145/132/117 137/135/120 44/167/139
f 51/168/140 109/169/104 145/132/117 74/166/138
f 109/169/104 50/163/103 65/133/118 145/132/117
f 114/125/110 146/128/113 135/131/116 52/126/111
f 46/110/95 95/115/100 146/128/113 114/125/110
f 95/115/100 42/114/99 62/129/114 146/128/113
f 59/170/141 147/124/109 84/127/112 53/162/137
f 47/171/142 122/111/96 147/124/109 59/170/141
f 122/111/96 46/110/95 114/125/110 147/124/109
f 79/117/102 148/120/105 121/123/108 50/118/103
f 49/142/127 108/147/132 148/120/105 79/117/102
f 108/147/132 37/146/131 97/121/106 148/120/105
f 56/172/143 149/116/101 109/119/104 51/173/140
f 48/161/136 104/143/128 149/116/101 56/172/143
f 104/143/128 49/142/127 79/117/102 149/116/101
f 90/109/94 150/112/97 95/115/100 46/110/95
f 45/134/119 66/139/124 150/112/97 90/109/94
f 66/139/124 41/138/123 132/113/98 150/112/97
f 60/174/144 151/108/93 122/111/96 47/171/142
f 44/167/139 137/135/120 151/108/93 60/174/144
f 137/135/120 45/134/119 90/109/94 151/108/93
f 132/175/98 152/104/89 75/107/92 42/176/99
f 41/177/123 112/95/80 152/104/89 132/175/98
f 112/95/80 40/94/79 101/105/90 152/104/89
f 97/178/106 153/100/85 128/103/88 38/179/107
f 37/180/131 71/91/76 153/100/85 97/178/106
f 71/91/76 36/90/75 80/101/86 153/100/85
f 62/181/114 154/96/81 94/99/84 34/182/115
f 42/176/99 75/107/92 154/96/81 62/181/114
f 75/107/92 43/106/91 126/97/82 154/96/81
f 61/183/122 155/92/77 112/95/80 41/177/123
f 38/184/107 128/185/88 155/92/77 61/183/122
f 128/185/88 39/186/87 124/93/78 155/92/77
f 115/187/130 156/88/73 71/91/76 37/180/131
f 34/182/115 94/99/84 156/88/73 115/187/130
f 94/99/84 35/98/83 81/89/74 156/88/73
f 113/87/70 140/188/62 29/189/71
f 113/87/70 133/86/66 140/188/62
f 133/86/66 30/190/63 140/188/62
f 72/191/145 157/81/69 123/84/72 28/192/146
f 33/193/147 87/80/68 157/81/69 72/191/145
f 87/80/68 32/79/67 113/82/70 157/81/69
f 63/194/148 158/77/65 87/80/68 33/193/147
f 31/195/149 105/196/64 158/77/65 63/194/148
f 105/196/64 30/197/63 133/78/66 158/77/65
f 130/198/150 159/73/61 105/76/64 31/199/149
f 28/192/146 123/84/72 159/73/61 130/198/150
f 123/84/72 29/83/71 140/74/62 159/73/61
f 91/72/58 54/200/50 23/201/59
f 91/72/58 67/71/54 54/200/50
f 67/71/54 24/202/51 54/200/50
f 110/203/151 160/66/57 82/69/60 22/204/152
f 27/205/153 57/65/56 160/66/57 110/203/151
f 57/65/56 26/64/55 91/67/58 160/66/57
f 78/206/154 161/62/53 57/65/56 27/205/153
f 25/207/155 68/208/52 161/62/53 78/206/154
f 68/208/52 24/209/51 67/63/54 161/62/53
f 102/210/156 162/58/49 68/61/52 25/211/155
f 22/204/152 82/69/60 162/58/49 102/210/156
f 82/69/60 23/68/59 54/59/50 162/58/49
f 88/57/46 103/212/38 19/213/47
f 88/57/46 116/56/42 103/212/38
f 116/56/42 20/214/39 103/212/38
f 138/40/34 163/51/45 106/54/48 14/41/35
f 17/37/31 131/50/44 163/51/45 138/40/34
f 131/50/44 21/49/43 88/52/46 163/51/45
f 77/36/30 164/47/41 131/50/44 17/37/31
f 15/215/27 73/216/40 164/47/41 77/36/30
f 73/216/40 20/217/39 116/48/42 164/47/41
f 119/32/26 165/43/37 73/46/40 15/33/27
f 14/41/35 106/54/48 165/43/37 119/32/26
f 106/54/48 19/53/47 103/44/38 165/43/37
f 55/218/157 166/39/33 69/42/36 13/219/158
f 18/220/159 85/38/32 166/39/33 55/218/157
f 85/38/32 17/37/31 138/40/34 166/39/33
f 64/221/160 167/35/29 85/38/32 18/220/159
f 16/222/161 89/223/28 167/35/29 64/221/160
f 89/223/28 15/215/27 77/36/30 167/35/29
f 127/224/162 168/31/25 89/34/28 16/225/161
f 13/219/158 69/42/36 168/31/25 127/224/162
f 69/42/36 14/41/35 119/32/26 168/31/25
f 98/30/22 111/226/14 8/227/23
f 98/30/22 92/29/18 111/226/14
f 92/29/18 9/228/15 111/226/14
f 118/229/163 169/24/21 96/27/24 7/230/164
f 12/231/165 125/23/20 169/24/21 118/229/163
f 125/23/20 11/22/19 98/25/22 169/24/21
f 99/232/166 170/20/17 125/23/20 12/231/165
f 10/233/167 107/234/16 170/20/17 99/232/166
f 107/234/16 9/235/15 92/21/18 170/20/17
f 136/236/168 171/16/13 107/19/16 10/237/167
f 7/230/164 96/27/24 171/16/13 136/236/168
f 96/27/24 8/26/23 111/17/14 171/16/13
f 70/238/169 172/12/9 76/15/12 5/239/170
f 4/240/171 58/4/4 172/12/9 70/238/169
f 58/4/4 3/3/3 117/13/10 172/12/9
f 93/11/2 117/241/10 3/242/3
f 93/11/2 134/10/6 117/241/10
f 134/10/6 6/243/11 117/241/10
f 86/244/172 173/5/5 129/8/8 1/245/173
f 5/246/170 76/247/12 173/5/5 86/244/172
f 76/247/12 6/248/11 134/6/6 173/5/5
f 100/249/174 174/1/1 58/4/4 4/240/171
f 1/245/173 129/8/8 174/1/1 100/249/174
f 129/8/8 2/7/7 93/2/2 174/1/1
