# Blender v2.78 (sub 0) OBJ File: ''
# www.blender.org
mtllib Pine_Tree_m_08.mtl
o Pine_Tree_m_08
v -0.083999 0.458342 0.130788
v -0.071234 1.842760 0.111491
v -0.115219 1.841456 -0.022695
v -0.136891 0.458290 -0.031963
v 0.001561 0.458331 -0.132549
v -0.000807 1.839997 -0.105859
v 0.113164 1.841535 -0.022020
v 0.139998 0.458356 -0.031946
v 0.087122 0.458341 0.130791
v 0.069741 1.842281 0.111647
v 0.168338 0.011340 -0.055691
v 0.104054 0.011339 0.142152
v -0.168254 0.011338 -0.055691
v 0.000042 0.011340 -0.177965
v -0.103970 0.011339 0.142152
v 0.755376 0.350193 0.845454
v 0.249628 1.799733 0.588121
v -0.402442 1.810125 0.516998
v -0.365980 0.764502 1.077651
v 1.160457 0.799558 -0.418961
v 0.582782 1.799185 -0.064778
v 0.689224 1.421054 1.079591
v -0.599775 1.108045 1.225775
v -1.347006 0.317271 0.410476
v -0.746401 1.803390 -0.049538
v -0.430331 1.791777 -0.645090
v -0.880305 0.769041 -0.808663
v 0.180922 0.357760 -1.088254
v 0.202942 1.785849 -0.546768
v -0.769544 1.156241 -1.099033
v 0.462024 1.434502 -1.238875
v -1.278198 1.555989 0.209714
v 1.356463 1.096029 -0.152539
v -0.192380 3.243904 -0.208397
v 0.070551 3.230591 -0.108625
v 0.159190 3.231704 0.390765
v -0.109794 3.242881 0.298591
v 0.182204 3.231496 0.049446
v 0.184709 2.043262 1.237086
v -0.865173 2.382553 0.728647
v -0.217705 3.230757 0.036129
v -0.176430 2.387788 -1.022627
v 0.938543 2.149228 -0.728471
v -1.211181 1.902804 -0.336800
v 0.166083 3.995837 0.379994
v -0.095596 4.000562 0.281747
v 1.201637 2.527703 0.463870
v 0.088844 3.996420 -0.102264
v 0.196624 4.003369 0.050904
v -0.165350 3.994140 -0.207971
v -0.194805 3.993758 0.023540
v 0.228488 3.362532 0.782103
v -0.590555 3.165166 0.662308
v 1.026073 3.098802 0.196382
v -0.305743 3.164048 -0.813741
v 0.456239 3.366704 -0.496415
v -0.722006 3.473149 -0.120379
v -0.201473 4.480040 -0.199229
v 0.112508 4.491228 -0.119375
v 0.173539 4.492596 0.397202
v -0.158735 4.486957 0.335877
v 0.319492 4.504621 0.063501
v 0.001634 5.467300 0.089003
v -0.036653 1.417645 0.022847
v -0.299309 4.488712 0.059239
v -0.660179 1.280431 -0.730430
v -0.490383 2.818254 0.508584
v -0.114170 1.788565 -0.606083
v -0.087237 0.011339 -0.121138
v -0.451939 3.745135 -0.046454
v -0.188087 3.263378 0.736039
v -0.483023 3.191422 0.505801
v -0.519312 3.964903 -0.032408
v -0.178521 2.820976 -0.614740
v 0.128469 3.230857 -0.031705
v -0.157781 1.294703 -1.193347
v -0.183220 3.993885 -0.095469
v -0.000738 1.842548 0.115136
v 0.173881 3.231490 0.222097
v 0.336868 1.606791 -0.898792
v 0.072681 0.458344 -0.084865
v -0.102230 4.990257 -0.053462
v -0.347152 2.212878 1.001545
v -0.250790 4.501275 -0.069975
v -0.147502 3.997214 0.153838
v 1.091940 2.341019 -0.137205
v 0.591249 1.094913 -0.207403
v -0.339471 3.585949 0.470679
v 0.928563 1.264799 -0.709651
v 0.094848 1.841923 0.045933
v 0.198948 0.563572 0.971549
v 0.090659 4.994855 0.243581
v 0.000387 1.158050 -0.119193
v 0.389054 2.269625 -0.894745
v 0.766704 2.163529 -0.056897
v -0.209114 1.076084 0.581418
v 0.056043 4.993988 -0.017181
v 0.203323 3.910432 0.597075
v -0.957218 1.332914 0.732604
v 0.008173 4.506828 0.367817
v -0.257108 3.802668 -0.515825
v 0.469506 1.607064 0.838285
v 0.126711 1.158850 -0.026870
v 0.184588 3.999633 0.217481
v 0.000820 0.219487 -0.156497
v -0.708011 2.939662 -0.158926
v 0.000042 0.011339 0.147479
v -0.045485 4.502628 -0.158581
v -0.863896 0.546876 0.752236
v 0.757133 3.232129 -0.152611
v -0.169356 3.190803 -0.617450
v -0.228712 4.504833 0.197844
v -0.126174 1.158774 -0.027223
v -1.016932 1.678134 0.076993
v 0.509298 2.689060 -0.413336
v -0.601086 1.462887 -0.879511
v 0.159187 5.003676 0.076390
v 0.701128 3.267713 0.260096
v 0.428599 2.334967 0.731373
v 0.259836 2.340263 -0.674460
v -0.060117 1.840687 -0.067182
v -0.076428 1.805029 0.564262
v -0.113522 0.458315 0.050412
v -0.720771 0.861845 0.227450
v -0.076094 4.993825 0.214401
v -0.352064 0.569774 -0.957396
v 0.144881 3.999959 -0.027843
v -0.165965 3.236807 0.168567
v -0.150925 4.991234 0.075195
v 0.175128 3.013525 0.813207
v -0.077682 1.159463 0.121390
v 0.641499 3.229944 0.497449
v -0.141178 0.011339 0.044877
v -0.094663 0.219462 0.137370
v 0.073530 3.264940 -0.669188
v -0.039187 3.995197 -0.158344
v -1.123553 0.549185 -0.199689
v 0.684829 3.781858 0.131278
v 0.690169 2.886543 0.263026
v 0.044737 1.263239 1.175420
v -0.153677 0.219449 -0.044252
v 0.608026 3.551833 0.120665
v -0.743057 2.404779 0.129602
v 0.975768 1.435804 -0.106840
v -0.597581 1.797546 -0.353918
v 0.505821 1.067533 0.719927
v 0.402098 1.792455 -0.310872
v 0.155315 0.219482 -0.044250
v -0.208150 3.237357 -0.089422
v -1.043202 1.357893 -0.453453
v 0.215756 4.515426 -0.028629
v 0.706512 2.285842 0.867965
v 1.045095 1.258313 0.473059
v 0.058282 1.840736 -0.066828
v 0.080666 0.883418 -0.563340
v 0.247336 4.516068 0.229949
v 0.166590 2.635676 0.815646
v -0.506639 1.447707 0.875082
v 0.197618 3.688228 0.575927
v -0.708737 2.142771 -0.693487
v -0.583671 1.806977 0.238507
v -1.054276 1.051174 0.181688
v -0.483027 1.078758 -0.409007
v 0.025714 3.237453 0.350081
v -0.484759 2.202113 -0.649916
v 0.001562 0.458342 0.134025
v 0.267104 3.689534 -0.296522
v 0.518890 3.067889 -0.417918
v -0.714040 2.562128 -0.155945
v -0.061884 3.237370 -0.161710
v 0.969564 0.581282 0.215196
v 0.116638 0.458348 0.050423
v 0.425931 1.799488 0.267049
v 0.875448 1.300391 -0.245454
v -0.668782 3.320316 0.276868
v 0.141263 0.011340 0.044877
v 0.289373 3.911882 -0.314152
v -0.385370 1.287994 0.800419
v -0.348942 2.176828 0.765077
v 0.087322 0.011340 -0.121138
v 0.096304 0.219467 0.137370
v -0.069567 0.458310 -0.084874
v -0.381542 3.806701 0.505615
v -0.096629 1.842135 0.045504
v -0.522798 3.319693 -0.478299
v 0.036238 3.998201 0.336288
v 0.384255 0.879296 0.450911
v 0.078516 1.159216 0.121469
v -0.236506 3.582141 -0.508613
v 0.191343 1.064176 -0.821290
v -1.059515 2.141201 0.197633
v 0.678210 0.585175 -0.761824
v -0.237281 1.172234 -0.790540
v 0.453821 3.845890 0.369439
v -0.394909 3.884274 -0.281465
v 0.497293 3.846686 -0.094020
v -0.458758 3.886388 0.240501
v -0.092602 3.858261 0.561277
v 0.014719 3.856944 -0.424149
v -0.403107 3.666148 0.215662
v 0.446627 3.620403 -0.090308
v -0.350256 3.664153 -0.284779
v 0.013973 3.635578 -0.411236
v 0.411549 3.619684 0.353415
v -0.447720 3.063938 -0.396701
v 0.446415 3.140814 0.546411
v -0.073956 3.636854 0.532928
v -0.607336 3.064830 0.174890
v 0.178299 3.129863 -0.528895
v 0.622008 3.169110 -0.082445
v 0.611705 2.788985 -0.078666
v -0.455300 2.690303 -0.393873
v 0.436642 2.761235 0.549075
v -0.156910 3.102459 0.671551
v -0.613988 2.689446 0.177778
v 0.168903 2.755638 -0.525236
v -0.556223 2.291246 0.455374
v 0.523975 2.251570 -0.373708
v -0.625127 2.304348 -0.266198
v -0.164848 2.727031 0.674156
v 0.610369 2.249079 0.343001
v 0.040342 2.255322 0.762296
v 0.738626 1.521334 0.373178
v -0.114956 2.270916 -0.675985
v -0.775527 1.563478 0.485856
v 0.670596 1.521033 -0.512337
v -0.823282 1.571380 -0.408958
v -0.134357 1.534380 -0.906425
v -0.732533 1.169499 0.500846
v 0.545446 1.182449 -0.543820
v -0.872237 1.165599 -0.279592
v -0.018571 1.526780 0.873904
v 0.706207 1.184117 0.242123
v 0.063184 1.177802 0.775842
v 0.105426 1.159039 0.048220
v -0.127609 0.219455 0.047676
v 0.080193 0.219485 -0.103299
v 0.000820 0.219465 0.140986
v -0.078553 0.219468 -0.103300
v 0.129248 0.219475 0.047677
v -0.064634 1.158397 -0.075606
v 0.000420 1.159349 0.124385
v 0.065288 1.158439 -0.075424
v -0.104743 1.159128 0.047998
vt 0.7997 0.9476
vt 0.7995 0.9769
vt 0.7933 0.9769
vt 0.7936 0.9475
vt 0.8365 0.9477
vt 0.8363 0.9775
vt 0.8302 0.9775
vt 0.8303 0.9477
vt 0.8119 0.9476
vt 0.8119 0.9770
vt 0.8058 0.9769
vt 0.8058 0.9476
vt 0.7874 0.9475
vt 0.7872 0.9770
vt 0.7810 0.9772
vt 0.7812 0.9475
vt 0.8244 0.9068
vt 0.8242 0.9180
vt 0.8180 0.9181
vt 0.8182 0.9070
vt 0.7874 0.9070
vt 0.7876 0.9181
vt 0.7815 0.9179
vt 0.7812 0.9068
vt 0.8120 0.9072
vt 0.8119 0.9182
vt 0.8058 0.9183
vt 0.8059 0.9073
vt 0.8367 0.9068
vt 0.8367 0.9180
vt 0.8304 0.9179
vt 0.8305 0.9067
vt 0.7997 0.9073
vt 0.7998 0.9182
vt 0.7938 0.9182
vt 0.7936 0.9073
vt 0.8242 0.9477
vt 0.8241 0.9773
vt 0.8181 0.9772
vt 0.8181 0.9476
vt 0.9102 0.4322
vt 0.9220 0.4320
vt 0.9166 0.4429
vt 0.9026 0.4475
vt 0.9356 0.4089
vt 0.9387 0.4182
vt 0.9275 0.4212
vt 0.9177 0.4168
vt 0.9051 0.4421
vt 0.9125 0.4575
vt 0.9055 0.4630
vt 0.8961 0.4438
vt 0.9397 0.4701
vt 0.9412 0.4581
vt 0.9529 0.4557
vt 0.9588 0.4649
vt 0.9630 0.4173
vt 0.9559 0.4243
vt 0.9498 0.4152
vt 0.9535 0.4010
vt 0.9116 0.4614
vt 0.9231 0.4516
vt 0.9296 0.4604
vt 0.9206 0.4754
vt 0.9662 0.4263
vt 0.9590 0.4098
vt 0.9661 0.4012
vt 0.9757 0.4226
vt 0.9379 0.4037
vt 0.9167 0.3975
vt 0.9108 0.3883
vt 0.9384 0.3947
vt 0.9613 0.4604
vt 0.9733 0.4428
vt 0.9854 0.4440
vt 0.9685 0.4664
vt 0.9072 0.4121
vt 0.8977 0.4267
vt 0.8868 0.4246
vt 0.8988 0.4065
vt 0.9605 0.4482
vt 0.9453 0.4433
vt 0.9476 0.4365
vt 0.9659 0.4358
vt 0.9309 0.4678
vt 0.9493 0.4780
vt 0.9516 0.4887
vt 0.9286 0.4758
vt 0.9124 0.4347
vt 0.9183 0.4222
vt 0.9273 0.4307
vt 0.9244 0.4367
vt 0.9327 0.4148
vt 0.9472 0.4074
vt 0.9400 0.4263
vt 0.9337 0.4285
vt 0.9121 0.4472
vt 0.9184 0.4625
vt 0.9088 0.4760
vt 0.8995 0.4525
vt 0.9388 0.4655
vt 0.9226 0.4704
vt 0.9302 0.4525
vt 0.9366 0.4512
vt 0.9566 0.4216
vt 0.9438 0.4314
vt 0.9146 0.4589
vt 0.9066 0.4473
vt 0.9215 0.4427
vt 0.9259 0.4476
vt 0.9620 0.4307
vt 0.9557 0.4148
vt 0.9635 0.4018
vt 0.9730 0.4265
vt 0.9139 0.4187
vt 0.9057 0.4318
vt 0.8902 0.4291
vt 0.9023 0.4097
vt 0.9166 0.4358
vt 0.9223 0.4250
vt 0.9358 0.4370
vt 0.9339 0.4388
vt 0.9344 0.4682
vt 0.9504 0.4739
vt 0.9555 0.4894
vt 0.9322 0.4827
vt 0.9389 0.4103
vt 0.9220 0.4057
vt 0.9144 0.3904
vt 0.9390 0.3961
vt 0.9593 0.4603
vt 0.9683 0.4466
vt 0.9826 0.4511
vt 0.9690 0.4703
vt 0.9554 0.4235
vt 0.9621 0.4358
vt 0.9433 0.4393
vt 0.9420 0.4372
vt 0.9575 0.4470
vt 0.9529 0.4582
vt 0.9414 0.4440
vt 0.9424 0.4417
vt 0.9178 0.4574
vt 0.9109 0.4466
vt 0.9319 0.4406
vt 0.9341 0.4430
vt 0.9223 0.4552
vt 0.9344 0.4598
vt 0.9320 0.4769
vt 0.9121 0.4693
vt 0.9354 0.4180
vt 0.9486 0.4111
vt 0.9407 0.4351
vt 0.9383 0.4360
vt 0.9388 0.4632
vt 0.9247 0.4682
vt 0.9364 0.4454
vt 0.9389 0.4447
vt 0.9505 0.4551
vt 0.9666 0.4503
vt 0.9863 0.4612
vt 0.9591 0.4690
vt 0.9470 0.4154
vt 0.9345 0.4107
vt 0.9327 0.3945
vt 0.9539 0.4024
vt 0.9194 0.4176
vt 0.9044 0.4245
vt 0.8822 0.4180
vt 0.9074 0.4062
vt 0.9631 0.4352
vt 0.9596 0.4200
vt 0.9751 0.4102
vt 0.9807 0.4357
vt 0.9074 0.4376
vt 0.9103 0.4507
vt 0.8922 0.4616
vt 0.8872 0.4398
vt 0.9481 0.5934
vt 0.9405 0.5793
vt 0.9465 0.5766
vt 0.9605 0.5866
vt 0.9243 0.5385
vt 0.9378 0.5326
vt 0.9363 0.5507
vt 0.9298 0.5538
vt 0.9441 0.5542
vt 0.9366 0.5586
vt 0.9636 0.4090
vt 0.9711 0.4265
vt 0.9507 0.4242
vt 0.9346 0.5821
vt 0.9279 0.5776
vt 0.9357 0.5743
vt 0.9519 0.5577
vt 0.9492 0.5671
vt 0.9444 0.5621
vt 0.9212 0.5731
vt 0.9223 0.5649
vt 0.9290 0.5698
vt 0.9077 0.5628
vt 0.9108 0.5444
vt 0.9234 0.5568
vt 0.9654 0.5665
vt 0.9201 0.5907
vt 0.9045 0.5812
vt 0.9541 0.5395
vt 0.9704 0.5465
vt 0.9417 0.5716
vt 0.9131 0.4625
vt 0.9045 0.4448
vt 0.9254 0.4509
vt 0.9564 0.4846
vt 0.9347 0.4736
vt 0.9471 0.4620
vt 0.9175 0.3932
vt 0.9405 0.4011
vt 0.9276 0.4163
vt 0.9785 0.4439
vt 0.9675 0.4642
vt 0.9582 0.4416
vt 0.8959 0.4272
vt 0.9067 0.4102
vt 0.9168 0.4333
vt 0.9656 0.4492
vt 0.9725 0.4336
vt 0.9830 0.4337
vt 0.9738 0.4539
vt 0.9646 0.4740
vt 0.9575 0.4446
vt 0.9620 0.4335
vt 0.9378 0.4394
vt 0.9368 0.5665
vt 0.9393 0.5145
vt 0.9640 0.5249
vt 0.9888 0.5352
vt 0.9356 0.6002
vt 0.9366 0.6183
vt 0.9123 0.6038
vt 0.8879 0.5893
vt 0.9816 0.5659
vt 0.9745 0.5966
vt 0.9301 0.5617
vt 0.8930 0.5606
vt 0.8982 0.5319
vt 0.9187 0.5232
vt 0.9556 0.6075
vt 0.9266 0.4311
vt 0.9275 0.4354
vt 0.9284 0.4397
vt 0.9469 0.4395
vt 0.9455 0.4347
vt 0.9440 0.4299
vt 0.9363 0.4268
vt 0.9315 0.4290
vt 0.9402 0.4284
vt 0.9367 0.4427
vt 0.9418 0.4411
vt 0.9644 0.4724
vt 0.9387 0.4816
vt 0.9130 0.4909
vt 0.9088 0.4129
vt 0.9326 0.4000
vt 0.9565 0.3872
vt 0.9325 0.4412
vt 0.9014 0.4718
vt 0.8898 0.4526
vt 0.9809 0.4323
vt 0.9726 0.4524
vt 0.9687 0.4097
vt 0.9453 0.4585
vt 0.9496 0.4503
vt 0.9540 0.4421
vt 0.9480 0.4279
vt 0.9389 0.4244
vt 0.9297 0.4210
vt 0.9280 0.4491
vt 0.9366 0.4538
vt 0.8993 0.4327
vt 0.9254 0.4277
vt 0.9212 0.4345
vt 0.9510 0.4350
vt 0.9151 0.4883
vt 0.9033 0.4701
vt 0.8916 0.4520
vt 0.9544 0.3885
vt 0.9693 0.4118
vt 0.9842 0.4350
vt 0.9550 0.4606
vt 0.9429 0.4500
vt 0.9671 0.4713
vt 0.9411 0.4798
vt 0.9246 0.4418
vt 0.9093 0.4136
vt 0.9319 0.4011
vt 0.9004 0.4328
vt 0.9195 0.4521
vt 0.9333 0.4597
vt 0.9471 0.4673
vt 0.9757 0.4532
vt 0.9226 0.4068
vt 0.9155 0.4178
vt 0.9085 0.4288
vt 0.9541 0.4544
vt 0.9612 0.4415
vt 0.9520 0.4184
vt 0.9373 0.4126
vt 0.9566 0.4299
vt 0.9002 0.4712
vt 0.9116 0.4904
vt 0.8887 0.4521
vt 0.9701 0.4103
vt 0.9573 0.3868
vt 0.9381 0.4822
vt 0.9140 0.4405
vt 0.9326 0.3996
vt 0.9079 0.4124
vt 0.8983 0.4323
vt 0.7997 0.8964
vt 0.7934 0.8963
vt 0.8060 0.8964
vt 0.8368 0.8957
vt 0.8307 0.8954
vt 0.8430 0.8959
vt 0.8429 0.9070
vt 0.8429 0.9181
vt 0.8122 0.8961
vt 0.8184 0.8959
vt 0.7872 0.8960
vt 0.7810 0.8956
vt 0.8246 0.8957
vt 0.8426 0.9477
vt 0.8424 0.9774
vn -0.9506 0.0131 0.3101
vn -0.9503 0.0131 0.3110
vn -0.9527 0.0165 -0.3035
vn -0.9511 0.0166 -0.3083
vn 0.5899 0.0170 -0.8073
vn 0.5913 0.0169 -0.8063
vn 0.9526 0.0201 -0.3036
vn 0.9513 0.0202 -0.3077
vn -0.0005 0.0140 0.9999
vn -0.0009 0.0142 0.9999
vn -0.5865 0.0164 0.8098
vn -0.5874 0.0162 0.8092
vn -0.5877 0.0147 -0.8089
vn -0.5880 0.0146 -0.8087
vn 0.0017 0.0188 -0.9998
vn 0.0014 0.0190 -0.9998
vn 0.9500 0.0470 0.3088
vn 0.9505 0.0314 0.3091
vn 0.5855 0.0315 0.8100
vn 0.5868 0.0445 0.8085
vn -0.5856 0.0873 -0.8059
vn -0.5872 0.0496 -0.8079
vn 0.0012 0.0604 -0.9982
vn 0.0002 0.1032 -0.9947
vn 0.0000 0.0286 0.9996
vn -0.0001 0.0214 0.9998
vn -0.5844 0.0324 0.8108
vn -0.5865 0.0485 0.8085
vn 0.5858 0.0833 -0.8061
vn 0.5878 0.0489 -0.8075
vn 0.9516 0.0488 -0.3033
vn 0.9486 0.0784 -0.3068
vn -0.9497 0.0535 0.3087
vn -0.9503 0.0327 0.3095
vn -0.9514 0.0501 -0.3039
vn -0.9480 0.0848 -0.3067
vn 0.9509 0.0163 0.3089
vn 0.9509 0.0165 0.3091
vn 0.5853 0.0184 0.8106
vn 0.5874 0.0182 0.8091
vn 0.1564 0.3412 0.9269
vn 0.2816 -0.8082 0.5173
vn -0.1166 -0.9514 0.2849
vn -0.3110 0.4243 0.8504
vn 0.8393 0.3592 0.4081
vn 0.4580 -0.8100 0.3663
vn 0.2356 -0.9303 0.2811
vn 0.5647 0.3533 0.7458
vn 0.0915 -0.7374 -0.6692
vn -0.2698 -0.8442 -0.4631
vn 0.4567 -0.5514 0.6982
vn 0.1986 -0.7834 0.5889
vn -0.8892 0.3396 -0.3067
vn -0.5853 -0.8080 0.0668
vn -0.0085 -0.9870 -0.1604
vn -0.5455 0.3602 -0.7568
vn 0.5187 0.4018 -0.7547
vn 0.1034 -0.7157 -0.6907
vn 0.2169 -0.9757 -0.0307
vn 0.8386 0.5041 -0.2067
vn -0.6997 0.3970 0.5940
vn -0.5681 -0.7797 0.2632
vn -0.4222 -0.8920 0.1618
vn -0.8986 0.4085 0.1599
vn 0.1182 -0.7621 0.6365
vn 0.3923 -0.7071 0.5883
vn -0.3961 -0.7579 -0.5183
vn 0.0546 -0.7495 -0.6597
vn 0.5908 -0.6967 0.4069
vn 0.4997 -0.8661 -0.0099
vn -0.9075 -0.4201 -0.0031
vn -0.6478 -0.7618 0.0065
vn -0.5557 -0.7781 0.2927
vn -0.2191 -0.8684 0.4447
vn 0.3431 -0.4704 -0.8130
vn 0.4281 -0.7371 -0.5229
vn 0.3877 -0.7946 -0.4673
vn 0.2664 -0.7463 -0.6100
vn -0.3530 -0.7393 0.5734
vn -0.6836 -0.7001 0.2064
vn -0.0829 0.4683 -0.8796
vn -0.7419 -0.4664 -0.4817
vn -0.2135 -0.8755 -0.4334
vn 0.3709 0.5361 -0.7583
vn -0.6081 -0.7703 -0.1920
vn -0.6386 -0.7675 0.0558
vn 0.7102 -0.6950 -0.1120
vn 0.5274 -0.7681 0.3631
vn -0.0553 0.3849 0.9213
vn 0.5052 0.4553 0.7331
vn 0.5394 -0.7703 -0.3401
vn 0.4192 -0.7646 0.4896
vn 0.8674 0.4170 0.2717
vn 0.8700 0.4806 -0.1101
vn 0.5759 -0.7936 -0.1964
vn 0.6835 -0.4994 -0.5324
vn 0.2095 -0.5781 -0.7886
vn -0.1127 -0.6087 -0.7854
vn 0.1057 -0.8117 0.5744
vn -0.4279 -0.8244 0.3704
vn -0.8216 0.4357 -0.3676
vn -0.8481 0.5183 0.1100
vn -0.0435 -0.5687 0.8214
vn -0.6075 -0.7116 0.3529
vn 0.7433 0.4673 -0.4786
vn 0.4697 -0.8152 -0.3387
vn -0.6919 0.4514 0.5634
vn -0.3961 0.4416 0.8050
vn 0.1374 -0.7605 0.6347
vn 0.0906 -0.3925 0.9153
vn -0.3189 -0.6606 0.6796
vn 0.2194 -0.6909 0.6889
vn -0.1390 -0.6262 -0.7672
vn -0.0074 -0.7966 -0.6045
vn 0.7765 -0.6288 -0.0411
vn 0.5541 -0.6911 -0.4641
vn -0.5778 -0.5826 0.5715
vn -0.4709 -0.7447 0.4729
vn -0.3021 0.3891 0.8702
vn 0.1476 0.4235 0.8938
vn -0.3523 -0.8080 0.4723
vn -0.2379 -0.8930 0.3819
vn -0.4319 -0.6512 -0.6240
vn -0.5656 -0.8133 -0.1364
vn 0.8530 -0.4439 0.2746
vn 0.5846 -0.7651 0.2700
vn 0.6937 -0.5643 0.4477
vn 0.7546 -0.6189 0.2180
vn -0.6025 -0.7786 -0.1755
vn -0.0739 -0.7834 -0.6171
vn -0.6086 -0.7019 0.3699
vn -0.4801 -0.6929 0.5380
vn 0.5017 -0.7369 -0.4532
vn 0.6715 -0.7387 0.0578
vn 0.7974 0.4793 -0.3666
vn 0.5958 0.4851 -0.6401
vn 0.4288 -0.8863 -0.1751
vn 0.5902 -0.8066 0.0308
vn 0.3220 0.4371 -0.8398
vn -0.2355 0.4625 -0.8548
vn 0.1935 -0.9574 -0.2141
vn 0.4713 -0.8145 -0.3384
vn -0.8870 0.4372 0.1484
vn -0.6709 0.4680 0.5753
vn -0.3703 -0.9024 -0.2203
vn -0.5758 -0.6554 -0.4888
vn 0.2596 -0.5211 -0.8130
vn -0.2734 -0.5853 -0.7634
vn 0.1745 -0.7368 0.6532
vn 0.1772 -0.8595 0.4794
vn 0.5889 0.4319 0.6831
vn 0.8079 0.5611 0.1804
vn 0.1067 -0.8128 0.5727
vn -0.2234 -0.4516 0.8638
vn -0.7173 0.3916 -0.5763
vn -0.8594 0.4505 -0.2418
vn -0.4112 -0.8057 -0.4264
vn -0.3012 -0.8494 -0.4334
vn -0.6993 -0.5676 -0.4344
vn -0.7468 -0.6643 -0.0317
vn 0.6844 -0.7266 0.0598
vn 0.0979 -0.8161 0.5696
vn -0.2152 -0.5805 0.7853
vn 0.2425 -0.6227 0.7440
vn -0.2226 -0.7618 -0.6083
vn 0.3107 -0.8480 -0.4293
vn 0.6488 -0.5915 0.4788
vn 0.7243 -0.6861 0.0687
vn -0.7589 -0.6315 -0.1588
vn -0.5767 -0.8150 -0.0567
vn -0.6949 -0.6135 0.3751
vn -0.4737 -0.6353 0.6099
vn 0.3251 -0.7114 -0.6230
vn 0.2258 -0.7944 -0.5639
vn 0.7173 -0.6109 -0.3351
vn 0.5245 -0.5927 -0.6112
vn -0.4156 -0.7980 0.4365
vn -0.5682 -0.8106 -0.1417
vn 0.2466 0.3901 -0.8871
vn 0.2336 0.3033 -0.9238
vn 0.4623 0.3211 -0.8265
vn 0.5109 0.3984 -0.7618
vn -0.1989 0.3070 0.9307
vn 0.2983 0.3435 0.8905
vn 0.3938 0.3409 0.8536
vn -0.1830 0.2853 0.9408
vn 0.8281 0.3113 0.4662
vn 0.4463 0.3452 0.8256
vn -0.5957 -0.5203 -0.6119
vn -0.3300 -0.7943 -0.5100
vn 0.3181 -0.8753 0.3643
vn -0.4045 0.3908 -0.8268
vn -0.8575 0.3168 -0.4053
vn -0.4412 0.3361 -0.8321
vn 0.9134 0.3817 -0.1411
vn 0.6707 0.2911 -0.6823
vn 0.9250 0.3137 -0.2144
vn -0.9404 0.3399 0.0075
vn -0.8644 0.2949 0.4072
vn -0.9532 0.2960 0.0612
vn -0.8762 0.3477 0.3338
vn -0.6045 0.3664 0.7074
vn -0.5723 0.3280 0.7516
vn 0.7388 0.3669 -0.5653
vn -0.7727 0.3589 -0.5235
vn -0.9155 0.3899 -0.0997
vn 0.7116 0.3451 0.6120
vn 0.8956 0.4434 0.0358
vn 0.4393 0.2397 -0.8658
vn 0.3981 -0.7934 0.4604
vn -0.2403 -0.7319 0.6376
vn -0.4615 -0.7333 -0.4993
vn 0.8578 -0.4069 -0.3139
vn 0.6397 -0.7676 -0.0385
vn -0.4135 -0.8986 0.1470
vn -0.6478 -0.7303 0.2169
vn -0.4661 -0.7344 -0.4933
vn 0.5990 -0.7812 -0.1758
vn 0.1568 -0.8116 -0.5628
vn 0.6361 -0.7112 -0.2992
vn -0.1137 -0.7344 0.6691
vn -0.1599 -0.5095 0.8455
vn -0.2171 -0.7287 0.6495
vn 0.0986 -0.8590 -0.5024
vn -0.0238 0.2801 -0.9597
vn 0.2607 0.3437 -0.9021
vn 0.1466 -0.8315 -0.5358
vn 0.1307 -0.8535 -0.5044
vn -0.0089 -0.9999 -0.0124
vn 0.0018 0.9999 -0.0147
vn -0.3065 0.4299 -0.8493
vn -0.5634 0.2908 0.7733
vn -0.5067 -0.8448 -0.1719
vn -0.5203 0.4738 -0.7105
vn -0.9499 0.0546 0.3077
vn -0.9442 0.0874 -0.3175
vn -0.5933 0.0488 0.8035
vn 0.5851 0.0860 -0.8064
vn 0.9445 0.0804 -0.3185
vn -0.0012 0.1064 -0.9943
vn -0.0001 0.0280 0.9996
vn 0.5918 0.0444 0.8049
vn -0.5850 0.0903 -0.8060
vn 0.9502 0.0475 0.3078
usemtl None
s 1
f 244/1/1 184/2/2 3/3/3 113/4/4
f 243/5/5 154/6/6 7/7/7 103/8/8
f 242/9/9 78/10/10 2/11/11 131/12/12
f 241/13/13 121/14/14 6/15/15 93/16/16
f 240/17/17 172/18/18 9/19/19 181/20/20
f 239/21/21 182/22/22 5/23/23 105/24/24
f 238/25/25 166/26/26 1/27/27 134/28/28
f 237/29/29 81/30/30 8/31/31 148/32/32
f 236/33/33 123/34/34 4/35/35 141/36/36
f 235/37/37 90/38/38 10/39/39 188/40/40
f 234/41/41 122/42/42 18/43/43 178/44/44
f 233/45/45 173/46/46 17/47/47 146/48/48
f 232/49/49 102/50/50 22/51/51 140/52/52
f 231/53/53 145/54/54 26/55/55 66/56/56
f 230/57/57 147/58/58 21/59/59 174/60/60
f 229/61/61 161/62/62 25/63/63 162/64/64
f 228/65/65 116/66/66 30/67/67 76/68/68
f 227/69/69 114/70/70 32/71/71 150/72/72
f 226/73/73 80/74/74 31/75/75 89/76/76
f 225/77/77 158/78/78 23/79/79 99/80/80
f 224/81/81 170/82/82 35/83/83 120/84/84
f 223/85/85 144/86/86 33/87/87 153/88/88
f 222/89/89 119/90/90 36/91/91 164/92/92
f 221/93/93 95/94/94 38/95/95 79/96/96
f 220/97/97 157/98/98 39/99/99 83/100/100
f 219/101/101 143/102/102 41/103/103 149/104/104
f 218/105/105 120/84/84 35/83/83 75/106/106
f 217/107/107 179/108/108 37/109/109 128/110/110
f 216/111/111 74/112/112 42/113/113 94/114/114
f 215/115/115 67/116/116 40/117/117 191/118/118
f 214/119/119 130/120/120 45/121/121 186/122/122
f 213/123/123 139/124/124 47/125/125 152/126/126
f 212/127/127 169/128/128 44/129/129 160/130/130
f 211/131/131 115/132/132 43/133/133 86/134/134
f 210/135/135 168/136/136 48/137/137 127/138/138
f 209/139/139 111/140/140 50/141/141 136/142/142
f 208/143/143 72/144/144 46/145/145 85/146/146
f 207/147/147 159/148/148 52/149/149 71/150/150
f 206/151/151 118/152/152 49/153/153 104/154/154
f 205/155/155 106/156/156 51/157/157 77/158/158
f 204/159/159 142/160/160 54/161/161 132/162/162
f 203/163/163 189/164/164 55/165/165 135/166/166
f 202/167/167 70/168/168 57/169/169 185/170/170
f 201/171/171 167/172/172 56/173/173 110/174/174
f 200/175/175 88/176/176 53/177/177 175/178/178
f 199/179/179 108/180/180 59/181/181 177/182/182
f 198/183/183 98/184/184 60/185/185 100/186/186
f 60/185/185 156/187/187 92/188/188
f 27/189/189 126/190/190 163/191/191
f 58/192/192 84/193/193 82/194/194
f 62/195/195 151/196/196 117/197/197
f 65/198/198 112/199/199 129/200/200
f 197/201/201 183/202/202 61/203/203 112/199/199
f 60/185/185 92/188/188 100/186/186
f 196/204/204 177/182/182 59/181/181 151/196/196
f 195/205/205 73/206/206 65/198/198 84/193/193
f 194/207/207 138/208/208 62/195/195 156/187/187
f 59/181/181 108/180/180 97/209/209
f 16/210/210 91/211/211 187/212/212
f 20/213/213 171/214/214 87/215/215
f 24/216/216 137/217/217 124/218/218
f 28/219/219 192/220/220 155/221/221
f 19/222/222 109/223/223 96/224/224
f 193/225/225 190/226/226 28/227/219 126/228/190
f 66/56/56 193/225/225 126/228/190 27/229/189
f 26/55/55 68/230/227 193/225/225 66/56/56
f 68/230/227 29/231/228 190/226/226 193/225/225
f 96/224/224 124/218/218 64/232/229
f 96/224/224 109/223/223 124/218/218
f 109/223/223 24/216/216 124/218/218
f 155/221/221 87/215/215 64/232/229
f 155/221/221 192/220/220 87/215/215
f 192/220/220 20/213/213 87/215/215
f 124/218/218 163/191/191 64/232/229
f 124/218/218 137/217/217 163/191/191
f 137/217/217 27/189/189 163/191/191
f 87/215/215 187/212/212 64/232/229
f 87/215/215 171/214/214 187/212/212
f 171/214/214 16/210/210 187/212/212
f 187/212/212 96/224/224 64/232/229
f 187/212/212 91/211/211 96/224/224
f 91/211/211 19/222/222 96/224/224
f 97/209/209 82/194/194 63/233/230
f 97/209/209 108/180/180 82/194/194
f 108/180/180 58/192/192 82/194/194
f 98/184/184 194/207/207 156/187/187 60/185/185
f 52/234/149 132/235/162 194/207/207 98/184/184
f 132/235/162 54/236/161 138/208/208 194/207/207
f 101/237/231 195/205/205 84/193/193 58/192/192
f 55/238/165 185/239/170 195/205/205 101/237/231
f 185/239/170 57/240/169 73/206/206 195/205/205
f 138/208/208 196/204/204 151/196/196 62/195/195
f 54/236/161 110/241/174 196/204/204 138/208/208
f 110/241/174 56/242/173 177/182/182 196/204/204
f 100/186/186 125/243/232 61/203/203
f 100/186/186 92/188/188 125/243/232
f 92/188/188 63/233/230 125/243/232
f 73/206/206 197/201/201 112/199/199 65/198/198
f 57/240/169 175/244/178 197/201/201 73/206/206
f 175/244/178 53/245/177 183/202/202 197/201/201
f 129/200/200 125/243/232 63/233/230
f 129/200/200 112/199/199 125/243/232
f 112/199/199 61/203/203 125/243/232
f 117/197/197 97/209/209 63/233/230
f 117/197/197 151/196/196 97/209/209
f 151/196/196 59/181/181 97/209/209
f 82/194/194 129/200/200 63/233/230
f 82/194/194 84/193/193 129/200/200
f 84/193/193 65/198/198 129/200/200
f 163/191/191 155/221/221 64/232/229
f 163/191/191 126/190/190 155/221/221
f 126/190/190 28/219/219 155/221/221
f 92/188/188 117/197/197 63/233/230
f 92/188/188 156/187/187 117/197/197
f 156/187/187 62/195/195 117/197/197
f 183/202/202 198/183/183 100/186/186 61/203/203
f 53/245/177 71/246/150 198/183/183 183/202/202
f 71/246/150 52/234/149 98/184/184 198/183/183
f 135/247/166 199/179/179 177/182/182 56/242/173
f 55/238/165 101/237/231 199/179/179 135/247/166
f 101/237/231 58/192/192 108/180/180 199/179/179
f 70/168/168 200/175/175 175/178/178 57/169/169
f 51/248/157 85/249/146 200/175/175 70/168/168
f 85/249/146 46/250/145 88/176/176 200/175/175
f 142/160/160 201/171/171 110/174/174 54/161/161
f 49/251/153 127/252/138 201/171/171 142/160/160
f 127/252/138 48/253/137 167/172/172 201/171/171
f 189/164/164 202/167/167 185/170/170 55/165/165
f 50/254/141 77/255/158 202/167/167 189/164/164
f 77/255/158 51/248/157 70/168/168 202/167/167
f 167/172/172 203/163/163 135/166/166 56/173/173
f 48/253/137 136/256/142 203/163/163 167/172/172
f 136/256/142 50/254/141 189/164/164 203/163/163
f 159/148/148 204/159/159 132/162/162 52/149/149
f 45/257/121 104/258/154 204/159/159 159/148/148
f 104/258/154 49/251/153 142/160/160 204/159/159
f 111/140/140 205/155/155 77/158/158 50/141/141
f 42/259/113 160/260/130 205/155/155 111/140/140
f 160/260/130 44/261/129 106/156/156 205/155/155
f 130/120/120 206/151/151 104/154/154 45/121/121
f 39/262/99 152/263/126 206/151/151 130/120/120
f 152/263/126 47/264/125 118/152/152 206/151/151
f 88/176/176 207/147/147 71/150/150 53/177/177
f 46/250/145 186/265/122 207/147/147 88/176/176
f 186/265/122 45/257/121 159/148/148 207/147/147
f 106/156/156 208/143/143 85/146/146 51/157/157
f 44/261/129 191/266/118 208/143/143 106/156/156
f 191/266/118 40/267/117 72/144/144 208/143/143
f 168/136/136 209/139/139 136/142/142 48/137/137
f 43/268/133 94/269/114 209/139/139 168/136/136
f 94/269/114 42/259/113 111/140/140 209/139/139
f 118/152/152 210/135/135 127/138/138 49/153/153
f 47/264/125 86/270/134 210/135/135 118/152/152
f 86/270/134 43/268/133 168/136/136 210/135/135
f 139/124/124 211/131/131 86/134/134 47/125/125
f 38/271/95 75/272/106 211/131/131 139/124/124
f 75/272/106 35/273/83 115/132/132 211/131/131
f 74/112/112 212/127/127 160/130/130 42/113/113
f 34/274/233 149/275/104 212/127/127 74/112/112
f 149/275/104 41/276/103 169/128/128 212/127/127
f 157/98/98 213/123/123 152/126/126 39/99/99
f 36/277/91 79/278/96 213/123/123 157/98/98
f 79/278/96 38/271/95 139/124/124 213/123/123
f 72/144/144 214/119/119 186/122/122 46/145/145
f 40/267/117 83/279/100 214/119/119 72/144/144
f 83/279/100 39/262/99 130/120/120 214/119/119
f 169/128/128 215/115/115 191/118/118 44/129/129
f 41/276/103 128/280/110 215/115/115 169/128/128
f 128/280/110 37/281/109 67/116/116 215/115/115
f 115/132/132 216/111/111 94/114/114 43/133/133
f 35/273/83 170/282/82 216/111/111 115/132/132
f 170/282/82 34/274/233 74/112/112 216/111/111
f 143/102/102 217/107/107 128/110/110 41/103/103
f 32/283/71 99/284/80 217/107/107 143/102/102
f 99/284/80 23/285/79 179/108/108 217/107/107
f 95/94/94 218/105/105 75/106/106 38/95/95
f 33/286/87 89/287/76 218/105/105 95/94/94
f 89/287/76 31/288/75 120/84/84 218/105/105
f 165/289/234 219/101/101 149/104/104 34/290/233
f 30/291/67 150/292/72 219/101/101 165/289/234
f 150/292/72 32/283/71 143/102/102 219/101/101
f 67/116/116 220/97/97 83/100/100 40/117/117
f 37/281/109 164/293/92 220/97/97 67/116/116
f 164/293/92 36/277/91 157/98/98 220/97/97
f 119/90/90 221/93/93 79/96/96 36/91/91
f 22/294/51 153/295/88 221/93/93 119/90/90
f 153/295/88 33/286/87 95/94/94 221/93/93
f 179/108/108 222/89/89 164/92/92 37/109/109
f 23/285/79 140/296/52 222/89/89 179/108/108
f 140/296/52 22/294/51 119/90/90 222/89/89
f 102/50/50 223/85/85 153/88/88 22/51/51
f 17/297/47 173/298/46 223/85/85 102/50/50
f 173/298/46 21/299/59 144/86/86 223/85/85
f 76/300/68 224/81/81 120/84/84 31/288/75
f 30/291/67 165/289/234 224/81/81 76/300/68
f 165/289/234 34/290/233 170/82/82 224/81/81
f 114/70/70 225/77/77 99/80/80 32/71/71
f 25/301/63 161/302/62 225/77/77 114/70/70
f 161/302/62 18/303/43 158/78/78 225/77/77
f 144/86/86 226/73/73 89/76/76 33/87/87
f 21/299/59 147/304/58 226/73/73 144/86/86
f 147/304/58 29/305/228 80/74/74 226/73/73
f 116/66/66 227/69/69 150/72/72 30/67/67
f 26/306/55 145/307/54 227/69/69 116/66/66
f 145/307/54 25/301/63 114/70/70 227/69/69
f 80/74/74 228/65/65 76/68/68 31/75/75
f 29/305/228 68/308/227 228/65/65 80/74/74
f 68/308/227 26/306/55 116/66/66 228/65/65
f 109/309/223 229/61/61 162/64/64 24/310/216
f 19/311/222 178/44/44 229/61/61 109/309/223
f 178/44/44 18/43/43 161/62/62 229/61/61
f 192/312/220 230/57/57 174/60/60 20/313/213
f 28/227/219 190/226/226 230/57/57 192/312/220
f 190/226/226 29/231/228 147/58/58 230/57/57
f 137/314/217 231/53/53 66/56/56 27/229/189
f 24/310/216 162/64/64 231/53/53 137/314/217
f 162/64/64 25/63/63 145/54/54 231/53/53
f 158/78/78 232/49/49 140/52/52 23/79/79
f 18/303/43 122/315/42 232/49/49 158/78/78
f 122/315/42 17/297/47 102/50/50 232/49/49
f 171/316/214 233/45/45 146/48/48 16/317/210
f 20/313/213 174/60/60 233/45/45 171/316/214
f 174/60/60 21/59/59 173/46/46 233/45/45
f 91/318/211 234/41/41 178/44/44 19/311/222
f 16/317/210 146/48/48 234/41/41 91/318/211
f 146/48/48 17/47/47 122/42/42 234/41/41
f 172/18/18 235/37/37 188/40/40 9/19/19
f 8/31/31 103/8/8 235/37/37 172/18/18
f 103/8/8 7/7/7 90/38/38 235/37/37
f 133/319/235 236/33/33 141/36/36 13/320/236
f 15/321/237 134/28/28 236/33/33 133/319/235
f 134/28/28 1/27/27 123/34/34 236/33/33
f 180/322/238 237/29/29 148/32/32 11/323/239
f 14/324/240 105/325/24 237/29/29 180/322/238
f 105/325/24 5/326/23 81/30/30 237/29/29
f 107/327/241 238/25/25 134/28/28 15/321/237
f 12/328/242 181/20/20 238/25/25 107/327/241
f 181/20/20 9/19/19 166/26/26 238/25/25
f 69/329/243 239/21/21 105/24/24 14/330/240
f 13/320/236 141/36/36 239/21/21 69/329/243
f 141/36/36 4/35/35 182/22/22 239/21/21
f 176/331/244 240/17/17 181/20/20 12/328/242
f 11/323/239 148/32/32 240/17/17 176/331/244
f 148/32/32 8/31/31 172/18/18 240/17/17
f 182/22/22 241/13/13 93/16/16 5/23/23
f 4/35/35 113/4/4 241/13/13 182/22/22
f 113/4/4 3/3/3 121/14/14 241/13/13
f 166/26/26 242/9/9 131/12/12 1/27/27
f 9/19/19 188/40/40 242/9/9 166/26/26
f 188/40/40 10/39/39 78/10/10 242/9/9
f 81/30/30 243/5/5 103/8/8 8/31/31
f 5/326/23 93/332/16 243/5/5 81/30/30
f 93/332/16 6/333/15 154/6/6 243/5/5
f 123/34/34 244/1/1 113/4/4 4/35/35
f 1/27/27 131/12/12 244/1/1 123/34/34
f 131/12/12 2/11/11 184/2/2 244/1/1
