# Blender v2.78 (sub 0) OBJ File: ''
# www.blender.org
mtllib Pine_Tree_crk_s_03.mtl
o Pine_Tree_crk_s_03
v -0.036740 0.013461 0.042875
v -0.024362 0.190282 0.035764
v -0.029792 0.182874 -0.031594
v -0.045087 0.013226 -0.036831
v 0.046865 0.012493 -0.043789
v 0.043080 0.156229 -0.039460
v 0.044011 0.163986 0.039045
v 0.044158 0.012567 0.045411
v 0.429288 0.117288 0.396189
v 0.257737 0.008229 0.020100
v 0.030882 0.017018 0.223119
v 0.148553 0.434679 0.328786
v 0.406810 0.471431 0.142067
v 0.013637 0.172659 0.453747
v 0.721720 0.011828 0.536158
v 0.679063 0.004246 0.589055
v 0.518279 0.196138 -0.021555
v 0.747121 0.116650 0.541611
v 0.757077 0.067490 0.509246
v 0.698691 0.106826 0.600654
v 0.666548 0.056356 0.623104
v 0.611245 0.005792 0.331602
v 0.437741 -0.027753 0.538406
v 0.668563 0.147023 0.214253
v 0.554833 0.219603 0.584036
v 0.698488 0.247071 0.412416
v 0.330185 0.101092 0.596276
v 1.136016 0.011517 0.786415
v 0.154499 0.169455 0.139616
v 0.436817 0.075167 0.415404
v 0.431753 0.120206 0.439527
v 0.147184 0.228718 0.170797
v 0.225928 0.196858 0.115929
v 0.476897 0.107682 0.381960
v 0.466378 0.143290 0.409664
v 0.212012 0.253237 0.153755
v 0.577168 0.296695 0.340279
v -0.038156 0.098129 -0.034734
v 0.457103 0.090157 0.397865
v 0.665322 0.008952 0.434453
v 0.844468 0.119375 0.689250
v 0.626008 0.161747 0.592882
v 0.419838 0.303266 0.263487
v 0.351958 0.152146 0.248452
v 0.692539 0.196846 0.315868
v 0.080237 0.303313 0.395637
v 0.000799 0.012863 -0.043018
v 0.639753 0.131828 0.242456
v 0.143081 0.009918 0.121418
v 0.448820 0.133016 0.425413
v 0.782469 -0.012011 0.664175
v 0.353148 0.009976 0.404472
v 0.045641 0.084221 -0.042359
v 0.289026 0.174692 0.305567
v 0.739892 0.039261 0.521901
v 0.388958 0.034417 0.573200
v 0.448701 0.159740 0.595870
v 0.723092 0.112716 0.571186
v 0.282093 0.284679 0.365055
v 0.339491 0.198817 0.281786
v 0.533565 -0.014114 0.440479
v 0.672127 0.029720 0.606826
v 0.922037 0.133808 0.597096
v 0.700170 0.006910 0.562557
v 0.637125 0.233289 0.504594
v 0.020988 0.092268 0.342272
v 0.218546 0.060933 0.308170
v -0.027522 0.188185 0.002096
v 0.472797 0.126375 0.394789
v 0.908226 0.080412 0.494058
v 0.477194 0.158685 0.176479
v 0.188172 0.183418 0.125331
v 0.044669 0.088199 0.042926
v -0.043689 0.013341 0.003093
v 0.488927 0.008929 0.276073
v 0.433126 0.096797 0.428488
v 0.340795 0.056958 0.198427
v 0.728139 0.055596 0.697615
v 0.421953 0.273181 0.463934
v 0.148020 0.199690 0.153191
v 0.648722 0.074766 0.274422
v 0.557469 -0.012227 0.564898
v 0.467328 0.334403 0.060419
v 0.682035 0.082040 0.612819
v 0.006664 0.170737 -0.036065
v 0.721119 0.180370 0.477100
v 0.391362 0.099092 -0.001658
v 0.009899 0.178508 0.037926
v 0.217514 0.226048 0.132603
v 0.339315 0.114677 0.539311
v 0.044085 0.161060 -0.000234
v -0.031088 0.102010 0.039877
v 0.177362 0.242320 0.160463
v 0.496159 0.078526 0.609013
v 0.003799 0.013010 0.046851
v 0.048287 0.012532 0.000740
v 0.278296 0.456274 0.236861
v 0.874909 0.005450 0.554483
v 0.752905 0.092748 0.524538
v 0.207923 0.146127 0.428352
v 0.295259 0.121652 0.277520
v 0.709454 0.107438 0.361099
v 0.008424 0.178462 0.000908
v 0.176351 0.215274 0.136515
v 0.346987 0.176125 0.264497
v 0.314038 0.187929 0.294400
v 0.323829 0.135724 0.262263
v 0.290880 0.147529 0.292166
v 0.524051 0.031951 0.588630
v 0.716862 0.145255 0.416911
v 0.559267 0.120972 0.602763
v 0.675237 0.172846 0.536176
v 0.688478 0.057605 0.394915
v 0.378696 0.194840 0.504607
v 0.566631 0.068446 0.256670
v 0.611637 -0.003825 0.500048
v 0.343742 0.060511 0.474250
v 0.499759 0.288686 0.402343
v 0.612007 0.215943 0.289570
v 0.419428 0.006860 0.339086
v 0.003671 0.091082 -0.040430
v 0.006862 0.095197 0.043285
v 0.047035 0.085883 0.000230
v -0.036502 0.100396 0.002626
vt 0.9165 0.9030
vt 0.9168 0.9153
vt 0.9099 0.9152
vt 0.9096 0.9027
vt 0.9441 0.9015
vt 0.9439 0.9121
vt 0.9371 0.9122
vt 0.9372 0.9017
vt 0.9303 0.9025
vt 0.9304 0.9138
vt 0.9236 0.9155
vt 0.9234 0.9032
vt 0.9648 0.9021
vt 0.9646 0.9137
vt 0.9507 0.9119
vt 0.9510 0.9013
vt 0.5473 0.3233
vt 0.5362 0.3357
vt 0.5271 0.3107
vt 0.5684 0.3000
vt 0.5769 0.2873
vt 0.5865 0.3164
vt 0.5404 0.3066
vt 0.5237 0.3023
vt 0.5399 0.2850
vt 0.5357 0.3066
vt 0.5410 0.2940
vt 0.5558 0.3086
vt 0.5548 0.3113
vt 0.5657 0.3305
vt 0.5707 0.3458
vt 0.5454 0.3393
vt 0.5528 0.2942
vt 0.5461 0.2788
vt 0.5691 0.2844
vt 0.5766 0.3195
vt 0.5906 0.3261
vt 0.5762 0.3404
vt 0.5774 0.2917
vt 0.5856 0.3000
vt 0.5640 0.3103
vt 0.5626 0.3088
vt 0.5795 0.3152
vt 0.5733 0.3304
vt 0.5621 0.3163
vt 0.5631 0.3133
vt 0.5398 0.3290
vt 0.5304 0.3193
vt 0.5539 0.3140
vt 0.5556 0.3157
vt 0.5450 0.3309
vt 0.5619 0.3379
vt 0.5651 0.3591
vt 0.5364 0.3472
vt 0.5550 0.2887
vt 0.5691 0.2835
vt 0.5612 0.3072
vt 0.5585 0.3079
vt 0.5612 0.3346
vt 0.5491 0.3388
vt 0.5574 0.3174
vt 0.5597 0.3169
vt 0.5744 0.3302
vt 0.5869 0.3224
vt 0.6065 0.3332
vt 0.5858 0.3462
vt 0.5683 0.2887
vt 0.5493 0.2807
vt 0.5429 0.2630
vt 0.5750 0.2766
vt 0.5389 0.2878
vt 0.5285 0.2948
vt 0.5086 0.2870
vt 0.5258 0.2750
vt 0.5871 0.3096
vt 0.5872 0.2968
vt 0.6071 0.2902
vt 0.6068 0.3117
vt 0.5283 0.3093
vt 0.5282 0.3239
vt 0.5077 0.3353
vt 0.5081 0.3112
vt 0.4413 0.2687
vt 0.4653 0.2799
vt 0.4389 0.2921
vt 0.4361 0.3556
vt 0.4363 0.3355
vt 0.4627 0.3440
vt 0.4181 0.2772
vt 0.4150 0.3459
vt 0.4892 0.2911
vt 0.4892 0.3117
vt 0.4629 0.3033
vt 0.9302 0.9425
vt 0.9301 0.9695
vt 0.9232 0.9695
vt 0.9234 0.9425
vt 0.9439 0.9435
vt 0.9439 0.9696
vt 0.9370 0.9695
vt 0.9370 0.9426
vt 0.9165 0.9434
vt 0.9163 0.9696
vt 0.9094 0.9696
vt 0.9096 0.9444
vt 0.9645 0.9445
vt 0.9646 0.9193
vt 0.9785 0.9193
vt 0.9783 0.9446
vt 0.3939 0.3362
vt 0.3944 0.3109
vt 0.4152 0.3258
vt 0.8087 0.8318
vt 0.7922 0.8320
vt 0.7912 0.8169
vt 0.8087 0.8169
vt 0.8073 0.7866
vt 0.8082 0.7704
vt 0.8252 0.7704
vt 0.8230 0.7870
vt 0.8063 0.8027
vt 0.8208 0.8036
vt 0.7919 0.8019
vt 0.7915 0.7861
vt 0.7912 0.7704
vt 0.8252 0.8315
vt 0.8262 0.8169
vt 0.8242 0.8461
vt 0.8087 0.8466
vt 0.7932 0.8471
vt 0.4157 0.3005
vt 0.4365 0.3154
vt 0.3949 0.2857
vt 0.9645 0.9698
vt 0.9781 0.9699
vt 0.9508 0.9697
vt 0.9507 0.9445
vt 0.9507 0.9193
vt 0.9168 0.9173
vt 0.9099 0.9192
vt 0.9236 0.9155
vt 0.9439 0.9175
vt 0.9371 0.9156
vt 0.9304 0.9155
vt 0.4629 0.3239
vt 0.4892 0.3324
vt 0.5483 0.3026
vt 0.5484 0.3075
vt 0.5486 0.3124
vt 0.5673 0.3117
vt 0.5673 0.3075
vt 0.5673 0.3033
vt 0.5557 0.2984
vt 0.5520 0.3005
vt 0.5615 0.3009
vt 0.5587 0.3167
vt 0.5630 0.3142
vt 0.5846 0.3445
vt 0.5627 0.3523
vt 0.5408 0.3601
vt 0.5262 0.2793
vt 0.5516 0.2695
vt 0.5769 0.2597
vt 0.5537 0.3146
vt 0.5239 0.3424
vt 0.5070 0.3246
vt 0.6073 0.2896
vt 0.5960 0.3171
vt 0.5921 0.2747
vt 0.5902 0.3469
vt 0.5758 0.3612
vt 0.6046 0.3327
vt 0.5624 0.2690
vt 0.5854 0.2746
vt 0.5394 0.2634
vt 0.5504 0.3547
vt 0.5251 0.3481
vt 0.5166 0.3020
vt 0.5231 0.2807
vt 0.5069 0.2981
vt 0.5950 0.3037
vt 0.5160 0.3231
vt 0.9649 0.8906
vt 0.9512 0.8906
vt 0.9786 0.8905
vt 0.9786 0.9030
vt 0.9785 0.9154
vt 0.9302 0.8911
vt 0.9232 0.8910
vt 0.9372 0.8912
vt 0.9442 0.8909
vt 0.9162 0.8906
vt 0.9093 0.8902
vn -0.9923 0.0869 0.0886
vn -0.5552 0.8311 -0.0308
vn -0.5192 0.6474 -0.5579
vn -0.7588 0.0916 -0.6449
vn 0.9997 0.0216 0.0097
vn 0.8270 0.5587 -0.0631
vn 0.6607 0.4719 0.5838
vn 0.6947 0.0426 0.7180
vn -0.0306 0.0494 0.9983
vn 0.2306 0.7053 0.6704
vn -0.4339 0.7161 0.5468
vn -0.6819 0.0864 0.7264
vn -0.0834 0.0413 -0.9957
vn 0.1599 0.6358 -0.7551
vn 0.6278 0.4255 -0.6518
vn 0.6804 0.0450 -0.7314
vn -0.6310 0.3508 -0.6919
vn -0.3852 0.9180 -0.0948
vn -0.0617 0.9149 -0.3989
vn -0.3149 -0.4491 -0.8362
vn -0.7494 -0.4138 -0.5169
vn -0.0909 0.3059 -0.9477
vn -0.0011 -1.0000 -0.0041
vn 0.2693 -0.9337 -0.2359
vn -0.9578 -0.1431 -0.2494
vn -0.9898 -0.0702 0.1242
vn -0.9270 0.3495 -0.1358
vn 0.8401 0.4707 -0.2698
vn 0.6393 0.7589 0.1242
vn -0.7614 0.5431 -0.3540
vn -0.4228 0.8644 -0.2723
vn 0.2732 0.8285 0.4888
vn 0.0657 0.6980 0.7131
vn -0.7728 0.5032 -0.3869
vn -0.8321 0.5251 -0.1785
vn -0.3075 -0.7558 0.5781
vn -0.1742 -0.9405 0.2916
vn -0.8971 -0.0630 -0.4374
vn -0.5616 -0.5293 -0.6359
vn -0.1489 0.9883 0.0340
vn -0.4551 0.8633 0.2181
vn -0.7718 -0.4237 -0.4742
vn -0.7775 -0.0727 -0.6247
vn 0.5202 -0.7377 -0.4304
vn 0.8764 -0.1719 -0.4498
vn -0.8847 0.3590 -0.2973
vn -0.7877 -0.5316 -0.3114
vn -0.1349 0.4807 0.8664
vn -0.2858 -0.1737 0.9424
vn -0.6194 -0.0207 -0.7848
vn -0.5247 0.7692 -0.3647
vn -0.7173 0.5984 0.3571
vn -0.9203 0.2333 0.3142
vn -0.3236 0.2139 -0.9217
vn -0.7034 -0.2978 -0.6454
vn -0.5104 -0.6757 -0.5319
vn -0.2729 -0.4847 -0.8311
vn -0.5770 0.7966 -0.1803
vn -0.6670 0.6040 -0.4361
vn 0.0037 -0.2183 -0.9759
vn 0.0833 0.1510 -0.9850
vn -0.9859 0.1620 -0.0413
vn -0.5013 0.8222 -0.2694
vn -0.9636 -0.1802 0.1972
vn -0.8478 -0.4968 -0.1856
vn -0.4153 0.8607 -0.2944
vn -0.4441 0.8214 -0.3579
vn 0.1149 0.5085 -0.8534
vn -0.0163 0.8815 -0.4718
vn -0.6626 -0.5655 -0.4911
vn -0.7811 -0.4656 -0.4161
vn 0.3128 -0.8861 -0.3419
vn 0.0328 0.7319 0.6806
vn 0.7711 -0.0358 -0.6357
vn -0.7067 -0.3948 0.5872
vn -0.7044 -0.3943 0.5902
vn -0.5870 0.3058 0.7496
vn -0.5899 0.3074 0.7467
vn 0.2049 -0.8474 -0.4899
vn 0.2216 -0.8382 -0.4984
vn -0.3802 -0.9213 0.0814
vn -0.3736 -0.9252 0.0660
vn -0.1607 0.8423 0.5146
vn -0.1501 0.8466 0.5106
vn 0.3490 0.9356 0.0530
vn 0.3670 0.9298 0.0270
vn 0.7011 0.5291 -0.4781
vn 0.2368 0.5745 -0.7835
vn 0.1101 0.9595 -0.2592
vn -0.2369 -0.0938 0.9670
vn -0.4172 0.4102 -0.8110
vn 0.3415 -0.1095 -0.9335
vn -0.1372 -0.3810 -0.9144
vn 0.3427 0.9328 -0.1114
vn -0.9857 -0.0349 -0.1650
vn -0.6885 -0.6090 -0.3938
vn -0.8653 0.4651 0.1870
vn -0.3877 0.9098 -0.1481
vn -0.0881 -0.9100 0.4050
vn 0.8419 -0.1678 0.5129
vn 0.6991 0.5430 -0.4652
vn 0.6718 -0.2219 -0.7067
vn 0.6630 -0.2370 -0.7102
vn 0.5123 0.8576 -0.0450
vn -0.7162 0.6691 -0.1986
vn -0.9004 0.4060 -0.1562
vn -0.9580 0.0911 0.2718
vn -0.4567 -0.2362 -0.8577
vn -0.2214 0.1040 -0.9696
vn 0.1703 0.0938 -0.9809
vn -0.9888 0.1186 -0.0907
vn -0.9033 -0.1759 -0.3914
vn -0.1534 0.8136 -0.5608
vn -0.4692 0.7148 -0.5185
vn -0.1726 0.4470 -0.8777
vn -0.6470 -0.1337 -0.7507
vn -0.0807 0.0318 -0.9962
vn 0.6861 0.0313 -0.7268
vn -0.7684 0.0799 -0.6350
vn -0.0325 0.0404 0.9987
vn -0.6858 0.0749 0.7239
vn 0.6838 0.0300 0.7290
vn 0.9997 0.0119 0.0209
vn -0.9922 0.0784 0.0965
usemtl None
s 1
f 124/1/1 68/2/2 3/3/3 38/4/4
f 123/5/5 91/6/6 7/7/7 73/8/8
f 122/9/9 88/10/10 2/11/11 92/12/12
f 121/13/13 85/14/14 6/15/15 53/16/16
f 9/17/17 77/18/18 67/19/19
f 9/20/17 59/21/20 43/22/21
f 9/23/17 67/24/19 100/25/22
f 120/26/23 75/27/24 15/28/25 64/29/26
f 9/30/17 71/31/27 77/32/18
f 9/33/17 100/34/22 59/35/20
f 9/36/17 43/37/21 71/38/27
f 119/39/28 37/40/29 18/41/30 99/42/31
f 118/43/32 79/44/33 20/45/34 58/46/35
f 117/47/36 52/48/37 16/49/38 62/50/39
f 116/51/40 40/52/41 22/53/42 61/54/43
f 115/55/44 48/56/45 19/57/46 55/58/47
f 114/59/48 90/60/49 21/61/50 84/62/51
f 113/63/52 102/64/53 24/65/54 81/66/55
f 112/67/56 42/68/57 25/69/58 65/70/59
f 111/71/60 94/72/61 27/73/62 57/74/63
f 110/75/64 86/76/65 26/77/66 45/78/67
f 109/79/68 82/80/69 23/81/70 56/82/71
f 22/83/42 81/84/55 98/85/72
f 25/86/58 41/87/73 65/88/59
f 22/83/42 98/85/72 61/89/43
f 25/86/58 57/90/63 41/87/73
f 24/91/54 45/92/67 70/93/74
f 108/94/75 76/95/76 31/96/77 54/97/78
f 107/98/79 39/99/80 30/100/81 101/101/82
f 106/102/83 50/103/84 35/104/85 60/105/86
f 105/106/87 89/107/88 36/108/89 60/109/86
f 27/110/62 56/111/71 78/112/90
f 104/113/91 89/114/88 33/115/92 72/116/93
f 103/117/94 91/118/6 6/119/15 85/120/14
f 68/121/2 103/117/94 85/120/14 3/122/3
f 2/123/11 88/124/10 103/117/94 68/121/2
f 88/124/10 7/125/7 91/118/6 103/117/94
f 80/126/95 104/113/91 72/116/93 29/127/96
f 32/128/97 93/129/98 104/113/91 80/126/95
f 93/129/98 36/130/89 89/114/88 104/113/91
f 78/112/90 51/131/99 28/132/100
f 78/112/90 56/111/71 51/131/99
f 56/111/71 23/133/70 51/131/99
f 69/134/101 105/106/87 60/109/86 35/135/85
f 34/136/102 44/137/103 105/106/87 69/134/101
f 44/137/103 33/138/92 89/107/88 105/106/87
f 93/139/98 106/102/83 60/105/86 36/140/89
f 32/141/97 54/97/78 106/102/83 93/139/98
f 54/97/78 31/96/77 50/103/84 106/102/83
f 72/142/93 107/98/79 101/101/82 29/143/96
f 33/138/92 44/137/103 107/98/79 72/142/93
f 44/137/103 34/136/102 39/99/80 107/98/79
f 80/144/95 108/94/75 54/97/78 32/141/97
f 29/143/96 101/101/82 108/94/75 80/144/95
f 101/101/82 30/100/81 76/95/76 108/94/75
f 70/93/74 63/145/104 28/132/100
f 70/93/74 45/92/67 63/145/104
f 45/92/67 26/146/66 63/145/104
f 41/87/73 78/112/90 28/132/100
f 41/87/73 57/90/63 78/112/90
f 57/90/63 27/110/62 78/112/90
f 61/89/43 51/131/99 23/133/70
f 61/89/43 98/85/72 51/131/99
f 98/85/72 28/132/100 51/131/99
f 65/88/59 63/145/104 26/146/66
f 65/88/59 41/87/73 63/145/104
f 41/87/73 28/132/100 63/145/104
f 98/85/72 70/93/74 28/132/100
f 98/85/72 81/84/55 70/93/74
f 81/84/55 24/91/54 70/93/74
f 94/72/61 109/79/68 56/82/71 27/73/62
f 21/147/50 62/148/39 109/79/68 94/72/61
f 62/148/39 16/149/38 82/80/69 109/79/68
f 102/64/53 110/75/64 45/78/67 24/65/54
f 19/150/46 99/151/31 110/75/64 102/64/53
f 99/151/31 18/152/30 86/76/65 110/75/64
f 42/68/57 111/71/60 57/74/63 25/69/58
f 20/153/34 84/154/51 111/71/60 42/68/57
f 84/154/51 21/147/50 94/72/61 111/71/60
f 86/76/65 112/67/56 65/70/59 26/77/66
f 18/152/30 58/155/35 112/67/56 86/76/65
f 58/155/35 20/153/34 42/68/57 112/67/56
f 40/52/41 113/63/52 81/66/55 22/53/42
f 15/156/25 55/157/47 113/63/52 40/52/41
f 55/157/47 19/150/46 102/64/53 113/63/52
f 79/44/33 114/59/48 84/62/51 20/45/34
f 12/158/105 46/159/106 114/59/48 79/44/33
f 46/159/106 14/160/107 90/60/49 114/59/48
f 75/27/24 115/55/44 55/58/47 15/28/25
f 10/161/108 87/162/109 115/55/44 75/27/24
f 87/162/109 17/163/110 48/56/45 115/55/44
f 82/80/69 116/51/40 61/54/43 23/81/70
f 16/149/38 64/164/26 116/51/40 82/80/69
f 64/164/26 15/156/25 40/52/41 116/51/40
f 90/60/49 117/47/36 62/50/39 21/61/50
f 14/160/107 66/165/111 117/47/36 90/60/49
f 66/165/111 11/166/112 52/48/37 117/47/36
f 37/40/29 118/43/32 58/46/35 18/41/30
f 13/167/113 97/168/114 118/43/32 37/40/29
f 97/168/114 12/158/105 79/44/33 118/43/32
f 48/56/45 119/39/28 99/42/31 19/57/46
f 17/163/110 83/169/115 119/39/28 48/56/45
f 83/169/115 13/167/113 37/40/29 119/39/28
f 71/38/27 83/170/115 17/171/110
f 71/38/27 43/37/21 83/170/115
f 43/37/21 13/172/113 83/170/115
f 59/35/20 46/173/106 12/174/105
f 59/35/20 100/34/22 46/173/106
f 100/34/22 14/175/107 46/173/106
f 77/32/18 87/176/109 10/177/108
f 77/32/18 71/31/27 87/176/109
f 71/31/27 17/171/110 87/176/109
f 52/48/37 120/26/23 64/29/26 16/49/38
f 11/166/112 49/178/116 120/26/23 52/48/37
f 49/178/116 10/161/108 75/27/24 120/26/23
f 100/25/22 66/179/111 14/175/107
f 100/25/22 67/24/19 66/179/111
f 67/24/19 11/180/112 66/179/111
f 43/22/21 97/181/114 13/172/113
f 43/22/21 59/21/20 97/181/114
f 59/21/20 12/174/105 97/181/114
f 67/19/19 49/182/116 11/180/112
f 67/19/19 77/18/18 49/182/116
f 77/18/18 10/177/108 49/182/116
f 47/183/117 121/13/13 53/16/16 5/184/118
f 4/185/119 38/186/4 121/13/13 47/183/117
f 38/186/4 3/187/3 85/14/14 121/13/13
f 95/188/120 122/9/9 92/12/12 1/189/121
f 8/190/122 73/8/8 122/9/9 95/188/120
f 73/8/8 7/7/7 88/10/10 122/9/9
f 96/191/123 123/5/5 73/8/8 8/190/122
f 5/184/118 53/16/16 123/5/5 96/191/123
f 53/16/16 6/15/15 91/6/6 123/5/5
f 74/192/124 124/1/1 38/4/4 4/193/119
f 1/189/121 92/12/12 124/1/1 74/192/124
f 92/12/12 2/11/11 68/2/2 124/1/1
