# Blender v2.78 (sub 0) OBJ File: ''
# www.blender.org
mtllib Pine_Tree_crk_m_02.mtl
o Pine_Tree_crk_m_02
v 0.312416 0.519623 -0.087654
v 0.296497 1.118470 -0.062527
v 0.181333 1.117565 0.275597
v 0.193537 0.519691 0.278199
v -0.186278 0.535397 0.259532
v -0.149440 1.134421 0.248638
v 0.008788 1.134208 -0.238286
v -0.006050 0.535291 -0.295125
v 1.520255 2.775710 -0.290454
v 3.162265 2.079019 0.918668
v 3.321745 1.449508 0.305206
v 2.276785 1.916256 -1.010276
v 3.142837 0.548915 0.250696
v 1.560920 0.533004 -1.399270
v 1.363330 0.050946 -0.083410
v 2.740161 0.003168 0.836642
v 2.338256 0.035691 1.665927
v 0.156992 0.060484 1.103750
v 0.403280 0.583438 2.328676
v 2.199351 0.633614 2.280111
v 2.361939 1.526090 2.325507
v 0.114967 2.087131 2.212819
v 1.161000 2.599051 1.296826
v 2.765649 2.110817 1.754684
v 1.305278 0.412183 2.639646
v 1.958179 1.615965 2.998413
v 2.334783 2.578045 1.873839
v 3.431559 2.363905 0.637489
v 3.407024 0.216921 -0.646790
v 2.179881 -0.029178 0.353563
v 1.839078 0.019942 1.868834
v 3.343400 1.691871 -0.636351
v 4.995424 0.605178 2.097713
v 4.931741 0.294440 2.081968
v 4.774692 0.138140 2.291508
v 4.629358 0.162651 2.584322
v 4.571565 0.323129 2.800685
v 4.637019 0.631278 2.816041
v 4.785308 0.838295 2.618318
v 4.934985 0.821786 2.321716
v 2.992572 -0.018245 2.315662
v 3.022890 0.097060 3.335107
v 2.982410 1.254961 3.149213
v 3.940231 1.896330 2.667483
v 4.219763 1.939694 1.422501
v 4.870407 1.013110 0.753186
v 4.225758 0.070080 0.588834
v 3.952299 -0.291102 1.420941
v 6.148115 0.077638 2.726968
v 6.009914 -0.101838 2.900277
v 5.885050 -0.073533 3.176721
v 5.814648 0.105761 3.380953
v 5.881977 0.389833 3.382483
v 6.005826 0.593293 3.202205
v 6.145442 0.570823 2.932825
v 6.201132 0.360338 2.721533
v 5.060199 -0.568019 2.118688
v 5.211566 -0.486402 3.108686
v 4.533178 0.097824 3.517990
v 5.211577 0.662605 3.635103
v 5.061518 1.421045 2.992696
v 5.848431 1.130043 2.476322
v 5.846910 -0.004952 1.949253
v 5.588881 0.756313 1.594054
v 7.002742 0.320499 3.090630
v 6.958321 0.572974 3.349093
v 7.955477 -0.007409 4.127829
v 6.963017 -0.055261 3.091948
v 6.654658 -0.276443 3.637969
v 6.782770 -0.297138 3.295916
v 6.649613 0.352439 3.894926
v 6.557786 0.008849 3.878401
v 6.775967 0.604193 3.663242
v 1.982776 1.096418 1.023485
v 0.289510 1.447724 0.430350
v 1.990240 1.080554 1.224271
v 2.103035 1.231188 1.061002
v 0.446795 1.657999 0.226559
v 0.522914 1.464090 -0.032044
v 2.171033 1.093787 0.864647
v 2.100276 0.858227 0.906566
v 0.474520 1.139644 0.033270
v 0.323893 1.129276 0.334768
v 1.988554 0.850048 1.128834
v -0.319250 1.949168 -0.161035
v -0.254564 1.751910 0.125628
v -0.052887 1.766241 -0.270707
v -0.204979 0.003294 0.282735
v -0.311491 0.389509 -0.091314
v -0.332173 -0.004695 -0.107624
v 0.000063 0.003287 -0.348316
v 0.331899 0.002004 -0.107331
v 0.205149 0.002008 0.282767
v 0.219755 1.149524 0.292300
v 2.135909 2.130967 2.473425
v 3.302215 2.240296 0.768493
v 2.042235 0.840130 1.016090
v 2.331160 0.537711 -0.607998
v 7.502106 -0.045479 3.617895
v 5.730255 0.381083 1.747345
v 4.373016 1.356841 2.648316
v 2.559464 1.837397 2.057710
v 7.302501 -0.011993 4.038728
v 5.845315 0.248119 3.388056
v 2.051673 0.005138 0.363517
v -0.291506 -0.000701 0.095006
v 7.029650 0.125508 3.123513
v 4.601418 0.477468 2.814477
v 1.992724 -0.016039 1.117632
v 0.326624 0.244014 -0.099375
v 5.946293 -0.094539 3.038300
v 4.208339 1.571608 1.495239
v 1.202456 1.827708 2.276635
v -0.116378 0.550618 -0.023994
v 0.180153 0.002646 -0.247329
v -0.200756 0.251435 0.283539
v 4.968118 0.717955 2.205562
v 4.861390 0.836631 2.470258
v 2.429017 -0.017667 0.570589
v 0.396859 1.292021 -0.054239
v 0.504420 1.576471 0.091080
v 5.170485 1.270522 2.165161
v 3.329199 1.110331 2.916389
v 5.455591 -0.306268 2.019912
v 4.086990 1.954883 2.049827
v 1.955035 2.376061 1.528276
v 1.302718 0.995323 0.476495
v 6.369854 -0.032688 2.474407
v -0.166217 0.854390 0.261664
v 2.980692 0.662214 3.277381
v 2.152209 1.579742 2.669366
v 4.700785 0.143804 2.437676
v 4.170999 1.145353 0.740231
v 5.134466 1.061966 3.327937
v 0.166483 0.530036 -0.213243
v 0.006874 0.854221 -0.271015
v -0.168582 1.768257 -0.079847
v 7.027274 0.437311 3.250819
v 1.288010 0.603011 2.324211
v 3.243387 0.998183 0.254141
v 2.044651 1.166927 1.151407
v 4.860010 -0.204417 3.334203
v 4.405418 0.832303 3.267601
v 0.221871 1.283126 0.344010
v 4.569954 0.527447 0.635782
v 4.566727 0.185057 1.349285
v 0.275818 1.330138 2.290188
v 2.257441 0.317150 1.989068
v 1.808384 0.778846 -0.322206
v 0.184169 0.822027 0.271972
v -0.328719 0.190410 -0.101755
v 0.506474 1.285939 -0.015633
v 1.631726 0.482178 0.393417
v 4.966454 0.449546 2.083724
v 3.253393 1.781768 0.595903
v -0.202253 1.863050 -0.218484
v 5.175127 0.069897 1.637830
v 0.009366 1.122649 0.261303
v 6.019958 0.828351 2.722713
v 1.214825 0.026047 1.379259
v 0.268682 0.518694 0.100352
v 5.864548 -0.450195 2.664992
v 6.762728 0.467560 3.802389
v 2.076740 0.024531 1.764694
v 4.412410 -0.039579 2.740360
v 1.356448 2.678647 0.507770
v 2.894074 2.507890 1.258928
v 0.373509 1.567159 0.348454
v 5.474432 0.054229 3.693311
v 7.334772 0.176615 4.044883
v 5.942624 0.496638 3.296968
v 1.480900 0.279421 -0.738939
v 5.586800 0.511145 3.508746
v 3.482103 0.064939 1.331768
v 0.296852 0.821920 -0.074805
v 0.202090 0.244048 0.283891
v 5.588019 -0.286438 3.152333
v 4.710006 0.739634 2.721671
v 1.170968 1.258644 0.852353
v 7.337738 -0.162443 3.907977
v 5.892038 0.552816 2.170669
v 6.177618 0.218665 2.717912
v 6.176249 0.470199 2.822840
v 4.985186 -0.195514 2.158685
v 3.411271 2.057689 -0.027214
v 0.357753 1.155790 -0.033259
v 6.253006 0.556891 2.286329
v 0.000406 0.251378 -0.335560
v 7.416276 0.302588 3.927056
v 4.564929 1.377708 1.875174
v 2.528690 2.374716 1.806874
v 1.777946 2.035393 0.306569
v 6.915431 0.576554 3.532562
v 3.278605 0.381165 -0.221703
v 0.647723 2.344044 1.770229
v 0.000085 0.002651 0.306862
v 3.802664 0.940887 2.970969
v 1.610844 0.999068 2.862783
v 5.846890 0.011496 3.283178
v 3.401949 0.943910 -0.695022
v 2.534218 -0.006332 1.250172
v -0.252083 0.456087 0.068122
v 5.549175 0.687295 1.731863
v 3.465529 -0.163600 1.863472
v 1.982654 0.960527 1.188140
v 0.974873 1.628930 1.737339
v -0.013427 1.619021 0.266724
v 2.158579 1.546046 -0.142475
v -0.074829 1.143981 0.003948
v 2.142550 1.174094 0.956658
v 1.520312 1.955518 1.194034
v 3.568326 1.693798 2.246701
v 2.141048 0.972124 0.873024
v 2.953334 0.368210 2.714736
v 2.803017 0.057191 -0.182135
v 4.194321 0.252498 0.732377
v -0.170665 0.456041 -0.182447
v 6.020295 0.038493 2.365916
v 5.193404 0.105683 3.440632
v 3.454018 1.602491 2.932945
v 0.397006 1.120053 0.182379
v 0.300236 1.271829 0.398367
v 4.597556 0.238416 2.696660
v 5.861772 1.049041 3.309125
v 7.535058 0.153444 3.628552
v 6.080290 -0.017175 2.808998
v 3.806869 0.076963 2.445197
v 4.854366 0.211443 2.182242
v 0.772907 0.061697 0.523380
v 0.144870 1.122466 -0.155693
v 1.386338 1.274159 0.426753
v 4.859987 0.375169 3.600842
v 4.976601 1.250605 2.941935
v 7.499286 0.293617 3.754885
v 2.269547 1.080860 2.326608
v 1.937049 1.212022 -1.202106
v 2.804777 1.695136 -0.374503
v 1.304917 1.436898 0.659047
v 1.715604 0.526439 2.453534
v 6.657844 -0.137773 3.781386
v 2.985975 0.018377 2.851059
v 3.809478 0.207767 3.071420
v 0.293134 0.305265 1.728259
v 6.921246 -0.179834 3.224378
v 6.076826 0.588912 3.067716
v 1.006022 0.487777 1.108415
v 5.878531 0.523321 3.763553
v 5.731062 0.952946 2.014344
v 1.920465 2.353772 -0.640318
v 0.001508 0.530132 0.294476
v 4.413026 0.094915 3.368685
v -0.180227 -0.000704 -0.247476
v 1.076630 0.811378 1.785999
v 1.549395 0.188979 2.280245
v 5.133796 -0.554123 2.607237
v 3.263154 0.094886 2.238840
v 0.239423 1.119177 0.106518
v 0.345877 1.470173 0.168855
v -0.298709 1.856196 -0.028929
v 4.566967 1.500027 1.062168
v 4.941627 0.798180 1.443978
v 2.968949 2.120701 1.337799
v 0.291455 0.002006 0.095169
v 0.016800 1.818818 0.008974
v 2.319814 2.458692 0.289493
v 6.655291 0.174279 3.908594
v 5.542168 0.994462 3.093649
v 3.316207 1.585222 -0.199554
v 2.945804 0.257097 0.526039
v 1.169622 0.985734 0.739535
v 5.881100 -0.396865 3.357741
v 4.096205 -0.139951 0.980290
v 4.377619 -0.078014 1.867126
v 0.207897 1.634748 -0.168224
v 5.543141 -0.335944 2.517565
v 6.368257 0.879813 2.880658
v 7.420333 -0.173045 3.734954
v 6.768720 -0.289076 3.494303
v 5.457092 1.302098 2.740972
v 0.076811 1.148979 0.053348
v 0.308371 1.298804 0.144895
v 0.282477 1.129311 0.125592
v 0.101153 1.617535 0.051212
v 0.280809 0.243549 0.097592
v -0.174413 0.219637 -0.232689
v 0.000750 0.249240 0.301072
v 0.173763 0.249192 -0.231394
v -0.281264 0.219667 0.096159
v 0.118475 1.732032 -0.096496
v -0.008358 1.723019 0.152758
v 1.234252 0.978072 0.606591
v 1.350539 1.365847 0.537413
v 1.164266 1.117948 0.806246
v 1.349371 1.131283 0.440442
v 1.236135 1.357606 0.763491
v 6.319190 0.727134 2.569811
v 6.319997 0.264548 2.363275
v 5.870834 -0.442642 3.007858
v 5.667918 0.286792 3.745644
v 6.117000 0.983075 3.098283
v 6.119225 -0.255598 2.558936
v 5.669256 -0.179994 3.539347
v 5.868079 0.800232 3.546964
v 5.963843 0.298195 2.252969
v 5.963682 0.697776 2.434099
v 5.562804 0.765412 3.310528
v 5.383050 -0.097750 3.309085
v 5.783374 -0.161154 2.432400
v 5.782718 0.928110 2.911513
v 5.382407 0.306053 3.490006
v 5.563942 -0.328074 2.831624
v 5.077635 1.282426 2.556066
v 4.396744 0.456872 3.338923
v 4.694750 -0.125436 2.447009
v 5.374583 0.371361 1.664063
v 5.372252 0.993030 1.933504
v 4.686719 1.057414 3.119378
v 4.400360 0.014844 3.069531
v 5.084382 -0.080066 1.883647
v 4.476336 0.036378 1.593659
v 4.473091 1.389005 2.264283
v 3.793655 0.567561 3.041862
v 4.088170 -0.008284 2.153627
v 4.766548 0.484412 1.375960
v 4.765676 1.101993 1.644662
v 4.083611 1.164710 2.824187
v 3.795842 0.129613 2.773224
v 4.203021 1.375618 1.101767
v 3.442898 1.421469 2.602441
v 3.095400 0.215769 2.491868
v 3.843569 0.137955 1.012064
v 3.894405 1.654455 1.872723
v 3.129386 0.731899 2.840496
v 3.363631 0.070906 1.788401
v 4.197464 0.693551 0.706521
v 2.242006 -0.015160 1.170301
v 3.316322 0.977436 -0.249259
v 3.326801 1.936412 0.262561
v 2.332999 2.003682 2.265577
v 1.879099 0.253192 2.130141
v 2.860745 0.153937 0.147867
v 2.923400 2.338855 1.289877
v 1.917915 1.046091 2.595226
v 1.568692 2.127073 1.928500
v 1.235007 0.287620 1.874671
v 2.199447 0.245394 -0.149632
v 2.143250 2.445385 0.906718
v 1.230684 1.216104 2.337474
v 1.625448 -0.007717 0.872212
v 2.584493 1.110979 -0.526959
v 2.580729 2.104665 -0.064093
v 0.158500 0.838064 -0.193334
v 0.002339 0.838215 0.287242
v -0.094543 0.855807 -0.009472
v 0.255382 0.820471 0.103380
vt 0.9577 0.9148
vt 0.9576 0.9237
vt 0.9507 0.9237
vt 0.9508 0.9150
vt 0.8118 0.7829
vt 0.8115 0.7941
vt 0.8012 0.7935
vt 0.8009 0.7823
vt 0.9439 0.9156
vt 0.9439 0.9245
vt 0.9371 0.9253
vt 0.9371 0.9163
vt 0.9716 0.9151
vt 0.9714 0.9244
vt 0.9645 0.9236
vt 0.9646 0.9147
vt 0.9665 0.4629
vt 0.9583 0.4506
vt 0.9653 0.4439
vt 0.9784 0.4521
vt 0.9787 0.4360
vt 0.9654 0.4345
vt 0.9654 0.4250
vt 0.9790 0.4198
vt 0.9396 0.3967
vt 0.9422 0.4108
vt 0.9324 0.4104
vt 0.9233 0.3965
vt 0.9006 0.4340
vt 0.9178 0.4333
vt 0.9175 0.4432
vt 0.9006 0.4495
vt 0.9386 0.4728
vt 0.9414 0.4571
vt 0.9512 0.4573
vt 0.9547 0.4736
vt 0.9674 0.4084
vt 0.9587 0.4182
vt 0.9520 0.4113
vt 0.9558 0.3970
vt 0.9120 0.4075
vt 0.9252 0.4169
vt 0.9180 0.4235
vt 0.9007 0.4185
vt 0.9115 0.4607
vt 0.9245 0.4500
vt 0.9316 0.4569
vt 0.9225 0.4720
vt 0.8945 0.4336
vt 0.8943 0.4503
vt 0.8825 0.4546
vt 0.8828 0.4338
vt 0.9359 0.3934
vt 0.9186 0.3934
vt 0.9126 0.3841
vt 0.9347 0.3837
vt 0.9653 0.4621
vt 0.9792 0.4495
vt 0.9914 0.4525
vt 0.9726 0.4690
vt 0.9061 0.4622
vt 0.9179 0.4741
vt 0.9115 0.4845
vt 0.8970 0.4696
vt 0.9066 0.4051
vt 0.8947 0.4169
vt 0.8831 0.4131
vt 0.8978 0.3986
vt 0.9664 0.4047
vt 0.9533 0.3933
vt 0.9568 0.3832
vt 0.9741 0.3970
vt 0.9793 0.4328
vt 0.9795 0.4161
vt 0.9914 0.4107
vt 0.9914 0.4316
vt 0.9347 0.4744
vt 0.9515 0.4747
vt 0.9538 0.4855
vt 0.9326 0.4850
vt 0.9718 0.4366
vt 0.9719 0.4493
vt 0.9508 0.4413
vt 0.9505 0.4357
vt 0.9363 0.4035
vt 0.9493 0.4033
vt 0.9421 0.4224
vt 0.9366 0.4224
vt 0.9053 0.4354
vt 0.9051 0.4222
vt 0.9235 0.4306
vt 0.9238 0.4362
vt 0.9384 0.4672
vt 0.9246 0.4669
vt 0.9322 0.4489
vt 0.9376 0.4491
vt 0.9605 0.4136
vt 0.9717 0.4238
vt 0.9502 0.4301
vt 0.9462 0.4262
vt 0.9142 0.4129
vt 0.9233 0.4035
vt 0.9310 0.4224
vt 0.9273 0.4265
vt 0.9150 0.4578
vt 0.9054 0.4486
vt 0.9240 0.4417
vt 0.9281 0.4453
vt 0.9621 0.4584
vt 0.9521 0.4674
vt 0.9430 0.4493
vt 0.9469 0.4453
vt 0.9140 0.4604
vt 0.9241 0.4705
vt 0.9165 0.4861
vt 0.9019 0.4715
vt 0.9139 0.4118
vt 0.9039 0.4219
vt 0.8870 0.4159
vt 0.9016 0.4011
vt 0.9627 0.4119
vt 0.9527 0.4017
vt 0.9580 0.3862
vt 0.9726 0.4011
vt 0.9728 0.4363
vt 0.9728 0.4220
vt 0.9872 0.4159
vt 0.9871 0.4365
vt 0.9383 0.4705
vt 0.9526 0.4706
vt 0.9577 0.4861
vt 0.9371 0.4861
vt 0.9039 0.4362
vt 0.9039 0.4503
vt 0.8873 0.4570
vt 0.8872 0.4365
vt 0.9383 0.4017
vt 0.9239 0.4017
vt 0.9162 0.3862
vt 0.9371 0.3862
vt 0.9627 0.4605
vt 0.9728 0.4505
vt 0.9870 0.4571
vt 0.9724 0.4716
vt 0.9593 0.4155
vt 0.9678 0.4239
vt 0.9458 0.4344
vt 0.9443 0.4329
vt 0.9187 0.4156
vt 0.9270 0.4072
vt 0.9385 0.4313
vt 0.9369 0.4328
vt 0.9184 0.4561
vt 0.9101 0.4475
vt 0.9354 0.4388
vt 0.9369 0.4403
vt 0.9592 0.4563
vt 0.9507 0.4649
vt 0.9427 0.4416
vt 0.9441 0.4401
vt 0.9677 0.4358
vt 0.9676 0.4477
vt 0.9455 0.4385
vt 0.9456 0.4365
vt 0.9389 0.4072
vt 0.9508 0.4072
vt 0.9428 0.4313
vt 0.9406 0.4313
vt 0.9102 0.4357
vt 0.9103 0.4239
vt 0.9353 0.4343
vt 0.9354 0.4366
vt 0.9387 0.4648
vt 0.9267 0.4647
vt 0.9385 0.4417
vt 0.9406 0.4417
vt 0.9597 0.4559
vt 0.9690 0.4467
vt 0.9889 0.4577
vt 0.9733 0.4728
vt 0.9155 0.4557
vt 0.9246 0.4649
vt 0.9147 0.4877
vt 0.8995 0.4725
vt 0.9154 0.4114
vt 0.9062 0.4207
vt 0.8838 0.4140
vt 0.8990 0.3984
vt 0.9691 0.4337
vt 0.9692 0.4207
vt 0.9895 0.4140
vt 0.9892 0.4359
vt 0.9375 0.4649
vt 0.9504 0.4649
vt 0.9577 0.4879
vt 0.9362 0.4878
vt 0.9063 0.4337
vt 0.9064 0.4466
vt 0.8843 0.4574
vt 0.8841 0.4357
vt 0.9376 0.4021
vt 0.9245 0.4021
vt 0.9143 0.3828
vt 0.9363 0.3828
vt 0.9600 0.4114
vt 0.9507 0.4021
vt 0.9583 0.3828
vt 0.9739 0.3984
vt 0.9393 0.5781
vt 0.9331 0.5777
vt 0.9372 0.5705
vt 0.9496 0.5692
vt 0.9445 0.5737
vt 0.9423 0.5660
vt 0.9417 0.5453
vt 0.9462 0.5506
vt 0.9383 0.5541
vt 0.9178 0.5556
vt 0.9223 0.5507
vt 0.9264 0.5592
vt 0.9268 0.5773
vt 0.9229 0.5727
vt 0.9309 0.5701
vt 0.9506 0.5559
vt 0.9501 0.5625
vt 0.9428 0.5594
vt 0.9268 0.5457
vt 0.9342 0.5455
vt 0.9309 0.5543
vt 0.9189 0.5682
vt 0.9183 0.5619
vt 0.9269 0.5655
vt 0.9015 0.5600
vt 0.9013 0.5455
vt 0.9366 0.5261
vt 0.9510 0.5266
vt 0.9694 0.5609
vt 0.9692 0.5747
vt 0.9115 0.5846
vt 0.9017 0.5746
vt 0.9118 0.5356
vt 0.9223 0.5257
vt 0.9603 0.5368
vt 0.9697 0.5470
vt 0.9592 0.5847
vt 0.9493 0.5947
vt 0.9354 0.5947
vt 0.9214 0.5947
vt 0.9866 0.4149
vt 0.9865 0.4341
vt 0.9632 0.4253
vt 0.9587 0.4813
vt 0.9390 0.4817
vt 0.9493 0.4585
vt 0.8915 0.4555
vt 0.8915 0.4362
vt 0.9157 0.4456
vt 0.9194 0.3890
vt 0.9391 0.3887
vt 0.9296 0.4123
vt 0.9865 0.4534
vt 0.9726 0.4674
vt 0.9632 0.4445
vt 0.9193 0.4821
vt 0.9054 0.4688
vt 0.9296 0.4589
vt 0.8915 0.4169
vt 0.9054 0.4029
vt 0.9157 0.4263
vt 0.9588 0.3883
vt 0.9727 0.4016
vt 0.9493 0.4120
vt 0.9302 0.9532
vt 0.9301 0.9812
vt 0.9231 0.9812
vt 0.9233 0.9532
vt 0.9713 0.9534
vt 0.9712 0.9818
vt 0.9644 0.9818
vt 0.9645 0.9534
vt 0.9439 0.9532
vt 0.9439 0.9813
vt 0.9370 0.9811
vt 0.9370 0.9532
vt 0.9164 0.9532
vt 0.9162 0.9813
vt 0.9093 0.9814
vt 0.9096 0.9532
vt 0.9576 0.9534
vt 0.9576 0.9816
vt 0.9508 0.9815
vt 0.9507 0.9533
vt 0.8970 0.9006
vt 0.9000 0.9019
vt 0.9001 0.9101
vt 0.8972 0.9075
vt 0.9031 0.9006
vt 0.9060 0.8993
vt 0.9056 0.9049
vt 0.9029 0.9075
vt 0.8119 0.8537
vt 0.8073 0.8479
vt 0.8166 0.8476
vt 0.9302 0.8982
vt 0.9302 0.9052
vt 0.9233 0.9031
vt 0.9233 0.8971
vt 0.9718 0.8980
vt 0.9718 0.9058
vt 0.9647 0.9059
vt 0.9648 0.8979
vt 0.9441 0.8988
vt 0.9440 0.9067
vt 0.9371 0.9073
vt 0.9372 0.8993
vt 0.9164 0.8975
vt 0.9166 0.9043
vt 0.9098 0.9055
vt 0.9096 0.8979
vt 0.9579 0.8982
vt 0.9578 0.9060
vt 0.9509 0.9062
vt 0.9511 0.8984
vt 0.8007 0.7711
vt 0.8067 0.7664
vt 0.8123 0.7718
vt 0.8115 0.8308
vt 0.8017 0.8311
vt 0.8007 0.8201
vt 0.8110 0.8198
vt 0.9030 0.9161
vt 0.9062 0.9158
vt 0.9063 0.9169
vt 0.9031 0.9169
vt 0.8998 0.9170
vt 0.8966 0.9178
vt 0.8998 0.9165
vt 0.9094 0.9178
vt 0.8108 0.8131
vt 0.8106 0.8064
vt 0.8171 0.8068
vt 0.8192 0.8131
vt 0.8110 0.8002
vt 0.8217 0.7947
vt 0.8194 0.8008
vt 0.8042 0.8060
vt 0.8027 0.7997
vt 0.8213 0.8194
vt 0.8025 0.8131
vt 0.9094 0.9167
vt 0.9126 0.9186
vt 0.9062 0.9148
vt 0.8966 0.9173
vt 0.8998 0.9159
vt 0.8935 0.9186
vt 0.9030 0.9153
vt 0.8213 0.8305
vt 0.8213 0.8416
vt 0.8120 0.8419
vt 0.8027 0.8422
vt 0.8183 0.7671
vt 0.8238 0.7725
vt 0.8128 0.7618
vt 0.9581 0.8903
vt 0.9512 0.8906
vt 0.9649 0.8900
vt 0.9162 0.8906
vt 0.9093 0.8902
vt 0.9232 0.8910
vt 0.9442 0.8909
vt 0.9372 0.8912
vt 0.9718 0.8902
vt 0.9786 0.8905
vt 0.9787 0.8981
vt 0.9788 0.9058
vt 0.9302 0.8911
vt 0.9000 0.8937
vt 0.9032 0.8936
vt 0.9065 0.8936
vt 0.8938 0.8993
vt 0.8942 0.9049
vt 0.8935 0.8936
vt 0.8967 0.8936
vt 0.9576 0.9251
vt 0.9507 0.9251
vt 0.9645 0.9250
vt 0.9166 0.9251
vt 0.9098 0.9249
vt 0.9235 0.9252
vt 0.9439 0.9252
vt 0.9371 0.9253
vt 0.9714 0.9251
vt 0.9784 0.9251
vt 0.9782 0.9535
vt 0.9780 0.9818
vt 0.9303 0.9252
vt 0.9399 0.4357
vt 0.9593 0.6112
vt 0.9376 0.6116
vt 0.9160 0.6121
vt 0.9888 0.5803
vt 0.9740 0.5957
vt 0.9602 0.5079
vt 0.9745 0.5231
vt 0.9888 0.5382
vt 0.8848 0.5354
vt 0.9013 0.5205
vt 0.9177 0.5056
vt 0.9002 0.5965
vt 0.8844 0.5809
vt 0.9888 0.5592
vt 0.9390 0.5067
vt 0.8846 0.5581
vt 0.9350 0.5629
vt 0.9490 0.4273
vt 0.9460 0.4244
vt 0.9431 0.4214
vt 0.9389 0.4214
vt 0.9347 0.4214
vt 0.9286 0.4273
vt 0.9285 0.4316
vt 0.9284 0.4359
vt 0.9345 0.4420
vt 0.9388 0.4420
vt 0.9431 0.4420
vt 0.9491 0.4358
vt 0.9491 0.4315
vt 0.9317 0.4244
vt 0.9315 0.4390
vt 0.9461 0.4389
vt 0.9588 0.4882
vt 0.9369 0.4879
vt 0.9149 0.4876
vt 0.8847 0.4563
vt 0.8850 0.4349
vt 0.8853 0.4135
vt 0.9156 0.3832
vt 0.9372 0.3831
vt 0.9588 0.3830
vt 0.9897 0.4134
vt 0.9897 0.4351
vt 0.9897 0.4569
vt 0.9743 0.4726
vt 0.8998 0.4719
vt 0.9004 0.3984
vt 0.9743 0.3982
vt 0.9475 0.4550
vt 0.9530 0.4494
vt 0.9585 0.4438
vt 0.9473 0.4172
vt 0.9395 0.4172
vt 0.9317 0.4171
vt 0.9207 0.4280
vt 0.9207 0.4358
vt 0.9206 0.4437
vt 0.9317 0.4549
vt 0.9396 0.4550
vt 0.9584 0.4360
vt 0.9583 0.4282
vt 0.9528 0.4227
vt 0.9262 0.4226
vt 0.9261 0.4493
vt 0.9931 0.4574
vt 0.9772 0.4714
vt 0.9613 0.4854
vt 0.9170 0.4850
vt 0.9019 0.4703
vt 0.8868 0.4555
vt 0.8868 0.4138
vt 0.9012 0.3993
vt 0.9156 0.3847
vt 0.9566 0.3843
vt 0.9748 0.4010
vt 0.9931 0.4176
vt 0.9391 0.4852
vt 0.8868 0.4347
vt 0.9361 0.3845
vt 0.9931 0.4375
vt 0.9243 0.4637
vt 0.9367 0.4638
vt 0.9492 0.4638
vt 0.9670 0.4466
vt 0.9673 0.4340
vt 0.9676 0.4214
vt 0.9587 0.4124
vt 0.9498 0.4034
vt 0.9245 0.4028
vt 0.9154 0.4117
vt 0.9063 0.4206
vt 0.9062 0.4460
vt 0.9153 0.4549
vt 0.9581 0.4552
vt 0.9372 0.4031
vt 0.9062 0.4333
vt 0.8986 0.4715
vt 0.9135 0.4871
vt 0.8836 0.4558
vt 0.8989 0.3981
vt 0.8834 0.4135
vt 0.9143 0.3826
vt 0.9761 0.3986
vt 0.9596 0.3826
vt 0.9925 0.4147
vt 0.9358 0.4885
vt 0.9581 0.4899
vt 0.8835 0.4347
vt 0.9369 0.3826
vt 0.9920 0.4376
vt 0.9915 0.4604
vt 0.9748 0.4751
vt 0.9786 0.9154
vt 0.9784 0.9251
vt 0.8227 0.7836
vn 0.9495 0.0306 0.3124
vn 0.9484 0.0224 0.3162
vn 0.4721 0.5549 0.6850
vn 0.5797 0.0364 0.8140
vn -0.9489 0.0680 -0.3081
vn -0.6370 0.7426 -0.2068
vn -0.2816 0.6058 -0.7441
vn -0.3374 0.1193 -0.9338
vn -0.0489 0.0366 0.9981
vn -0.0102 0.6911 0.7227
vn -0.6668 0.5927 0.4516
vn -0.8240 0.0833 0.5604
vn 0.5464 0.0813 -0.8336
vn 0.4079 0.7063 -0.5786
vn 0.7848 0.5649 -0.2548
vn 0.9466 0.0621 -0.3164
vn 0.6299 0.6933 -0.3500
vn -0.3137 0.7653 -0.5620
vn -0.4685 0.4060 -0.7846
vn 0.7758 0.2935 -0.5586
vn 0.7269 -0.1570 -0.6685
vn -0.3065 -0.0501 -0.9506
vn -0.4286 -0.0713 -0.9007
vn 0.5838 -0.5664 -0.5817
vn -0.0283 -0.9996 -0.0003
vn -0.8935 -0.0069 -0.4490
vn -0.9923 0.1182 0.0365
vn -0.0718 -0.9650 0.2521
vn -0.0107 0.0300 0.9995
vn -0.8393 0.4103 0.3568
vn -0.8676 0.4580 0.1936
vn 0.0464 0.4289 0.9021
vn 0.2691 0.9530 0.1393
vn -0.5620 0.7255 -0.3973
vn -0.4617 0.7309 -0.5026
vn 0.4539 0.8838 -0.1134
vn 0.3172 -0.8685 -0.3810
vn -0.4420 -0.0871 -0.8928
vn -0.4745 0.1342 -0.8700
vn 0.1266 -0.9709 -0.2031
vn -0.0600 -0.8463 0.5294
vn -0.9270 -0.3191 -0.1971
vn -0.9899 0.1366 0.0383
vn -0.0086 -0.4660 0.8847
vn 0.1026 0.7472 0.6566
vn -0.8162 0.5732 0.0727
vn -0.7926 0.5393 -0.2845
vn 0.1754 0.8982 0.4032
vn -0.6103 0.3848 -0.6924
vn -0.4775 0.5013 -0.7216
vn -0.9519 -0.2132 0.2200
vn -0.8529 0.2487 0.4591
vn -0.7955 -0.2410 -0.5560
vn -0.7222 -0.3827 -0.5761
vn -0.6232 0.7729 -0.1190
vn -0.3532 0.8436 -0.4045
vn -0.5298 0.8380 -0.1308
vn -0.8598 0.4213 -0.2885
vn -0.0060 -0.4671 -0.8842
vn -0.6602 -0.3497 -0.6647
vn -0.3738 0.6551 -0.6566
vn -0.1868 0.9103 -0.3694
vn -0.6951 -0.4547 -0.5568
vn -0.8085 -0.4954 -0.3176
vn -0.7639 -0.2693 -0.5865
vn -0.7906 0.0912 -0.6056
vn -0.6000 0.5030 0.6220
vn -0.7444 0.6306 0.2194
vn -0.9629 0.2169 -0.1608
vn -0.8913 0.1127 -0.4392
vn 0.0425 0.9502 -0.3086
vn -0.1079 0.8530 -0.5107
vn -0.9852 0.0423 -0.1661
vn -0.9920 0.0899 -0.0887
vn -0.1866 0.4758 -0.8595
vn -0.1326 0.0468 -0.9901
vn -0.0290 0.9986 -0.0448
vn -0.1958 0.9806 0.0095
vn -0.8545 -0.1837 -0.4859
vn 0.9954 0.0456 0.0839
vn 0.8709 0.0075 -0.4913
vn 0.8719 0.2522 -0.4198
vn -0.3073 0.4644 -0.8306
vn -0.0361 0.8569 -0.5143
vn 0.0366 -0.9982 0.0480
vn 0.0974 -0.9948 -0.0288
vn -0.8344 -0.1958 -0.5152
vn -0.3198 -0.1700 -0.9321
vn -0.0264 -0.2278 0.9733
vn -0.0530 -0.6064 0.7934
vn -0.9789 -0.1348 0.1538
vn -0.7481 -0.6623 0.0398
vn 0.5083 0.8105 0.2910
vn 0.4009 0.7675 0.5002
vn -0.6526 0.7036 -0.2810
vn -0.7780 0.6158 0.1244
vn 0.2006 -0.9734 -0.1111
vn 0.6847 -0.6216 -0.3805
vn -0.9055 0.3199 -0.2790
vn -0.9050 -0.4245 0.0280
vn -0.0519 -0.8775 0.4768
vn -0.0112 -0.9687 0.2481
vn -0.9294 0.1476 -0.3382
vn -0.7351 0.2726 0.6208
vn 0.2869 0.6579 0.6963
vn 0.1485 0.2503 0.9567
vn -0.8727 0.1470 -0.4657
vn -0.2246 0.8637 -0.4512
vn 0.8297 0.4721 -0.2978
vn 0.7155 0.6986 -0.0027
vn -0.7746 0.4032 -0.4873
vn -0.1753 -0.0140 -0.9844
vn -0.1542 0.9595 -0.2358
vn -0.0895 0.9613 -0.2605
vn -0.9481 -0.0261 -0.3169
vn -0.9961 -0.0871 0.0111
vn -0.3378 -0.2780 -0.8992
vn -0.2861 -0.1992 -0.9373
vn -0.9011 0.4301 0.0549
vn -0.6219 0.7703 -0.1407
vn -0.8632 -0.5034 -0.0393
vn -0.8058 -0.5810 -0.1145
vn -0.5383 0.6433 -0.5444
vn -0.3635 0.3885 -0.8467
vn -0.8553 0.4462 0.2636
vn -0.9931 -0.0322 0.1127
vn -0.0299 0.3853 -0.9223
vn -0.2783 0.3134 -0.9079
vn -0.0891 0.9441 -0.3175
vn -0.3599 0.9274 -0.1017
vn -0.7970 -0.4368 -0.4171
vn -0.7111 -0.2051 -0.6725
vn -0.2834 -0.1077 -0.9529
vn -0.3105 0.5544 -0.7722
vn -0.8478 -0.3808 0.3691
vn -0.9860 0.0105 0.1662
vn -0.7600 -0.6115 -0.2202
vn -0.6140 -0.4879 -0.6204
vn -0.5282 0.8490 -0.0121
vn -0.7032 0.6951 -0.1493
vn -0.6022 0.7827 0.1571
vn -0.7408 0.6286 0.2370
vn -0.5154 -0.1595 -0.8420
vn -0.8028 -0.3898 -0.4512
vn 0.3578 -0.8732 -0.3308
vn 0.5691 -0.6457 -0.5091
vn -0.7162 -0.3623 -0.5965
vn -0.7585 -0.2213 -0.6129
vn -0.0407 -0.9676 0.2492
vn -0.0639 -0.9782 0.1976
vn -0.8109 -0.3377 -0.4779
vn -0.3692 -0.5797 -0.7264
vn 0.1092 0.5270 0.8428
vn 0.0297 0.3356 0.9415
vn -0.9218 0.3791 0.0812
vn -0.9276 -0.0784 0.3652
vn 0.7114 0.6473 -0.2737
vn 0.6176 0.7834 -0.0698
vn -0.6338 0.6368 -0.4390
vn -0.5164 0.8560 0.0232
vn 0.7230 -0.3251 -0.6096
vn 0.8364 0.1944 -0.5125
vn -0.9431 0.0595 -0.3271
vn -0.4684 -0.7266 -0.5026
vn -0.0619 -0.9797 0.1909
vn 0.1395 -0.9882 -0.0638
vn -0.9915 -0.1105 -0.0682
vn -0.9777 -0.1891 0.0915
vn -0.0216 0.1227 0.9922
vn -0.0302 -0.5590 0.8286
vn -0.5819 -0.1115 -0.8055
vn -0.5435 0.8354 0.0826
vn 0.5043 0.8500 0.1523
vn 0.3367 0.7654 0.5484
vn -0.9326 0.1869 -0.3088
vn -0.3647 0.5067 -0.7812
vn -0.4595 0.8858 -0.0651
vn -0.5034 0.8606 0.0777
vn -0.7697 -0.2943 -0.5665
vn -0.9378 -0.3211 0.1320
vn -0.1617 0.2798 -0.9463
vn -0.1237 0.4085 -0.9043
vn -0.9997 0.0160 0.0192
vn -0.6896 0.7047 0.1669
vn -0.5836 -0.7005 -0.4108
vn -0.4954 -0.6743 -0.5477
vn -0.7824 0.5867 -0.2089
vn -0.3652 0.5220 -0.7708
vn -0.5817 0.7952 0.1709
vn -0.8467 0.4290 0.3147
vn -0.3070 -0.2999 -0.9032
vn -0.3372 0.1200 -0.9338
vn -0.1514 0.5170 -0.8425
vn -0.3770 0.7729 -0.5104
vn -0.8124 -0.5795 -0.0651
vn -0.7522 -0.5494 -0.3639
vn -0.4366 -0.5940 -0.6757
vn -0.3679 -0.1721 -0.9138
vn -0.8059 0.4802 0.3464
vn -0.9567 0.0974 0.2743
vn -0.8986 -0.2907 0.3286
vn -0.8397 -0.5401 -0.0559
vn -0.3549 0.7751 -0.5228
vn -0.5180 0.8196 -0.2449
vn -0.9075 -0.0402 0.4181
vn -0.8995 -0.1789 0.3987
vn -0.5272 0.2891 -0.7990
vn -0.4591 -0.4528 -0.7643
vn 0.7361 0.2741 -0.6189
vn 0.6668 0.5884 -0.4573
vn 0.7548 0.2626 -0.6012
vn 0.6304 -0.4533 -0.6302
vn 0.7100 -0.0776 -0.6999
vn 0.6616 -0.4406 -0.6068
vn -0.0231 -0.8975 0.4404
vn 0.1264 -0.9870 0.0989
vn 0.0133 -0.8849 0.4657
vn -0.0891 0.3670 0.9259
vn -0.1873 0.0028 0.9823
vn -0.0607 0.3557 0.9326
vn 0.5600 0.8088 -0.1796
vn 0.3891 0.9122 0.1285
vn 0.5914 0.7913 -0.1553
vn 0.3070 -0.9293 -0.2051
vn 0.4693 -0.7504 -0.4654
vn 0.3558 -0.9194 -0.1677
vn -0.1840 -0.3672 0.9118
vn -0.1594 -0.6695 0.7255
vn -0.1611 -0.3592 0.9193
vn 0.2225 0.8542 0.4700
vn 0.0247 0.6670 0.7446
vn 0.2525 0.8382 0.4833
vn 0.0184 0.6550 0.7554
vn -0.0865 0.3605 0.9288
vn -0.1551 -0.6756 0.7208
vn -0.0268 -0.9016 0.4318
vn 0.4512 -0.7582 -0.4707
vn 0.6263 -0.4572 -0.6314
vn 0.3943 0.9127 0.1075
vn 0.2173 0.8562 0.4687
vn -0.1704 0.0011 0.9854
vn -0.1821 -0.3710 0.9106
vn 0.1174 -0.9902 0.0763
vn 0.2946 -0.9300 -0.2198
vn 0.7161 -0.0806 -0.6933
vn 0.7349 0.2802 -0.6176
vn 0.6658 0.5938 -0.4518
vn 0.5588 0.8078 -0.1877
vn -0.0001 0.4233 -0.9060
vn -0.2650 0.3726 -0.8893
vn -0.9911 -0.0008 -0.1332
vn -0.7037 -0.5473 -0.4532
vn -0.6975 -0.2923 -0.6542
vn -0.7012 0.6754 -0.2284
vn -0.7744 -0.3268 0.5418
vn -0.9357 -0.1507 0.3191
vn -0.6497 0.3915 -0.6516
vn -0.6101 0.7849 -0.1081
vn -0.7678 0.6254 -0.1388
vn -0.7709 -0.3345 -0.5420
vn -0.4407 -0.2188 -0.8706
vn -0.7579 -0.5195 -0.3947
vn -0.8813 0.4707 0.0417
vn -0.9503 -0.2536 -0.1806
vn -0.9485 -0.1105 0.2968
vn -0.4730 0.8015 -0.3659
vn -0.8808 0.4045 0.2461
vn -0.6388 0.7418 -0.2042
vn -0.5960 -0.1818 -0.7821
vn -0.5501 0.6268 -0.5518
vn -0.3318 0.3915 -0.8583
vn -0.8515 -0.4450 -0.2774
vn -0.1243 0.7619 0.6357
vn -0.1177 0.7691 0.6282
vn 0.1826 0.9745 0.1308
vn 0.1850 0.9742 0.1290
vn 0.4186 -0.2700 -0.8671
vn 0.4184 -0.2795 -0.8642
vn 0.1827 -0.7837 -0.5937
vn 0.1823 -0.7836 -0.5939
vn -0.4512 -0.3302 0.8291
vn -0.4487 -0.3389 0.8269
vn -0.3521 0.2665 0.8972
vn -0.3578 0.2640 0.8957
vn 0.4215 0.7989 -0.4290
vn 0.4188 0.8063 -0.4178
vn 0.5146 0.3275 -0.7924
vn 0.5100 0.3233 -0.7971
vn -0.1187 -0.9883 -0.0954
vn -0.1181 -0.9884 -0.0952
vn -0.3536 -0.8184 0.4530
vn -0.3532 -0.8203 0.4498
vn 0.0104 0.7877 0.6159
vn 0.2779 0.9462 0.1659
vn -0.7008 0.6240 -0.3455
vn -0.9189 0.1599 0.3607
vn 0.4867 0.8109 -0.3250
vn 0.2160 -0.2115 -0.9532
vn 0.0545 -0.0871 -0.9947
vn -0.2375 0.1842 -0.9538
vn -0.9494 0.0697 0.3064
vn -0.8617 0.5006 0.0827
vn -0.8699 0.4073 -0.2781
vn -0.9472 0.0913 -0.3074
vn 0.5768 0.0695 -0.8139
vn 0.5601 0.0739 -0.8251
vn 0.9494 0.0620 -0.3078
vn 0.9498 0.0539 -0.3082
vn -0.0119 0.0255 0.9996
vn -0.0320 0.0297 0.9990
vn -0.7446 0.1908 0.6397
vn -0.6056 0.0620 0.7933
vn -0.5872 0.0964 -0.8037
vn -0.6432 0.5131 -0.5684
vn -0.2206 0.2294 -0.9480
vn -0.0231 0.1045 -0.9943
vn 0.9505 0.0321 0.3090
vn 0.9503 0.0387 0.3088
vn 0.5875 0.0349 0.8085
vn 0.5876 0.0269 0.8087
vn -0.8509 0.4464 -0.2768
vn -0.3889 -0.8923 -0.2295
vn 0.1815 0.2665 -0.9466
vn -0.8179 -0.3994 -0.4141
vn 0.1634 -0.9858 0.0378
vn 0.4179 -0.7052 -0.5728
vn 0.2058 -0.7857 -0.5833
vn -0.1024 -0.9915 -0.0806
vn -0.3354 -0.8239 0.4569
vn -0.4991 -0.2916 0.8160
vn -0.1154 -0.7501 0.6512
vn 0.3843 -0.2310 -0.8938
vn -0.8414 0.4040 -0.3588
vn -0.8494 0.4110 -0.3310
vn -0.7121 -0.6782 0.1814
vn -0.9443 0.0857 0.3176
vn 0.0655 0.9976 0.0220
vn 0.1025 0.9941 0.0345
vn -0.6727 0.2023 0.7118
vn -0.3222 0.1697 -0.9313
vn -0.3975 -0.5869 -0.7054
vn 0.3832 -0.9142 0.1322
vn -0.6371 -0.2623 0.7248
vn -0.7712 -0.1248 0.6242
vn -0.5055 -0.8139 -0.2864
vn 0.9512 0.0255 0.3075
vn 0.5914 0.0191 0.8061
vn 0.9478 0.0464 -0.3155
vn -0.5860 0.0549 -0.8085
vn -0.0032 0.0656 -0.9978
vn -0.9477 0.0468 -0.3157
vn -0.0003 0.0106 0.9999
vn -0.5939 0.0218 0.8043
vn 0.5859 0.0546 -0.8085
vn -0.9511 0.0277 0.3077
vn 0.2350 0.9599 0.1526
vn 0.4653 0.7842 -0.4106
vn -0.0798 0.7504 0.6562
vn -0.8722 0.2039 -0.4446
vn 0.8716 -0.1248 0.4740
usemtl None
s 1
f 355/1/1 257/2/2 3/3/3 150/4/4
f 354/5/5 209/6/6 7/7/7 136/8/8
f 353/9/9 158/10/10 6/11/11 129/12/12
f 352/13/13 230/14/14 2/15/15 175/16/16
f 351/17/17 155/18/18 11/19/19 237/20/20
f 350/21/21 140/22/22 13/23/23 98/24/24
f 349/25/25 201/26/26 17/27/27 160/28/28
f 348/29/29 235/30/30 21/31/31 113/32/32
f 347/33/33 262/34/34 10/35/35 265/36/36
f 346/37/37 269/38/38 16/39/39 105/40/40
f 345/41/41 148/42/42 20/43/43 139/44/44
f 344/45/45 102/46/46 24/47/47 126/48/48
f 343/49/49 239/50/50 25/51/51 198/52/52
f 342/53/53 191/54/54 27/55/55 167/56/56
f 341/57/57 194/58/58 29/59/59 215/60/60
f 340/61/61 164/62/62 31/63/63 254/64/64
f 339/65/65 131/66/66 26/67/67 95/68/68
f 338/69/69 96/70/70 28/71/71 185/72/72
f 337/73/73 268/74/74 32/75/75 200/76/76
f 336/77/77 119/78/78 30/79/79 109/80/80
f 335/81/81 133/82/82 33/83/83 154/84/84
f 334/85/85 174/86/86 35/87/87 132/88/88
f 333/89/89 214/90/90 37/91/91 108/92/92
f 332/93/93 212/94/94 39/95/95 118/96/96
f 331/97/97 216/98/98 34/99/99 228/100/100
f 330/101/101 256/102/102 36/103/103 223/104/104
f 329/105/105 123/106/106 38/107/107 178/108/108
f 328/109/109 112/110/110 40/111/111 117/112/112
f 327/113/113 227/114/114 41/115/115 241/116/116
f 326/117/117 197/118/118 43/119/119 220/120/120
f 325/121/121 190/122/122 45/123/123 260/124/124
f 324/125/125 261/126/126 46/127/127 145/128/128
f 323/129/129 273/130/130 48/131/131 204/132/132
f 322/133/133 242/134/134 42/135/135 130/136/136
f 321/137/137 101/138/138 44/139/139 125/140/140
f 320/141/141 146/142/142 47/143/143 272/144/144
f 319/145/145 157/146/146 49/147/147 226/148/148
f 318/149/149 165/150/150 51/151/151 199/152/152
f 317/153/153 143/154/154 53/155/155 171/156/156
f 316/157/157 122/158/158 55/159/159 183/160/160
f 315/161/161 203/162/162 56/163/163 182/164/164
f 314/165/165 184/166/166 50/167/167 111/168/168
f 313/169/169 251/170/170 52/171/171 104/172/172
f 312/173/173 233/174/174 54/175/175 245/176/176
f 311/177/177 275/178/178 57/179/179 255/180/180
f 310/181/181 219/182/182 59/183/183 232/184/184
f 309/185/185 267/186/186 61/187/187 279/188/188
f 308/189/189 218/190/190 63/191/191 124/192/192
f 307/193/193 177/194/194 58/195/195 142/196/196
f 306/197/197 173/198/198 60/199/199 134/200/200
f 305/201/201 159/202/202 62/203/203 248/204/204
f 304/205/205 181/206/206 64/207/207 100/208/208
f 65/209/209 138/210/210 225/211/211
f 68/212/212 107/213/213 99/214/214
f 69/215/215 278/216/216 180/217/217
f 71/218/218 266/219/219 170/220/220
f 66/221/221 193/222/222 234/223/223
f 70/224/224 244/225/225 277/226/226
f 72/227/227 240/228/228 103/229/229
f 73/230/230 163/231/231 189/232/232
f 303/233/233 247/234/234 71/218/218 163/231/231
f 302/235/235 271/236/236 69/215/215 240/228/228
f 301/237/237 128/238/238 68/212/212 244/225/225
f 300/239/239 224/240/240 73/230/230 193/222/222
f 299/241/241 169/242/242 72/227/227 266/219/219
f 298/243/243 162/244/244 70/224/224 278/216/216
f 297/245/245 187/246/246 65/209/209 107/213/213
f 296/247/247 276/248/248 66/221/221 138/210/210
f 12/249/249 236/250/250 208/251/251
f 15/252/252 229/253/253 153/254/254
f 19/255/255 147/256/256 253/257/257
f 23/258/258 166/259/259 211/260/260
f 14/261/261 172/262/262 149/263/263
f 18/264/264 243/265/265 246/266/266
f 22/267/267 195/268/268 206/269/269
f 9/270/270 249/271/271 192/272/272
f 295/273/273 141/274/274 77/275/275 238/276/276
f 294/277/277 213/278/278 81/279/279 127/280/280
f 293/281/281 205/282/282 76/283/283 179/284/284
f 292/285/285 210/286/286 80/287/287 231/288/288
f 291/289/289 97/290/290 84/291/291 270/292/292
f 290/293/293 264/294/294 85/295/295 259/296/296
f 289/297/297 274/298/298 87/299/299 156/300/300
f 85/301/295 156/302/300 259/303/296
f 288/304/301 202/305/302 89/306/303 151/307/304
f 287/308/305 135/309/306 1/310/307 110/311/308
f 286/312/309 250/313/310 5/314/311 116/315/312
f 285/316/313 217/317/314 8/318/315 188/319/316
f 284/320/317 161/321/318 4/322/319 176/323/320
f 8/324/315 217/325/314 114/326/321
f 283/327/322 274/328/298 79/329/323 258/330/324
f 282/331/325 186/332/326 82/333/327 221/334/328
f 83/335/329 222/336/330 94/337/331
f 82/333/327 186/332/326 152/338/332
f 281/339/333 257/340/334 3/341/335 144/342/336
f 280/343/337 209/6/6 6/344/11 158/345/10
f 257/340/338 280/343/337 158/345/10 3/341/3
f 2/346/15 230/347/14 280/343/337 257/340/338
f 230/347/14 7/7/7 209/6/6 280/343/337
f 258/330/324 281/339/333 144/342/336 75/348/339
f 79/329/323 120/349/340 281/339/333 258/330/324
f 120/349/340 2/346/341 257/340/334 281/339/333
f 152/338/332 120/350/340 79/351/323
f 152/338/332 186/332/326 120/350/340
f 186/332/326 2/352/341 120/350/340
f 94/337/331 144/353/336 3/354/335
f 94/337/331 222/336/330 144/353/336
f 222/336/330 75/355/339 144/353/336
f 94/337/331 282/331/325 221/334/328 83/335/329
f 3/354/335 257/356/342 282/331/325 94/337/331
f 257/356/342 2/352/341 186/332/326 282/331/325
f 207/357/343 283/327/322 258/330/324 75/348/339
f 86/358/344 137/359/345 283/327/322 207/357/343
f 137/359/345 87/360/299 274/328/298 283/327/322
f 114/326/321 202/361/302 5/362/311
f 114/326/321 217/325/314 202/361/302
f 217/325/314 89/363/303 202/361/302
f 263/364/346 284/320/317 176/323/320 93/365/347
f 92/366/348 110/311/308 284/320/317 263/364/346
f 110/311/308 1/310/307 161/321/318 284/320/317
f 252/367/349 285/316/313 188/319/316 91/368/350
f 90/369/351 151/307/304 285/316/313 252/367/349
f 151/307/304 89/306/303 217/317/314 285/316/313
f 196/370/352 286/312/309 116/315/312 88/371/353
f 93/365/347 176/323/320 286/312/309 196/370/352
f 176/323/320 4/322/319 250/313/310 286/312/309
f 115/372/354 287/308/305 110/311/308 92/366/348
f 91/373/350 188/374/316 287/308/305 115/372/354
f 188/374/316 8/375/315 135/309/306 287/308/305
f 106/376/355 288/304/301 151/307/304 90/369/351
f 88/371/353 116/315/312 288/304/301 106/376/355
f 116/315/312 5/314/311 202/305/302 288/304/301
f 259/303/296 137/359/345 86/358/344
f 259/303/296 156/302/300 137/359/345
f 156/302/300 87/360/299 137/359/345
f 264/294/294 289/297/297 156/300/300 85/295/295
f 78/377/356 121/378/357 289/297/297 264/294/294
f 121/378/357 79/379/323 274/298/298 289/297/297
f 207/380/343 290/293/293 259/296/296 86/381/344
f 75/382/339 168/383/358 290/293/293 207/380/343
f 168/383/358 78/377/356 264/294/294 290/293/293
f 221/384/328 291/289/289 270/292/292 83/385/329
f 82/386/327 127/280/280 291/289/289 221/384/328
f 127/280/280 81/279/279 97/290/290 291/289/289
f 121/387/357 292/285/285 231/288/288 79/388/323
f 78/389/356 238/276/276 292/285/285 121/387/357
f 238/276/276 77/275/275 210/286/286 292/285/285
f 222/390/330 293/281/281 179/284/284 75/391/339
f 83/385/329 270/292/292 293/281/281 222/390/330
f 270/292/292 84/291/291 205/282/282 293/281/281
f 152/392/332 294/277/277 127/280/280 82/386/327
f 79/393/323 231/394/288 294/277/277 152/392/332
f 231/394/288 80/395/287 213/278/278 294/277/277
f 168/396/358 295/273/273 238/276/276 78/389/356
f 75/391/339 179/284/284 295/273/273 168/396/358
f 179/284/284 76/283/283 141/274/274 295/273/273
f 192/272/272 208/251/251 74/397/359
f 192/272/272 249/271/271 208/251/251
f 249/271/271 12/249/249 208/251/251
f 206/269/269 211/260/260 74/397/359
f 206/269/269 195/268/268 211/260/260
f 195/268/268 23/258/258 211/260/260
f 246/266/266 253/257/257 74/397/359
f 246/266/266 243/265/265 253/257/257
f 243/265/265 19/255/255 253/257/257
f 149/263/263 153/254/254 74/397/359
f 149/263/263 172/262/262 153/254/254
f 172/262/262 15/252/252 153/254/254
f 211/260/260 192/272/272 74/397/359
f 211/260/260 166/259/259 192/272/272
f 166/259/259 9/270/270 192/272/272
f 253/257/257 206/269/269 74/397/359
f 253/257/257 147/256/256 206/269/269
f 147/256/256 22/267/267 206/269/269
f 153/254/254 246/266/266 74/397/359
f 153/254/254 229/253/253 246/266/266
f 229/253/253 18/264/264 246/266/266
f 208/251/251 149/263/263 74/397/359
f 208/251/251 236/250/250 149/263/263
f 236/250/250 14/261/261 149/263/263
f 187/246/246 296/247/247 138/210/210 65/209/209
f 64/398/207 248/399/204 296/247/247 187/246/246
f 248/399/204 62/400/203 276/248/248 296/247/247
f 128/238/238 297/245/245 107/213/213 68/212/212
f 63/401/191 100/402/208 297/245/245 128/238/238
f 100/402/208 64/398/207 187/246/246 297/245/245
f 271/236/236 298/243/243 278/216/216 69/215/215
f 58/403/195 255/404/180 298/243/243 271/236/236
f 255/404/180 57/405/179 162/244/244 298/243/243
f 247/234/234 299/241/241 266/219/219 71/218/218
f 60/406/199 232/407/184 299/241/241 247/234/234
f 232/407/184 59/408/183 169/242/242 299/241/241
f 276/248/248 300/239/239 193/222/222 66/221/221
f 62/400/203 279/409/188 300/239/239 276/248/248
f 279/409/188 61/410/187 224/240/240 300/239/239
f 162/244/244 301/237/237 244/225/225 70/224/224
f 57/405/179 124/411/192 301/237/237 162/244/244
f 124/411/192 63/401/191 128/238/238 301/237/237
f 169/242/242 302/235/235 240/228/228 72/227/227
f 59/408/183 142/412/196 302/235/235 169/242/242
f 142/412/196 58/403/195 271/236/236 302/235/235
f 224/240/240 303/233/233 163/231/231 73/230/230
f 61/410/187 134/413/200 303/233/233 224/240/240
f 134/413/200 60/406/199 247/234/234 303/233/233
f 189/232/232 170/220/220 67/414/360
f 189/232/232 163/231/231 170/220/220
f 163/231/231 71/218/218 170/220/220
f 103/229/229 180/217/217 67/414/360
f 103/229/229 240/228/228 180/217/217
f 240/228/228 69/215/215 180/217/217
f 277/226/226 99/214/214 67/414/360
f 277/226/226 244/225/225 99/214/214
f 244/225/225 68/212/212 99/214/214
f 234/223/223 189/232/232 67/414/360
f 234/223/223 193/222/222 189/232/232
f 193/222/222 73/230/230 189/232/232
f 170/220/220 103/229/229 67/414/360
f 170/220/220 266/219/219 103/229/229
f 266/219/219 72/227/227 103/229/229
f 180/217/217 277/226/226 67/414/360
f 180/217/217 278/216/216 277/226/226
f 278/216/216 70/224/224 277/226/226
f 99/214/214 225/211/211 67/414/360
f 99/214/214 107/213/213 225/211/211
f 107/213/213 65/209/209 225/211/211
f 225/211/211 234/223/223 67/414/360
f 225/211/211 138/210/210 234/223/223
f 138/210/210 66/221/221 234/223/223
f 218/190/190 304/205/205 100/208/208 63/191/191
f 49/415/147 182/416/164 304/205/205 218/190/190
f 182/416/164 56/417/163 181/206/206 304/205/205
f 181/206/206 305/201/201 248/204/204 64/207/207
f 56/417/163 183/418/160 305/201/201 181/206/206
f 183/418/160 55/419/159 159/202/202 305/201/201
f 267/186/186 306/197/197 134/200/200 61/187/187
f 54/420/175 171/421/156 306/197/197 267/186/186
f 171/421/156 53/422/155 173/198/198 306/197/197
f 219/182/182 307/193/193 142/196/196 59/183/183
f 52/423/171 199/424/152 307/193/193 219/182/182
f 199/424/152 51/425/151 177/194/194 307/193/193
f 275/178/178 308/189/189 124/192/192 57/179/179
f 50/426/167 226/427/148 308/189/189 275/178/178
f 226/427/148 49/415/147 218/190/190 308/189/189
f 159/202/202 309/185/185 279/188/188 62/203/203
f 55/419/159 245/428/176 309/185/185 159/202/202
f 245/428/176 54/420/175 267/186/186 309/185/185
f 173/198/198 310/181/181 232/184/184 60/199/199
f 53/422/155 104/429/172 310/181/181 173/198/198
f 104/429/172 52/423/171 219/182/182 310/181/181
f 177/194/194 311/177/177 255/180/180 58/195/195
f 51/425/151 111/430/168 311/177/177 177/194/194
f 111/430/168 50/426/167 275/178/178 311/177/177
f 122/158/158 312/173/173 245/176/176 55/159/159
f 45/431/123 125/432/140 312/173/173 122/158/158
f 125/432/140 44/433/139 233/174/174 312/173/173
f 143/154/154 313/169/169 104/172/172 53/155/155
f 43/434/119 130/435/136 313/169/169 143/154/154
f 130/435/136 42/436/135 251/170/170 313/169/169
f 165/150/150 314/165/165 111/168/168 51/151/151
f 41/437/115 204/438/132 314/165/165 165/150/150
f 204/438/132 48/439/131 184/166/166 314/165/165
f 157/146/146 315/161/161 182/164/164 49/147/147
f 47/440/143 145/441/128 315/161/161 157/146/146
f 145/441/128 46/442/127 203/162/162 315/161/161
f 203/162/162 316/157/157 183/160/160 56/163/163
f 46/442/127 260/443/124 316/157/157 203/162/162
f 260/443/124 45/431/123 122/158/158 316/157/157
f 233/174/174 317/153/153 171/156/156 54/175/175
f 44/433/139 220/444/120 317/153/153 233/174/174
f 220/444/120 43/434/119 143/154/154 317/153/153
f 251/170/170 318/149/149 199/152/152 52/171/171
f 42/436/135 241/445/116 318/149/149 251/170/170
f 241/445/116 41/437/115 165/150/150 318/149/149
f 184/166/166 319/145/145 226/148/148 50/167/167
f 48/439/131 272/446/144 319/145/145 184/166/166
f 272/446/144 47/440/143 157/146/146 319/145/145
f 273/130/130 320/141/141 272/144/144 48/131/131
f 35/447/87 228/448/100 320/141/141 273/130/130
f 228/448/100 34/449/99 146/142/142 320/141/141
f 190/122/122 321/137/137 125/140/140 45/123/123
f 40/450/111 118/451/96 321/137/137 190/122/122
f 118/451/96 39/452/95 101/138/138 321/137/137
f 197/118/118 322/133/133 130/136/136 43/119/119
f 38/453/107 108/454/92 322/133/133 197/118/118
f 108/454/92 37/455/91 242/134/134 322/133/133
f 227/114/114 323/129/129 204/132/132 41/115/115
f 36/456/103 132/457/88 323/129/129 227/114/114
f 132/457/88 35/447/87 273/130/130 323/129/129
f 146/142/142 324/125/125 145/128/128 47/143/143
f 34/449/99 154/458/84 324/125/125 146/142/142
f 154/458/84 33/459/83 261/126/126 324/125/125
f 261/126/126 325/121/121 260/124/124 46/127/127
f 33/459/83 117/460/112 325/121/121 261/126/126
f 117/460/112 40/450/111 190/122/122 325/121/121
f 101/138/138 326/117/117 220/120/120 44/139/139
f 39/452/95 178/461/108 326/117/117 101/138/138
f 178/461/108 38/453/107 197/118/118 326/117/117
f 242/134/134 327/113/113 241/116/116 42/135/135
f 37/455/91 223/462/104 327/113/113 242/134/134
f 223/462/104 36/456/103 227/114/114 327/113/113
f 133/82/82 328/109/109 117/112/112 33/83/83
f 32/463/75 185/464/72 328/109/109 133/82/82
f 185/464/72 28/465/71 112/110/110 328/109/109
f 212/94/94 329/105/105 178/108/108 39/95/95
f 27/466/55 95/467/68 329/105/105 212/94/94
f 95/467/68 26/468/67 123/106/106 329/105/105
f 214/90/90 330/101/101 223/104/104 37/91/91
f 25/469/51 254/470/64 330/101/101 214/90/90
f 254/470/64 31/471/63 256/102/102 330/101/101
f 174/86/86 331/97/97 228/100/100 35/87/87
f 30/472/79 215/473/60 331/97/97 174/86/86
f 215/473/60 29/474/59 216/98/98 331/97/97
f 112/110/110 332/93/93 118/96/96 40/111/111
f 28/465/71 167/475/56 332/93/93 112/110/110
f 167/475/56 27/466/55 212/94/94 332/93/93
f 123/106/106 333/89/89 108/92/92 38/107/107
f 26/468/67 198/476/52 333/89/89 123/106/106
f 198/476/52 25/469/51 214/90/90 333/89/89
f 256/102/102 334/85/85 132/88/88 36/103/103
f 31/471/63 109/477/80 334/85/85 256/102/102
f 109/477/80 30/472/79 174/86/86 334/85/85
f 216/98/98 335/81/81 154/84/84 34/99/99
f 29/474/59 200/478/76 335/81/81 216/98/98
f 200/478/76 32/463/75 133/82/82 335/81/81
f 164/62/62 336/77/77 109/80/80 31/63/63
f 17/479/27 201/480/26 336/77/77 164/62/62
f 201/480/26 16/481/39 119/78/78 336/77/77
f 194/58/58 337/73/73 200/76/76 29/59/59
f 13/482/23 140/483/22 337/73/73 194/58/58
f 140/483/22 11/484/19 268/74/74 337/73/73
f 268/74/74 338/69/69 185/72/72 32/75/75
f 11/484/19 155/485/18 338/69/69 268/74/74
f 155/485/18 10/486/35 96/70/70 338/69/69
f 191/54/54 339/65/65 95/68/68 27/55/55
f 24/487/47 102/488/46 339/65/65 191/54/54
f 102/488/46 21/489/31 131/66/66 339/65/65
f 239/50/50 340/61/61 254/64/64 25/51/51
f 20/490/43 148/491/42 340/61/61 239/50/50
f 148/491/42 17/479/27 164/62/62 340/61/61
f 119/78/78 341/57/57 215/60/60 30/79/79
f 16/481/39 269/492/38 341/57/57 119/78/78
f 269/492/38 13/482/23 194/58/58 341/57/57
f 96/70/70 342/53/53 167/56/56 28/71/71
f 10/486/35 262/493/34 342/53/53 96/70/70
f 262/493/34 24/487/47 191/54/54 342/53/53
f 131/66/66 343/49/49 198/52/52 26/67/67
f 21/489/31 235/494/30 343/49/49 131/66/66
f 235/494/30 20/490/43 239/50/50 343/49/49
f 195/495/268 344/45/45 126/48/48 23/496/258
f 22/497/267 113/32/32 344/45/45 195/495/268
f 113/32/32 21/31/31 102/46/46 344/45/45
f 243/498/265 345/41/41 139/44/44 19/499/255
f 18/500/264 160/28/28 345/41/41 243/498/265
f 160/28/28 17/27/27 148/42/42 345/41/41
f 172/501/262 346/37/37 105/40/40 15/502/252
f 14/503/261 98/24/24 346/37/37 172/501/262
f 98/24/24 13/23/23 269/38/38 346/37/37
f 166/504/259 347/33/33 265/36/36 9/505/270
f 23/496/258 126/48/48 347/33/33 166/504/259
f 126/48/48 24/47/47 262/34/34 347/33/33
f 147/506/256 348/29/29 113/32/32 22/497/267
f 19/499/255 139/44/44 348/29/29 147/506/256
f 139/44/44 20/43/43 235/30/30 348/29/29
f 229/507/253 349/25/25 160/28/28 18/500/264
f 15/502/252 105/40/40 349/25/25 229/507/253
f 105/40/40 16/39/39 201/26/26 349/25/25
f 236/508/250 350/21/21 98/24/24 14/503/261
f 12/509/249 237/20/20 350/21/21 236/508/250
f 237/20/20 11/19/19 140/22/22 350/21/21
f 249/510/271 351/17/17 237/20/20 12/509/249
f 9/505/270 265/36/36 351/17/17 249/510/271
f 265/36/36 10/35/35 155/18/18 351/17/17
f 135/309/306 352/13/13 175/16/16 1/310/307
f 8/375/315 136/511/8 352/13/13 135/309/306
f 136/511/8 7/512/7 230/14/14 352/13/13
f 250/313/310 353/9/9 129/12/12 5/314/311
f 4/322/319 150/4/4 353/9/9 250/313/310
f 150/4/4 3/3/3 158/10/10 353/9/9
f 114/326/321 354/5/5 136/8/8 8/324/315
f 5/362/311 129/513/12 354/5/5 114/326/321
f 129/513/12 6/344/11 209/6/6 354/5/5
f 161/321/318 355/1/1 150/4/4 4/322/319
f 1/310/307 175/16/16 355/1/1 161/321/318
f 175/16/16 2/15/15 257/2/2 355/1/1
