# Blender v2.78 (sub 0) OBJ File: ''
# www.blender.org
mtllib Dead_Pine_Tree_crk_OneSided_l_04.mtl
o Dead_Pine_Tree_crk_OneSided_l_04
v -0.698213 3.179760 -0.309904
v -0.891295 3.105463 -0.262480
v -0.755597 3.183078 -0.118913
v -0.354967 3.363049 -0.105816
v -1.186961 2.958967 -0.348768
v -1.250098 2.925648 -0.119764
v -1.113140 2.918076 -0.573273
v -1.636349 2.641997 -0.848983
v -1.735053 2.695730 -0.508869
v -1.986885 2.380057 -1.001403
v -2.123634 2.438334 -0.788015
v -1.839283 2.649352 -0.168676
v -2.181522 2.365694 -0.470409
v -2.215005 2.382994 -0.225283
v -2.019297 2.549234 -0.591725
v -2.473351 2.229613 -0.722594
v -1.316437 2.689048 -0.893094
v -1.607060 2.700712 0.039614
v -0.335889 4.455778 0.395129
v -0.321011 4.374037 0.597174
v -0.154403 4.466660 0.490462
v -0.074239 4.668506 0.093773
v -0.456711 4.207090 0.874567
v -0.235840 4.182061 0.982021
v -0.666662 4.156559 0.754954
v -1.029975 3.837511 1.221315
v -0.708895 3.906162 1.389011
v -1.236311 3.546352 1.537735
v -1.050751 3.611608 1.719275
v -0.382983 3.871757 1.559275
v -0.737155 3.550956 1.837522
v -0.497226 3.579956 1.919700
v -0.838925 3.739855 1.655536
v -1.040158 3.386338 2.078986
v -1.015420 3.896599 0.890975
v -0.130874 3.944667 1.366893
v 0.465826 5.218816 -0.224597
v 0.561849 5.146810 -0.411235
v 0.359431 5.237350 -0.402971
v 0.075629 5.422144 -0.092608
v 0.829608 4.990346 -0.587205
v 0.696187 4.973627 -0.798886
v 0.948343 4.929930 -0.374779
v 1.516044 4.626137 -0.600655
v 1.326493 4.708975 -0.912821
v 1.867698 4.344802 -0.779194
v 1.802782 4.423106 -1.031333
v 1.135810 4.687488 -1.235150
v 1.595490 4.372077 -1.303562
v 1.431248 4.409076 -1.500748
v 1.583551 4.552659 -1.082391
v 1.988785 4.213818 -1.359311
v 1.326635 4.668767 -0.320096
v 0.814157 4.754646 -1.199467
v 0.327369 6.204509 0.327044
v 0.533529 6.087344 0.305059
v 0.431658 6.211424 0.129164
v 0.032810 6.491625 0.055297
v 0.808754 5.859533 0.442148
v 0.920781 5.827914 0.199483
v 0.672442 5.811969 0.669246
v 1.129715 5.380713 1.044995
v 1.320456 5.446385 0.697388
v 1.428901 5.009563 1.252461
v 1.634306 5.062668 1.052139
v 1.498778 5.400735 0.339345
v 1.752598 4.995726 0.706632
v 1.845254 5.027085 0.446128
v 1.584028 5.221150 0.828426
v 1.989620 4.767233 1.026318
v 0.781599 5.493802 1.034874
v 1.301336 5.520479 0.070081
v -0.059212 5.728151 -0.175420
v -0.401530 6.028906 -0.777478
v -0.423528 6.018227 -0.772194
v -0.105833 5.700733 -0.157972
v -0.069860 5.675660 -0.194112
v -0.409031 6.009320 -0.790505
v 0.098639 0.243671 0.254791
v -0.018579 3.436033 0.173196
v -0.306188 3.379261 0.113633
v -0.244489 0.237430 0.182018
v 0.001943 6.676900 0.113459
v -0.193805 6.856147 0.046763
v 0.029057 0.242250 -0.324431
v -0.048563 3.429274 -0.278839
v 0.153010 3.430452 -0.054216
v 0.274872 0.242430 -0.053445
v -0.002210 6.788148 -0.183408
v 0.103981 6.788179 -0.064446
v -0.316898 3.458735 -0.159742
v -0.275396 0.245174 -0.162685
v -0.208807 6.768589 -0.123195
v -0.869711 3.879955 1.302056
v -0.263892 5.188623 0.086372
v -0.060594 5.702014 -0.187324
v 1.408164 5.432515 0.516365
v 0.239566 5.338804 -0.143572
v -1.057760 3.713256 1.484198
v -2.186079 2.381321 -0.321557
v 1.792685 5.023599 0.545875
v 1.712737 5.174697 0.409713
v -0.938497 3.680785 1.692134
v -0.200573 4.334019 0.720208
v 1.364864 5.494968 0.172140
v 1.690117 4.493344 -1.064058
v 0.513649 5.183481 -0.316810
v -0.559895 3.699097 1.719973
v 1.847890 4.896305 1.036502
v -1.855946 2.487186 -0.940660
v 1.682045 4.513659 -0.819326
v -0.103846 4.586363 0.260130
v 0.081359 3.435650 0.067749
v -0.302403 1.726640 -0.164149
v 1.593594 4.463650 -1.185691
v 0.191136 5.347240 -0.224767
v -0.188933 3.446840 -0.233728
v -0.010799 5.176978 0.142342
v 1.419720 4.675622 -0.753485
v 1.078310 4.849514 -0.750183
v -0.795198 3.646969 1.742599
v -0.344737 4.203251 0.920005
v -0.280682 1.681224 0.152769
v 0.735283 5.846303 0.550763
v 1.468910 4.624901 -1.006505
v -0.290923 4.032091 1.269432
v -1.210012 2.950398 -0.233906
v 1.064872 5.652743 0.569901
v -0.093392 6.996540 -0.072739
v -0.423344 6.033474 -0.795212
v 0.152963 6.373875 0.172107
v 0.881279 4.968720 -0.477918
v -1.539960 2.791475 -0.126578
v -1.892368 2.616995 -0.554767
v -1.359668 2.781605 -0.722915
v 0.064924 3.428301 -0.176335
v -0.328854 4.415623 0.495164
v -0.090559 5.684358 -0.176066
v 1.180175 4.773829 -0.349266
v 1.829991 4.389062 -0.874979
v -0.186458 4.581409 0.216735
v -2.074624 2.498471 -0.682712
v -0.179541 4.039679 1.217565
v -2.031413 2.496244 -0.315997
v -0.522149 3.289783 -0.107366
v -0.327400 3.417754 -0.021238
v 1.386088 4.667585 -0.422592
v 0.050959 6.827760 -0.124348
v -0.021318 5.198236 -0.236651
v -0.078698 0.240551 0.244498
v -2.030541 2.415448 -0.910140
v 1.222926 5.422752 0.871924
v -0.988182 3.063569 -0.127017
v 1.154123 5.642493 0.129080
v 1.395389 5.206568 1.066829
v -0.496029 3.288273 -0.194305
v -0.416894 6.029568 -0.803535
v 1.377184 4.518494 -1.288716
v -0.205150 6.864712 -0.044891
v -0.426833 6.024834 -0.801266
v -0.793858 3.143299 -0.286724
v 0.459645 5.192889 -0.407349
v -0.543722 3.896826 1.471727
v -2.097908 2.459261 -0.538534
v -0.266019 5.859433 -0.464215
v 1.664310 5.110341 0.775434
v 0.429488 6.146824 0.316536
v 1.321187 4.519994 -1.396349
v 0.682460 5.076092 -0.490525
v 1.502582 5.046798 1.165019
v -1.155933 3.664843 1.420564
v 0.899276 4.835998 -1.025541
v -0.083752 5.718173 -0.164114
v 1.615010 5.146987 0.933590
v -0.582935 4.056469 1.132058
v -0.857394 3.998655 0.970653
v -1.469897 2.791237 -0.029648
v 0.210359 0.243050 0.114504
v 1.733870 4.459861 -0.714638
v -1.461293 2.827211 -0.428902
v -0.264901 5.237682 -0.141999
v 0.691216 5.085203 -0.303053
v -1.896856 2.530558 -0.833061
v -0.037083 6.991313 -0.009593
v -0.457387 3.696016 1.781233
v 1.913180 4.307568 -1.227065
v -0.556708 4.190539 0.808658
v 0.928274 4.745410 -1.201583
v 1.825542 4.275346 -1.332955
v -0.112412 6.848742 -0.149155
v -0.285648 0.241302 0.013314
v -0.167169 3.405209 0.157585
v -1.142989 2.946523 -0.456979
v -1.043799 3.486384 1.934113
v 1.466753 5.324305 0.770224
v 1.230710 4.778628 -0.467707
v 0.134041 5.199127 -0.063076
v -1.012382 3.889315 1.007369
v -0.588710 3.574469 1.871644
v -0.229395 5.879768 -0.476348
v 1.484880 4.399733 -1.410833
v -0.876215 4.000723 0.845210
v -0.916106 3.450739 1.975857
v -0.382127 4.298599 0.722134
v 0.170934 0.242340 -0.207932
v -0.486095 4.316896 0.570226
v 0.042074 1.717224 0.220325
v 0.857091 5.854381 0.319643
v -1.243409 2.781059 -0.763851
v -1.682477 2.676661 -0.679367
v 1.647184 5.181838 0.522005
v -0.236735 4.421147 0.543553
v -0.897904 3.058349 -0.427492
v -2.071248 2.489382 -0.207202
v 0.747294 5.619934 0.888882
v -0.239082 5.841298 -0.493277
v 0.657478 5.984471 0.366788
v 0.496261 6.021291 0.482192
v 0.660333 6.032172 0.170878
v 0.757012 4.990368 -0.686255
v -1.427147 2.685145 -0.869115
v -2.332031 2.322676 -0.747894
v -0.134265 0.243712 -0.268136
v 1.227819 4.706111 -1.072670
v 0.906238 5.468974 1.030224
v 1.319679 5.158719 1.171845
v -1.784158 2.679978 -0.336723
v 0.220427 1.711668 -0.053567
v 0.775206 4.842448 -1.039663
v 0.523831 5.114362 -0.583678
v 0.200435 6.377022 0.082033
v -0.225569 3.933676 1.427073
v -0.822985 3.144983 -0.189781
v -0.010408 1.711161 -0.309155
v -1.024492 3.039244 -0.301349
v 1.209201 5.621031 0.249551
v -0.781038 3.816523 1.536583
v -1.682136 2.696972 -0.040051
v 0.047753 6.801639 0.030591
v -2.349917 2.282299 -0.620279
v -0.089035 6.814677 0.085525
v -1.154692 3.585615 1.600714
v 0.482423 6.150333 0.216096
v 1.887526 4.858176 0.895322
v 0.882450 5.600201 0.867230
v -0.147570 5.219333 -0.200823
v -0.163668 1.720319 -0.253088
v 0.073345 5.187899 0.046229
v 0.147174 1.715650 0.092695
v -0.278647 5.214721 -0.026719
v -0.309110 1.703310 -0.003414
v 0.067474 5.198096 -0.158490
v 0.118474 1.710634 -0.193387
v -0.141470 5.180600 0.126792
v -0.123861 1.698004 0.203417
v -0.254014 5.848507 -0.478898
v -0.232230 5.860602 -0.486115
v -0.248252 5.871389 -0.468828
v 0.575446 6.001764 0.431289
v 1.135898 5.644247 0.413758
v 1.546482 5.265829 0.643679
v 1.764215 4.992800 0.915407
v 1.424740 5.281497 0.913106
v 0.976609 5.633683 0.715997
v 0.663736 6.007620 0.263766
v 0.304899 6.271940 0.191017
v 0.691641 5.079582 -0.392455
v 0.990555 4.849412 -0.884008
v 1.414563 4.581473 -1.138986
v 1.765983 4.377675 -1.209389
v 1.566260 4.582711 -0.908569
v 1.153061 4.821104 -0.611564
v 0.601568 5.095273 -0.543464
v 0.339839 5.272529 -0.265748
v -0.440387 4.306844 0.644977
v -0.440308 4.050991 1.198771
v -0.667677 3.767991 1.617184
v -0.928607 3.558525 1.846968
v -0.913739 3.778459 1.502686
v -0.717507 4.034367 1.053161
v -0.286743 4.316058 0.725684
v -0.208334 4.508492 0.367319
v -0.961230 3.048230 -0.370666
v -1.499103 2.815979 -0.280998
v -1.950413 2.566020 -0.434274
v -2.225155 2.383811 -0.650702
v -1.885712 2.586402 -0.689282
v -1.411456 2.810912 -0.572714
v -1.009810 3.051039 -0.208975
v -0.646406 3.223077 -0.190946
vt 0.6872 0.3490
vt 0.6893 0.3418
vt 0.6914 0.3459
vt 0.6893 0.3562
vt 0.6905 0.3336
vt 0.6939 0.3356
vt 0.6812 0.3121
vt 0.6751 0.3121
vt 0.6723 0.2989
vt 0.6797 0.2989
vt 0.6710 0.2888
vt 0.6768 0.2888
vt 0.7021 0.2989
vt 0.6975 0.2888
vt 0.7033 0.2888
vt 0.6820 0.2909
vt 0.6814 0.2787
vt 0.6843 0.2828
vt 0.6872 0.2763
vt 0.6843 0.2696
vt 0.6691 0.3043
vt 0.6963 0.3253
vt 0.6992 0.3121
vt 0.7024 0.3172
vt 0.6924 0.2909
vt 0.6872 0.2930
vt 0.6872 0.2870
vt 0.6901 0.2828
vt 0.6932 0.3121
vt 0.6872 0.3121
vt 0.6872 0.2989
vt 0.6946 0.2989
vt 0.6839 0.3336
vt 0.6872 0.3315
vt 0.6872 0.3377
vt 0.6851 0.3418
vt 0.9351 0.3490
vt 0.9372 0.3418
vt 0.9393 0.3459
vt 0.9372 0.3562
vt 0.9384 0.3336
vt 0.9418 0.3356
vt 0.9291 0.3121
vt 0.9232 0.3121
vt 0.9203 0.2989
vt 0.9277 0.2989
vt 0.9190 0.2888
vt 0.9248 0.2888
vt 0.9500 0.2989
vt 0.9455 0.2888
vt 0.9513 0.2888
vt 0.9299 0.2909
vt 0.9293 0.2787
vt 0.9322 0.2828
vt 0.9351 0.2763
vt 0.9322 0.2696
vt 0.9171 0.3043
vt 0.9443 0.3253
vt 0.9471 0.3121
vt 0.9503 0.3172
vt 0.9403 0.2909
vt 0.9351 0.2930
vt 0.9351 0.2870
vt 0.9381 0.2828
vt 0.9411 0.3121
vt 0.9351 0.3121
vt 0.9351 0.2989
vt 0.9426 0.2989
vt 0.9318 0.3336
vt 0.9351 0.3315
vt 0.9351 0.3377
vt 0.9331 0.3418
vt 0.9351 0.3490
vt 0.9372 0.3418
vt 0.9393 0.3459
vt 0.9372 0.3562
vt 0.9384 0.3336
vt 0.9418 0.3356
vt 0.9291 0.3121
vt 0.9232 0.3121
vt 0.9203 0.2989
vt 0.9277 0.2989
vt 0.9190 0.2888
vt 0.9248 0.2888
vt 0.9500 0.2989
vt 0.9455 0.2888
vt 0.9513 0.2888
vt 0.9299 0.2909
vt 0.9293 0.2787
vt 0.9322 0.2828
vt 0.9351 0.2763
vt 0.9322 0.2696
vt 0.9171 0.3043
vt 0.9443 0.3253
vt 0.9471 0.3121
vt 0.9503 0.3172
vt 0.9403 0.2909
vt 0.9351 0.2930
vt 0.9351 0.2870
vt 0.9381 0.2828
vt 0.9411 0.3121
vt 0.9351 0.3121
vt 0.9351 0.2989
vt 0.9426 0.2989
vt 0.9318 0.3336
vt 0.9351 0.3315
vt 0.9351 0.3377
vt 0.9331 0.3418
vt 0.9351 0.3490
vt 0.9372 0.3418
vt 0.9393 0.3459
vt 0.9372 0.3562
vt 0.9384 0.3336
vt 0.9418 0.3356
vt 0.9291 0.3121
vt 0.9232 0.3121
vt 0.9203 0.2989
vt 0.9277 0.2989
vt 0.9190 0.2888
vt 0.9248 0.2888
vt 0.9500 0.2989
vt 0.9455 0.2888
vt 0.9513 0.2888
vt 0.9299 0.2909
vt 0.9293 0.2787
vt 0.9322 0.2828
vt 0.9351 0.2763
vt 0.9322 0.2696
vt 0.9171 0.3043
vt 0.9443 0.3253
vt 0.9471 0.3121
vt 0.9503 0.3172
vt 0.9403 0.2909
vt 0.9351 0.2930
vt 0.9351 0.2870
vt 0.9381 0.2828
vt 0.9411 0.3121
vt 0.9351 0.3121
vt 0.9351 0.2989
vt 0.9426 0.2989
vt 0.9318 0.3336
vt 0.9351 0.3315
vt 0.9351 0.3377
vt 0.9331 0.3418
vt 0.8430 0.9128
vt 0.8363 0.9129
vt 0.8363 0.9126
vt 0.8430 0.9124
vt 0.8429 0.9136
vt 0.8363 0.9132
vt 0.8363 0.9131
vt 0.8429 0.9132
vt 0.8362 0.9318
vt 0.8363 0.9316
vt 0.8364 0.9318
vt 0.8429 0.9120
vt 0.8363 0.9124
vt 0.8362 0.9122
vt 0.8429 0.9116
vt 0.8081 0.9112
vt 0.8073 0.9361
vt 0.8050 0.9354
vt 0.8055 0.9109
vt 0.8066 0.9622
vt 0.8058 0.9884
vt 0.8040 0.9891
vt 0.8045 0.9622
vt 0.7926 0.9115
vt 0.7937 0.9366
vt 0.7912 0.9367
vt 0.7899 0.9115
vt 0.7949 0.9626
vt 0.7961 0.9886
vt 0.7949 0.9888
vt 0.7930 0.9627
vt 0.8030 0.9112
vt 0.8029 0.9362
vt 0.8007 0.9370
vt 0.8005 0.9117
vt 0.8027 0.9627
vt 0.8025 0.9891
vt 0.8010 0.9892
vt 0.8009 0.9631
vt 0.8134 0.9116
vt 0.8119 0.9367
vt 0.8096 0.9368
vt 0.8108 0.9116
vt 0.8106 0.9625
vt 0.8094 0.9883
vt 0.8076 0.9877
vt 0.8086 0.9622
vt 0.7980 0.9115
vt 0.7984 0.9367
vt 0.7961 0.9364
vt 0.7954 0.9114
vt 0.7988 0.9628
vt 0.7991 0.9888
vt 0.7973 0.9885
vt 0.7967 0.9625
vt 0.7974 0.8093
vt 0.8087 0.8043
vt 0.8153 0.8112
vt 0.7974 0.8257
vt 0.7974 0.8175
vt 0.8153 0.8195
vt 0.8194 0.8355
vt 0.8084 0.8306
vt 0.8263 0.8243
vt 0.8331 0.8132
vt 0.8266 0.8062
vt 0.8200 0.7993
vt 0.7975 0.8863
vt 0.7947 0.8863
vt 0.8003 0.8863
vt 0.8141 0.9367
vt 0.8126 0.9628
vt 0.8111 0.9889
vt 0.8148 0.8865
vt 0.8119 0.8863
vt 0.8178 0.8866
vt 0.8160 0.9117
vt 0.8032 0.8863
vt 0.8061 0.8863
vt 0.7917 0.8864
vt 0.7886 0.8864
vt 0.8090 0.8863
vt 0.8497 0.9117
vt 0.8496 0.9111
vt 0.8497 0.9123
vt 0.8365 0.9316
vt 0.8366 0.9318
vt 0.8364 0.9314
vt 0.8496 0.9140
vt 0.8496 0.9134
vt 0.8496 0.9146
vt 0.8429 0.9140
vt 0.8362 0.9134
vt 0.8497 0.9129
vt 0.9285 0.3356
vt 0.9310 0.3459
vt 0.9260 0.3253
vt 0.9305 0.3253
vt 0.9351 0.3253
vt 0.9397 0.3253
vt 0.9410 0.2787
vt 0.9532 0.3040
vt 0.9564 0.3091
vt 0.9200 0.3174
vt 0.9139 0.3096
vt 0.9381 0.2696
vt 0.9351 0.2606
vt 0.9468 0.2787
vt 0.9526 0.2787
vt 0.9235 0.2787
vt 0.9177 0.2787
vt 0.9331 0.3562
vt 0.9351 0.3666
vt 0.9285 0.3356
vt 0.9310 0.3459
vt 0.9260 0.3253
vt 0.9305 0.3253
vt 0.9351 0.3253
vt 0.9397 0.3253
vt 0.9410 0.2787
vt 0.9532 0.3040
vt 0.9564 0.3091
vt 0.9200 0.3174
vt 0.9139 0.3096
vt 0.9381 0.2696
vt 0.9351 0.2606
vt 0.9468 0.2787
vt 0.9526 0.2787
vt 0.9235 0.2787
vt 0.9177 0.2787
vt 0.9331 0.3562
vt 0.9351 0.3666
vt 0.9285 0.3356
vt 0.9310 0.3459
vt 0.9260 0.3253
vt 0.9305 0.3253
vt 0.9351 0.3253
vt 0.9397 0.3253
vt 0.9410 0.2787
vt 0.9532 0.3040
vt 0.9564 0.3091
vt 0.9200 0.3174
vt 0.9139 0.3096
vt 0.9381 0.2696
vt 0.9351 0.2606
vt 0.9468 0.2787
vt 0.9526 0.2787
vt 0.9235 0.2787
vt 0.9177 0.2787
vt 0.9331 0.3562
vt 0.9351 0.3666
vt 0.6805 0.3356
vt 0.6830 0.3459
vt 0.6780 0.3253
vt 0.6826 0.3253
vt 0.6872 0.3253
vt 0.6918 0.3253
vt 0.6930 0.2787
vt 0.7053 0.3040
vt 0.7084 0.3091
vt 0.6720 0.3174
vt 0.6660 0.3096
vt 0.6901 0.2696
vt 0.6872 0.2606
vt 0.6988 0.2787
vt 0.7046 0.2787
vt 0.6755 0.2787
vt 0.6697 0.2787
vt 0.6851 0.3562
vt 0.6872 0.3666
vn -0.3985 0.9071 -0.1355
vn -0.4245 0.9015 -0.0836
vn -0.4166 0.9042 -0.0939
vn -0.3982 0.9079 -0.1313
vn -0.4481 0.8936 -0.0260
vn -0.4548 0.8905 -0.0142
vn -0.3448 0.9023 -0.2587
vn -0.2529 0.8842 -0.3927
vn -0.3409 0.8776 -0.3371
vn -0.3656 0.8943 -0.2580
vn -0.3906 0.7903 -0.4721
vn -0.3969 0.8321 -0.3874
vn -0.5128 0.8581 0.0253
vn -0.6025 0.7960 -0.0571
vn -0.5649 0.8095 -0.1604
vn -0.3979 0.8791 -0.2626
vn -0.4859 0.8434 -0.2291
vn -0.5238 0.8437 -0.1176
vn -0.5894 0.8024 0.0932
vn -0.5578 0.8223 0.1123
vn -0.1934 0.8547 -0.4817
vn -0.4352 0.8985 0.0577
vn -0.4229 0.8919 0.1605
vn -0.4034 0.8644 0.3003
vn -0.5923 0.8033 0.0620
vn -0.4788 0.8746 -0.0760
vn -0.5427 0.8399 -0.0029
vn -0.6345 0.7624 0.1269
vn -0.4255 0.9049 -0.0007
vn -0.3946 0.9093 -0.1321
vn -0.4247 0.8974 -0.1193
vn -0.4941 0.8694 -0.0009
vn -0.3797 0.8896 -0.2538
vn -0.4129 0.9000 -0.1397
vn -0.4124 0.9002 -0.1395
vn -0.3917 0.8996 -0.1929
vn -0.2589 0.8827 0.3921
vn -0.2126 0.8787 0.4273
vn -0.2213 0.8812 0.4177
vn -0.2547 0.8837 0.3926
vn -0.1600 0.8728 0.4611
vn -0.1496 0.8700 0.4698
vn -0.3694 0.8739 0.3159
vn -0.4825 0.8528 0.1998
vn -0.4441 0.8455 0.2965
vn -0.3721 0.8651 0.3363
vn -0.5809 0.7497 0.3171
vn -0.5014 0.7954 0.3406
vn -0.1200 0.8374 0.5333
vn -0.2141 0.7677 0.6039
vn -0.3090 0.7775 0.5478
vn -0.3818 0.8484 0.3665
vn -0.3635 0.8111 0.4583
vn -0.2613 0.8154 0.5166
vn -0.0645 0.7821 0.6198
vn -0.0411 0.8042 0.5929
vn -0.5570 0.8213 0.1237
vn -0.0758 0.8823 0.4645
vn 0.0276 0.8813 0.4717
vn 0.1699 0.8616 0.4783
vn -0.0957 0.7814 0.6167
vn -0.2138 0.8501 0.4813
vn -0.1522 0.8166 0.5568
vn -0.0377 0.7421 0.6693
vn -0.1317 0.8862 0.4441
vn -0.2550 0.8853 0.3889
vn -0.2475 0.8728 0.4206
vn -0.1428 0.8480 0.5104
vn -0.3704 0.8602 0.3507
vn -0.2653 0.8749 0.4052
vn -0.2651 0.8751 0.4048
vn -0.3135 0.8727 0.3743
vn 0.4118 0.8985 -0.1523
vn 0.3909 0.8969 -0.2067
vn 0.3932 0.8988 -0.1938
vn 0.4085 0.8995 -0.1548
vn 0.3640 0.8934 -0.2633
vn 0.3597 0.8912 -0.2763
vn 0.4660 0.8843 -0.0300
vn 0.5019 0.8556 0.1269
vn 0.5200 0.8538 0.0242
vn 0.4792 0.8765 -0.0463
vn 0.6488 0.7574 0.0735
vn 0.5927 0.8053 0.0142
vn 0.3682 0.8624 -0.3475
vn 0.4865 0.7953 -0.3617
vn 0.5377 0.8008 -0.2638
vn 0.5036 0.8613 -0.0679
vn 0.5367 0.8290 -0.1574
vn 0.4802 0.8377 -0.2603
vn 0.3672 0.8125 -0.4528
vn 0.3328 0.8334 -0.4412
vn 0.5259 0.8191 0.2290
vn 0.2938 0.9043 -0.3098
vn 0.2096 0.9050 -0.3702
vn 0.0921 0.8876 -0.4514
vn 0.3922 0.8111 -0.4339
vn 0.4207 0.8711 -0.2534
vn 0.4083 0.8424 -0.3516
vn 0.3710 0.7754 -0.5110
vn 0.3307 0.9064 -0.2630
vn 0.4067 0.9009 -0.1515
vn 0.4171 0.8902 -0.1830
vn 0.3754 0.8715 -0.3155
vn 0.4853 0.8723 -0.0598
vn 0.4243 0.8912 -0.1605
vn 0.4238 0.8915 -0.1602
vn 0.4491 0.8868 -0.1090
vn 0.5082 0.8087 0.2961
vn 0.5425 0.8022 0.2494
vn 0.5333 0.8056 0.2583
vn 0.5088 0.8099 0.2920
vn 0.5751 0.7942 0.1964
vn 0.5833 0.7907 0.1857
vn 0.4316 0.8052 0.4066
vn 0.3139 0.7947 0.5196
vn 0.4087 0.7762 0.4801
vn 0.4506 0.7936 0.4088
vn 0.4163 0.6722 0.6122
vn 0.4457 0.7180 0.5347
vn 0.6418 0.7512 0.1541
vn 0.7025 0.6684 0.2444
vn 0.6483 0.6812 0.3401
vn 0.4784 0.7725 0.4175
vn 0.5642 0.7240 0.3968
vn 0.6225 0.7251 0.2944
vn 0.7199 0.6875 0.0956
vn 0.6963 0.7140 0.0733
vn 0.2343 0.7703 0.5931
vn 0.5796 0.8071 0.1126
vn 0.5864 0.8099 0.0092
vn 0.5901 0.7962 -0.1339
vn 0.7168 0.6857 0.1267
vn 0.5921 0.7665 0.2489
vn 0.6623 0.7260 0.1852
vn 0.7635 0.6424 0.0666
vn 0.5600 0.8111 0.1688
vn 0.5054 0.8119 0.2923
vn 0.5351 0.7956 0.2840
vn 0.6205 0.7638 0.1776
vn 0.4643 0.7868 0.4067
vn 0.5202 0.7989 0.3021
vn 0.5197 0.7992 0.3018
vn 0.4893 0.7987 0.3503
vn -0.2617 0.7983 0.5425
vn -0.4655 0.8838 -0.0476
vn -0.9055 0.0342 0.4229
vn -0.8865 0.0163 0.4624
vn 0.8669 0.0000 -0.4984
vn 0.2848 0.3664 -0.8858
vn 0.5841 0.8116 0.0132
vn 0.6038 0.7956 0.0497
vn -0.6180 -0.7810 -0.0901
vn -0.7687 -0.1585 -0.6197
vn 0.2245 -0.7483 -0.6242
vn 0.2470 -0.7767 -0.5794
vn -0.2074 0.0223 0.9780
vn -0.2161 0.0197 0.9762
vn -0.7621 0.0109 0.6474
vn -0.7516 0.0014 0.6596
vn -0.2312 0.0279 0.9725
vn -0.0060 0.2819 0.9594
vn -0.6915 0.3696 0.6207
vn -0.7669 0.0368 0.6407
vn 0.7417 0.0302 -0.6700
vn 0.7437 0.0181 -0.6683
vn 0.9980 0.0254 -0.0576
vn 0.9957 0.0410 -0.0835
vn 0.7454 0.0123 -0.6665
vn 0.6904 0.4077 -0.5976
vn 0.9716 0.2297 -0.0569
vn 0.9982 0.0155 -0.0584
vn -0.9978 -0.0136 0.0654
vn -0.9990 0.0087 0.0428
vn -0.8463 0.0146 -0.5325
vn -0.8655 -0.0094 -0.5008
vn -0.9989 0.0356 0.0314
vn -0.8932 0.4160 -0.1705
vn -0.7924 0.1549 -0.5901
vn -0.8219 0.0369 -0.5684
vn 0.8372 0.0409 0.5454
vn 0.8138 0.0251 0.5807
vn 0.3521 0.0232 0.9357
vn 0.3771 0.0371 0.9254
vn 0.8241 0.0126 0.5663
vn 0.6971 0.2926 0.6546
vn 0.3731 0.0942 0.9230
vn 0.3611 0.0193 0.9323
vn -0.4417 0.0006 -0.8971
vn -0.4051 0.0147 -0.9142
vn 0.2018 0.0194 -0.9792
vn 0.1902 0.0189 -0.9816
vn -0.3553 0.0298 -0.9343
vn -0.3510 0.3458 -0.8702
vn 0.2529 0.2013 -0.9463
vn 0.2292 0.0249 -0.9731
vn -0.2071 0.9189 -0.3359
vn 0.3322 0.8797 0.3403
vn -0.4542 -0.0025 -0.8909
vn 0.1921 0.0176 -0.9812
vn -0.8738 -0.0137 -0.4862
vn 0.8542 0.0419 0.5183
vn 0.3985 0.0377 0.9164
vn 0.9943 0.0414 -0.0981
vn -0.9965 -0.0173 0.0818
vn -0.7437 -0.0015 0.6685
vn 0.7416 0.0306 -0.6702
vn -0.2063 0.0184 0.9783
vn -0.6245 -0.7767 -0.0817
vn 0.2081 -0.7994 -0.5637
vn -0.8892 -0.0069 0.4575
vn 0.8674 -0.0032 -0.4977
vn 0.5921 0.8031 0.0662
vn -0.2698 0.7928 0.5466
vn 0.4602 0.7825 0.4193
vn 0.4913 0.8028 0.3379
vn 0.3973 0.7950 0.4584
vn 0.4421 0.7944 0.4165
vn 0.5110 0.8065 0.2975
vn 0.5704 0.8029 0.1730
vn 0.7523 0.6534 0.0840
vn 0.6040 0.7918 -0.0905
vn 0.5881 0.7910 -0.1684
vn 0.2038 0.7714 0.6028
vn 0.1755 0.7650 0.6197
vn 0.7204 0.6936 -0.0044
vn 0.7057 0.7085 0.0068
vn 0.6679 0.6701 0.3239
vn 0.6466 0.6703 0.3642
vn 0.4307 0.6600 0.6156
vn 0.4215 0.6503 0.6321
vn 0.5051 0.8096 0.2990
vn 0.5067 0.8100 0.2953
vn 0.4944 0.8678 -0.0503
vn 0.4391 0.8908 -0.1168
vn 0.4933 0.8695 0.0248
vn 0.4811 0.8760 -0.0350
vn 0.4147 0.8968 -0.1542
vn 0.3406 0.9004 -0.2706
vn 0.3785 0.7847 -0.4909
vn 0.1366 0.8873 -0.4405
vn 0.0626 0.8811 -0.4688
vn 0.5182 0.8149 0.2598
vn 0.5185 0.8038 0.2915
vn 0.2821 0.8153 -0.5056
vn 0.2821 0.8276 -0.4853
vn 0.5356 0.7930 -0.2903
vn 0.5586 0.7905 -0.2510
vn 0.6606 0.7482 0.0616
vn 0.6710 0.7375 0.0766
vn 0.4125 0.8988 -0.1480
vn 0.4102 0.8994 -0.1512
vn -0.3831 0.8560 0.3472
vn -0.3009 0.8765 0.3759
vn -0.4216 0.8616 0.2828
vn -0.3797 0.8652 0.3276
vn -0.2604 0.8809 0.3952
vn -0.1363 0.8798 0.4555
vn -0.0546 0.7523 0.6566
vn 0.1263 0.8612 0.4923
vn 0.2041 0.8547 0.4773
vn -0.5666 0.8187 0.0932
vn -0.5837 0.8093 0.0659
vn 0.0356 0.7836 0.6202
vn 0.0252 0.7969 0.6035
vn -0.2933 0.7684 0.5688
vn -0.3336 0.7675 0.5474
vn -0.5848 0.7397 0.3329
vn -0.6017 0.7296 0.3250
vn -0.2617 0.8833 0.3889
vn -0.2581 0.8837 0.3904
vn -0.3788 0.8861 -0.2671
vn -0.3907 0.9027 -0.1801
vn -0.3226 0.8920 -0.3168
vn -0.3586 0.8945 -0.2671
vn -0.4019 0.9055 -0.1365
vn -0.4378 0.8991 -0.0034
vn -0.6249 0.7732 0.1085
vn -0.4254 0.8668 0.2602
vn -0.3963 0.8555 0.3333
vn -0.1654 0.8518 -0.4971
vn -0.1422 0.8426 -0.5195
vn -0.5710 0.7983 0.1916
vn -0.5561 0.8117 0.1789
vn -0.5829 0.8001 -0.1415
vn -0.5695 0.8009 -0.1850
vn -0.4072 0.7810 -0.4734
vn -0.4031 0.7716 -0.4920
vn -0.3959 0.9077 -0.1389
vn -0.3967 0.9080 -0.1350
usemtl None
s 1
f 290/1/1 233/2/2 3/3/3 145/4/4
f 289/5/5 153/6/6 3/3/3 233/2/2
f 288/7/7 135/8/8 8/9/9 210/10/10
f 8/9/9 110/11/11 183/12/12
f 12/13/13 144/14/14 214/15/15
f 287/16/16 183/12/12 11/17/17 142/18/18
f 286/19/19 142/18/18 11/17/17 222/20/20
f 8/9/9 135/8/8 221/21/21
f 6/22/22 133/23/23 177/24/24
f 285/25/25 134/26/26 15/27/27 164/28/28
f 284/29/29 180/30/30 9/31/31 227/32/32
f 283/33/33 235/34/34 2/35/35 161/36/36
f 282/37/37 212/38/38 21/39/39 112/40/40
f 281/41/41 104/42/42 21/39/39 212/38/38
f 280/43/43 176/44/44 26/45/45 94/46/46
f 26/45/45 171/47/47 99/48/48
f 30/49/49 108/50/50 185/51/51
f 279/52/52 99/48/48 29/53/53 103/54/54
f 278/55/55 103/54/54 29/53/53 194/56/56
f 26/45/45 176/44/44 198/57/57
f 24/58/58 126/59/59 143/60/60
f 277/61/61 237/62/62 33/63/63 121/64/64
f 276/65/65 175/66/66 27/67/67 163/68/68
f 275/69/69 204/70/70 20/71/71 137/72/72
f 274/73/73 162/74/74 39/75/75 116/76/76
f 273/77/77 230/78/78 39/75/75 162/74/74
f 272/79/79 196/80/80 44/81/81 119/82/82
f 44/81/81 179/83/83 111/84/84
f 48/85/85 158/86/86 168/87/87
f 271/88/88 111/84/84 47/89/89 106/90/90
f 270/91/91 106/90/90 47/89/89 186/92/92
f 44/81/81 196/80/80 147/93/93
f 42/94/94 172/95/95 229/96/96
f 269/97/97 125/98/98 51/99/99 115/100/100
f 268/101/101 120/102/102 45/103/103 224/104/104
f 267/105/105 169/106/106 38/107/107 107/108/108
f 266/109/109 243/110/110 57/111/111 231/112/112
f 265/113/113 219/114/114 57/111/111 243/110/110
f 264/115/115 245/116/116 62/117/117 152/118/118
f 62/117/117 226/119/119 155/120/120
f 66/121/121 211/122/122 102/123/123
f 263/124/124 155/120/120 65/125/125 174/126/126
f 262/127/127 174/126/126 65/125/125 109/128/128
f 62/117/117 245/116/116 225/129/129
f 60/130/130 236/131/131 154/132/132
f 261/133/133 195/134/134 69/135/135 166/136/136
f 260/137/137 128/138/138 63/139/139 97/140/140
f 259/141/141 217/142/142 56/143/143 167/144/144
f 258/145/145 130/146/146 75/147/147 165/148/148
f 257/149/149 157/150/150 74/151/151 200/152/152
f 74/153/151 157/154/150 130/155/146
f 256/156/153 160/157/154 78/158/155 216/159/156
f 255/160/157 192/161/158 81/162/159 123/163/160
f 254/164/161 241/165/162 84/166/163 95/167/164
f 253/168/165 136/169/166 87/170/167 228/171/168
f 252/172/169 148/173/170 90/174/171 197/175/172
f 251/176/173 146/177/174 91/178/175 114/179/176
f 250/180/177 159/181/178 93/182/179 181/183/180
f 249/184/181 113/185/182 80/186/183 207/187/184
f 248/188/185 239/189/186 83/190/187 118/191/188
f 247/192/189 117/193/190 86/194/191 234/195/192
f 246/196/193 190/197/194 89/198/195 149/199/196
f 89/200/195 190/201/194 129/202/197
f 90/203/171 148/204/170 184/205/198
f 83/206/187 239/207/186 241/208/162
f 241/208/162 184/205/198 84/209/163
f 241/208/162 239/207/186 184/205/198
f 239/207/186 90/203/171 184/205/198
f 184/205/198 129/202/197 84/209/163
f 184/205/198 148/204/170 129/202/197
f 148/204/170 89/200/195 129/202/197
f 129/202/197 159/210/178 84/209/163
f 129/202/197 190/201/194 159/210/178
f 190/201/194 93/211/179 159/210/178
f 117/193/190 246/196/193 149/199/196 86/194/191
f 91/178/175 181/183/180 246/196/193 117/193/190
f 181/183/180 93/182/179 190/197/194 246/196/193
f 223/212/199 247/192/189 234/195/192 85/213/200
f 92/214/201 114/179/176 247/192/189 223/212/199
f 114/179/176 91/178/175 117/193/190 247/192/189
f 113/185/182 248/188/185 118/191/188 80/186/183
f 87/215/167 197/216/172 248/188/185 113/185/182
f 197/216/172 90/217/171 239/189/186 248/188/185
f 178/218/202 249/184/181 207/187/184 79/219/203
f 88/220/204 228/221/168 249/184/181 178/218/202
f 228/221/168 87/215/167 113/185/182 249/184/181
f 146/177/174 250/180/177 181/183/180 91/178/175
f 81/162/159 95/167/164 250/180/177 146/177/174
f 95/167/164 84/166/163 159/181/178 250/180/177
f 191/222/205 251/176/173 114/179/176 92/214/201
f 82/223/206 123/163/160 251/176/173 191/222/205
f 123/163/160 81/162/159 146/177/174 251/176/173
f 136/169/166 252/172/169 197/175/172 87/170/167
f 86/194/191 149/199/196 252/172/169 136/169/166
f 149/199/196 89/198/195 148/173/170 252/172/169
f 205/224/207 253/168/165 228/171/168 88/225/204
f 85/213/200 234/195/192 253/168/165 205/224/207
f 234/195/192 86/194/191 136/169/166 253/168/165
f 192/161/158 254/164/161 95/167/164 81/162/159
f 80/186/183 118/191/188 254/164/161 192/161/158
f 118/191/188 83/190/187 241/165/162 254/164/161
f 150/226/208 255/160/157 123/163/160 82/223/206
f 79/219/203 207/187/184 255/160/157 150/226/208
f 207/187/184 80/186/183 192/161/158 255/160/157
f 138/227/209 256/156/153 216/159/156 77/228/210
f 76/229/211 165/148/148 256/156/153 138/227/209
f 165/148/148 75/147/147 160/157/154 256/156/153
f 130/155/146 160/230/154 75/231/147
f 130/155/146 157/154/150 160/230/154
f 157/154/150 78/232/155 160/230/154
f 96/233/212 257/149/149 200/152/152 73/234/213
f 77/235/210 216/236/156 257/149/149 96/233/212
f 216/236/156 78/237/155 157/150/150 257/149/149
f 173/238/214 258/145/145 165/148/148 76/229/211
f 73/234/213 200/152/152 258/145/145 173/238/214
f 200/152/152 74/151/151 130/146/146 258/145/145
f 218/239/215 259/141/141 167/144/144 55/240/216
f 61/241/217 124/242/218 259/141/141 218/239/215
f 124/242/218 59/243/219 217/142/142 259/141/141
f 236/131/131 260/137/137 97/140/140 66/121/121
f 60/130/130 208/244/220 260/137/137 236/131/131
f 208/244/220 59/243/219 128/138/138 260/137/137
f 211/122/122 261/133/133 166/136/136 67/245/221
f 66/121/121 97/140/140 261/133/133 211/122/122
f 97/140/140 63/139/139 195/134/134 261/133/133
f 154/132/132 105/246/222 72/247/223
f 154/132/132 236/131/131 105/246/222
f 236/131/131 66/121/121 105/246/222
f 225/129/129 215/248/224 71/249/225
f 225/129/129 245/116/116 215/248/224
f 245/116/116 61/241/217 215/248/224
f 244/250/226 262/127/127 109/128/128 70/251/227
f 67/245/221 166/136/136 262/127/127 244/250/226
f 166/136/136 69/135/135 174/126/126 262/127/127
f 195/134/134 263/124/124 174/126/126 69/135/135
f 63/139/139 152/118/118 263/124/124 195/134/134
f 152/118/118 62/117/117 155/120/120 263/124/124
f 102/123/123 101/252/228 68/253/229
f 102/123/123 211/122/122 101/252/228
f 211/122/122 67/245/221 101/252/228
f 155/120/120 170/254/230 65/125/125
f 155/120/120 226/119/119 170/254/230
f 226/119/119 64/255/231 170/254/230
f 128/138/138 264/115/115 152/118/118 63/139/139
f 59/243/219 124/242/218 264/115/115 128/138/138
f 124/242/218 61/241/217 245/116/116 264/115/115
f 217/142/142 265/113/113 243/110/110 56/143/143
f 59/243/219 208/244/220 265/113/113 217/142/142
f 208/244/220 60/130/130 219/114/114 265/113/113
f 131/256/232 266/109/109 231/112/112 58/257/233
f 55/240/216 167/144/144 266/109/109 131/256/232
f 167/144/144 56/143/143 243/110/110 266/109/109
f 182/258/234 267/105/105 107/108/108 37/259/235
f 43/260/236 132/261/237 267/105/105 182/258/234
f 132/261/237 41/262/238 169/106/106 267/105/105
f 172/95/95 268/101/101 224/104/104 48/85/85
f 42/94/94 220/263/239 268/101/101 172/95/95
f 220/263/239 41/262/238 120/102/102 268/101/101
f 158/86/86 269/97/97 115/100/100 49/264/240
f 48/85/85 224/104/104 269/97/97 158/86/86
f 224/104/104 45/103/103 125/98/98 269/97/97
f 229/96/96 188/265/241 54/266/242
f 229/96/96 172/95/95 188/265/241
f 172/95/95 48/85/85 188/265/241
f 147/93/93 139/267/243 53/268/244
f 147/93/93 196/80/80 139/267/243
f 196/80/80 43/260/236 139/267/243
f 189/269/245 270/91/91 186/92/92 52/270/246
f 49/264/240 115/100/100 270/91/91 189/269/245
f 115/100/100 51/99/99 106/90/90 270/91/91
f 125/98/98 271/88/88 106/90/90 51/99/99
f 45/103/103 119/82/82 271/88/88 125/98/98
f 119/82/82 44/81/81 111/84/84 271/88/88
f 168/87/87 201/271/247 50/272/248
f 168/87/87 158/86/86 201/271/247
f 158/86/86 49/264/240 201/271/247
f 111/84/84 140/273/249 47/89/89
f 111/84/84 179/83/83 140/273/249
f 179/83/83 46/274/250 140/273/249
f 120/102/102 272/79/79 119/82/82 45/103/103
f 41/262/238 132/261/237 272/79/79 120/102/102
f 132/261/237 43/260/236 196/80/80 272/79/79
f 169/106/106 273/77/77 162/74/74 38/107/107
f 41/262/238 220/263/239 273/77/77 169/106/106
f 220/263/239 42/94/94 230/78/78 273/77/77
f 98/275/251 274/73/73 116/76/76 40/276/252
f 37/259/235 107/108/108 274/73/73 98/275/251
f 107/108/108 38/107/107 162/74/74 274/73/73
f 206/277/253 275/69/69 137/72/72 19/278/254
f 25/279/255 187/280/256 275/69/69 206/277/253
f 187/280/256 23/281/257 204/70/70 275/69/69
f 126/59/59 276/65/65 163/68/68 30/49/49
f 24/58/58 122/282/258 276/65/65 126/59/59
f 122/282/258 23/281/257 175/66/66 276/65/65
f 108/50/50 277/61/61 121/64/64 31/283/259
f 30/49/49 163/68/68 277/61/61 108/50/50
f 163/68/68 27/67/67 237/62/62 277/61/61
f 143/60/60 232/284/260 36/285/261
f 143/60/60 126/59/59 232/284/260
f 126/59/59 30/49/49 232/284/260
f 198/57/57 202/286/262 35/287/263
f 198/57/57 176/44/44 202/286/262
f 176/44/44 25/279/255 202/286/262
f 203/288/264 278/55/55 194/56/56 34/289/265
f 31/283/259 121/64/64 278/55/55 203/288/264
f 121/64/64 33/63/63 103/54/54 278/55/55
f 237/62/62 279/52/52 103/54/54 33/63/63
f 27/67/67 94/46/46 279/52/52 237/62/62
f 94/46/46 26/45/45 99/48/48 279/52/52
f 185/51/51 199/290/266 32/291/267
f 185/51/51 108/50/50 199/290/266
f 108/50/50 31/283/259 199/290/266
f 99/48/48 242/292/268 29/53/53
f 99/48/48 171/47/47 242/292/268
f 171/47/47 28/293/269 242/292/268
f 175/66/66 280/43/43 94/46/46 27/67/67
f 23/281/257 187/280/256 280/43/43 175/66/66
f 187/280/256 25/279/255 176/44/44 280/43/43
f 204/70/70 281/41/41 212/38/38 20/71/71
f 23/281/257 122/282/258 281/41/41 204/70/70
f 122/282/258 24/58/58 104/42/42 281/41/41
f 141/294/270 282/37/37 112/40/40 22/295/271
f 19/278/254 137/72/72 282/37/37 141/294/270
f 137/72/72 20/71/71 212/38/38 282/37/37
f 213/296/272 283/33/33 161/36/36 1/297/273
f 7/298/274 193/299/275 283/33/33 213/296/272
f 193/299/275 5/300/276 235/34/34 283/33/33
f 133/23/23 284/29/29 227/32/32 12/13/13
f 6/22/22 127/301/277 284/29/29 133/23/23
f 127/301/277 5/300/276 180/30/30 284/29/29
f 144/14/14 285/25/25 164/28/28 13/302/278
f 12/13/13 227/32/32 285/25/25 144/14/14
f 227/32/32 9/31/31 134/26/26 285/25/25
f 177/24/24 238/303/279 18/304/280
f 177/24/24 133/23/23 238/303/279
f 133/23/23 12/13/13 238/303/279
f 221/21/21 209/305/281 17/306/282
f 221/21/21 135/8/8 209/305/281
f 135/8/8 7/298/274 209/305/281
f 240/307/283 286/19/19 222/20/20 16/308/284
f 13/302/278 164/28/28 286/19/19 240/307/283
f 164/28/28 15/27/27 142/18/18 286/19/19
f 134/26/26 287/16/16 142/18/18 15/27/27
f 9/31/31 210/10/10 287/16/16 134/26/26
f 210/10/10 8/9/9 183/12/12 287/16/16
f 214/15/15 100/309/285 14/310/286
f 214/15/15 144/14/14 100/309/285
f 144/14/14 13/302/278 100/309/285
f 183/12/12 151/311/287 11/17/17
f 183/12/12 110/11/11 151/311/287
f 110/11/11 10/312/288 151/311/287
f 180/30/30 288/7/7 210/10/10 9/31/31
f 5/300/276 193/299/275 288/7/7 180/30/30
f 193/299/275 7/298/274 135/8/8 288/7/7
f 235/34/34 289/5/5 233/2/2 2/35/35
f 5/300/276 127/301/277 289/5/5 235/34/34
f 127/301/277 6/22/22 153/6/6 289/5/5
f 156/313/289 290/1/1 145/4/4 4/314/290
f 1/297/273 161/36/36 290/1/1 156/313/289
f 161/36/36 2/35/35 233/2/2 290/1/1
