# Blender v2.78 (sub 0) OBJ File: ''
# www.blender.org
mtllib Pine_Tree_OneSided_s_07.mtl
o Pine_Tree_OneSided_s_07
v -0.005939 0.193265 -0.043281
v -0.006275 0.701034 -0.027911
v 0.030036 0.701331 -0.000864
v 0.045753 0.193279 -0.005359
v -0.041820 0.193255 0.006080
v -0.028675 0.701304 0.010079
v 0.055325 0.010434 -0.014143
v 0.006099 0.193275 0.047801
v 0.012290 0.010433 0.049947
v -0.051660 0.010432 -0.003068
v -0.006236 0.010434 -0.059342
v -0.002674 0.701474 0.035523
v -0.259941 0.322549 0.230947
v 0.053647 0.225216 0.376233
v 0.052122 1.023905 0.151213
v -0.049787 1.032655 0.112169
v 0.348674 0.367125 0.146259
v 0.272775 0.258949 -0.203314
v 0.030526 1.025490 -0.043943
v 0.072219 1.036355 0.027810
v -0.057947 0.325784 -0.291885
v -0.070121 1.030060 -0.081237
v -0.328168 0.256743 -0.058203
v -0.090559 1.025636 0.009316
v 0.077585 0.798328 0.292011
v 0.366459 0.700879 0.076744
v -0.007669 1.575419 0.031727
v -0.121219 0.730006 -0.297622
v 0.165528 0.800032 -0.185352
v -0.228357 0.730259 0.246650
v -0.280860 0.844756 -0.044526
v -0.022690 0.010432 0.027529
v -0.212478 0.639748 -0.024870
v -0.019704 0.193264 0.029442
v 0.231664 0.780502 0.189453
v 0.053659 0.622084 0.268106
v -0.157278 0.679366 0.173034
v -0.048120 0.088159 0.001343
v 0.051887 0.088171 -0.010103
v 0.038070 0.455346 -0.002921
v 0.331654 0.315818 -0.033226
v -0.261728 0.819756 0.106022
v 0.093139 1.184939 -0.091969
v 0.213938 0.296563 0.277996
v -0.006209 0.088173 -0.052666
v -0.026313 0.193260 -0.020544
v 0.027550 0.010434 -0.040832
v -0.205593 0.819547 -0.177925
v -0.081668 0.795070 0.278421
v -0.072108 1.155548 -0.152071
v -0.072996 1.029221 0.062207
v -0.035195 0.455320 0.008452
v 0.054007 1.031011 -0.010720
v -0.110923 0.271029 0.320382
v 0.038089 0.010433 0.021248
v 0.013686 0.701167 -0.016823
v 0.021750 0.193273 -0.026821
v 0.019145 0.795820 -0.249536
v 0.066139 1.030171 0.092005
v 0.028358 0.193277 0.023165
v -0.164991 1.209787 -0.011130
v -0.084195 1.027758 -0.039952
v -0.206210 0.291336 -0.187138
v 0.001385 0.455418 0.041933
v -0.033229 0.010433 -0.034551
v 0.002388 1.028281 0.138336
v 0.015689 0.701419 0.019031
v -0.132223 1.155626 0.154345
v 0.200121 1.138450 0.058966
v -0.065172 0.679360 -0.190156
v 0.009672 0.088165 0.050238
v -0.313344 0.290858 0.089108
v -0.020943 1.027659 -0.066548
v 0.154130 0.640352 -0.125895
v 0.213858 0.704325 0.087462
v -0.019483 0.701152 -0.010618
v -0.006228 0.455181 -0.035571
v 0.276342 0.781461 -0.054558
v 0.042622 1.184038 0.180992
v 0.113926 0.290762 -0.267085
v -0.017480 0.701404 0.025236
v -0.021272 0.088161 0.028575
v -0.145203 0.659547 -0.113545
v 0.140039 0.663367 0.185000
v -0.193170 0.660040 0.075658
v 0.046492 0.659211 -0.166817
v 0.192831 0.673415 -0.021973
v -0.054268 0.649655 0.229359
v 0.021697 0.455388 0.021116
v 0.024887 0.088173 -0.034169
v -0.018503 0.455374 0.027356
v -0.029986 0.088166 -0.027888
v 0.033601 0.088168 0.022294
v -0.022681 0.455244 -0.015169
v 0.017520 0.455258 -0.021410
vt 0.8365 0.9381
vt 0.8364 0.9582
vt 0.8303 0.9582
vt 0.8303 0.9381
vt 0.7875 0.9380
vt 0.7873 0.9580
vt 0.7812 0.9580
vt 0.7814 0.9380
vt 0.8244 0.9068
vt 0.8242 0.9180
vt 0.8180 0.9181
vt 0.8182 0.9070
vt 0.7874 0.9070
vt 0.7876 0.9181
vt 0.7815 0.9179
vt 0.7812 0.9068
vt 0.8058 0.9381
vt 0.8058 0.9581
vt 0.7935 0.9580
vt 0.7937 0.9381
vt 0.8367 0.9068
vt 0.8367 0.9180
vt 0.8304 0.9179
vt 0.8305 0.9067
vt 0.8242 0.9381
vt 0.8241 0.9582
vt 0.8180 0.9581
vt 0.8180 0.9381
vt 0.9166 0.4358
vt 0.9223 0.4250
vt 0.9358 0.4370
vt 0.9339 0.4388
vt 0.9554 0.4235
vt 0.9621 0.4358
vt 0.9433 0.4393
vt 0.9420 0.4372
vt 0.9575 0.4470
vt 0.9529 0.4582
vt 0.9414 0.4440
vt 0.9424 0.4417
vt 0.9178 0.4574
vt 0.9109 0.4466
vt 0.9319 0.4406
vt 0.9341 0.4430
vt 0.9354 0.4180
vt 0.9486 0.4111
vt 0.9407 0.4351
vt 0.9383 0.4360
vt 0.9388 0.4632
vt 0.9247 0.4682
vt 0.9364 0.4454
vt 0.9389 0.4447
vt 0.9393 0.5145
vt 0.9640 0.5249
vt 0.9381 0.5405
vt 0.9366 0.6183
vt 0.9367 0.5924
vt 0.9556 0.6075
vt 0.9187 0.5232
vt 0.9123 0.6038
vt 0.9888 0.5352
vt 0.9816 0.5659
vt 0.9628 0.5509
vt 0.8879 0.5893
vt 0.8930 0.5606
vt 0.9123 0.5779
vt 0.8059 0.9071
vt 0.7936 0.9073
vt 0.7934 0.8963
vt 0.8059 0.8961
vt 0.8184 0.8959
vt 0.8059 0.9182
vt 0.7938 0.9182
vt 0.9175 0.5492
vt 0.9368 0.5665
vt 0.8982 0.5319
vt 0.9556 0.5816
vt 0.9745 0.5966
vt 0.9644 0.4724
vt 0.9387 0.4816
vt 0.9130 0.4909
vt 0.9088 0.4129
vt 0.9326 0.4000
vt 0.9565 0.3872
vt 0.9014 0.4718
vt 0.8898 0.4526
vt 0.9809 0.4323
vt 0.9726 0.4524
vt 0.9687 0.4097
vt 0.8993 0.4327
vt 0.8368 0.8957
vt 0.8307 0.8954
vt 0.8430 0.8959
vt 0.8429 0.9070
vt 0.8429 0.9181
vt 0.7872 0.8960
vt 0.7810 0.8956
vt 0.8246 0.8957
vt 0.8427 0.9382
vt 0.8425 0.9583
vn 0.5935 0.0262 -0.8044
vn 0.5951 0.0261 -0.8032
vn 0.9945 0.0329 -0.0994
vn 0.9923 0.0325 -0.1192
vn -0.8338 0.0224 -0.5516
vn -0.8470 0.0220 -0.5312
vn -0.1915 0.0303 -0.9810
vn -0.1758 0.0305 -0.9840
vn 0.8169 0.0322 0.5759
vn 0.7991 0.0297 0.6004
vn 0.1036 0.0238 0.9943
vn 0.1231 0.0180 0.9922
vn -0.7897 0.0724 -0.6091
vn -0.8097 0.0461 -0.5850
vn -0.1532 0.0622 -0.9862
vn -0.1342 0.0956 -0.9863
vn -0.6741 0.0106 0.7386
vn -0.6839 0.0116 0.7295
vn -0.9925 0.0212 0.1207
vn -0.9930 0.0214 0.1165
vn 0.5898 0.0771 -0.8038
vn 0.5915 0.0502 -0.8048
vn 0.9891 0.0503 -0.1383
vn 0.9848 0.0675 -0.1601
vn 0.7746 0.0248 0.6319
vn 0.7597 0.0251 0.6498
vn 0.0669 0.0241 0.9975
vn 0.0841 0.0236 0.9962
vn -0.3332 0.2664 0.9044
vn 0.1811 0.2888 0.9401
vn 0.3309 0.2970 0.8957
vn -0.3300 0.2698 0.9046
vn 0.8692 0.3453 -0.3540
vn 0.6446 0.3418 -0.6839
vn 0.6210 0.3417 -0.7054
vn 0.8521 0.3433 -0.3951
vn 0.3133 0.2982 -0.9016
vn -0.2716 0.2926 -0.9168
vn -0.3515 0.2978 -0.8876
vn 0.3193 0.3012 -0.8985
vn -0.9288 0.3045 0.2111
vn -0.7105 0.3137 0.6299
vn -0.6895 0.3151 0.6521
vn -0.9179 0.3068 0.2518
vn 0.6740 0.3006 0.6748
vn 0.9048 0.3852 0.1814
vn 0.9255 0.3769 0.0384
vn 0.7801 0.3088 0.5441
vn -0.7685 0.2456 -0.5908
vn -0.9290 0.2986 -0.2184
vn -0.9490 0.2978 -0.1035
vn -0.8315 0.2431 -0.4995
vn 0.2590 0.2888 0.9217
vn 0.6513 0.2931 0.6999
vn 0.2467 0.3489 0.9041
vn -0.2314 0.3386 -0.9120
vn -0.2612 0.3896 -0.8832
vn 0.2631 0.2977 -0.9177
vn -0.2176 0.2736 0.9369
vn -0.7133 0.3132 -0.6269
vn 0.9224 0.3567 0.1481
vn 0.8239 0.3064 -0.4767
vn 0.9035 0.4046 0.1415
vn -0.9308 0.3128 -0.1890
vn -0.9085 0.2881 0.3025
vn -0.9073 0.3799 -0.1801
vn -0.6456 -0.0010 0.7636
vn -0.9922 0.0473 0.1157
vn -0.9949 0.0472 0.0893
vn -0.6425 -0.0064 0.7663
vn 0.1442 0.0119 0.9895
vn -0.6568 0.0070 0.7540
vn -0.9918 0.0351 0.1231
vn -0.6264 0.3539 0.6945
vn -0.0006 0.9999 0.0155
vn -0.6260 0.2979 0.7206
vn 0.5777 0.3549 -0.7350
vn 0.5861 0.2935 -0.7553
vn -0.2126 0.2852 -0.9346
vn -0.7091 0.2480 -0.6601
vn -0.9117 0.2984 -0.2824
vn 0.0997 0.2823 0.9541
vn 0.5382 0.2943 0.7897
vn 0.8685 0.3904 0.3055
vn -0.9404 0.3028 0.1548
vn -0.7223 0.3109 0.6178
vn 0.6552 0.3414 -0.6739
vn 0.3245 0.2970 -0.8981
vn 0.8778 0.3458 -0.3316
vn -0.3245 0.2625 0.9088
vn 0.5882 0.0803 -0.8047
vn 0.9803 0.0679 -0.1853
vn -0.1228 0.0991 -0.9875
vn -0.7797 0.0755 -0.6215
vn 0.8259 0.0295 0.5630
usemtl None
s 1
f 95/1/1 56/2/2 3/3/3 40/4/4
f 94/5/5 76/6/6 2/7/7 77/8/8
f 93/9/9 60/10/10 8/11/11 71/12/12
f 92/13/13 46/14/14 1/15/15 45/16/16
f 91/17/17 81/18/18 6/19/19 52/20/20
f 90/21/21 57/22/22 4/23/23 39/24/24
f 89/25/25 67/26/26 12/27/27 64/28/28
f 88/29/29 36/30/30 15/31/31 66/32/32
f 87/33/33 74/34/34 19/35/35 53/36/36
f 86/37/37 70/38/38 22/39/39 73/40/40
f 85/41/41 37/42/42 16/43/43 51/44/44
f 84/45/45 75/46/46 20/47/47 59/48/48
f 83/49/49 33/50/50 24/51/51 62/52/52
f 25/53/53 35/54/54 79/55/55
f 28/56/56 50/57/57 58/58/58
f 25/53/53 79/55/55 49/59/59
f 28/56/56 48/60/60 50/57/57
f 26/61/61 78/62/62 69/63/63
f 31/64/64 42/65/65 61/66/66
f 82/67/67 38/68/68 10/69/69 32/70/70
f 71/12/12 82/67/67 32/70/70 9/71/71
f 8/11/11 34/72/72 82/67/67 71/12/12
f 34/72/72 5/73/73 38/68/68 82/67/67
f 61/66/66 68/74/74 27/75/75
f 61/66/66 42/65/65 68/74/74
f 42/65/65 30/76/76 68/74/74
f 69/63/63 43/77/77 27/75/75
f 69/63/63 78/62/62 43/77/77
f 78/62/62 29/78/78 43/77/77
f 50/57/57 61/66/66 27/75/75
f 50/57/57 48/60/60 61/66/66
f 48/60/60 31/64/64 61/66/66
f 49/59/59 68/74/74 30/76/76
f 49/59/59 79/55/55 68/74/74
f 79/55/55 27/75/75 68/74/74
f 58/58/58 43/77/77 29/78/78
f 58/58/58 50/57/57 43/77/77
f 50/57/57 27/75/75 43/77/77
f 79/55/55 69/63/63 27/75/75
f 79/55/55 35/54/54 69/63/63
f 35/54/54 26/61/61 69/63/63
f 70/38/38 83/49/49 62/52/52 22/39/39
f 21/79/79 63/80/80 83/49/49 70/38/38
f 63/80/80 23/81/81 33/50/50 83/49/49
f 36/30/30 84/45/45 59/48/48 15/31/31
f 14/82/82 44/83/83 84/45/45 36/30/30
f 44/83/83 17/84/84 75/46/46 84/45/45
f 33/50/50 85/41/41 51/44/44 24/51/51
f 23/81/81 72/85/85 85/41/41 33/50/50
f 72/85/85 13/86/86 37/42/42 85/41/41
f 74/34/34 86/37/37 73/40/40 19/35/35
f 18/87/87 80/88/88 86/37/37 74/34/34
f 80/88/88 21/79/79 70/38/38 86/37/37
f 75/46/46 87/33/33 53/36/36 20/47/47
f 17/84/84 41/89/89 87/33/33 75/46/46
f 41/89/89 18/87/87 74/34/34 87/33/33
f 37/42/42 88/29/29 66/32/32 16/43/43
f 13/86/86 54/90/90 88/29/29 37/42/42
f 54/90/90 14/82/82 36/30/30 88/29/29
f 60/10/10 89/25/25 64/28/28 8/11/11
f 4/23/23 40/4/4 89/25/25 60/10/10
f 40/4/4 3/3/3 67/26/26 89/25/25
f 47/91/91 90/21/21 39/24/24 7/92/92
f 11/93/93 45/94/16 90/21/21 47/91/91
f 45/94/16 1/95/15 57/22/22 90/21/21
f 34/72/72 91/17/17 52/20/20 5/73/73
f 8/11/11 64/28/28 91/17/17 34/72/72
f 64/28/28 12/27/27 81/18/18 91/17/17
f 65/96/94 92/13/13 45/16/16 11/97/93
f 10/69/69 38/68/68 92/13/13 65/96/94
f 38/68/68 5/73/73 46/14/14 92/13/13
f 55/98/95 93/9/9 71/12/12 9/71/71
f 7/92/92 39/24/24 93/9/9 55/98/95
f 39/24/24 4/23/23 60/10/10 93/9/9
f 46/14/14 94/5/5 77/8/8 1/15/15
f 5/73/73 52/20/20 94/5/5 46/14/14
f 52/20/20 6/19/19 76/6/6 94/5/5
f 57/22/22 95/1/1 40/4/4 4/23/23
f 1/95/15 77/99/8 95/1/1 57/22/22
f 77/99/8 2/100/7 56/2/2 95/1/1
