# Blender v2.78 (sub 0) OBJ File: ''
# www.blender.org
mtllib Pine_Tree_OneSided_s_03.mtl
o Pine_Tree_OneSided_s_03
v -0.048175 0.275798 0.075030
v -0.043170 0.714244 0.068121
v -0.070126 0.713883 -0.014560
v -0.078506 0.275763 -0.018294
v 0.000886 0.275772 -0.075975
v 0.000259 0.713529 -0.065698
v 0.070548 0.713913 -0.014381
v 0.080269 0.275798 -0.018280
v 0.049949 0.275795 0.075033
v 0.043731 0.714134 0.068171
v 0.093053 0.019534 -0.030391
v 0.057538 0.019533 0.078914
v -0.092907 0.019531 -0.030391
v 0.000073 0.019534 -0.097945
v -0.057392 0.019532 0.078914
v -0.302050 0.404050 -0.435751
v -0.117631 1.486383 -0.122086
v 0.035754 1.490071 -0.081731
v 0.193486 0.484993 -0.490068
v -0.229828 0.385788 0.491123
v 0.285407 0.478751 0.434346
v 0.097337 1.491444 0.221114
v -0.061006 1.484849 0.186604
v 0.538491 0.377561 -0.060143
v 0.119523 1.477290 0.026670
v -0.501464 0.529989 0.081193
v -0.136621 1.496238 0.030033
v -0.353244 1.027006 0.319723
v 0.082414 0.928269 0.519907
v 0.088959 1.940115 0.225826
v -0.063032 1.953479 0.168170
v 0.481898 1.087992 0.203513
v 0.378915 0.967798 -0.272629
v 0.062732 1.942764 -0.068284
v 0.126100 1.959070 0.046046
v -0.078875 1.031634 -0.399284
v -0.088047 1.950260 -0.121809
v -0.484737 0.872095 -0.116373
v -0.128958 1.934186 0.009072
v -0.148456 1.565052 -0.335676
v -0.067543 2.283088 -0.082553
v 0.077807 2.292019 -0.046202
v 0.178573 1.625873 -0.212613
v -0.263429 1.565516 0.277281
v 0.084306 1.624326 0.329932
v 0.098936 2.292625 0.194223
v -0.054491 2.285904 0.168831
v 0.174864 2.291840 0.047801
v 0.072329 2.768644 0.053884
v -0.117620 2.292629 0.037494
v -0.328247 1.668421 -0.051409
v 0.400580 1.537615 0.082129
v -0.061012 0.443403 -0.503740
v -0.324519 1.016835 0.056823
v 0.000073 0.019532 0.088091
v -0.074669 0.506659 -0.016298
v -0.168315 1.898917 0.230617
v -0.253901 1.618644 -0.213125
v -0.115720 1.942074 -0.063841
v 0.000492 0.131691 -0.088881
v -0.307070 0.947593 -0.281134
v 0.225247 1.452379 -0.174463
v 0.336133 0.924369 -0.018519
v -0.051811 0.019533 -0.071592
v -0.090557 2.316139 -0.022490
v -0.455096 0.947051 0.104567
v -0.396161 0.459389 0.311031
v -0.042086 0.275767 -0.051644
v 0.299035 1.887710 0.065544
v -0.085038 1.494274 -0.266513
v -0.317621 1.618988 0.123223
v 0.129643 1.937806 -0.135539
v 0.000595 0.506473 -0.070982
v 0.000287 0.714213 0.074917
v 0.013745 2.555291 0.114857
v -0.103903 1.490515 0.111091
v 0.054833 0.131680 0.078363
v -0.024095 2.554113 0.047517
v 0.020499 1.488515 0.216269
v -0.043164 1.488508 -0.109256
v 0.467380 1.032216 -0.042858
v -0.434114 0.469994 -0.191997
v 0.449194 0.427774 0.203059
v 0.091896 1.937285 0.270867
v 0.051957 0.019534 -0.071592
v -0.063096 0.714087 0.028876
v 0.099348 1.951063 -0.016087
v 0.000884 2.553733 -0.012130
v 0.075797 0.506695 -0.016196
v 0.082442 1.483253 -0.032389
v 0.088418 0.131689 -0.024999
v -0.068642 0.275779 0.030090
v 0.012065 1.594703 -0.298730
v 0.115744 1.484114 0.128466
v -0.214238 0.942253 -0.285696
v 0.124155 2.559611 0.051581
v 0.114959 1.949661 0.140604
v 0.015248 1.946799 0.209439
v 0.047089 0.506803 0.072164
v -0.233421 1.960491 -0.008605
v -0.083098 2.317684 0.103740
v 0.128867 2.321013 -0.000057
v 0.070410 0.275796 0.030099
v -0.114954 1.897179 -0.220297
v 0.304728 1.008740 0.391299
v 0.317416 1.580657 -0.069764
v -0.014802 1.946321 -0.102456
v 0.027810 0.430076 0.500793
v -0.038920 0.713671 -0.045624
v 0.000887 0.275796 0.080606
v 0.195385 0.987995 0.334645
v -0.053849 0.131677 0.078363
v 0.025920 2.317742 0.183564
v -0.147124 0.977588 0.451420
v 0.075757 2.555786 0.001259
v -0.148842 0.931965 0.344565
v 0.084023 0.019533 0.027097
v 0.140857 2.321259 0.120702
v 0.163554 1.001606 -0.368439
v 0.039389 0.713695 -0.045519
v -0.313391 1.398709 -0.055379
v -0.045879 0.506867 0.072138
v -0.101281 1.943956 0.091364
v -0.211942 1.494080 0.247083
v -0.087435 0.131671 -0.025000
v 0.006470 2.315951 -0.063425
v -0.134264 1.491370 -0.053579
v 0.043854 0.275787 -0.051637
v 0.063581 0.714036 0.029002
v -0.101852 1.594101 0.327710
v 0.116779 0.990286 -0.291166
v 0.267219 1.579711 0.220329
v 0.091780 2.556337 0.125599
v 0.310052 1.527550 0.125469
v 0.087134 1.430342 0.380741
v 0.398325 0.430495 -0.298445
v -0.083877 0.019532 0.027097
v 0.208354 1.912170 0.175150
v -0.183073 1.929470 -0.124155
v 0.227787 1.912526 -0.038448
v -0.211877 1.930470 0.116155
v -0.042772 1.917698 0.263897
v 0.005465 1.917053 -0.190012
v -0.211395 1.444834 -0.172487
v 0.209844 1.479200 0.265952
v -0.278188 1.445503 0.097965
v 0.074376 1.473963 -0.235448
v 0.283364 1.491640 -0.029473
v -0.065938 1.462194 0.330429
v -0.250032 0.974952 0.211061
v 0.240384 0.956874 -0.165417
v -0.284189 0.980682 -0.122788
v 0.282469 0.955944 0.165762
v 0.024155 0.959295 0.358531
v -0.052088 0.965956 -0.306498
v 0.066509 0.506754 0.029635
v -0.076565 0.131673 0.028606
v 0.048116 0.131691 -0.061979
v 0.000492 0.131679 0.084592
v -0.047132 0.131681 -0.061980
v 0.077549 0.131685 0.028607
v -0.040170 0.506553 -0.047955
v 0.000608 0.506844 0.077477
v 0.041328 0.506575 -0.047899
v -0.065343 0.506771 0.029567
vt 0.7997 0.9333
vt 0.7997 0.9484
vt 0.7935 0.9484
vt 0.7937 0.9333
vt 0.8365 0.9333
vt 0.8364 0.9485
vt 0.8303 0.9485
vt 0.8303 0.9332
vt 0.8119 0.9333
vt 0.8119 0.9484
vt 0.8058 0.9484
vt 0.8058 0.9333
vt 0.7875 0.9332
vt 0.7874 0.9484
vt 0.7813 0.9484
vt 0.7814 0.9332
vt 0.8244 0.9068
vt 0.8242 0.9180
vt 0.8180 0.9181
vt 0.8182 0.9070
vt 0.7874 0.9070
vt 0.7876 0.9181
vt 0.7815 0.9179
vt 0.7812 0.9068
vt 0.8120 0.9072
vt 0.8119 0.9182
vt 0.8058 0.9183
vt 0.8059 0.9073
vt 0.8367 0.9068
vt 0.8367 0.9180
vt 0.8304 0.9179
vt 0.8305 0.9067
vt 0.7997 0.9073
vt 0.7998 0.9182
vt 0.7938 0.9182
vt 0.7936 0.9073
vt 0.8242 0.9332
vt 0.8241 0.9484
vt 0.8180 0.9484
vt 0.8180 0.9333
vt 0.5859 0.3227
vt 0.5707 0.3177
vt 0.5731 0.3109
vt 0.5913 0.3102
vt 0.5381 0.3092
vt 0.5440 0.2966
vt 0.5529 0.3052
vt 0.5500 0.3112
vt 0.5584 0.2893
vt 0.5727 0.2819
vt 0.5656 0.3008
vt 0.5592 0.3030
vt 0.5644 0.3399
vt 0.5483 0.3448
vt 0.5558 0.3270
vt 0.5621 0.3257
vt 0.5821 0.2961
vt 0.5694 0.3058
vt 0.5403 0.3333
vt 0.5322 0.3218
vt 0.5471 0.3172
vt 0.5515 0.3221
vt 0.5422 0.3102
vt 0.5480 0.2994
vt 0.5614 0.3114
vt 0.5595 0.3133
vt 0.5809 0.2980
vt 0.5877 0.3102
vt 0.5689 0.3137
vt 0.5676 0.3116
vt 0.5831 0.3214
vt 0.5784 0.3325
vt 0.5670 0.3184
vt 0.5680 0.3160
vt 0.5434 0.3318
vt 0.5365 0.3210
vt 0.5575 0.3151
vt 0.5597 0.3174
vt 0.5611 0.2926
vt 0.5742 0.2857
vt 0.5663 0.3096
vt 0.5638 0.3105
vt 0.5644 0.3375
vt 0.5503 0.3425
vt 0.5620 0.3198
vt 0.5645 0.3191
vt 0.4528 0.3376
vt 0.4453 0.3241
vt 0.4513 0.3214
vt 0.4654 0.3310
vt 0.4288 0.2847
vt 0.4425 0.2791
vt 0.4410 0.2965
vt 0.4345 0.2994
vt 0.4489 0.2999
vt 0.4412 0.3041
vt 0.4393 0.3267
vt 0.4325 0.3224
vt 0.4403 0.3192
vt 0.4567 0.3033
vt 0.4540 0.3123
vt 0.4491 0.3075
vt 0.4257 0.3181
vt 0.4268 0.3102
vt 0.4336 0.3149
vt 0.4120 0.3081
vt 0.4151 0.2904
vt 0.4279 0.3024
vt 0.4704 0.3118
vt 0.4246 0.3350
vt 0.4089 0.3259
vt 0.4589 0.2858
vt 0.4753 0.2925
vt 0.4463 0.3165
vt 0.4414 0.3117
vt 0.4440 0.2617
vt 0.4690 0.2717
vt 0.4940 0.2817
vt 0.4402 0.3441
vt 0.4412 0.3615
vt 0.4166 0.3476
vt 0.3921 0.3336
vt 0.4868 0.3112
vt 0.4796 0.3407
vt 0.4347 0.3070
vt 0.3972 0.3060
vt 0.4024 0.2784
vt 0.4232 0.2700
vt 0.4604 0.3511
vt 0.5899 0.3467
vt 0.5643 0.3559
vt 0.5387 0.3652
vt 0.5345 0.2875
vt 0.5583 0.2746
vt 0.5821 0.2618
vt 0.5271 0.3461
vt 0.5155 0.3270
vt 0.6064 0.3068
vt 0.5982 0.3268
vt 0.5942 0.2843
vt 0.5250 0.3072
vt 0.5408 0.3626
vt 0.5290 0.3445
vt 0.5173 0.3264
vt 0.5799 0.2631
vt 0.5948 0.2863
vt 0.6096 0.3095
vt 0.5805 0.3351
vt 0.5684 0.3245
vt 0.5926 0.3457
vt 0.5667 0.3541
vt 0.5350 0.2881
vt 0.5575 0.2756
vt 0.5261 0.3073
vt 0.6011 0.3276
vt 0.7997 0.8964
vt 0.7934 0.8963
vt 0.8060 0.8964
vt 0.8368 0.8957
vt 0.8307 0.8954
vt 0.8430 0.8959
vt 0.8429 0.9070
vt 0.8429 0.9181
vt 0.8122 0.8961
vt 0.8184 0.8959
vt 0.7872 0.8960
vt 0.7810 0.8956
vt 0.8246 0.8957
vt 0.8427 0.9333
vt 0.8426 0.9486
vn -0.9508 0.0151 0.3095
vn -0.9506 0.0158 0.3100
vn -0.9516 0.0184 -0.3067
vn -0.9511 0.0184 -0.3084
vn 0.5887 0.0194 -0.8081
vn 0.5893 0.0193 -0.8077
vn 0.9515 0.0217 -0.3069
vn 0.9511 0.0214 -0.3082
vn -0.0002 0.0152 0.9999
vn -0.0006 0.0168 0.9999
vn -0.5873 0.0183 0.8091
vn -0.5874 0.0170 0.8091
vn -0.5877 0.0175 -0.8089
vn -0.5881 0.0171 -0.8086
vn 0.0006 0.0205 -0.9998
vn 0.0007 0.0211 -0.9998
vn 0.9501 0.0416 0.3092
vn 0.9504 0.0303 0.3096
vn 0.5861 0.0281 0.8098
vn 0.5871 0.0347 0.8088
vn -0.5861 0.0803 -0.8063
vn -0.5874 0.0482 -0.8078
vn 0.0008 0.0561 -0.9984
vn 0.0002 0.0913 -0.9958
vn 0.0001 0.0237 0.9997
vn 0.0001 0.0206 0.9998
vn -0.5852 0.0290 0.8104
vn -0.5868 0.0385 0.8088
vn 0.5864 0.0765 -0.8064
vn 0.5879 0.0474 -0.8075
vn 0.9514 0.0448 -0.3048
vn 0.9493 0.0673 -0.3072
vn -0.9498 0.0477 0.3091
vn -0.9503 0.0316 0.3099
vn -0.9512 0.0462 -0.3052
vn -0.9488 0.0735 -0.3071
vn 0.9509 0.0178 0.3090
vn 0.9508 0.0189 0.3092
vn 0.5864 0.0201 0.8097
vn 0.5874 0.0186 0.8091
vn -0.0483 0.3482 -0.9362
vn 0.0339 0.3536 -0.9348
vn 0.4474 0.3927 -0.8035
vn 0.4104 0.3907 -0.8240
vn -0.0210 0.2583 0.9658
vn 0.5568 0.2950 0.7765
vn 0.5528 0.3102 0.7734
vn -0.0780 0.2624 0.9618
vn 0.9055 0.3013 0.2989
vn 0.9254 0.3564 -0.1288
vn 0.9166 0.3616 -0.1706
vn 0.9225 0.3053 0.2360
vn -0.8902 0.3043 -0.3391
vn -0.9308 0.3459 0.1183
vn -0.9278 0.3489 0.1320
vn -0.9073 0.3098 -0.2841
vn 0.7658 0.3599 -0.5328
vn 0.7615 0.3639 -0.5364
vn -0.7729 0.3177 0.5493
vn -0.4421 0.3026 0.8444
vn -0.5113 0.3088 0.8020
vn -0.7950 0.3228 0.5136
vn -0.3381 0.2790 0.8988
vn 0.1899 0.2957 0.9362
vn 0.3356 0.3044 0.8915
vn -0.3299 0.2835 0.9004
vn 0.8711 0.3535 -0.3409
vn 0.6439 0.3480 -0.6814
vn 0.6181 0.3493 -0.7042
vn 0.8527 0.3523 -0.3857
vn 0.3043 0.3051 -0.9024
vn -0.2486 0.3019 -0.9203
vn -0.3072 0.3112 -0.8993
vn 0.3078 0.3091 -0.8998
vn -0.9206 0.3224 0.2205
vn -0.7112 0.3249 0.6234
vn -0.6847 0.3275 0.6512
vn -0.9090 0.3254 0.2603
vn 0.6832 0.3069 0.6626
vn 0.9046 0.3851 0.1827
vn 0.9242 0.3793 0.0437
vn 0.7845 0.3144 0.5345
vn -0.7279 0.2773 -0.6271
vn -0.9157 0.3267 -0.2341
vn -0.9391 0.3254 -0.1101
vn -0.7959 0.2750 -0.5393
vn 0.2602 0.2996 -0.9179
vn 0.2272 0.2343 -0.9452
vn 0.4881 0.2302 -0.8419
vn 0.5342 0.2765 -0.7989
vn -0.1750 0.2176 0.9602
vn 0.3156 0.2043 0.9267
vn 0.3842 0.2223 0.8961
vn -0.1636 0.2472 0.9551
vn 0.8431 0.1843 0.5052
vn 0.4696 0.2888 0.8343
vn -0.3786 0.3481 -0.8576
vn -0.8446 0.3319 -0.4201
vn -0.4339 0.3669 -0.8229
vn 0.9654 0.2471 -0.0835
vn 0.7098 0.1859 -0.6794
vn 0.9605 0.2197 -0.1708
vn -0.9426 0.3334 -0.0164
vn -0.8612 0.3057 0.4059
vn -0.9228 0.3817 0.0517
vn -0.8943 0.3040 0.3284
vn -0.6208 0.2851 0.7303
vn -0.5862 0.2898 0.7566
vn 0.7693 0.2512 -0.5874
vn -0.7862 0.3248 -0.5258
vn -0.9375 0.3328 -0.1020
vn 0.7275 0.2076 0.6539
vn 0.9577 0.2834 0.0496
vn 0.4545 0.2052 -0.8668
vn 0.0994 0.9949 -0.0165
vn 0.2699 0.1964 0.9427
vn 0.6872 0.2099 0.6955
vn 0.9520 0.2857 0.1095
vn -0.3075 0.3546 -0.8830
vn -0.2517 0.3531 -0.9011
vn -0.7364 0.3255 -0.5932
vn -0.9283 0.3331 -0.1653
vn 0.8087 0.2569 -0.5291
vn 0.5628 0.2834 -0.7765
vn -0.5301 0.3393 0.7771
vn -0.8993 0.3037 0.3146
vn -0.6373 0.2871 0.7152
vn -0.2088 0.2162 0.9538
vn 0.2557 0.3055 -0.9172
vn -0.2163 0.2897 -0.9324
vn -0.6757 0.2786 -0.6825
vn -0.8982 0.3262 -0.2946
vn 0.1074 0.2884 0.9515
vn 0.5545 0.3018 0.7755
vn 0.8712 0.3878 0.3010
vn -0.9348 0.3214 0.1511
vn -0.7399 0.3216 0.5908
vn 0.6573 0.3468 -0.6691
vn 0.3166 0.3029 -0.8989
vn 0.8807 0.3532 -0.3157
vn -0.3352 0.2739 0.9015
vn -0.9323 0.3426 0.1162
vn -0.7349 0.3123 0.6020
vn -0.3937 0.2977 0.8697
vn 0.9288 0.3531 -0.1120
vn 0.7768 0.3558 -0.5196
vn 0.3808 0.3880 -0.8393
vn -0.5616 0.3372 -0.7556
vn -0.5510 0.3531 -0.7561
vn -0.5576 0.3279 -0.7626
vn -0.8660 0.2995 -0.4006
vn 0.5568 0.2799 0.7821
vn 0.8930 0.2983 0.3371
vn 0.0153 0.2549 0.9668
vn -0.1337 0.3423 -0.9300
vn -0.9509 0.0467 0.3060
vn -0.9457 0.0740 -0.3166
vn -0.5929 0.0353 0.8045
vn 0.5844 0.0780 -0.8077
vn 0.9459 0.0669 -0.3175
vn -0.0011 0.0930 -0.9957
vn -0.0003 0.0200 0.9998
vn 0.5915 0.0308 0.8057
vn -0.5846 0.0824 -0.8071
vn 0.9511 0.0396 0.3063
usemtl None
s 1
f 165/1/1 86/2/2 3/3/3 56/4/4
f 164/5/5 120/6/6 7/7/7 89/8/8
f 163/9/9 74/10/10 2/11/11 122/12/12
f 162/13/13 109/14/14 6/15/15 73/16/16
f 161/17/17 103/18/18 9/19/19 77/20/20
f 160/21/21 68/22/22 5/23/23 60/24/24
f 159/25/25 110/26/26 1/27/27 112/28/28
f 158/29/29 128/30/30 8/31/31 91/32/32
f 157/33/33 92/34/34 4/35/35 125/36/36
f 156/37/37 129/38/38 10/39/39 99/40/40
f 155/41/41 80/42/42 18/43/43 131/44/44
f 154/45/45 111/46/46 22/47/47 79/48/48
f 153/49/49 63/50/50 25/51/51 94/52/52
f 152/53/53 54/54/54 27/55/55 127/56/56
f 151/57/57 131/44/44 18/43/43 90/58/58
f 150/59/59 116/60/60 23/61/61 76/62/62
f 149/63/63 135/64/64 30/65/65 98/66/66
f 148/67/67 62/68/68 34/69/69 87/70/70
f 147/71/71 70/72/72 37/73/73 107/74/74
f 146/75/75 124/76/76 31/77/77 123/78/78
f 145/79/79 134/80/80 35/81/81 97/82/82
f 144/83/83 121/84/84 39/85/85 59/86/86
f 143/87/87 126/88/88 42/89/89 72/90/90
f 142/91/91 84/92/92 46/93/93 113/94/94
f 46/93/93 118/95/95 133/96/96
f 41/97/97 65/98/98 88/99/99
f 48/100/100 102/101/101 96/102/102
f 50/103/103 101/104/104 78/105/105
f 141/106/106 57/107/107 47/108/108 101/104/104
f 46/93/93 133/96/96 113/94/94
f 140/109/109 72/90/90 42/89/89 102/101/101
f 139/110/110 100/111/111 50/103/103 65/98/98
f 138/112/112 69/113/113 48/100/100 118/95/95
f 42/89/89 126/88/88 115/114/114
f 115/114/114 88/99/99 49/115/115
f 115/114/114 126/88/88 88/99/99
f 126/88/88 41/97/97 88/99/99
f 84/92/92 138/112/112 118/95/95 46/93/93
f 45/116/116 132/117/117 138/112/112 84/92/92
f 132/117/117 52/118/118 69/113/113 138/112/112
f 104/119/119 139/110/110 65/98/98 41/97/97
f 40/120/120 58/121/121 139/110/110 104/119/119
f 58/121/121 51/122/122 100/111/111 139/110/110
f 69/113/113 140/109/109 102/101/101 48/100/100
f 52/118/118 106/123/123 140/109/109 69/113/113
f 106/123/123 43/124/124 72/90/90 140/109/109
f 113/94/94 75/125/125 47/108/108
f 113/94/94 133/96/96 75/125/125
f 133/96/96 49/115/115 75/125/125
f 100/111/111 141/106/106 101/104/104 50/103/103
f 51/122/122 71/126/126 141/106/106 100/111/111
f 71/126/126 44/127/127 57/107/107 141/106/106
f 78/105/105 75/125/125 49/115/115
f 78/105/105 101/104/104 75/125/125
f 101/104/104 47/108/108 75/125/125
f 96/102/102 115/114/114 49/115/115
f 96/102/102 102/101/101 115/114/114
f 102/101/101 42/89/89 115/114/114
f 88/99/99 78/105/105 49/115/115
f 88/99/99 65/98/98 78/105/105
f 65/98/98 50/103/103 78/105/105
f 133/96/96 96/102/102 49/115/115
f 133/96/96 118/95/95 96/102/102
f 118/95/95 48/100/100 96/102/102
f 57/107/107 142/91/91 113/94/94 47/108/108
f 44/127/127 130/128/128 142/91/91 57/107/107
f 130/128/128 45/116/116 84/92/92 142/91/91
f 93/129/129 143/87/87 72/90/90 43/124/124
f 40/120/120 104/119/119 143/87/87 93/129/129
f 104/119/119 41/97/97 126/88/88 143/87/87
f 70/72/72 144/83/83 59/86/86 37/73/73
f 36/130/130 61/131/131 144/83/83 70/72/72
f 61/131/131 38/132/132 121/84/84 144/83/83
f 135/64/64 145/79/79 97/82/82 30/65/65
f 29/133/133 105/134/134 145/79/79 135/64/64
f 105/134/134 32/135/135 134/80/80 145/79/79
f 121/84/84 146/75/75 123/78/78 39/85/85
f 38/132/132 66/136/136 146/75/75 121/84/84
f 66/136/136 28/137/137 124/76/76 146/75/75
f 62/68/68 147/71/71 107/74/74 34/69/69
f 33/138/138 119/139/139 147/71/71 62/68/68
f 119/139/139 36/130/130 70/72/72 147/71/71
f 134/80/80 148/67/67 87/70/70 35/81/81
f 32/135/135 81/140/140 148/67/67 134/80/80
f 81/140/140 33/138/138 62/68/68 148/67/67
f 124/76/76 149/63/63 98/66/66 31/77/77
f 28/137/137 114/141/141 149/63/63 124/76/76
f 114/141/141 29/133/133 135/64/64 149/63/63
f 54/54/54 150/59/59 76/62/62 27/55/55
f 26/142/142 67/143/143 150/59/59 54/54/54
f 67/143/143 20/144/144 116/60/60 150/59/59
f 63/50/50 151/57/57 90/58/58 25/51/51
f 24/145/145 136/146/146 151/57/57 63/50/50
f 136/146/146 19/147/147 131/44/44 151/57/57
f 95/148/148 152/53/53 127/56/56 17/149/149
f 16/150/150 82/151/151 152/53/53 95/148/148
f 82/151/151 26/142/142 54/54/54 152/53/53
f 111/46/46 153/49/49 94/52/52 22/47/47
f 21/152/152 83/153/153 153/49/49 111/46/46
f 83/153/153 24/145/145 63/50/50 153/49/49
f 116/60/60 154/45/45 79/48/48 23/61/61
f 20/144/144 108/154/154 154/45/45 116/60/60
f 108/154/154 21/152/152 111/46/46 154/45/45
f 53/155/155 155/41/41 131/44/44 19/147/147
f 16/150/150 95/148/148 155/41/41 53/155/155
f 95/148/148 17/149/149 80/42/42 155/41/41
f 103/18/18 156/37/37 99/40/40 9/19/19
f 8/31/31 89/8/8 156/37/37 103/18/18
f 89/8/8 7/7/7 129/38/38 156/37/37
f 137/156/156 157/33/33 125/36/36 13/157/157
f 15/158/158 112/28/28 157/33/33 137/156/156
f 112/28/28 1/27/27 92/34/34 157/33/33
f 85/159/159 158/29/29 91/32/32 11/160/160
f 14/161/161 60/162/24 158/29/29 85/159/159
f 60/162/24 5/163/23 128/30/30 158/29/29
f 55/164/162 159/25/25 112/28/28 15/158/158
f 12/165/163 77/20/20 159/25/25 55/164/162
f 77/20/20 9/19/19 110/26/26 159/25/25
f 64/166/164 160/21/21 60/24/24 14/167/161
f 13/157/157 125/36/36 160/21/21 64/166/164
f 125/36/36 4/35/35 68/22/22 160/21/21
f 117/168/165 161/17/17 77/20/20 12/165/163
f 11/160/160 91/32/32 161/17/17 117/168/165
f 91/32/32 8/31/31 103/18/18 161/17/17
f 68/22/22 162/13/13 73/16/16 5/23/23
f 4/35/35 56/4/4 162/13/13 68/22/22
f 56/4/4 3/3/3 109/14/14 162/13/13
f 110/26/26 163/9/9 122/12/12 1/27/27
f 9/19/19 99/40/40 163/9/9 110/26/26
f 99/40/40 10/39/39 74/10/10 163/9/9
f 128/30/30 164/5/5 89/8/8 8/31/31
f 5/163/23 73/169/16 164/5/5 128/30/30
f 73/169/16 6/170/15 120/6/6 164/5/5
f 92/34/34 165/1/1 56/4/4 4/35/35
f 1/27/27 122/12/12 165/1/1 92/34/34
f 122/12/12 2/11/11 86/2/2 165/1/1
