# Blender v2.78 (sub 0) OBJ File: ''
# www.blender.org
mtllib Pine_Tree_OneSided_m_09.mtl
o Pine_Tree_OneSided_m_09
v -0.079319 0.508826 0.123548
v -0.066359 1.889899 0.104867
v -0.107298 1.888767 -0.020266
v -0.129232 0.508723 -0.029980
v 0.001387 0.508683 -0.124879
v -0.000696 1.887596 -0.097715
v 0.105614 1.888803 -0.019704
v 0.131971 0.508782 -0.029933
v 0.082100 0.508803 0.123557
v 0.065104 1.889547 0.105030
v 0.153032 0.035849 -0.049869
v 0.094630 0.035846 0.129873
v -0.152765 0.035843 -0.049869
v 0.000134 0.035850 -0.160956
v -0.094362 0.035846 0.129873
v 0.555262 0.886324 0.642690
v 0.147758 1.885980 0.358263
v -0.280423 1.855934 0.341904
v -0.339658 0.639092 0.880517
v 0.903431 0.638459 -0.338569
v 0.357891 1.849193 -0.069247
v -0.927603 0.886420 0.292186
v -0.511145 1.886415 -0.018601
v -0.329448 1.845077 -0.416990
v -0.755533 0.638004 -0.674820
v 0.123686 0.885534 -0.858035
v 0.089150 1.877585 -0.380758
v -0.496393 1.498631 -0.714581
v -0.197146 3.265555 -0.206008
v 0.060911 3.273896 -0.142791
v 0.318245 1.623632 -0.803107
v -0.376866 1.468977 0.806932
v 0.469276 1.613198 0.714337
v 0.163218 3.276022 0.368772
v -0.103240 3.262743 0.314926
v 0.881543 1.454593 -0.098233
v 0.205538 3.250415 0.044850
v -0.823089 1.696547 0.132677
v -0.233004 3.284947 0.051069
v -0.580217 2.524429 0.527265
v 0.137547 2.372299 0.854361
v 0.146122 4.023000 0.377910
v -0.108448 4.047340 0.281660
v 0.789795 2.625020 0.334005
v 0.621628 2.436283 -0.445615
v 0.108486 4.028037 -0.117170
v 0.215376 4.057468 0.080998
v -0.131358 2.532668 -0.655484
v -0.144719 4.042138 -0.204960
v -0.793861 2.280314 -0.189711
v -0.220140 4.012266 0.013207
v -0.244277 3.426563 -0.549444
v -0.110854 4.608055 -0.137737
v 0.130460 4.623896 -0.077533
v 0.295094 3.520298 -0.349701
v -0.431748 3.427336 0.456445
v 0.140822 3.517813 0.543705
v 0.163610 4.624895 0.321971
v -0.091010 4.612627 0.280612
v 0.291936 4.621877 0.081037
v 0.117851 5.396445 0.089903
v -0.195281 4.625392 0.061682
v -0.540828 3.589635 -0.083874
v 0.655515 3.381502 0.135589
v 0.215443 4.033299 -0.224870
v -0.445218 1.865645 -0.235655
v 0.117348 0.762708 0.835560
v -0.121435 1.860660 -0.426335
v 0.108669 1.390007 -0.629193
v 0.000134 0.035846 0.146715
v -0.118642 1.228305 -0.024786
v 0.513693 3.348620 0.208767
v 0.000820 0.219485 -0.146838
v 0.269972 2.487944 -0.610160
v 0.022277 5.055953 0.191680
v -0.137718 4.671161 0.172208
v 0.323613 2.449928 0.554246
v -0.552987 1.232925 -0.560330
v -0.086214 0.035846 -0.119038
v -0.421088 3.511599 -0.352596
v 0.659239 1.537678 -0.493503
v -0.719122 1.603049 -0.317964
v 0.571972 0.761997 -0.653539
v -0.069935 0.508703 -0.085706
v -0.655980 1.585517 0.515452
v 0.556619 2.346895 -0.029964
v -0.682312 0.762756 0.644141
v 0.000730 5.053392 -0.019872
v 0.023031 4.035174 0.352617
v 0.000376 1.227650 -0.111263
v -0.387302 4.070747 -0.014120
v -0.753300 2.397784 0.174085
v -0.000602 1.889810 0.116225
v 0.090626 0.219468 0.129555
v -0.420801 1.871767 0.174571
v -0.732098 1.395008 0.142073
v -0.526264 3.512191 0.205165
v 0.215844 4.676260 0.000180
v -0.190328 3.967957 -0.364113
v -0.066391 1.871226 0.381732
v 0.152722 4.032465 0.448968
v -0.228175 3.275360 -0.091330
v 0.046242 1.537063 0.830479
v 0.443638 3.447346 0.365888
v -0.347617 0.761769 -0.835852
v 0.205918 5.063058 0.086825
v 0.373176 3.226834 -0.288745
v 0.809723 0.762392 0.163695
v 0.086482 0.035849 -0.119037
v -0.097584 1.889420 0.045798
v 0.019915 3.472036 -0.494692
v -0.173995 4.030029 0.152467
v 0.034272 3.270058 0.364625
v 0.119202 1.228363 -0.024461
v 0.125420 5.056886 0.001447
v 0.146129 0.219482 -0.041265
v -0.114004 0.508772 0.049945
v -0.149353 4.668625 -0.037955
v -0.351314 3.292928 0.410219
v -0.177461 3.273793 0.188087
v -0.909528 0.762212 -0.210037
v 0.359583 1.394661 0.514481
v 0.194385 4.040359 0.238020
v 0.505095 2.499778 0.648485
v -0.140932 3.293509 -0.441171
v 0.193540 2.453818 -0.482614
v 0.073869 1.228745 0.115084
v -0.519009 3.138157 -0.091423
v 0.116765 0.508793 0.049973
v -0.242824 2.448273 0.748815
v 0.012259 4.668091 -0.105888
v 0.197800 3.262754 0.215204
v 0.649258 1.235337 -0.211368
v -0.060649 1.888056 -0.068174
v 0.494487 3.952106 0.109375
v 0.043085 4.671022 0.305030
v -0.278547 3.970809 0.382405
v 0.001391 0.508814 0.133782
v -0.088985 0.219462 0.129555
v 0.235035 4.676656 0.200935
v 0.170982 4.043021 -0.027204
v -0.354840 2.376654 -0.472734
v 0.142040 3.261371 -0.057887
v 0.139848 0.035848 0.045206
v 0.526396 3.448905 -0.115354
v -0.168019 3.471068 0.544311
v 0.743763 1.533194 0.337337
v 0.059107 1.888104 -0.067840
v -0.538096 2.497578 0.094094
v -0.073049 1.228955 0.114999
v -0.195674 4.026929 -0.109591
v -0.508975 2.398652 -0.465367
v -0.101425 1.559078 -0.833776
v 0.248500 1.863222 -0.238792
v 0.279127 1.867665 0.159050
v -0.144490 0.219451 -0.041267
v 0.144492 3.190585 0.630587
v 0.072692 0.508736 -0.085681
v -0.041375 5.054004 0.079148
v 0.152012 5.057839 0.208774
v 0.096094 1.889222 0.046203
v 0.773566 2.538581 -0.071037
v -0.315741 1.239072 0.623607
v -0.022051 4.034737 -0.174664
v -0.246339 2.359705 0.571393
v -0.072201 3.270242 -0.187883
v -0.139580 0.035844 0.045206
v -0.234526 1.311214 -0.631094
v 0.347256 3.991685 0.291917
v -0.305121 4.020517 -0.206925
v 0.379644 3.992277 -0.064080
v -0.353127 4.022184 0.193592
v -0.071285 4.000897 0.439828
v 0.009109 3.999823 -0.316687
v -0.352325 3.212791 -0.287479
v 0.349740 3.270069 0.443253
v -0.463648 3.213907 0.163276
v 0.123960 3.261340 -0.392412
v 0.472274 3.290801 -0.049120
v -0.109896 3.241724 0.550716
v -0.416721 2.429655 0.351769
v 0.400640 2.399525 -0.275695
v -0.473648 2.439204 -0.204647
v 0.470782 2.397974 0.276270
v 0.040257 2.403560 0.597552
v -0.086813 2.414660 -0.510829
v -0.551556 1.317262 0.409356
v 0.410236 1.312609 -0.446165
v -0.677373 1.313928 -0.222846
v 0.544425 1.315028 0.161372
v 0.025479 1.316967 0.608646
v 0.105426 1.228572 0.048220
v -0.127609 0.219455 0.047676
v 0.080193 0.219485 -0.103299
v 0.000820 0.219465 0.140986
v -0.078553 0.219468 -0.103300
v 0.129248 0.219475 0.047677
v -0.064634 1.227930 -0.075606
v 0.000420 1.228883 0.124385
v 0.065288 1.227972 -0.075424
v -0.104743 1.228662 0.047998
vt 0.7997 0.9476
vt 0.7995 0.9769
vt 0.7933 0.9769
vt 0.7936 0.9475
vt 0.8365 0.9477
vt 0.8363 0.9775
vt 0.8302 0.9775
vt 0.8303 0.9477
vt 0.8119 0.9476
vt 0.8119 0.9770
vt 0.8058 0.9769
vt 0.8058 0.9476
vt 0.7874 0.9475
vt 0.7872 0.9770
vt 0.7810 0.9772
vt 0.7812 0.9475
vt 0.8244 0.9068
vt 0.8242 0.9180
vt 0.8180 0.9181
vt 0.8182 0.9070
vt 0.7874 0.9070
vt 0.7876 0.9181
vt 0.7815 0.9179
vt 0.7812 0.9068
vt 0.8120 0.9072
vt 0.8119 0.9182
vt 0.8058 0.9183
vt 0.8059 0.9073
vt 0.8367 0.9068
vt 0.8367 0.9180
vt 0.8304 0.9179
vt 0.8305 0.9067
vt 0.7997 0.9073
vt 0.7998 0.9182
vt 0.7938 0.9182
vt 0.7936 0.9073
vt 0.8242 0.9477
vt 0.8241 0.9773
vt 0.8181 0.9772
vt 0.8181 0.9476
vt 0.5358 0.3066
vt 0.5476 0.3066
vt 0.5422 0.3174
vt 0.5283 0.3220
vt 0.5612 0.2835
vt 0.5642 0.2928
vt 0.5531 0.2957
vt 0.5433 0.2913
vt 0.5653 0.3445
vt 0.5668 0.3325
vt 0.5785 0.3301
vt 0.5843 0.3392
vt 0.5885 0.2918
vt 0.5814 0.2988
vt 0.5753 0.2898
vt 0.5791 0.2756
vt 0.5373 0.3359
vt 0.5487 0.3261
vt 0.5552 0.3348
vt 0.5462 0.3497
vt 0.5859 0.3227
vt 0.5707 0.3177
vt 0.5731 0.3109
vt 0.5913 0.3102
vt 0.5381 0.3092
vt 0.5440 0.2966
vt 0.5529 0.3052
vt 0.5500 0.3112
vt 0.5584 0.2893
vt 0.5727 0.2819
vt 0.5656 0.3008
vt 0.5592 0.3030
vt 0.5644 0.3399
vt 0.5483 0.3448
vt 0.5558 0.3270
vt 0.5621 0.3257
vt 0.5821 0.2961
vt 0.5694 0.3058
vt 0.5403 0.3333
vt 0.5322 0.3218
vt 0.5471 0.3172
vt 0.5515 0.3221
vt 0.5422 0.3102
vt 0.5480 0.2994
vt 0.5614 0.3114
vt 0.5595 0.3133
vt 0.5809 0.2980
vt 0.5877 0.3102
vt 0.5689 0.3137
vt 0.5676 0.3116
vt 0.5831 0.3214
vt 0.5784 0.3325
vt 0.5670 0.3184
vt 0.5680 0.3160
vt 0.5434 0.3318
vt 0.5365 0.3210
vt 0.5575 0.3151
vt 0.5597 0.3174
vt 0.5611 0.2926
vt 0.5742 0.2857
vt 0.5663 0.3096
vt 0.5638 0.3105
vt 0.5644 0.3375
vt 0.5503 0.3425
vt 0.5620 0.3198
vt 0.5645 0.3191
vt 0.4528 0.3376
vt 0.4453 0.3241
vt 0.4513 0.3214
vt 0.4654 0.3310
vt 0.4288 0.2847
vt 0.4425 0.2791
vt 0.4410 0.2965
vt 0.4345 0.2994
vt 0.4489 0.2999
vt 0.4412 0.3041
vt 0.4393 0.3267
vt 0.4325 0.3224
vt 0.4403 0.3192
vt 0.4567 0.3033
vt 0.4540 0.3123
vt 0.4491 0.3075
vt 0.4257 0.3181
vt 0.4268 0.3102
vt 0.4336 0.3149
vt 0.4120 0.3081
vt 0.4151 0.2904
vt 0.4279 0.3024
vt 0.4704 0.3118
vt 0.4246 0.3350
vt 0.4089 0.3259
vt 0.4589 0.2858
vt 0.4753 0.2925
vt 0.4463 0.3165
vt 0.5911 0.3236
vt 0.5980 0.3081
vt 0.6085 0.3082
vt 0.5993 0.3282
vt 0.5901 0.3483
vt 0.5830 0.3190
vt 0.5875 0.3079
vt 0.4414 0.3117
vt 0.4440 0.2617
vt 0.4690 0.2717
vt 0.4940 0.2817
vt 0.4402 0.3441
vt 0.4412 0.3615
vt 0.4166 0.3476
vt 0.3921 0.3336
vt 0.4868 0.3112
vt 0.4796 0.3407
vt 0.4347 0.3070
vt 0.3972 0.3060
vt 0.4024 0.2784
vt 0.4232 0.2700
vt 0.4604 0.3511
vt 0.5899 0.3467
vt 0.5643 0.3559
vt 0.5387 0.3652
vt 0.5345 0.2875
vt 0.5583 0.2746
vt 0.5821 0.2618
vt 0.5271 0.3461
vt 0.5155 0.3270
vt 0.6064 0.3068
vt 0.5982 0.3268
vt 0.5942 0.2843
vt 0.5250 0.3072
vt 0.5408 0.3626
vt 0.5290 0.3445
vt 0.5173 0.3264
vt 0.5799 0.2631
vt 0.5948 0.2863
vt 0.6096 0.3095
vt 0.5805 0.3351
vt 0.5684 0.3245
vt 0.5926 0.3457
vt 0.5667 0.3541
vt 0.5350 0.2881
vt 0.5575 0.2756
vt 0.5261 0.3073
vt 0.6011 0.3276
vt 0.5258 0.3456
vt 0.5373 0.3647
vt 0.5144 0.3266
vt 0.5957 0.2848
vt 0.5829 0.2614
vt 0.5637 0.3565
vt 0.5582 0.2742
vt 0.5336 0.2869
vt 0.5240 0.3067
vt 0.7997 0.8964
vt 0.7934 0.8963
vt 0.8060 0.8964
vt 0.8368 0.8957
vt 0.8307 0.8954
vt 0.8430 0.8959
vt 0.8429 0.9070
vt 0.8429 0.9181
vt 0.8122 0.8961
vt 0.8184 0.8959
vt 0.7872 0.8960
vt 0.7810 0.8956
vt 0.8246 0.8957
vt 0.8426 0.9477
vt 0.8424 0.9774
vn -0.9507 0.0134 0.3100
vn -0.9503 0.0137 0.3111
vn -0.9523 0.0158 -0.3047
vn -0.9512 0.0160 -0.3083
vn 0.5896 0.0174 -0.8075
vn 0.5911 0.0171 -0.8064
vn 0.9522 0.0191 -0.3049
vn 0.9512 0.0191 -0.3079
vn -0.0005 0.0139 0.9999
vn -0.0012 0.0147 0.9999
vn -0.5868 0.0157 0.8096
vn -0.5874 0.0152 0.8092
vn -0.5876 0.0154 -0.8090
vn -0.5884 0.0150 -0.8084
vn 0.0017 0.0180 -0.9998
vn 0.0014 0.0185 -0.9998
vn 0.9502 0.0382 0.3094
vn 0.9505 0.0271 0.3096
vn 0.5863 0.0252 0.8097
vn 0.5869 0.0312 0.8091
vn -0.5865 0.0737 -0.8066
vn -0.5876 0.0412 -0.8081
vn 0.0009 0.0479 -0.9989
vn 0.0003 0.0835 -0.9965
vn 0.0001 0.0216 0.9998
vn -0.0000 0.0190 0.9998
vn -0.5856 0.0256 0.8102
vn -0.5865 0.0346 0.8092
vn 0.5868 0.0704 -0.8067
vn 0.5884 0.0410 -0.8075
vn 0.9514 0.0390 -0.3054
vn 0.9498 0.0614 -0.3067
vn -0.9499 0.0436 0.3095
vn -0.9503 0.0277 0.3100
vn -0.9513 0.0394 -0.3058
vn -0.9494 0.0668 -0.3067
vn 0.9509 0.0162 0.3089
vn 0.9507 0.0167 0.3095
vn 0.5856 0.0175 0.8104
vn 0.5873 0.0169 0.8092
vn 0.0619 0.3828 0.9217
vn 0.0061 0.3867 0.9222
vn -0.3931 0.4069 0.8246
vn -0.3003 0.4048 0.8637
vn 0.8714 0.4114 0.2673
vn 0.8511 0.4205 0.3144
vn 0.4875 0.4432 0.7522
vn 0.5597 0.4359 0.7048
vn -0.8796 0.3589 -0.3122
vn -0.8610 0.3626 -0.3567
vn -0.5205 0.3794 -0.7649
vn -0.6141 0.3757 -0.6941
vn 0.6313 0.4226 -0.6503
vn 0.6583 0.4288 -0.6187
vn 0.8806 0.4525 -0.1410
vn 0.8678 0.4453 -0.2208
vn -0.6293 0.4162 0.6563
vn -0.6830 0.4236 0.5950
vn -0.9013 0.4240 0.0883
vn -0.8830 0.4274 0.1940
vn -0.0498 0.3474 -0.9364
vn 0.0290 0.3533 -0.9350
vn 0.4453 0.3906 -0.8057
vn 0.4108 0.3875 -0.8253
vn -0.0171 0.2580 0.9660
vn 0.5585 0.2919 0.7765
vn 0.5551 0.3079 0.7727
vn -0.0716 0.2628 0.9622
vn 0.9047 0.3004 0.3020
vn 0.9265 0.3536 -0.1282
vn 0.9180 0.3598 -0.1671
vn 0.9210 0.3049 0.2423
vn -0.8899 0.3039 -0.3401
vn -0.9321 0.3425 0.1176
vn -0.9288 0.3466 0.1314
vn -0.9063 0.3099 -0.2873
vn 0.7659 0.3592 -0.5333
vn 0.7615 0.3635 -0.5367
vn -0.7738 0.3167 0.5486
vn -0.4422 0.3004 0.8451
vn -0.5093 0.3075 0.8038
vn -0.7946 0.3222 0.5145
vn -0.3373 0.2786 0.8992
vn 0.1905 0.2935 0.9368
vn 0.3310 0.3033 0.8936
vn -0.3284 0.2837 0.9009
vn 0.8726 0.3529 -0.3377
vn 0.6446 0.3457 -0.6819
vn 0.6186 0.3478 -0.7045
vn 0.8540 0.3521 -0.3829
vn 0.3018 0.3041 -0.9036
vn -0.2477 0.2990 -0.9215
vn -0.3019 0.3093 -0.9018
vn 0.3036 0.3084 -0.9015
vn -0.9205 0.3213 0.2222
vn -0.7118 0.3224 0.6240
vn -0.6855 0.3258 0.6512
vn -0.9086 0.3248 0.2627
vn 0.6821 0.3065 0.6640
vn 0.9056 0.3812 0.1861
vn 0.9246 0.3774 0.0516
vn 0.7807 0.3146 0.5399
vn -0.7254 0.2770 -0.6301
vn -0.9165 0.3242 -0.2344
vn -0.9392 0.3241 -0.1136
vn -0.7909 0.2755 -0.5465
vn 0.2582 0.2982 -0.9189
vn 0.2236 0.2363 -0.9456
vn 0.4898 0.2305 -0.8408
vn 0.5350 0.2737 -0.7993
vn -0.1736 0.2168 0.9607
vn 0.3165 0.2017 0.9269
vn 0.3821 0.2214 0.8972
vn -0.1608 0.2492 0.9550
vn 0.8405 0.1868 0.5087
vn 0.4688 0.2976 0.8316
vn -0.3746 0.3471 -0.8597
vn -0.8419 0.3337 -0.4240
vn -0.4338 0.3751 -0.8193
vn 0.9660 0.2474 -0.0750
vn 0.7141 0.1879 -0.6744
vn 0.9592 0.2307 -0.1634
vn -0.9428 0.3328 -0.0195
vn -0.8606 0.3072 0.4062
vn -0.9197 0.3893 0.0503
vn -0.8945 0.3031 0.3285
vn -0.6213 0.2827 0.7308
vn -0.5873 0.2891 0.7559
vn 0.7724 0.2502 -0.5837
vn -0.7856 0.3243 -0.5270
vn -0.9383 0.3303 -0.1025
vn 0.7280 0.2064 0.6538
vn 0.9589 0.2789 0.0517
vn 0.4541 0.2156 -0.8645
vn -0.1707 0.3677 -0.9141
vn 0.2594 0.4211 -0.8691
vn 0.1923 0.4156 -0.8890
vn -0.2769 0.3628 -0.8898
vn -0.6694 0.3722 -0.6429
vn -0.0768 0.3749 -0.9239
vn 0.3406 0.4255 -0.8384
vn 0.0983 0.9950 -0.0166
vn 0.2731 0.1930 0.9424
vn 0.6909 0.2083 0.6923
vn 0.9535 0.2808 0.1096
vn -0.3074 0.3517 -0.8842
vn -0.2531 0.3499 -0.9019
vn -0.7348 0.3246 -0.5955
vn -0.9297 0.3295 -0.1643
vn 0.8125 0.2560 -0.5237
vn 0.5634 0.2809 -0.7770
vn -0.5255 0.3466 0.7770
vn -0.8993 0.3022 0.3161
vn -0.6378 0.2840 0.7159
vn -0.2098 0.2150 0.9538
vn 0.2523 0.3044 -0.9185
vn -0.2177 0.2859 -0.9332
vn -0.6775 0.2775 -0.6812
vn -0.8995 0.3231 -0.2942
vn 0.1099 0.2857 0.9520
vn 0.5569 0.3009 0.7741
vn 0.8739 0.3820 0.3007
vn -0.9354 0.3202 0.1502
vn -0.7397 0.3180 0.5931
vn 0.6584 0.3438 -0.6696
vn 0.3162 0.3016 -0.8995
vn 0.8821 0.3520 -0.3132
vn -0.3352 0.2729 0.9017
vn -0.9342 0.3380 0.1143
vn -0.7363 0.3110 0.6009
vn -0.3950 0.2950 0.8701
vn 0.9301 0.3497 -0.1123
vn 0.7772 0.3546 -0.5198
vn 0.3833 0.3837 -0.8402
vn -0.5625 0.3349 -0.7559
vn -0.5519 0.3513 -0.7563
vn -0.5593 0.3252 -0.7625
vn -0.8665 0.2986 -0.4000
vn 0.5583 0.2761 0.7823
vn 0.8938 0.2969 0.3361
vn 0.0164 0.2539 0.9671
vn -0.1316 0.3412 -0.9307
vn -0.5539 0.4120 0.7235
vn -0.8595 0.4262 0.2820
vn -0.2434 0.4022 0.8826
vn 0.6253 0.4170 -0.6596
vn 0.8587 0.4402 -0.2626
vn -0.8901 0.3553 -0.2855
vn 0.8909 0.4057 0.2043
vn 0.6100 0.4259 0.6682
vn 0.0901 0.3798 0.9207
vn -0.9511 0.0451 0.3057
vn -0.9459 0.0716 -0.3165
vn -0.5928 0.0330 0.8047
vn 0.5843 0.0765 -0.8079
vn 0.9461 0.0646 -0.3173
vn -0.0011 0.0907 -0.9959
vn -0.0004 0.0184 0.9998
vn 0.5914 0.0285 0.8058
vn -0.5846 0.0808 -0.8073
vn 0.9513 0.0380 0.3060
usemtl None
s 1
f 201/1/1 110/2/2 3/3/3 71/4/4
f 200/5/5 148/6/6 7/7/7 114/8/8
f 199/9/9 93/10/10 2/11/11 150/12/12
f 198/13/13 134/14/14 6/15/15 90/16/16
f 197/17/17 129/18/18 9/19/19 94/20/20
f 196/21/21 84/22/22 5/23/23 73/24/24
f 195/25/25 138/26/26 1/27/27 139/28/28
f 194/29/29 158/30/30 8/31/31 116/32/32
f 193/33/33 117/34/34 4/35/35 156/36/36
f 192/37/37 161/38/38 10/39/39 127/40/40
f 191/41/41 100/42/42 18/43/43 163/44/44
f 190/45/45 155/46/46 17/47/47 122/48/48
f 189/49/49 66/50/50 24/51/51 78/52/52
f 188/53/53 154/54/54 21/55/55 133/56/56
f 187/57/57 95/58/58 23/59/59 96/60/60
f 186/61/61 166/62/62 30/63/63 126/64/64
f 185/65/65 77/66/66 34/67/67 113/68/68
f 184/69/69 86/70/70 37/71/71 132/72/72
f 183/73/73 149/74/74 39/75/75 102/76/76
f 182/77/77 126/64/64 30/63/63 143/78/78
f 181/79/79 165/80/80 35/81/81 120/82/82
f 180/83/83 157/84/84 42/85/85 89/86/86
f 179/87/87 107/88/88 46/89/89 141/90/90
f 178/91/91 125/92/92 49/93/93 164/94/94
f 177/95/95 119/96/96 43/97/97 112/98/98
f 176/99/99 72/100/100 47/101/101 123/102/102
f 175/103/103 128/104/104 51/105/105 151/106/106
f 174/107/107 131/108/108 54/109/109 65/110/110
f 173/111/111 101/112/112 58/113/113 136/114/114
f 58/113/113 140/115/115 160/116/116
f 53/117/117 118/118/118 88/119/119
f 60/120/120 98/121/121 106/122/122
f 62/123/123 76/124/124 159/125/125
f 172/126/126 137/127/127 59/128/128 76/124/124
f 58/113/113 160/116/116 136/114/114
f 171/129/129 65/110/110 54/109/109 98/121/121
f 170/130/130 91/131/131 62/123/123 118/118/118
f 169/132/132 135/133/133 60/120/120 140/115/115
f 54/109/109 131/108/108 115/134/134
f 168/135/135 69/136/136 26/137/137 105/138/138
f 78/52/52 168/135/135 105/138/138 25/139/139
f 24/51/51 68/140/140 168/135/135 78/52/52
f 68/140/140 27/141/141 69/136/136 168/135/135
f 115/134/134 88/119/119 61/142/142
f 115/134/134 131/108/108 88/119/119
f 131/108/108 53/117/117 88/119/119
f 101/112/112 169/132/132 140/115/115 58/113/113
f 57/143/143 104/144/144 169/132/132 101/112/112
f 104/144/144 64/145/145 135/133/133 169/132/132
f 99/146/146 170/130/130 118/118/118 53/117/117
f 52/147/147 80/148/148 170/130/130 99/146/146
f 80/148/148 63/149/149 91/131/131 170/130/130
f 135/133/133 171/129/129 98/121/121 60/120/120
f 64/145/145 145/150/150 171/129/129 135/133/133
f 145/150/150 55/151/151 65/110/110 171/129/129
f 136/114/114 75/152/152 59/128/128
f 136/114/114 160/116/116 75/152/152
f 160/116/116 61/142/142 75/152/152
f 91/131/131 172/126/126 76/124/124 62/123/123
f 63/149/149 97/153/153 172/126/126 91/131/131
f 97/153/153 56/154/154 137/127/127 172/126/126
f 159/125/125 75/152/152 61/142/142
f 159/125/125 76/124/124 75/152/152
f 76/124/124 59/128/128 75/152/152
f 106/122/122 115/134/134 61/142/142
f 106/122/122 98/121/121 115/134/134
f 98/121/121 54/109/109 115/134/134
f 88/119/119 159/125/125 61/142/142
f 88/119/119 118/118/118 159/125/125
f 118/118/118 62/123/123 159/125/125
f 160/116/116 106/122/122 61/142/142
f 160/116/116 140/115/115 106/122/122
f 140/115/115 60/120/120 106/122/122
f 137/127/127 173/111/111 136/114/114 59/128/128
f 56/154/154 146/155/155 173/111/111 137/127/127
f 146/155/155 57/143/143 101/112/112 173/111/111
f 111/156/156 174/107/107 65/110/110 55/151/151
f 52/147/147 99/146/146 174/107/107 111/156/156
f 99/146/146 53/117/117 131/108/108 174/107/107
f 125/92/92 175/103/103 151/106/106 49/93/93
f 48/157/157 152/158/158 175/103/103 125/92/92
f 152/158/158 50/159/159 128/104/104 175/103/103
f 157/84/84 176/99/99 123/102/102 42/85/85
f 41/160/160 124/161/161 176/99/99 157/84/84
f 124/161/161 44/162/162 72/100/100 176/99/99
f 128/104/104 177/95/95 112/98/98 51/105/105
f 50/159/159 92/163/163 177/95/95 128/104/104
f 92/163/163 40/164/164 119/96/96 177/95/95
f 107/88/88 178/91/91 164/94/94 46/89/89
f 45/165/165 74/166/166 178/91/91 107/88/88
f 74/166/166 48/157/157 125/92/92 178/91/91
f 72/100/100 179/87/87 141/90/90 47/101/101
f 44/162/162 162/167/167 179/87/87 72/100/100
f 162/167/167 45/165/165 107/88/88 179/87/87
f 119/96/96 180/83/83 89/86/86 43/97/97
f 40/164/164 130/168/168 180/83/83 119/96/96
f 130/168/168 41/160/160 157/84/84 180/83/83
f 149/74/74 181/79/79 120/82/82 39/75/75
f 38/169/169 85/170/170 181/79/79 149/74/74
f 85/170/170 32/171/171 165/80/80 181/79/79
f 86/70/70 182/77/77 143/78/78 37/71/71
f 36/172/172 81/173/173 182/77/77 86/70/70
f 81/173/173 31/174/174 126/64/64 182/77/77
f 142/175/175 183/73/73 102/76/76 29/176/176
f 28/177/177 82/178/178 183/73/73 142/175/175
f 82/178/178 38/169/169 149/74/74 183/73/73
f 77/66/66 184/69/69 132/72/72 34/67/67
f 33/179/179 147/180/180 184/69/69 77/66/66
f 147/180/180 36/172/172 86/70/70 184/69/69
f 165/80/80 185/65/65 113/68/68 35/81/81
f 32/171/171 103/181/181 185/65/65 165/80/80
f 103/181/181 33/179/179 77/66/66 185/65/65
f 153/182/182 186/61/61 126/64/64 31/174/174
f 28/177/177 142/175/175 186/61/61 153/182/182
f 142/175/175 29/176/176 166/62/62 186/61/61
f 87/183/183 187/57/57 96/60/60 22/184/184
f 19/185/185 163/44/44 187/57/57 87/183/183
f 163/44/44 18/43/43 95/58/58 187/57/57
f 83/186/186 188/53/53 133/56/56 20/187/187
f 26/137/137 69/136/136 188/53/53 83/186/186
f 69/136/136 27/141/141 154/54/54 188/53/53
f 121/188/188 189/49/49 78/52/52 25/139/139
f 22/184/184 96/60/60 189/49/49 121/188/188
f 96/60/60 23/59/59 66/50/50 189/49/49
f 108/189/189 190/45/45 122/48/48 16/190/190
f 20/187/187 133/56/56 190/45/45 108/189/189
f 133/56/56 21/55/55 155/46/46 190/45/45
f 67/191/191 191/41/41 163/44/44 19/185/185
f 16/190/190 122/48/48 191/41/41 67/191/191
f 122/48/48 17/47/47 100/42/42 191/41/41
f 129/18/18 192/37/37 127/40/40 9/19/19
f 8/31/31 114/8/8 192/37/37 129/18/18
f 114/8/8 7/7/7 161/38/38 192/37/37
f 167/192/192 193/33/33 156/36/36 13/193/193
f 15/194/194 139/28/28 193/33/33 167/192/192
f 139/28/28 1/27/27 117/34/34 193/33/33
f 109/195/195 194/29/29 116/32/32 11/196/196
f 14/197/197 73/198/24 194/29/29 109/195/195
f 73/198/24 5/199/23 158/30/30 194/29/29
f 70/200/198 195/25/25 139/28/28 15/194/194
f 12/201/199 94/20/20 195/25/25 70/200/198
f 94/20/20 9/19/19 138/26/26 195/25/25
f 79/202/200 196/21/21 73/24/24 14/203/197
f 13/193/193 156/36/36 196/21/21 79/202/200
f 156/36/36 4/35/35 84/22/22 196/21/21
f 144/204/201 197/17/17 94/20/20 12/201/199
f 11/196/196 116/32/32 197/17/17 144/204/201
f 116/32/32 8/31/31 129/18/18 197/17/17
f 84/22/22 198/13/13 90/16/16 5/23/23
f 4/35/35 71/4/4 198/13/13 84/22/22
f 71/4/4 3/3/3 134/14/14 198/13/13
f 138/26/26 199/9/9 150/12/12 1/27/27
f 9/19/19 127/40/40 199/9/9 138/26/26
f 127/40/40 10/39/39 93/10/10 199/9/9
f 158/30/30 200/5/5 114/8/8 8/31/31
f 5/199/23 90/205/16 200/5/5 158/30/30
f 90/205/16 6/206/15 148/6/6 200/5/5
f 117/34/34 201/1/1 71/4/4 4/35/35
f 1/27/27 150/12/12 201/1/1 117/34/34
f 150/12/12 2/11/11 110/2/2 201/1/1
