# Blender v2.78 (sub 0) OBJ File: ''
# www.blender.org
mtllib Dead_Tree_crk_m_02.mtl
o Dead_Tree_crk_m_02
v 0.407022 0.125798 0.338013
v 0.507149 1.076434 0.287457
v -0.031238 1.076434 0.375717
v -0.305506 0.125798 0.390845
v -0.358338 0.125798 -0.321683
v -0.119498 1.076434 -0.162670
v 0.418889 1.076434 -0.250930
v 0.354190 0.125798 -0.374515
v 0.126643 2.117558 0.295793
v 0.001368 2.117558 -0.058101
v 0.355261 2.117558 -0.183376
v 0.480536 2.117558 0.170518
v 0.115926 3.301230 0.289703
v 0.484373 2.981078 0.205004
v 1.704944 3.177956 0.913296
v 1.572341 3.377036 0.978821
v 0.505810 3.548112 0.104102
v 1.646202 3.475568 0.776978
v -0.066963 3.006553 -0.035408
v 0.304233 2.940243 -0.145669
v 0.115146 2.940243 0.284743
v 0.318758 3.330807 -0.154949
v -0.001188 3.570766 -0.105145
v -1.067072 3.619581 -0.391190
v -1.084918 3.722457 -0.230635
v -1.209599 3.510942 -0.311871
v -1.184195 3.621395 -0.131167
v -1.626593 3.625685 -0.426379
v -1.570179 3.598570 -0.403931
v -2.735640 2.707711 -0.242125
v -1.722839 3.651940 -0.252969
v -2.790207 2.764803 -0.094880
v -1.485108 3.482722 -0.329302
v -1.550411 3.536188 -0.154501
v -2.785095 2.574773 -0.014774
v -2.734715 2.520234 -0.153158
v -1.667752 3.629311 -0.223802
v -3.352389 1.168574 -0.309684
v -3.401457 1.174749 -0.219776
v -3.325423 1.125110 -0.171635
v -3.276354 1.118935 -0.261543
v -3.871339 0.400589 -0.228022
v 1.732899 3.284065 0.692436
v 2.088066 3.976376 0.910970
v 2.280682 3.875821 0.874325
v 2.090322 3.910315 1.123468
v 2.282644 3.816557 1.087189
v 2.193216 5.144060 0.912197
v 2.168259 5.057169 1.084205
v 2.155971 5.358937 1.097165
v 2.142275 5.379489 0.990717
v 2.335492 5.099069 1.022047
v 2.264138 5.355428 1.082640
v 2.336177 5.028738 0.878370
v 2.284672 5.364056 0.940956
v 2.853240 5.549960 0.450636
v 2.783978 5.659929 0.431701
v 2.815543 5.517057 0.369334
v 2.723580 5.597569 0.362370
v 3.304164 6.397405 0.084955
v 3.262725 6.430101 0.092447
v 3.293481 6.395674 0.049189
v 3.249511 6.417583 0.050897
v 3.755177 6.803044 -0.273994
v 1.873336 6.154921 1.373653
v 1.864480 6.172148 1.324188
v 1.925790 6.159907 1.366318
v 1.916934 6.177134 1.316853
v 0.816833 4.245179 -1.254380
v 0.956166 4.155186 -1.308656
v 1.358872 6.450545 1.667097
v 1.010442 4.245179 -1.169324
v 1.229232 5.299002 -2.200522
v 1.255222 5.342094 -2.133805
v 1.162514 5.342094 -2.174533
v 0.955617 6.268292 -2.490560
v -1.199203 3.988515 -0.529780
v -1.376137 3.928402 -0.337078
v 1.075622 3.260682 0.325418
v -1.211914 3.555304 -0.212371
v 2.337324 5.258843 0.970993
v 0.349934 3.129619 0.319981
v 1.837433 6.211151 1.350678
v 1.871868 6.204243 1.374142
v 3.535402 6.658274 -0.130467
v 2.168089 5.257654 0.955206
v -3.106069 1.905091 -0.265442
v -1.167585 3.680297 -0.166289
v -1.172851 3.559075 -0.371373
v -1.577962 3.501552 -0.348374
v 2.189234 5.358107 0.966412
v 2.294824 5.228918 1.052087
v 1.632822 3.267950 0.968366
v -0.467851 3.480302 -0.287161
v -1.329709 3.840807 -0.486470
v 2.137048 5.369619 1.045551
v 2.076427 3.519594 0.819974
v 2.211569 5.355039 1.101806
v 0.499321 1.606930 0.223368
v -0.009337 0.125798 -0.462560
v -3.421289 1.065104 -0.189516
v 2.183483 3.933356 0.868790
v 1.169423 5.416831 -2.231003
v 1.047448 4.758681 -1.751000
v 2.244281 5.282401 0.900135
v 1.729182 3.209254 0.796232
v -0.265003 0.539133 -0.264924
v 0.438371 3.863588 -0.654034
v 2.554185 5.286156 0.638432
v 2.136171 5.747486 1.202468
v 2.975900 5.999413 0.203089
v -2.751937 2.534999 -0.075671
v -0.042748 1.606930 -0.100152
v 1.185845 5.444059 -2.188846
v 3.332321 6.458550 0.056359
v 3.010196 6.035783 0.265840
v 0.553442 3.479353 -0.037753
v 0.287458 3.109153 -0.122334
v 0.495066 0.125798 -0.025514
v 0.404237 0.539133 -0.334334
v 1.813132 6.198012 1.382389
v -3.075941 1.854193 -0.083523
v 0.115867 3.109153 0.268253
v 0.160596 2.971897 -0.126521
v 2.843608 5.522480 0.411148
v 2.763996 5.551916 0.357073
v -2.116579 3.053375 -0.227452
v 2.187374 3.856178 1.129186
v -0.013390 3.459480 0.128440
v 0.056470 3.155831 -0.139951
v 2.744563 5.639778 0.395873
v 2.148632 4.499527 1.108675
v 1.920784 3.667082 0.868921
v 0.255775 2.971897 0.266879
v 1.611357 6.359677 1.514971
v 2.449774 5.371507 0.635386
v 2.304419 3.836661 0.977009
v -0.067047 3.155703 0.140969
v -0.195593 0.539133 0.404316
v 3.070889 5.963632 0.265262
v 2.053186 3.440371 1.037605
v -2.828868 2.634890 -0.036822
v -1.747810 3.623567 -0.222110
v -1.505073 3.517218 -0.242033
v 0.164411 2.117558 -0.156428
v 3.320110 6.452134 0.013021
v -0.131483 1.076434 0.115800
v 1.062169 3.462986 0.495737
v 0.058021 0.125798 0.478889
v 3.302179 6.469644 0.037727
v 0.317385 3.437353 0.263917
v -1.511282 3.681349 -0.325649
v -2.184322 3.283017 -0.143868
v -2.128183 3.247061 -0.336971
v 1.146466 4.694727 -1.789572
v 2.148612 5.072738 1.019963
v 1.185037 4.758681 -1.690554
v 1.615687 6.350782 1.537123
v 1.587544 6.356497 1.518348
v 1.093086 3.087793 0.568595
v 0.473647 0.539133 0.334906
v 2.356534 5.034371 0.941973
v -3.437013 1.090330 -0.268607
v 1.106782 5.873799 -2.364485
v 1.073064 5.873799 -2.379297
v -3.363636 1.060419 -0.292632
v -3.156699 1.936705 -0.147913
v 0.129365 2.561194 0.285699
v 0.003862 2.561194 -0.036481
v -1.497213 3.828589 -0.294505
v -1.306880 3.672437 -0.202535
v 1.097329 5.858127 -2.388750
v 2.587742 5.326968 0.734899
v 0.080215 3.513277 -0.231312
v 1.591874 6.347602 1.540500
v 2.066439 3.952873 1.020968
v -1.356649 3.636429 -0.172216
v -3.347912 1.035193 -0.213542
v -2.849792 2.670239 -0.168760
v 2.317458 4.445469 1.082338
v -0.614990 3.478793 0.044958
v -0.580440 3.629749 -0.136645
v 0.390047 1.606930 -0.209426
v 0.140419 1.076434 -0.262915
v 2.269037 5.063569 0.874304
v 2.235513 5.045081 1.087808
v 2.124374 5.767163 1.122515
v 2.041821 5.765656 1.133736
v 3.350253 6.441041 0.031653
v 2.137702 4.542593 0.934895
v -2.102552 3.222228 -0.334947
v 2.053618 5.745978 1.213689
v -1.060978 3.681884 -0.320061
v 1.599011 3.448059 0.884534
v 0.229648 3.553656 0.020399
v -2.198903 3.298989 -0.172222
v 1.228001 5.416830 -2.205268
v 1.847567 6.191104 1.405853
v 2.175274 5.226007 1.075458
v 0.031126 2.971897 0.168186
v 3.558915 6.649694 -0.116245
v 2.307619 4.463296 0.907198
v 1.897543 3.587858 1.086553
v -3.025311 1.822579 -0.201052
v -1.287526 3.594935 -0.377357
v -2.181206 3.105155 -0.071952
v 0.519134 1.076434 0.008987
v -1.658114 3.543787 -0.180538
v -1.484180 3.816725 -0.285361
v 3.044609 5.946921 0.207317
v 0.475093 3.124734 0.038151
v 0.451545 2.561194 0.160195
v 0.453589 2.117558 -0.020332
v -1.265872 3.979899 -0.440867
v 0.908897 4.255212 -1.201060
v -3.602962 0.679465 -0.251490
v 0.385245 2.971897 -0.027829
v 0.066526 1.606930 0.332643
v 3.555223 6.649739 -0.132997
v -3.643104 0.701366 -0.274990
v 0.317492 2.117558 0.268845
v -0.446383 0.125798 0.041843
v -1.337295 3.558926 -0.347037
v 2.276327 5.339968 1.032464
v -1.342814 3.852737 -0.495665
v 0.636631 3.735534 -0.731265
v 1.695371 3.389364 0.712400
v -3.669225 0.701004 -0.230709
v 0.713862 3.863588 -0.533005
v -2.768919 2.566760 -0.204842
v 0.247232 1.076434 0.387702
v 3.539238 6.660356 -0.111977
v 2.533221 5.450461 0.679016
v -3.629082 0.679104 -0.207209
v -1.678659 3.642402 -0.342441
v 0.028315 2.117558 0.132749
v 1.001863 4.195166 -1.237275
v 0.909128 3.318242 0.668276
v -1.629598 3.593270 -0.432502
v 2.824174 5.610342 0.449948
v -0.663046 3.301202 -0.180400
v 0.326041 2.561194 -0.161985
v 0.872682 4.195166 -1.294027
v -1.293865 3.639398 -0.296982
v -1.496636 3.606093 -0.281274
v -1.376054 3.850188 -0.391521
v -1.398587 3.870699 -0.407331
v -2.151159 3.097977 -0.279390
v -1.379674 3.577314 -0.244707
v 0.568937 3.878781 -0.577177
v 1.112657 4.766269 -1.712616
v 1.086507 4.722910 -1.779746
v 1.179788 4.722910 -1.738766
v 0.703350 3.791965 -0.629537
v 2.081846 5.768497 1.119645
v 0.516577 3.791965 -0.711590
v 2.139028 5.757484 1.161301
v 2.096146 5.744645 1.216558
v 2.038964 5.755657 1.174902
v 3.007041 5.970353 0.198802
v 2.986186 6.024209 0.234271
v 3.064611 5.948668 0.236483
v 3.043754 6.002522 0.271951
v 2.495775 5.322480 0.629480
v 2.483069 5.422059 0.654076
v 2.579392 5.295487 0.689790
v 2.566686 5.395066 0.714387
v 2.330502 4.447310 0.991902
v 2.221559 4.506174 0.902543
v 2.125203 4.528131 1.024651
v 2.234147 4.469268 1.114010
v 2.235928 5.219809 1.079858
v 2.155715 5.237996 1.018541
v 2.081314 3.464339 0.923598
v 1.972899 3.505713 1.085161
v 1.892656 3.643113 0.982928
v 2.001070 3.601740 0.821365
v 1.076085 3.378678 0.388532
v 1.094823 3.151288 0.432689
v -3.060320 1.860482 -0.245712
v -3.121690 1.898802 -0.103252
v -3.042061 1.829634 -0.135458
v -3.139950 1.929649 -0.213506
v -2.229560 3.160800 -0.090950
v -2.140097 3.068633 -0.142178
v -2.263156 3.210655 -0.243972
v -0.651201 3.372494 -0.052429
v -0.601137 3.571614 -0.025911
v -0.562027 3.373409 -0.253713
v -0.511962 3.572529 -0.227195
v 0.032443 2.561194 0.137920
v 0.422963 2.561194 -0.014206
v 0.303766 2.561194 0.257117
v 0.151640 2.561194 -0.133403
v 0.975180 3.413563 0.596324
v 0.993918 3.186173 0.640481
v 0.162060 1.606930 -0.200691
v 0.294513 1.606930 0.323908
v 0.490587 1.606930 -0.004618
v -0.034013 1.606930 0.127835
v 0.509922 0.539133 -0.007075
v -0.301278 0.539133 0.077058
v 0.062256 0.539133 -0.370609
v 0.146389 0.539133 0.440591
vt 0.5442 0.6443
vt 0.5440 0.6542
vt 0.5382 0.6531
vt 0.5373 0.6428
vt 0.5165 0.6475
vt 0.5203 0.6569
vt 0.5147 0.6594
vt 0.5100 0.6509
vt 0.5301 0.6435
vt 0.5321 0.6538
vt 0.5259 0.6544
vt 0.5229 0.6441
vt 0.5580 0.6477
vt 0.5552 0.6565
vt 0.5497 0.6552
vt 0.5512 0.6459
vt 0.5336 0.6641
vt 0.5351 0.6744
vt 0.5308 0.6748
vt 0.5283 0.6646
vt 0.5534 0.6659
vt 0.5517 0.6752
vt 0.5478 0.6745
vt 0.5488 0.6648
vt 0.5438 0.6642
vt 0.5436 0.6743
vt 0.5393 0.6740
vt 0.5388 0.6636
vt 0.5236 0.6663
vt 0.5269 0.6757
vt 0.5230 0.6765
vt 0.5188 0.6680
vt 0.5902 0.6515
vt 0.5932 0.6528
vt 0.5911 0.6662
vt 0.5884 0.6662
vt 0.5840 0.6511
vt 0.5871 0.6502
vt 0.5858 0.6663
vt 0.5828 0.6663
vt 0.5280 0.6831
vt 0.5292 0.6905
vt 0.5258 0.6909
vt 0.5244 0.6837
vt 0.5432 0.6821
vt 0.5429 0.6899
vt 0.5394 0.6900
vt 0.5394 0.6820
vt 0.5508 0.6827
vt 0.5498 0.6903
vt 0.5464 0.6898
vt 0.5471 0.6822
vt 0.5355 0.6823
vt 0.5360 0.6901
vt 0.5325 0.6902
vt 0.5317 0.6825
vt 0.5533 0.6907
vt 0.5529 0.6934
vt 0.5394 0.6927
vt 0.5263 0.6935
vt 0.5369 0.7093
vt 0.5345 0.7105
vt 0.5362 0.6967
vt 0.5382 0.6974
vt 0.5319 0.7086
vt 0.5292 0.7067
vt 0.5328 0.6941
vt 0.5345 0.6954
vt 0.5417 0.7087
vt 0.5393 0.7081
vt 0.5403 0.6980
vt 0.5423 0.6967
vt 0.5472 0.7087
vt 0.5441 0.7093
vt 0.5444 0.6953
vt 0.5467 0.6953
vt 0.5972 0.7259
vt 0.5966 0.7259
vt 0.5975 0.7118
vt 0.5992 0.7115
vt 0.5977 0.6976
vt 0.5992 0.6978
vt 0.6062 0.7109
vt 0.6044 0.7109
vt 0.6036 0.6970
vt 0.6053 0.6966
vt 0.6029 0.7111
vt 0.6015 0.7112
vt 0.6007 0.6981
vt 0.6022 0.6975
vt 0.5990 0.6821
vt 0.5976 0.6821
vt 0.5976 0.6666
vt 0.5989 0.6663
vt 0.6048 0.6813
vt 0.6033 0.6815
vt 0.6030 0.6659
vt 0.6043 0.6660
vt 0.6019 0.6817
vt 0.6005 0.6820
vt 0.6002 0.6660
vt 0.6016 0.6660
vt 0.5962 0.6817
vt 0.5947 0.6813
vt 0.5949 0.6664
vt 0.5962 0.6665
vt 0.6056 0.6662
vt 0.6028 0.6521
vt 0.6014 0.6519
vt 0.5987 0.6522
vt 0.6000 0.6520
vt 0.5720 0.6506
vt 0.5751 0.6492
vt 0.5741 0.6658
vt 0.5716 0.6658
vt 0.5780 0.6506
vt 0.5810 0.6522
vt 0.5799 0.6663
vt 0.5770 0.6660
vt 0.5772 0.6730
vt 0.5798 0.6732
vt 0.5797 0.6800
vt 0.5774 0.6799
vt 0.5825 0.6730
vt 0.5853 0.6729
vt 0.5848 0.6795
vt 0.5822 0.6797
vt 0.5878 0.6731
vt 0.5903 0.6732
vt 0.5894 0.6803
vt 0.5871 0.6799
vt 0.5721 0.6728
vt 0.5746 0.6729
vt 0.5750 0.6799
vt 0.5727 0.6798
vt 0.5799 0.7027
vt 0.5811 0.7027
vt 0.5809 0.7038
vt 0.5798 0.7038
vt 0.5822 0.7028
vt 0.5834 0.7028
vt 0.5832 0.7039
vt 0.5820 0.7039
vt 0.5847 0.6908
vt 0.5864 0.6910
vt 0.5835 0.7018
vt 0.5824 0.7017
vt 0.5812 0.6908
vt 0.5830 0.6906
vt 0.5812 0.7017
vt 0.5801 0.7017
vt 0.5776 0.6905
vt 0.5793 0.6909
vt 0.5790 0.7018
vt 0.5779 0.7012
vt 0.5741 0.6904
vt 0.5759 0.6902
vt 0.5768 0.7005
vt 0.5755 0.7011
vt 0.5737 0.7035
vt 0.5732 0.7023
vt 0.5750 0.7033
vt 0.5840 0.7334
vt 0.5825 0.7342
vt 0.5827 0.7263
vt 0.5842 0.7259
vt 0.5814 0.7338
vt 0.5803 0.7334
vt 0.5807 0.7261
vt 0.5817 0.7262
vt 0.5866 0.7336
vt 0.5855 0.7326
vt 0.5858 0.7255
vt 0.5871 0.7261
vt 0.5892 0.7343
vt 0.5878 0.7345
vt 0.5885 0.7266
vt 0.5899 0.7268
vt 0.5855 0.7164
vt 0.5845 0.7165
vt 0.5863 0.7068
vt 0.5868 0.7070
vt 0.5838 0.7164
vt 0.5832 0.7163
vt 0.5856 0.7064
vt 0.5860 0.7066
vt 0.5874 0.7166
vt 0.5865 0.7163
vt 0.5873 0.7072
vt 0.5877 0.7071
vt 0.5893 0.7168
vt 0.5883 0.7168
vt 0.5882 0.7071
vt 0.5887 0.7069
vt 0.5889 0.6964
vt 0.5892 0.7068
vt 0.5893 0.6963
vt 0.5884 0.6965
vt 0.5879 0.6963
vt 0.5790 0.7123
vt 0.5799 0.7124
vt 0.5789 0.7209
vt 0.5783 0.7208
vt 0.5807 0.7122
vt 0.5815 0.7120
vt 0.5798 0.7201
vt 0.5793 0.7205
vt 0.5757 0.7116
vt 0.5766 0.7115
vt 0.5769 0.7199
vt 0.5763 0.7200
vt 0.5786 0.7037
vt 0.5775 0.7034
vt 0.5788 0.7027
vt 0.5670 0.7008
vt 0.5647 0.7019
vt 0.5653 0.6921
vt 0.5674 0.6916
vt 0.5777 0.7207
vt 0.5771 0.7321
vt 0.5777 0.7322
vt 0.5758 0.7200
vt 0.5762 0.7318
vt 0.5774 0.7119
vt 0.5782 0.7122
vt 0.5773 0.7203
vt 0.5562 0.6989
vt 0.5535 0.6975
vt 0.5565 0.6904
vt 0.5583 0.6912
vt 0.5599 0.6808
vt 0.5585 0.6804
vt 0.5605 0.6704
vt 0.5616 0.6705
vt 0.5667 0.6812
vt 0.5652 0.6816
vt 0.5650 0.6711
vt 0.5660 0.6709
vt 0.5669 0.6708
vt 0.5660 0.6615
vt 0.5627 0.6706
vt 0.5638 0.6615
vt 0.5650 0.6523
vt 0.5650 0.6617
vt 0.5633 0.6814
vt 0.5614 0.6812
vt 0.5638 0.6709
vt 0.5618 0.7011
vt 0.5641 0.7118
vt 0.5608 0.7102
vt 0.5586 0.7145
vt 0.5581 0.7115
vt 0.5613 0.7132
vt 0.5473 0.6942
vt 0.5454 0.6935
vt 0.5464 0.6917
vt 0.5479 0.6931
vt 0.5433 0.6948
vt 0.5344 0.6949
vt 0.5960 0.7259
vt 0.5967 0.7317
vt 0.5953 0.7115
vt 0.5946 0.7261
vt 0.5931 0.7262
vt 0.5938 0.7113
vt 0.6009 0.7112
vt 0.6011 0.7244
vt 0.6017 0.7244
vt 0.6011 0.7279
vt 0.5992 0.7298
vt 0.6010 0.7315
vt 0.5992 0.7345
vt 0.6852 0.7936
vt 0.6896 0.7863
vt 0.7006 0.7838
vt 0.6997 0.7902
vt 0.7042 0.7909
vt 0.7088 0.7915
vt 0.7078 0.7980
vt 0.7032 0.7973
vt 0.6912 0.8171
vt 0.6809 0.8167
vt 0.6819 0.8099
vt 0.6901 0.8108
vt 0.7016 0.8176
vt 0.6982 0.8116
vt 0.7050 0.8235
vt 0.6924 0.8235
vt 0.6799 0.8235
vt 0.6987 0.7966
vt 0.7052 0.7844
vt 0.7097 0.7851
vt 0.6806 0.8008
vt 0.6626 0.8050
vt 0.6707 0.7969
vt 0.6787 0.7888
vt 0.5972 0.7317
vt 0.5973 0.7375
vt 0.5992 0.7251
vt 0.6016 0.7279
vt 0.6023 0.7244
vt 0.5961 0.6970
vt 0.5945 0.6963
vt 0.5969 0.7118
vt 0.5326 0.6937
vt 0.5325 0.6932
vt 0.5492 0.6948
vt 0.5493 0.6944
vt 0.5491 0.6953
vt 0.5768 0.7317
vt 0.5766 0.7435
vt 0.5575 0.7085
vt 0.5588 0.7002
vt 0.5601 0.6919
vt 0.5627 0.6920
vt 0.5627 0.6614
vt 0.5683 0.6809
vt 0.5696 0.6910
vt 0.5540 0.7066
vt 0.5505 0.7047
vt 0.5763 0.7031
vt 0.5782 0.7318
vt 0.5694 0.6996
vt 0.5691 0.7082
vt 0.5666 0.7100
vt 0.5777 0.7025
vt 0.5748 0.7118
vt 0.5876 0.6961
vt 0.5895 0.6858
vt 0.5902 0.7168
vt 0.5912 0.7269
vt 0.5906 0.7341
vt 0.5899 0.7414
vt 0.5885 0.7419
vt 0.5870 0.7424
vt 0.5861 0.7411
vt 0.5852 0.7397
vt 0.5823 0.7421
vt 0.5811 0.7414
vt 0.5800 0.7407
vt 0.5838 0.7409
vt 0.5745 0.7021
vt 0.5726 0.7011
vt 0.5724 0.6906
vt 0.5743 0.7016
vt 0.5704 0.6797
vt 0.5697 0.6727
vt 0.5690 0.6658
vt 0.5761 0.6325
vt 0.5791 0.6352
vt 0.5820 0.6380
vt 0.5690 0.6521
vt 0.5690 0.6383
vt 0.5725 0.6354
vt 0.5999 0.6379
vt 0.5974 0.6522
vt 0.6062 0.6812
vt 0.6069 0.6962
vt 0.6052 0.7247
vt 0.6037 0.7246
vt 0.6079 0.7110
vt 0.6090 0.7258
vt 0.6071 0.7253
vt 0.5503 0.7082
vt 0.5516 0.7210
vt 0.5477 0.7221
vt 0.5438 0.7233
vt 0.5410 0.7207
vt 0.5383 0.7182
vt 0.5329 0.7244
vt 0.5293 0.7218
vt 0.5256 0.7192
vt 0.5356 0.7213
vt 0.5360 0.6928
vt 0.5395 0.6955
vt 0.5296 0.6932
vt 0.5267 0.6962
vt 0.5430 0.6927
vt 0.5495 0.6930
vt 0.5525 0.6962
vt 0.5556 0.6760
vt 0.5545 0.6833
vt 0.5852 0.6360
vt 0.5884 0.6340
vt 0.5919 0.6367
vt 0.5954 0.6394
vt 0.5606 0.6579
vt 0.5581 0.6669
vt 0.5608 0.6388
vt 0.5526 0.6366
vt 0.5689 0.6409
vt 0.5647 0.6494
vt 0.5281 0.6331
vt 0.5198 0.6338
vt 0.5364 0.6325
vt 0.5126 0.6381
vt 0.5054 0.6425
vt 0.5445 0.6345
vn 0.1139 0.0483 0.9923
vn 0.1697 0.0847 0.9819
vn -0.5510 0.1907 0.8124
vn -0.6056 0.2044 0.7691
vn -0.0998 0.1983 -0.9750
vn -0.1551 0.1672 -0.9736
vn 0.5970 0.0976 -0.7963
vn 0.6308 0.0744 -0.7724
vn -0.9521 0.2866 0.1068
vn -0.9585 0.2337 0.1634
vn -0.7826 0.2549 -0.5680
vn -0.7372 0.3052 -0.6028
vn 0.9932 -0.0456 -0.1070
vn 0.9870 0.0167 -0.1601
vn 0.8151 0.0406 0.5779
vn 0.7778 -0.0308 0.6277
vn -0.9598 0.1435 0.2414
vn -0.9459 0.0597 0.3188
vn -0.8921 0.0714 -0.4462
vn -0.8466 0.1509 -0.5104
vn 0.9689 0.0536 -0.2417
vn 0.9455 0.0650 -0.3191
vn 0.8987 0.0748 0.4321
vn 0.8572 0.0799 0.5087
vn 0.2443 0.0943 0.9651
vn 0.3226 0.0632 0.9444
vn -0.4329 0.0718 0.8986
vn -0.5010 0.1433 0.8535
vn -0.2391 0.1029 -0.9655
vn -0.3154 0.0617 -0.9470
vn 0.4451 0.0744 -0.8924
vn 0.5175 0.0867 -0.8513
vn -0.3262 -0.5579 0.7631
vn 0.0408 -0.9840 0.1735
vn 0.2256 -0.8993 0.3747
vn -0.1910 -0.4753 0.8589
vn -0.2468 0.8360 0.4901
vn -0.4256 0.1797 0.8869
vn -0.4383 0.1946 0.8775
vn -0.4285 0.8395 0.3342
vn -0.3285 0.0206 -0.9443
vn -0.2219 -0.0319 -0.9746
vn 0.3989 0.0999 -0.9115
vn 0.4071 0.0615 -0.9113
vn 0.3125 0.0041 0.9499
vn 0.1489 -0.1219 0.9813
vn -0.4027 0.0266 0.9150
vn -0.4044 -0.0001 0.9146
vn 0.9194 0.0556 -0.3895
vn 0.8473 -0.0251 -0.5305
vn 0.6501 -0.6956 0.3057
vn 0.9139 0.0244 0.4053
vn -0.9190 -0.0301 0.3932
vn -0.8423 -0.1340 0.5221
vn -0.7538 -0.5530 -0.3549
vn -0.9130 -0.0244 -0.4072
vn 0.3700 -0.0618 -0.9270
vn -0.4119 -0.0905 0.9067
vn 0.1899 0.7372 -0.6484
vn 0.1302 -0.0322 -0.9910
vn 0.0574 0.2858 -0.9566
vn 0.0509 0.8451 -0.5322
vn 0.0020 -0.4876 -0.8731
vn -0.3322 -0.9253 -0.1830
vn -0.2529 -0.9445 -0.2096
vn -0.0488 -0.5045 -0.8620
vn -0.0182 0.7640 0.6450
vn 0.1346 0.9882 0.0735
vn -0.0101 0.9999 0.0123
vn -0.1108 0.7697 0.6287
vn -0.4197 -0.6526 0.6308
vn -0.2976 0.0741 0.9518
vn -0.2764 -0.0249 0.9607
vn -0.3224 -0.7885 0.5237
vn -0.5056 0.4335 -0.7460
vn 0.0335 -0.2761 -0.9605
vn -0.3704 0.2882 -0.8830
vn -0.6196 0.6356 -0.4605
vn -0.2778 0.1282 -0.9520
vn -0.8154 0.4406 -0.3755
vn 0.5826 -0.6735 0.4550
vn 0.2477 -0.1631 0.9550
vn 0.1447 -0.1508 0.9779
vn 0.7144 -0.5035 0.4859
vn -0.2161 0.3910 0.8947
vn -0.3290 0.5601 0.7603
vn -0.6849 0.6548 0.3195
vn -0.5391 0.2873 0.7917
vn -0.8466 0.3456 -0.4048
vn -0.1089 0.0826 -0.9906
vn -0.1126 0.0866 -0.9899
vn -0.7824 0.4138 -0.4653
vn 0.8154 -0.3598 0.4534
vn 0.2638 -0.2010 0.9434
vn 0.3538 -0.2385 0.9044
vn 0.7418 -0.5153 0.4293
vn -0.5998 0.1507 0.7858
vn -0.9117 0.3292 0.2459
vn -0.9144 0.3122 0.2579
vn -0.4296 0.1805 0.8848
vn 0.5618 -0.1743 -0.8087
vn 0.9025 -0.3389 -0.2658
vn 0.8873 -0.3653 -0.2817
vn 0.3864 -0.2774 -0.8796
vn 0.7078 -0.6287 -0.3220
vn 0.2331 -0.2848 0.9298
vn -0.2952 0.0646 -0.9533
vn -0.8157 0.4877 0.3110
vn 0.3981 -0.7206 -0.5676
vn 0.5210 -0.2049 -0.8286
vn 0.5030 -0.3047 -0.8088
vn 0.4871 -0.8029 -0.3437
vn 0.4713 0.5393 -0.6979
vn 0.1044 0.9893 -0.1023
vn -0.1587 0.9134 -0.3748
vn 0.2336 0.4677 -0.8525
vn -0.0014 0.2790 -0.9603
vn -0.5364 0.6260 -0.5660
vn -0.7239 0.2585 -0.6397
vn -0.0903 0.1263 -0.9879
vn -0.7458 0.6418 0.1787
vn -0.4654 0.2250 0.8560
vn -0.5212 0.1533 0.8396
vn -0.9502 0.2932 0.1057
vn 0.0385 -0.2912 0.9559
vn 0.5445 -0.6494 0.5308
vn 0.7561 -0.2877 0.5878
vn 0.1679 -0.0974 0.9810
vn 0.7551 -0.6336 -0.1687
vn 0.5784 -0.2838 -0.7648
vn 0.6729 -0.1067 -0.7320
vn 0.9571 -0.2801 -0.0744
vn -0.9972 -0.0744 0.0066
vn -0.6142 -0.0788 0.7852
vn -0.6029 -0.2996 0.7394
vn -0.9745 -0.2162 0.0597
vn 0.2155 -0.0498 0.9752
vn 0.6936 0.0752 0.7164
vn 0.7852 0.0732 0.6149
vn 0.1476 -0.1896 0.9707
vn 0.2007 0.0321 0.9791
vn 0.7837 -0.0085 0.6211
vn 0.7434 -0.0216 0.6685
vn 0.2221 0.0438 0.9740
vn -0.9959 0.0761 0.0484
vn -0.6050 0.0709 0.7931
vn -0.6100 0.0576 0.7903
vn -0.9989 0.0443 0.0164
vn -0.1688 0.0156 -0.9855
vn -0.7739 0.0595 -0.6305
vn -0.7947 0.0095 -0.6069
vn -0.3475 -0.2111 -0.9136
vn 0.9986 -0.0405 -0.0335
vn 0.6385 -0.0232 -0.7692
vn 0.4545 -0.4662 -0.7590
vn 0.9577 -0.2779 0.0751
vn 0.9338 0.3033 0.1898
vn 0.4964 0.4394 0.7487
vn 0.7878 -0.1002 0.6077
vn 0.8210 -0.1976 0.5356
vn 0.3551 0.3653 0.8605
vn 0.7435 -0.6643 0.0777
vn 0.2016 -0.8007 -0.5641
vn 0.2935 -0.6820 -0.6698
vn 0.7564 -0.6472 -0.0949
vn -0.7145 0.6512 -0.2556
vn -0.1343 0.8743 0.4664
vn -0.2740 0.6770 0.6831
vn -0.7556 0.6547 0.0194
vn -0.3976 -0.4512 -0.7990
vn -0.7359 0.0734 -0.6731
vn -0.6999 0.1254 -0.7032
vn -0.2633 -0.3962 -0.8796
vn 0.2775 0.2545 0.9264
vn 0.7552 -0.1286 0.6427
vn 0.6933 -0.0857 0.7155
vn 0.3799 0.3031 0.8739
vn 0.8166 -0.5285 -0.2320
vn 0.3595 -0.4976 -0.7894
vn 0.3159 -0.5111 -0.7993
vn 0.6666 -0.7314 -0.1440
vn -0.7964 0.5848 0.1542
vn -0.3761 0.5759 0.7259
vn -0.3809 0.6191 0.6867
vn -0.6620 0.7495 -0.0056
vn -0.1224 -0.2815 -0.9517
vn -0.7576 0.2587 -0.5993
vn -0.7920 0.3614 -0.4920
vn -0.2398 -0.3591 -0.9020
vn -0.6615 0.3671 -0.6539
vn 0.1877 -0.7459 -0.6390
vn -0.1461 0.7894 0.5963
vn 0.7626 -0.3055 0.5701
vn -0.9346 -0.3509 0.0588
vn -0.5730 -0.4679 0.6729
vn -0.5147 -0.5707 0.6398
vn -0.6781 -0.7221 -0.1369
vn 0.0935 -0.2917 0.9519
vn 0.8257 0.1832 0.5335
vn 0.8345 0.3239 0.4458
vn 0.1878 -0.4304 0.8829
vn 0.9204 0.3890 0.0400
vn 0.5973 0.5398 -0.5932
vn 0.5769 0.6458 -0.5001
vn 0.6340 0.7581 0.1528
vn -0.7744 0.0435 -0.6312
vn -0.3358 0.2958 -0.8943
vn -0.8314 0.0595 -0.5526
vn -0.5644 -0.4521 -0.6907
vn -0.7661 0.6028 -0.2229
vn -0.9002 0.3997 -0.1730
vn -0.5578 -0.4581 -0.6921
vn -0.6020 0.0762 -0.7949
vn -0.6180 -0.0787 -0.7823
vn -0.2396 -0.8779 0.4146
vn 0.5302 0.2910 0.7964
vn -0.2148 0.3290 -0.9196
vn -0.6984 0.0691 -0.7123
vn -0.1607 0.5748 -0.8023
vn 0.8418 -0.5396 0.0151
vn 0.1953 -0.8393 -0.5073
vn 0.2741 -0.7679 -0.5790
vn 0.8770 -0.4797 -0.0281
vn 0.9292 -0.3300 -0.1665
vn 0.3894 -0.6161 -0.6847
vn 0.4668 -0.4753 -0.7458
vn 0.9273 0.0482 -0.3711
vn -0.5845 -0.4038 -0.7038
vn -0.9729 0.2241 -0.0570
vn -0.9949 0.0960 -0.0296
vn -0.5278 -0.3777 -0.7608
vn 0.2983 -0.1748 -0.9383
vn 0.8810 0.2334 0.4115
vn 0.6719 0.4866 0.5583
vn -0.3120 0.9142 -0.2588
vn -0.9747 -0.1871 0.1226
vn -0.3119 0.6645 0.6791
vn 0.8025 0.3013 0.5149
vn -0.3718 0.3363 0.8653
vn -0.1654 0.8963 0.4115
vn -0.1290 0.9897 0.0619
vn -0.1411 0.8947 0.4238
vn -0.3700 0.1736 0.9127
vn -0.2301 0.7811 0.5805
vn -0.0988 0.7829 0.6143
vn 0.1703 -0.8753 0.4527
vn -0.3391 0.1986 0.9195
vn -0.6718 -0.0124 0.7406
vn 0.4302 -0.8029 0.4126
vn -0.3483 0.9344 0.0749
vn -0.3013 0.2383 -0.9233
vn 0.6023 -0.5515 -0.5771
vn 0.6629 -0.6730 -0.3282
vn 0.2528 -0.4612 -0.8505
vn 0.4606 -0.3559 -0.8131
vn 0.8225 -0.4113 -0.3928
vn 0.5651 -0.7750 -0.2830
vn -0.6076 0.7806 0.1466
vn -0.6141 0.7881 -0.0431
vn -0.3077 0.5931 0.7440
vn -0.5053 0.7860 0.3561
vn -0.6399 0.6440 -0.4193
vn 0.1186 0.7289 0.6742
vn 0.5264 0.8300 0.1842
vn 0.7372 -0.4814 0.4742
vn 0.3232 0.0927 0.9418
vn 0.1371 0.3458 0.9282
vn 0.8333 -0.3271 0.4457
vn 0.8963 0.4097 0.1698
vn 0.7096 0.7023 0.0570
vn -0.3615 0.8151 -0.4527
vn -0.5237 0.7510 -0.4022
vn -0.5236 -0.6287 -0.5750
vn 0.0153 0.4816 0.8763
vn 0.5012 0.1109 0.8582
vn 0.6895 0.3218 -0.6489
vn -0.2897 0.1027 -0.9516
vn -0.6028 0.6702 -0.4330
vn 0.5092 -0.3303 -0.7948
vn 0.7929 -0.5524 -0.2573
vn 0.0871 -0.3156 -0.9449
vn 0.1699 -0.9689 -0.1797
vn 0.2238 0.9121 -0.3435
vn -0.8190 0.3285 0.4704
vn 0.1948 0.9499 0.2444
vn 0.6788 0.5166 0.5219
vn 0.7369 0.3425 0.5828
vn -0.2280 0.8162 0.5309
vn 0.9117 -0.0552 -0.4072
vn 0.2988 -0.4575 -0.8375
vn 0.3203 0.9102 -0.2624
vn -0.3341 -0.0013 -0.9425
vn -0.6620 0.4254 -0.6170
vn 0.7008 0.5000 -0.5088
vn 0.7168 0.3454 0.6057
vn 0.6148 -0.4255 -0.6641
vn -0.6288 -0.7769 0.0336
vn 0.5578 -0.7101 0.4298
vn -0.5662 -0.4467 0.6928
vn -0.0447 -0.3066 -0.9508
vn -0.2069 -0.4348 0.8764
vn 0.9925 -0.0765 -0.0953
vn 0.7410 -0.0646 0.6684
vn 0.6041 0.0561 -0.7950
vn -0.9560 0.2853 0.0676
vn -0.7375 0.2985 -0.6057
vn -0.6761 0.2047 0.7078
vn -0.1086 0.1922 -0.9753
vn 0.0523 0.0340 0.9981
usemtl None
s 1
f 304/1/1 231/2/2 3/3/3 139/4/4
f 303/5/5 184/6/6 7/7/7 120/8/8
f 302/9/9 147/10/10 6/11/11 107/12/12
f 301/13/13 207/14/14 2/15/15 161/16/16
f 300/17/17 236/18/18 10/19/19 113/20/20
f 299/21/21 213/22/22 12/23/23 99/24/24
f 298/25/25 221/26/26 9/27/27 218/28/28
f 297/29/29 145/30/30 11/31/31 183/32/32
f 296/33/33 160/34/34 15/35/35 93/36/36
f 295/37/37 238/38/38 16/39/39 194/40/40
f 294/41/41 124/42/42 20/43/43 242/44/44
f 293/45/45 134/46/46 21/47/47 168/48/48
f 292/49/49 217/50/50 14/51/51 212/52/52
f 291/53/53 200/54/54 19/55/55 169/56/56
f 20/57/43 118/58/57 217/50/50
f 21/47/47 134/46/46 123/59/58
f 20/43/43 124/42/42 118/60/57
f 21/47/47 123/59/58 200/54/54
f 290/61/59 94/62/60 24/63/61 193/64/62
f 289/65/63 241/66/64 26/67/65 89/68/66
f 288/69/67 182/70/68 25/71/69 88/72/70
f 287/73/71 181/74/72 27/75/73 80/76/74
f 28/77/75 239/78/76 154/79/77
f 286/80/78 154/79/77 30/81/79 179/82/80
f 285/83/81 206/84/82 35/85/83 112/86/84
f 284/87/85 153/88/86 32/89/87 142/90/88
f 283/91/89 87/92/90 38/93/91 163/94/92
f 282/95/93 122/96/94 40/97/95 178/98/96
f 281/99/97 167/100/98 39/101/99 101/102/100
f 280/103/101 204/104/102 41/105/103 166/106/104
f 41/107/103 178/98/96 216/108/105
f 40/97/95 101/102/100 234/109/106
f 38/93/91 166/106/104 220/110/107
f 39/101/99 163/94/92 228/111/108
f 279/112/109 79/113/110 43/114/111 106/115/112
f 278/116/113 148/117/114 18/118/115 227/119/116
f 277/120/117 133/121/118 44/122/119 102/123/120
f 276/124/121 203/125/122 46/126/123 176/127/124
f 275/128/125 141/129/126 47/130/127 128/131/128
f 274/132/129 97/133/130 45/134/131 137/135/132
f 273/136/133 199/137/134 50/138/135 96/139/136
f 272/140/137 92/141/138 53/142/139 98/143/140
f 271/144/141 180/145/142 52/146/143 186/147/144
f 270/148/145 132/149/146 49/150/147 156/151/148
f 269/152/149 190/153/150 48/154/151 185/155/152
f 268/156/153 202/157/154 54/158/155 162/159/156
f 53/160/139 92/161/138 224/162/157
f 267/163/158 173/164/159 56/165/160 240/166/161
f 266/167/162 109/168/163 58/169/164 125/170/165
f 265/171/166 233/172/167 57/173/168 131/174/169
f 264/175/170 136/176/171 59/177/172 126/178/173
f 263/179/174 140/180/175 60/181/176 115/182/177
f 262/183/178 210/184/179 62/185/180 189/186/181
f 261/187/182 116/188/183 61/189/184 150/190/185
f 260/191/186 111/192/187 63/193/188 146/194/189
f 63/193/188 150/190/185 85/195/190
f 62/196/180 146/194/189 219/197/191
f 61/189/184 115/182/177 232/198/192
f 60/181/176 189/186/181 201/199/193
f 259/200/194 192/201/195 65/202/196 121/203/197
f 258/204/198 110/205/199 67/206/200 198/207/201
f 257/208/202 187/209/203 68/210/204 84/211/205
f 51/212/206 91/213/207 86/214/208
f 256/215/209 108/216/210 69/217/211 243/218/212
f 66/219/213 121/203/197 159/220/214
f 65/202/196 198/207/201 175/221/215
f 67/222/200 84/211/205 158/223/216
f 255/224/217 188/225/218 66/219/213 83/226/219
f 254/227/220 226/228/221 70/229/222 237/230/223
f 253/231/224 155/232/225 73/233/226 197/234/227
f 252/235/228 104/236/229 75/237/230 103/238/231
f 73/239/226 103/238/231 172/240/232
f 74/241/233 197/234/227 164/242/234
f 76/243/235 165/244/236 164/242/234
f 251/245/237 157/246/238 74/241/233 114/247/239
f 250/248/240 108/216/210 23/249/241 195/250/242
f 13/251/243 151/252/244 129/253/245
f 66/219/213 159/220/214 83/226/219
f 249/254/246 177/255/247 34/256/248 144/257/249
f 25/71/69 171/258/250 88/72/70
f 24/63/61 89/68/66 205/259/251
f 29/260/252 239/78/76 95/261/253
f 248/262/254 90/263/255 33/264/256 127/265/257
f 32/89/87 153/88/86 196/266/258
f 31/267/259 143/268/260 170/269/261
f 247/270/262 170/269/261 78/271/263 214/272/264
f 246/273/265 209/274/266 37/275/267 152/276/268
f 245/277/269 144/278/270 33/279/256 90/280/255
f 244/281/271 193/282/62 24/283/61 205/284/251
f 144/285/272 244/281/271 205/284/251 33/286/273
f 34/287/248 171/288/250 244/281/271 144/285/272
f 171/288/250 25/289/69 193/282/62 244/281/271
f 152/276/268 245/277/269 90/280/255 29/290/252
f 37/275/267 208/291/274 245/277/269 152/276/268
f 208/291/274 34/292/275 144/278/270 245/277/269
f 95/293/253 246/273/265 152/276/268 29/290/252
f 77/294/276 214/295/264 246/273/265 95/293/253
f 214/295/264 78/296/263 209/274/266 246/273/265
f 225/297/277 247/270/262 214/272/264 77/298/276
f 28/77/75 235/299/278 247/270/262 225/297/277
f 235/299/278 31/267/259 170/269/261 247/270/262
f 170/269/261 209/300/266 78/271/263
f 170/269/261 143/268/260 209/300/266
f 143/268/260 37/301/267 209/300/266
f 196/266/258 143/268/260 31/267/259
f 196/266/258 153/88/86 143/268/260
f 153/88/86 37/301/267 143/268/260
f 230/302/279 248/262/254 127/265/257 36/303/280
f 30/81/79 191/304/281 248/262/254 230/302/279
f 191/304/281 29/260/252 90/263/255 248/262/254
f 95/261/253 225/297/277 77/298/276
f 95/261/253 239/78/76 225/297/277
f 239/78/76 28/77/75 225/297/277
f 205/259/251 223/305/282 33/306/273
f 205/259/251 89/68/66 223/305/282
f 89/68/66 26/67/65 223/305/282
f 88/72/70 177/255/247 27/75/73
f 88/72/70 171/258/250 177/255/247
f 171/258/250 34/256/248 177/255/247
f 223/307/282 249/254/246 144/257/249 33/308/273
f 26/309/65 80/76/74 249/254/246 223/307/282
f 80/76/74 27/75/73 177/255/247 249/254/246
f 83/226/219 135/310/283 68/210/204
f 83/226/219 159/220/214 135/310/283
f 159/220/214 71/311/284 135/310/283
f 129/253/245 195/250/242 23/249/241
f 129/253/245 151/252/244 195/250/242
f 151/252/244 17/312/285 195/250/242
f 229/313/286 250/248/240 195/250/242 17/312/285
f 72/314/287 215/315/288 250/248/240 229/313/286
f 215/315/288 69/217/211 108/216/210 250/248/240
f 104/236/229 251/245/237 114/247/239 75/237/230
f 69/217/211 215/315/288 251/245/237 104/236/229
f 215/315/288 72/314/287 157/246/238 251/245/237
f 164/242/234 114/247/239 74/241/233
f 164/242/234 165/244/236 114/247/239
f 165/244/236 75/237/230 114/247/239
f 164/242/234 172/316/232 76/243/235
f 164/242/234 197/234/227 172/316/232
f 197/234/227 73/233/226 172/316/232
f 172/240/232 165/244/236 76/243/235
f 172/240/232 103/238/231 165/244/236
f 103/238/231 75/237/230 165/244/236
f 155/317/225 252/235/228 103/238/231 73/239/226
f 70/318/222 243/218/212 252/235/228 155/317/225
f 243/218/212 69/217/211 104/236/229 252/235/228
f 157/246/238 253/231/224 197/234/227 74/241/233
f 72/314/287 237/230/223 253/231/224 157/246/238
f 237/230/223 70/229/222 155/232/225 253/231/224
f 229/313/286 254/227/220 237/230/223 72/314/287
f 17/312/285 117/319/289 254/227/220 229/313/286
f 117/319/289 22/320/290 226/228/221 254/227/220
f 187/209/203 255/224/217 83/226/219 68/210/204
f 55/321/291 91/213/207 255/224/217 187/209/203
f 91/213/207 51/212/206 188/225/218 255/224/217
f 158/223/216 135/310/283 71/311/284
f 158/223/216 84/211/205 135/310/283
f 84/211/205 68/210/204 135/310/283
f 175/221/215 158/322/216 71/311/284
f 175/221/215 198/207/201 158/322/216
f 198/207/201 67/206/200 158/322/216
f 159/220/214 175/221/215 71/311/284
f 159/220/214 121/203/197 175/221/215
f 121/203/197 65/202/196 175/221/215
f 226/323/221 256/215/209 243/218/212 70/318/222
f 22/324/290 174/325/292 256/215/209 226/323/221
f 174/325/292 23/249/241 108/216/210 256/215/209
f 86/214/208 105/326/293 48/154/151
f 86/214/208 91/213/207 105/326/293
f 91/213/207 55/321/291 105/326/293
f 110/327/199 257/208/202 84/211/205 67/222/200
f 53/160/139 224/162/157 257/208/202 110/327/199
f 224/162/157 55/321/291 187/209/203 257/208/202
f 192/201/195 258/204/198 198/207/201 65/202/196
f 50/138/135 98/143/140 258/204/198 192/201/195
f 98/143/140 53/142/139 110/205/199 258/204/198
f 188/225/218 259/200/194 121/203/197 66/219/213
f 51/212/206 96/139/136 259/200/194 188/225/218
f 96/139/136 50/138/135 192/201/195 259/200/194
f 201/199/193 219/328/191 64/329/294
f 201/199/193 189/186/181 219/328/191
f 189/186/181 62/185/180 219/328/191
f 232/198/192 201/199/193 64/329/294
f 232/198/192 115/182/177 201/199/193
f 115/182/177 60/181/176 201/199/193
f 219/197/191 85/195/190 64/329/294
f 219/197/191 146/194/189 85/195/190
f 146/194/189 63/193/188 85/195/190
f 85/195/190 232/198/192 64/329/294
f 85/195/190 150/190/185 232/198/192
f 150/190/185 61/189/184 232/198/192
f 210/330/179 260/191/186 146/194/189 62/196/180
f 58/331/164 126/178/173 260/191/186 210/330/179
f 126/178/173 59/177/172 111/192/187 260/191/186
f 111/192/187 261/187/182 150/190/185 63/193/188
f 59/177/172 131/174/169 261/187/182 111/192/187
f 131/174/169 57/173/168 116/188/183 261/187/182
f 140/180/175 262/183/178 189/186/181 60/181/176
f 56/165/160 125/170/165 262/183/178 140/180/175
f 125/170/165 58/169/164 210/184/179 262/183/178
f 116/188/183 263/179/174 115/182/177 61/189/184
f 57/173/168 240/166/161 263/179/174 116/188/183
f 240/166/161 56/165/160 140/180/175 263/179/174
f 109/332/163 264/175/170 126/178/173 58/331/164
f 54/333/155 185/334/152 264/175/170 109/332/163
f 185/334/152 48/335/151 136/176/171 264/175/170
f 136/176/171 265/171/166 131/174/169 59/177/172
f 48/335/151 105/336/293 265/171/166 136/176/171
f 105/336/293 55/337/291 233/172/167 265/171/166
f 173/164/159 266/167/162 125/170/165 56/165/160
f 52/338/143 162/339/156 266/167/162 173/164/159
f 162/339/156 54/340/155 109/168/163 266/167/162
f 233/172/167 267/163/158 240/166/161 57/173/168
f 55/337/291 81/341/295 267/163/158 233/172/167
f 81/341/295 52/338/143 173/164/159 267/163/158
f 224/162/157 81/342/295 55/321/291
f 224/162/157 92/161/138 81/342/295
f 92/161/138 52/343/143 81/342/295
f 180/344/142 268/156/153 162/159/156 52/345/143
f 47/346/127 137/135/132 268/156/153 180/344/142
f 137/135/132 45/134/131 202/157/154 268/156/153
f 202/157/154 269/152/149 185/155/152 54/158/155
f 45/134/131 102/123/120 269/152/149 202/157/154
f 102/123/120 44/122/119 190/153/150 269/152/149
f 190/153/150 270/148/145 156/151/148 48/154/151
f 44/122/119 176/127/124 270/148/145 190/153/150
f 176/127/124 46/126/123 132/149/146 270/148/145
f 132/149/146 271/144/141 186/147/144 49/150/147
f 46/126/123 128/131/128 271/144/141 132/149/146
f 128/131/128 47/130/127 180/145/142 271/144/141
f 199/137/134 272/140/137 98/143/140 50/138/135
f 49/150/147 186/147/144 272/140/137 199/137/134
f 186/147/144 52/146/143 92/141/138 272/140/137
f 86/214/208 273/136/133 96/139/136 51/212/206
f 48/154/151 156/151/148 273/136/133 86/214/208
f 156/151/148 49/150/147 199/137/134 273/136/133
f 141/347/126 274/132/129 137/135/132 47/346/127
f 15/348/35 106/115/112 274/132/129 141/347/126
f 106/115/112 43/114/111 97/133/130 274/132/129
f 203/125/122 275/128/125 128/131/128 46/126/123
f 16/39/39 93/36/36 275/128/125 203/125/122
f 93/36/36 15/35/35 141/129/126 275/128/125
f 133/121/118 276/124/121 176/127/124 44/122/119
f 18/118/115 194/40/40 276/124/121 133/121/118
f 194/40/40 16/39/39 203/125/122 276/124/121
f 97/133/130 277/120/117 102/123/120 45/134/131
f 43/114/111 227/119/116 277/120/117 97/133/130
f 227/119/116 18/118/115 133/121/118 277/120/117
f 79/113/110 278/116/113 227/119/116 43/114/111
f 22/349/290 117/350/289 278/116/113 79/113/110
f 117/350/289 17/351/285 148/117/114 278/116/113
f 160/352/34 279/112/109 106/115/112 15/348/35
f 14/353/51 211/354/296 279/112/109 160/352/34
f 211/354/296 22/349/290 79/113/110 279/112/109
f 228/111/108 220/110/107 42/355/297
f 228/111/108 163/94/92 220/110/107
f 163/94/92 38/93/91 220/110/107
f 220/110/107 216/356/105 42/355/297
f 220/110/107 166/106/104 216/356/105
f 166/106/104 41/105/103 216/356/105
f 234/109/106 228/111/108 42/355/297
f 234/109/106 101/102/100 228/111/108
f 101/102/100 39/101/99 228/111/108
f 216/108/105 234/109/106 42/355/297
f 216/108/105 178/98/96 234/109/106
f 178/98/96 40/97/95 234/109/106
f 87/92/90 280/103/101 166/106/104 38/93/91
f 30/81/79 230/302/279 280/103/101 87/92/90
f 230/302/279 36/303/280 204/104/102 280/103/101
f 122/96/94 281/99/97 101/102/100 40/97/95
f 35/85/83 142/90/88 281/99/97 122/96/94
f 142/90/88 32/89/87 167/100/98 281/99/97
f 204/357/102 282/95/93 178/98/96 41/107/103
f 36/358/280 112/86/84 282/95/93 204/357/102
f 112/86/84 35/85/83 122/96/94 282/95/93
f 167/100/98 283/91/89 163/94/92 39/101/99
f 32/89/87 179/82/80 283/91/89 167/100/98
f 179/82/80 30/81/79 87/92/90 283/91/89
f 206/84/82 284/87/85 142/90/88 35/85/83
f 34/359/275 208/360/274 284/87/85 206/84/82
f 208/360/274 37/301/267 153/88/86 284/87/85
f 127/361/257 285/83/81 112/86/84 36/358/280
f 33/362/256 144/363/298 285/83/81 127/361/257
f 144/363/298 34/359/275 206/84/82 285/83/81
f 196/266/258 286/80/78 179/82/80 32/89/87
f 31/267/259 235/299/278 286/80/78 196/266/258
f 235/299/278 28/77/75 154/79/77 286/80/78
f 154/79/77 191/304/281 30/81/79
f 154/79/77 239/78/76 191/304/281
f 239/78/76 29/260/252 191/304/281
f 241/364/64 287/73/71 80/76/74 26/309/65
f 19/365/55 138/366/299 287/73/71 241/364/64
f 138/366/299 13/367/243 181/74/72 287/73/71
f 181/74/72 288/69/67 88/72/70 27/75/73
f 13/367/243 129/368/245 288/69/67 181/74/72
f 129/368/245 23/369/241 182/70/68 288/69/67
f 94/62/60 289/65/63 89/68/66 24/63/61
f 22/370/290 130/371/300 289/65/63 94/62/60
f 130/371/300 19/372/55 241/66/64 289/65/63
f 182/70/68 290/61/59 193/64/62 25/71/69
f 23/369/241 174/373/292 290/61/59 182/70/68
f 174/373/292 22/370/290 94/62/60 290/61/59
f 200/54/54 138/374/299 19/55/55
f 200/54/54 123/59/58 138/374/299
f 123/59/58 13/375/243 138/374/299
f 118/60/57 130/376/300 22/377/290
f 118/60/57 124/42/42 130/376/300
f 124/42/42 19/55/55 130/376/300
f 123/59/58 82/378/301 13/375/243
f 123/59/58 134/46/46 82/378/301
f 134/46/46 14/51/51 82/378/301
f 217/50/50 211/379/296 14/51/51
f 217/50/50 118/58/57 211/379/296
f 118/58/57 22/380/290 211/379/296
f 236/18/18 291/53/53 169/56/56 10/19/19
f 9/27/27 168/48/48 291/53/53 236/18/18
f 168/48/48 21/47/47 200/54/54 291/53/53
f 213/22/22 292/49/49 212/52/52 12/23/23
f 11/381/31 242/382/44 292/49/49 213/22/22
f 242/382/44 20/57/43 217/50/50 292/49/49
f 221/26/26 293/45/45 168/48/48 9/27/27
f 12/23/23 212/52/52 293/45/45 221/26/26
f 212/52/52 14/51/51 134/46/46 293/45/45
f 145/30/30 294/41/41 242/44/44 11/31/31
f 10/19/19 169/56/56 294/41/41 145/30/30
f 169/56/56 19/55/55 124/42/42 294/41/41
f 148/117/114 295/37/37 194/40/40 18/118/115
f 17/351/285 151/383/244 295/37/37 148/117/114
f 151/383/244 13/384/243 238/38/38 295/37/37
f 238/38/38 296/33/33 93/36/36 16/39/39
f 13/384/243 82/385/301 296/33/33 238/38/38
f 82/385/301 14/386/51 160/34/34 296/33/33
f 184/6/6 297/29/29 183/32/32 7/7/7
f 6/11/11 113/20/20 297/29/29 184/6/6
f 113/20/20 10/19/19 145/30/30 297/29/29
f 231/2/2 298/25/25 218/28/28 3/3/3
f 2/15/15 99/24/24 298/25/25 231/2/2
f 99/24/24 12/23/23 221/26/26 298/25/25
f 207/14/14 299/21/21 99/24/24 2/15/15
f 7/387/7 183/388/32 299/21/21 207/14/14
f 183/388/32 11/381/31 213/22/22 299/21/21
f 147/10/10 300/17/17 113/20/20 6/11/11
f 3/3/3 218/28/28 300/17/17 147/10/10
f 218/28/28 9/27/27 236/18/18 300/17/17
f 119/389/302 301/13/13 161/16/16 1/390/303
f 8/391/304 120/392/8 301/13/13 119/389/302
f 120/392/8 7/387/7 207/14/14 301/13/13
f 222/393/305 302/9/9 107/12/12 5/394/306
f 4/395/307 139/4/4 302/9/9 222/393/305
f 139/4/4 3/3/3 147/10/10 302/9/9
f 100/396/308 303/5/5 120/8/8 8/397/304
f 5/394/306 107/12/12 303/5/5 100/396/308
f 107/12/12 6/11/11 184/6/6 303/5/5
f 149/398/309 304/1/1 139/4/4 4/395/307
f 1/390/303 161/16/16 304/1/1 149/398/309
f 161/16/16 2/15/15 231/2/2 304/1/1
