%YAML 1.1
%TAG !u! tag:unity3d.com,2011:
--- !u!21 &2100000
Material:
  serializedVersion: 6
  m_ObjectHideFlags: 0
  m_PrefabParentObject: {fileID: 0}
  m_PrefabInternal: {fileID: 0}
  m_Name: Rock00_Moss
  m_Shader: {fileID: 4800000, guid: 66fed5dd5b3755d4199f36edae55e880, type: 3}
  m_ShaderKeywords: _EMISSION _METALLICGLOSSMAP _NORMALMAP _PARALLAXMAP _SPECULARIBL_ON
  m_LightmapFlags: 1
  m_CustomRenderQueue: -1
  stringTagMap: {}
  m_SavedProperties:
    serializedVersion: 2
    m_TexEnvs:
    - first:
        name: _BumpMap
      second:
        m_Texture: {fileID: 2800000, guid: 5bf1a05308ae9ee4a8bcaee634eb2c24, type: 3}
        m_Scale: {x: 1, y: 1}
        m_Offset: {x: 0, y: 0}
    - first:
        name: _DetailAlbedoMap
      second:
        m_Texture: {fileID: 0}
        m_Scale: {x: 1, y: 1}
        m_Offset: {x: 0, y: 0}
    - first:
        name: _DetailMask
      second:
        m_Texture: {fileID: 0}
        m_Scale: {x: 1, y: 1}
        m_Offset: {x: 0, y: 0}
    - first:
        name: _DetailNormalMap
      second:
        m_Texture: {fileID: 0}
        m_Scale: {x: 1, y: 1}
        m_Offset: {x: 0, y: 0}
    - first:
        name: _EmissionMap
      second:
        m_Texture: {fileID: 0}
        m_Scale: {x: 1, y: 1}
        m_Offset: {x: 0, y: 0}
    - first:
        name: _FogRamp
      second:
        m_Texture: {fileID: 2800000, guid: f1dbb0d042882054c900bf39c1603a5a, type: 3}
        m_Scale: {x: 1, y: 1}
        m_Offset: {x: 0, y: 0}
    - first:
        name: _IBLMap
      second:
        m_Texture: {fileID: 8900000, guid: 522f3190ed4a3384ba9a182f6b53d4d0, type: 2}
        m_Scale: {x: 1, y: 1}
        m_Offset: {x: 0, y: 0}
    - first:
        name: _MainTex
      second:
        m_Texture: {fileID: 2800000, guid: 854719a054788eb438c6dcb2e6dbd505, type: 3}
        m_Scale: {x: 2, y: 2}
        m_Offset: {x: 0, y: 0}
    - first:
        name: _MetallicGlossMap
      second:
        m_Texture: {fileID: 2800000, guid: 72c786fb1a926ce4aaf57fd4f3a8b658, type: 3}
        m_Scale: {x: 2, y: 2}
        m_Offset: {x: 0, y: 0}
    - first:
        name: _OcclusionMap
      second:
        m_Texture: {fileID: 2800000, guid: 72a8620e58f12384aadd7b89891d72c2, type: 3}
        m_Scale: {x: 2, y: 2}
        m_Offset: {x: 0, y: 0}
    - first:
        name: _ParallaxMap
      second:
        m_Texture: {fileID: 2800000, guid: 3aaf9c2d82539e5489dbf94f8ab82770, type: 3}
        m_Scale: {x: 2, y: 2}
        m_Offset: {x: 0, y: 0}
    - first:
        name: _RampTex
      second:
        m_Texture: {fileID: 0}
        m_Scale: {x: 1, y: 1}
        m_Offset: {x: 0, y: 0}
    - first:
        name: _TopAO
      second:
        m_Texture: {fileID: 2800000, guid: 4e426801d0ea0904881529727498d59a, type: 3}
        m_Scale: {x: 3, y: 3}
        m_Offset: {x: 0, y: 0}
    - first:
        name: _TopBump
      second:
        m_Texture: {fileID: 2800000, guid: 48679a7136cb4de49862528970a4bdc3, type: 3}
        m_Scale: {x: 3, y: 3}
        m_Offset: {x: 0, y: 0}
    - first:
        name: _TopSpecTex
      second:
        m_Texture: {fileID: 2800000, guid: 75b64e108bed4bb49b103786da8a9e75, type: 3}
        m_Scale: {x: 3, y: 3}
        m_Offset: {x: 0, y: 0}
    - first:
        name: _TopTexture
      second:
        m_Texture: {fileID: 2800000, guid: 69dd83014f2bc044487df3d2646e3396, type: 3}
        m_Scale: {x: 3, y: 3}
        m_Offset: {x: 0, y: 0}
    m_Floats:
    - first:
        name: _AOBlendPower
      second: 2.14
    - first:
        name: _AOPower
      second: 1
    - first:
        name: _AmbientIBL
      second: 1
    - first:
        name: _BumpScale
      second: 1
    - first:
        name: _Cutoff
      second: 0.5
    - first:
        name: _CutoffIntensity
      second: 0.5
    - first:
        name: _DetailNormalMapScale
      second: 1
    - first:
        name: _Diffusepower
      second: 1
    - first:
        name: _DstBlend
      second: 0
    - first:
        name: _EmissionScaleUI
      second: 0
    - first:
        name: _GameTime
      second: 0
    - first:
        name: _GlossMapScale
      second: 1
    - first:
        name: _Glossiness
      second: 0.5
    - first:
        name: _GlossyReflections
      second: 1
    - first:
        name: _GradIntensity
      second: 0.213
    - first:
        name: _GradYCap
      second: 0.59
    - first:
        name: _HighIntensity
      second: 1.25
    - first:
        name: _IBLAmbient
      second: 0
    - first:
        name: _IBLPower
      second: 2
    - first:
        name: _LightScalar
      second: 0.63
    - first:
        name: _LightWrap
      second: 0
    - first:
        name: _LightWrapPower
      second: 4
    - first:
        name: _LowIntensity
      second: 0.5
    - first:
        name: _Metallic
      second: 0
    - first:
        name: _Mode
      second: 0
    - first:
        name: _OcclusionStrength
      second: 0.412
    - first:
        name: _Parallax
      second: 0.02
    - first:
        name: _Quality
      second: 10
    - first:
        name: _RampIntensity
      second: 0.3
    - first:
        name: _RampLevels
      second: 4
    - first:
        name: _RimFresnel
      second: 1
    - first:
        name: _RimPower
      second: 4.3
    - first:
        name: _RimScalar
      second: 2.72
    - first:
        name: _Shininess
      second: 0.49147817
    - first:
        name: _SmoothnessTextureChannel
      second: 0
    - first:
        name: _SpecularHighlights
      second: 1
    - first:
        name: _SpecularIBL
      second: 1
    - first:
        name: _SpecularPower
      second: 1
    - first:
        name: _SrcBlend
      second: 1
    - first:
        name: _TopAOPower
      second: 0.61
    - first:
        name: _TopBottomLevel
      second: 0.15
    - first:
        name: _TopBottomPower
      second: 5.26
    - first:
        name: _TopReliefPower
      second: 1
    - first:
        name: _TopShininess
      second: 0.23214287
    - first:
        name: _TopSpec
      second: 1
    - first:
        name: _UVSec
      second: 0
    - first:
        name: _WindScalar
      second: 1
    - first:
        name: _WorldTiling
      second: 5
    - first:
        name: _ZWrite
      second: 1
    m_Colors:
    - first:
        name: _Color
      second: {r: 1, g: 1, b: 1, a: 1}
    - first:
        name: _Emission
      second: {r: 0, g: 0, b: 0, a: 0}
    - first:
        name: _EmissionColor
      second: {r: 0, g: 0, b: 0, a: 1}
    - first:
        name: _EmissionColorUI
      second: {r: 1, g: 1, b: 1, a: 1}
    - first:
        name: _HighColor
      second: {r: 0.9229023, g: 1, b: 0.8308824, a: 1}
    - first:
        name: _LightWrapColor
      second: {r: 0.5, g: 0.5, b: 0.5, a: 1}
    - first:
        name: _LowColor
      second: {r: 0.31470588, g: 0.5325422, b: 0.737931, a: 1}
    - first:
        name: _RimLightColor
      second: {r: 0.5147059, g: 0.5147059, b: 0.5147059, a: 1}
    - first:
        name: _SpecColor
      second: {r: 0.7058823, g: 0.7058823, b: 0.7058823, a: 1}
    - first:
        name: _TopSpecColor
      second: {r: 0.59367615, g: 0.8235294, b: 0.5631488, a: 1}
    - first:
        name: _UpColor
      second: {r: 0.22480537, g: 0.4852941, b: 0.28049606, a: 1}
