%YAML 1.1
%TAG !u! tag:unity3d.com,2011:
--- !u!114 &11400000
MonoBehaviour:
  m_ObjectHideFlags: 0
  m_PrefabParentObject: {fileID: 0}
  m_PrefabInternal: {fileID: 0}
  m_GameObject: {fileID: 0}
  m_Enabled: 1
  m_EditorHideFlags: 0
  m_Script: {fileID: 11500000, guid: 34a7c8ca992f915438a96c2077353778, type: 3}
  m_Name: NecroAllyActivate
  m_EditorClassIdentifier: 
  brickName: Assets/BehaviorTree/SpringQuarter/Ally/NecroAllyActivate.asset
  xml: "\uFEFF<?xml version=\"1.0\" encoding=\"utf-8\"?>\r\n<BehaviorBricks xmlns:ref=\"urn:padaone\"
    version=\"1.0\">\r\n  <BehaviorTree id=\"0\" />\r\n  <runtimeInfo>\r\n    <BehaviorTree
    id=\"0\" guid=\"16b8356dabd9a6a40b235f83977e9e38\" nextId=\"8\">\r\n      <root>\r\n
    \       <SequenceNode id=\"1\" />\r\n      </root>\r\n      <inputParams />\r\n
    \     <outputParams />\r\n      <localParams />\r\n    </BehaviorTree>\r\n    <SequenceNode
    id=\"1\">\r\n      <children>\r\n        <elem>\r\n          <ActionNode id=\"2\"
    />\r\n        </elem>\r\n        <elem>\r\n          <ActionNode id=\"7\" />\r\n
    \       </elem>\r\n      </children>\r\n      <inputParams />\r\n      <outputParams
    />\r\n      <localParams />\r\n    </SequenceNode>\r\n    <ActionNode id=\"2\"
    action=\"Custom/Movement/DontMove\">\r\n      <inputParams />\r\n      <outputParams
    />\r\n      <localParams />\r\n    </ActionNode>\r\n    <ActionNode id=\"7\" action=\"Custom/Other/SwitchToLastTree\">\r\n
    \     <inputParams />\r\n      <outputParams />\r\n      <localParams />\r\n    </ActionNode>\r\n
    \ </runtimeInfo>\r\n  <editorInfo>\r\n    <BehaviorTree id=\"0\" _name=\"NecroAllyActivate\"
    _removeIfClosed=\"False\">\r\n      <_rootList>\r\n        <elem>\r\n          <SequenceNode
    id=\"1\" />\r\n        </elem>\r\n        <elem>\r\n          <ActionNode id=\"3\"
    />\r\n        </elem>\r\n      </_rootList>\r\n      <_nodes>\r\n        <nodes>\r\n
    \         <SequenceNode id=\"1\" />\r\n          <ActionNode id=\"2\" />\r\n          <ActionNode
    id=\"3\" />\r\n          <ActionNode id=\"7\" />\r\n        </nodes>\r\n      </_nodes>\r\n
    \     <_selectedNode>\r\n        <ActionNode id=\"3\" />\r\n      </_selectedNode>\r\n
    \   </BehaviorTree>\r\n    <SequenceNode id=\"1\">\r\n      <_data>\r\n        <data
    selected=\"False\" position=\"446 121\" name=\"Sequence\" description=\"Executes
    all its children in sequence until all of them are successful\" cardinality=\"-1\"
    hasParent=\"False\">\r\n          <BehaviorTree id=\"0\" />\r\n          <SequenceNode
    id=\"1\" />\r\n        </data>\r\n      </_data>\r\n    </SequenceNode>\r\n    <ActionNode
    id=\"2\">\r\n      <_data>\r\n        <data selected=\"False\" position=\"317
    318\" name=\"Custom/Movement/DontMove\" description=\"Tells the character not
    to move until DoMove node is reached.\" cardinality=\"0\" hasParent=\"True\">\r\n
    \         <BehaviorTree id=\"0\" />\r\n          <ActionNode id=\"2\" />\r\n          <SequenceNode
    id=\"1\" />\r\n        </data>\r\n      </_data>\r\n    </ActionNode>\r\n    <ActionNode
    id=\"7\">\r\n      <_data>\r\n        <data selected=\"False\" position=\"655
    316.3\" name=\"Custom/Other/SwitchToLastTree\" description=\"switches to the monster
    attack tree\" cardinality=\"0\" hasParent=\"True\">\r\n          <BehaviorTree
    id=\"0\" />\r\n          <ActionNode id=\"7\" />\r\n          <SequenceNode id=\"1\"
    />\r\n        </data>\r\n      </_data>\r\n    </ActionNode>\r\n  </editorInfo>\r\n
    \ <runtimeInfo>\r\n    <ActionNode id=\"3\" action=\"Custom/Attack/AllyNecroAbility\">\r\n
    \     <inputParams />\r\n      <outputParams />\r\n      <localParams />\r\n    </ActionNode>\r\n
    \ </runtimeInfo>\r\n  <editorInfo>\r\n    <ActionNode id=\"3\">\r\n      <_data>\r\n
    \       <data selected=\"True\" position=\"479 316\" name=\"Custom/Attack/AllyNecroAbility\"
    description=\"activates the slow ability on a slow minion that is an ally\" cardinality=\"0\"
    hasParent=\"False\">\r\n          <BehaviorTree id=\"0\" />\r\n          <ActionNode
    id=\"3\" />\r\n        </data>\r\n      </_data>\r\n    </ActionNode>\r\n  </editorInfo>\r\n</BehaviorBricks>"
  subslist: []
  _guid: 16b8356dabd9a6a40b235f83977e9e38
