%YAML 1.1
%TAG !u! tag:unity3d.com,2011:
--- !u!1001 &100100000
Prefab:
  m_ObjectHideFlags: 1
  serializedVersion: 2
  m_Modification:
    m_TransformParent: {fileID: 0}
    m_Modifications: []
    m_RemovedComponents: []
  m_ParentPrefab: {fileID: 0}
  m_RootGameObject: {fileID: 1292216863748866}
  m_IsPrefabParent: 1
--- !u!1 &1292216863748866
GameObject:
  m_ObjectHideFlags: 0
  m_PrefabParentObject: {fileID: 0}
  m_PrefabInternal: {fileID: 100100000}
  serializedVersion: 5
  m_Component:
  - component: {fileID: 4871127270444562}
  - component: {fileID: 60025686166806604}
  m_Layer: 0
  m_Name: outOFBoundsCollider1
  m_TagString: Untagged
  m_Icon: {fileID: 0}
  m_NavMeshLayer: 0
  m_StaticEditorFlags: 0
  m_IsActive: 1
--- !u!4 &4871127270444562
Transform:
  m_ObjectHideFlags: 1
  m_PrefabParentObject: {fileID: 0}
  m_PrefabInternal: {fileID: 100100000}
  m_GameObject: {fileID: 1292216863748866}
  m_LocalRotation: {x: 0, y: 0, z: 0, w: 1}
  m_LocalPosition: {x: 0, y: 0, z: 0}
  m_LocalScale: {x: 1, y: 1, z: 1}
  m_Children: []
  m_Father: {fileID: 0}
  m_RootOrder: 0
  m_LocalEulerAnglesHint: {x: 0, y: 0, z: 0}
--- !u!60 &60025686166806604
PolygonCollider2D:
  m_ObjectHideFlags: 1
  m_PrefabParentObject: {fileID: 0}
  m_PrefabInternal: {fileID: 100100000}
  m_GameObject: {fileID: 1292216863748866}
  m_Enabled: 1
  m_Density: 1
  m_Material: {fileID: 0}
  m_IsTrigger: 0
  m_UsedByEffector: 0
  m_Offset: {x: 0, y: 0}
  m_Points:
    m_Paths:
    - - {x: -0.060337305, y: 38.828987}
      - {x: 27.454056, y: 40.523872}
      - {x: 80.16301, y: 25.395073}
      - {x: 116.80382, y: 18.463644}
      - {x: 150.67549, y: 16.218155}
      - {x: 164.4205, y: 12.977717}
      - {x: 178.04514, y: 11.305632}
      - {x: 184.67451, y: 13.9329815}
      - {x: 193.25482, y: 16.336445}
      - {x: 261.3817, y: 42.677113}
      - {x: 282.89413, y: 26.92725}
      - {x: 268.9321, y: 0.21598756}
      - {x: 0.070666194, y: 0.031074703}
      - {x: 0.09338492, y: 2.011906}
