%YAML 1.1
%TAG !u! tag:unity3d.com,2011:
--- !u!114 &11400000
MonoBehaviour:
  m_ObjectHideFlags: 0
  m_PrefabParentObject: {fileID: 0}
  m_PrefabInternal: {fileID: 0}
  m_GameObject: {fileID: 0}
  m_Enabled: 1
  m_EditorHideFlags: 0
  m_Script: {fileID: 11500000, guid: 34a7c8ca992f915438a96c2077353778, type: 3}
  m_Name: AllyFollowTreeV2
  m_EditorClassIdentifier: 
  brickName: Assets/BehaviorTree/AllyFollowTreeV2.asset
  xml: "\uFEFF<?xml version=\"1.0\" encoding=\"utf-8\"?>\r\n<BehaviorBricks xmlns:ref=\"urn:padaone\"
    version=\"1.0\">\r\n  <BehaviorTree id=\"0\" />\r\n  <runtimeInfo>\r\n    <BehaviorTree
    id=\"0\" guid=\"4815987ffe5e8ea4e8fb84a898d1deab\" nextId=\"184\">\r\n      <root>\r\n
    \       <SelectorNode id=\"67\" />\r\n      </root>\r\n      <inputParams />\r\n
    \     <outputParams />\r\n      <localParams />\r\n    </BehaviorTree>\r\n    <SelectorNode
    id=\"67\">\r\n      <children>\r\n        <elem>\r\n          <DecoratorGuard
    id=\"171\" />\r\n        </elem>\r\n        <elem>\r\n          <DecoratorGuard
    id=\"80\" />\r\n        </elem>\r\n        <elem>\r\n          <DecoratorGuard
    id=\"177\" />\r\n        </elem>\r\n      </children>\r\n      <inputParams />\r\n
    \     <outputParams />\r\n      <localParams />\r\n    </SelectorNode>\r\n    <DecoratorGuard
    id=\"171\">\r\n      <guard>\r\n        <ConditionEvalNode id=\"172\" />\r\n      </guard>\r\n
    \     <child>\r\n        <SequenceNode id=\"170\" />\r\n      </child>\r\n      <inputParams
    />\r\n      <outputParams />\r\n      <localParams />\r\n    </DecoratorGuard>\r\n
    \   <DecoratorGuard id=\"80\">\r\n      <guard>\r\n        <ConditionEvalNode
    id=\"81\" />\r\n      </guard>\r\n      <child>\r\n        <SelectorNode id=\"79\"
    />\r\n      </child>\r\n      <inputParams />\r\n      <outputParams />\r\n      <localParams
    />\r\n    </DecoratorGuard>\r\n    <DecoratorGuard id=\"177\">\r\n      <guard>\r\n
    \       <ConditionEvalNode id=\"178\" />\r\n      </guard>\r\n      <child>\r\n
    \       <SequenceNode id=\"176\" />\r\n      </child>\r\n      <inputParams />\r\n
    \     <outputParams />\r\n      <localParams />\r\n    </DecoratorGuard>\r\n    <ConditionEvalNode
    id=\"172\" policy=\"WAIT_UNTIL_FALSE_AND_FAIL\" name=\"Custom/AllySpecific/NotWithinFarFollowRadius\">\r\n
    \     <inputParams />\r\n      <outputParams />\r\n      <localParams />\r\n    </ConditionEvalNode>\r\n
    \   <SequenceNode id=\"170\">\r\n      <children>\r\n        <elem>\r\n          <ActionNode
    id=\"173\" />\r\n        </elem>\r\n        <elem>\r\n          <ActionNode id=\"144\"
    />\r\n        </elem>\r\n      </children>\r\n      <inputParams />\r\n      <outputParams
    />\r\n      <localParams />\r\n    </SequenceNode>\r\n    <ConditionEvalNode id=\"81\"
    policy=\"WAIT_UNTIL_FALSE_AND_FAIL\" name=\"Custom/AllySpecific/AllyAmIThreatened\">\r\n
    \     <inputParams />\r\n      <outputParams />\r\n      <localParams />\r\n    </ConditionEvalNode>\r\n
    \   <SelectorNode id=\"79\">\r\n      <children>\r\n        <elem>\r\n          <DecoratorGuard
    id=\"163\" />\r\n        </elem>\r\n        <elem>\r\n          <ActionNode id=\"92\"
    />\r\n        </elem>\r\n      </children>\r\n      <inputParams />\r\n      <outputParams
    />\r\n      <localParams />\r\n    </SelectorNode>\r\n    <ConditionEvalNode id=\"178\"
    policy=\"WAIT_UNTIL_FALSE_AND_FAIL\" name=\"Custom/AllySpecific/NotWithinNearFollowDistance\">\r\n
    \     <inputParams />\r\n      <outputParams />\r\n      <localParams />\r\n    </ConditionEvalNode>\r\n
    \   <SequenceNode id=\"176\">\r\n      <children>\r\n        <elem>\r\n          <ActionNode
    id=\"179\" />\r\n        </elem>\r\n        <elem>\r\n          <ActionNode id=\"149\"
    />\r\n        </elem>\r\n      </children>\r\n      <inputParams />\r\n      <outputParams
    />\r\n      <localParams />\r\n    </SequenceNode>\r\n    <ActionNode id=\"173\"
    action=\"Custom/Movement/LookAtPlayer\">\r\n      <inputParams />\r\n      <outputParams
    />\r\n      <localParams />\r\n    </ActionNode>\r\n    <ActionNode id=\"144\"
    action=\"Custom/Movement/MoveNearPlayer\">\r\n      <inputParams />\r\n      <outputParams
    />\r\n      <localParams />\r\n    </ActionNode>\r\n    <DecoratorGuard id=\"163\">\r\n
    \     <guard>\r\n        <ConditionEvalNode id=\"164\" />\r\n      </guard>\r\n
    \     <child>\r\n        <SequenceNode id=\"86\" />\r\n      </child>\r\n      <inputParams
    />\r\n      <outputParams />\r\n      <localParams />\r\n    </DecoratorGuard>\r\n
    \   <ActionNode id=\"92\" action=\"Custom/Movement/MoveToNearestVisibleEnemy\">\r\n
    \     <inputParams />\r\n      <outputParams />\r\n      <localParams />\r\n    </ActionNode>\r\n
    \   <ActionNode id=\"179\" action=\"Custom/Movement/LookAtPlayer\">\r\n      <inputParams
    />\r\n      <outputParams />\r\n      <localParams />\r\n    </ActionNode>\r\n
    \   <ActionNode id=\"149\" action=\"Custom/Movement/MoveNearPlayer\">\r\n      <inputParams
    />\r\n      <outputParams />\r\n      <localParams />\r\n    </ActionNode>\r\n
    \   <ConditionEvalNode id=\"164\" policy=\"WAIT_UNTIL_FALSE_AND_FAIL\" name=\"Custom/Distance/TargetinAttackRange\">\r\n
    \     <inputParams />\r\n      <outputParams />\r\n      <localParams />\r\n    </ConditionEvalNode>\r\n
    \   <SequenceNode id=\"86\">\r\n      <children>\r\n        <elem>\r\n          <ActionNode
    id=\"183\" />\r\n        </elem>\r\n        <elem>\r\n          <ActionNode id=\"167\"
    />\r\n        </elem>\r\n        <elem>\r\n          <ActionNode id=\"88\" />\r\n
    \       </elem>\r\n      </children>\r\n      <inputParams />\r\n      <outputParams
    />\r\n      <localParams />\r\n    </SequenceNode>\r\n    <ActionNode id=\"183\"
    action=\"Custom/Movement/DontMove\">\r\n      <inputParams />\r\n      <outputParams
    />\r\n      <localParams />\r\n    </ActionNode>\r\n    <ActionNode id=\"167\"
    action=\"Custom/Movement/rotateTowardsNearestEnemy\">\r\n      <inputParams />\r\n
    \     <outputParams />\r\n      <localParams />\r\n    </ActionNode>\r\n    <ActionNode
    id=\"88\" action=\"Custom/Attack/AllyAttack\">\r\n      <inputParams />\r\n      <outputParams
    />\r\n      <localParams />\r\n    </ActionNode>\r\n  </runtimeInfo>\r\n  <editorInfo>\r\n
    \   <BehaviorTree id=\"0\" _name=\"AllyFollowTreeV2\" _removeIfClosed=\"False\">\r\n
    \     <_rootList>\r\n        <elem>\r\n          <SelectorNode id=\"67\" />\r\n
    \       </elem>\r\n        <elem>\r\n          <DecoratorGuard id=\"114\" />\r\n
    \       </elem>\r\n      </_rootList>\r\n      <_nodes>\r\n        <nodes>\r\n
    \         <SequenceNode id=\"86\" />\r\n          <SelectorNode id=\"79\" />\r\n
    \         <DecoratorGuard id=\"80\" />\r\n          <SelectorNode id=\"67\" />\r\n
    \         <ActionNode id=\"144\" />\r\n          <ActionNode id=\"88\" />\r\n
    \         <ActionNode id=\"92\" />\r\n          <ActionNode id=\"149\" />\r\n
    \         <SequenceNode id=\"176\" />\r\n          <SequenceNode id=\"170\" />\r\n
    \         <DecoratorGuard id=\"163\" />\r\n          <ActionNode id=\"167\" />\r\n
    \         <ActionNode id=\"173\" />\r\n          <DecoratorGuard id=\"171\" />\r\n
    \         <ActionNode id=\"179\" />\r\n          <DecoratorGuard id=\"177\" />\r\n
    \         <ActionNode id=\"183\" />\r\n        </nodes>\r\n      </_nodes>\r\n
    \   </BehaviorTree>\r\n    <SelectorNode id=\"67\">\r\n      <_data>\r\n        <data
    selected=\"False\" position=\"865 29\" name=\"Selector\" description=\"Executes
    all its children until one of them is successful\" cardinality=\"-1\" hasParent=\"False\">\r\n
    \         <BehaviorTree id=\"0\" />\r\n          <SelectorNode id=\"67\" />\r\n
    \       </data>\r\n      </_data>\r\n    </SelectorNode>\r\n    <DecoratorGuard
    id=\"171\">\r\n      <_data>\r\n        <data selected=\"False\" position=\"420.5295
    210.65\" name=\"Custom/AllySpecific/NotWithinFarFollowRadius\" description=\"Checks
    if the monster is notwithin FarFollowRadius of Twig\" cardinality=\"1\" hasParent=\"True\">\r\n
    \         <BehaviorTree id=\"0\" />\r\n          <DecoratorGuard id=\"171\" />\r\n
    \         <SelectorNode id=\"67\" />\r\n        </data>\r\n      </_data>\r\n
    \   </DecoratorGuard>\r\n    <DecoratorGuard id=\"80\">\r\n      <_data>\r\n        <data
    selected=\"False\" position=\"628 243\" name=\"Custom/AllySpecific/AllyAmIThreatened\"
    description=\"checks if an enemy is within this allys threatRange\" cardinality=\"1\"
    hasParent=\"True\">\r\n          <BehaviorTree id=\"0\" />\r\n          <DecoratorGuard
    id=\"80\" />\r\n          <SelectorNode id=\"67\" />\r\n        </data>\r\n      </_data>\r\n
    \   </DecoratorGuard>\r\n    <DecoratorGuard id=\"177\">\r\n      <_data>\r\n
    \       <data selected=\"False\" position=\"1026.336 258.65\" name=\"Custom/AllySpecific/NotWithinNearFollowDistance\"
    description=\"Checks if the ally is not within the nearFollowDistance of Twig\"
    cardinality=\"1\" hasParent=\"True\">\r\n          <BehaviorTree id=\"0\" />\r\n
    \         <DecoratorGuard id=\"177\" />\r\n          <SelectorNode id=\"67\" />\r\n
    \       </data>\r\n      </_data>\r\n    </DecoratorGuard>\r\n    <ConditionEvalNode
    id=\"172\">\r\n      <_data>\r\n        <data selected=\"False\" position=\"0
    0\" name=\"DecoratorGuard\" description=\"Description\" cardinality=\"1\" hasParent=\"False\">\r\n
    \         <BehaviorTree id=\"160\" />\r\n          <ConditionEvalNode id=\"172\"
    />\r\n        </data>\r\n      </_data>\r\n    </ConditionEvalNode>\r\n    <SequenceNode
    id=\"170\">\r\n      <_data>\r\n        <data selected=\"False\" position=\"354.1358
    345.3\" name=\"Sequence\" description=\"Executes all its children in sequence
    until all of them are successful\" cardinality=\"-1\" hasParent=\"True\">\r\n
    \         <BehaviorTree id=\"0\" />\r\n          <SequenceNode id=\"170\" />\r\n
    \         <DecoratorGuard id=\"171\" />\r\n        </data>\r\n      </_data>\r\n
    \   </SequenceNode>\r\n    <ConditionEvalNode id=\"81\">\r\n      <_data>\r\n
    \       <data selected=\"False\" position=\"0 0\" name=\"DecoratorGuard\" description=\"Description\"
    cardinality=\"1\" hasParent=\"False\">\r\n          <BehaviorTree id=\"81\" />\r\n
    \       </data>\r\n      </_data>\r\n    </ConditionEvalNode>\r\n    <SelectorNode
    id=\"79\">\r\n      <_data>\r\n        <data selected=\"False\" position=\"651.2973
    405\" name=\"Selector\" description=\"Executes all its children until one of them
    is successful\" cardinality=\"-1\" hasParent=\"True\">\r\n          <BehaviorTree
    id=\"0\" />\r\n          <SelectorNode id=\"79\" />\r\n          <DecoratorGuard
    id=\"80\" />\r\n        </data>\r\n      </_data>\r\n    </SelectorNode>\r\n    <ConditionEvalNode
    id=\"178\">\r\n      <_data>\r\n        <data selected=\"False\" position=\"0
    0\" name=\"DecoratorGuard\" description=\"Description\" cardinality=\"1\" hasParent=\"False\">\r\n
    \         <BehaviorTree id=\"156\" />\r\n          <ConditionEvalNode id=\"178\"
    />\r\n        </data>\r\n      </_data>\r\n    </ConditionEvalNode>\r\n    <SequenceNode
    id=\"176\">\r\n      <_data>\r\n        <data selected=\"False\" position=\"1038.55
    410.3\" name=\"Sequence\" description=\"Executes all its children in sequence
    until all of them are successful\" cardinality=\"-1\" hasParent=\"True\">\r\n
    \         <BehaviorTree id=\"0\" />\r\n          <SequenceNode id=\"176\" />\r\n
    \         <DecoratorGuard id=\"177\" />\r\n        </data>\r\n      </_data>\r\n
    \   </SequenceNode>\r\n    <ActionNode id=\"173\">\r\n      <_data>\r\n        <data
    selected=\"False\" position=\"289.1358 486.3\" name=\"Custom/Movement/LookAtPlayer\"
    description=\"rotate to look towards the player\" cardinality=\"0\" hasParent=\"True\">\r\n
    \         <BehaviorTree id=\"0\" />\r\n          <ActionNode id=\"173\" />\r\n
    \         <SequenceNode id=\"170\" />\r\n        </data>\r\n      </_data>\r\n
    \   </ActionNode>\r\n    <ActionNode id=\"144\">\r\n      <_data>\r\n        <data
    selected=\"False\" position=\"426.3797 491\" name=\"Custom/Movement/MoveNearPlayer\"
    description=\"Gets the component of a given type if the game object has one attached,
    null if it doesn't\" cardinality=\"0\" hasParent=\"True\">\r\n          <BehaviorTree
    id=\"0\" />\r\n          <ActionNode id=\"144\" />\r\n          <SequenceNode
    id=\"170\" />\r\n        </data>\r\n      </_data>\r\n    </ActionNode>\r\n    <DecoratorGuard
    id=\"163\">\r\n      <_data>\r\n        <data selected=\"False\" position=\"567.356
    524.65\" name=\"Custom/Distance/TargetinAttackRange\" description=\"checks if
    an enemy is within the minions attackRange\" cardinality=\"1\" hasParent=\"True\">\r\n
    \         <BehaviorTree id=\"0\" />\r\n          <DecoratorGuard id=\"163\" />\r\n
    \         <SelectorNode id=\"79\" />\r\n        </data>\r\n      </_data>\r\n
    \   </DecoratorGuard>\r\n    <ActionNode id=\"92\">\r\n      <_data>\r\n        <data
    selected=\"False\" position=\"768.5648 552.3\" name=\"MoveToNearestVisibleEnemy\"
    description=\"Moves the monster towards the nearest enemy position\" cardinality=\"0\"
    hasParent=\"True\">\r\n          <BehaviorTree id=\"0\" />\r\n          <ActionNode
    id=\"92\" />\r\n          <SelectorNode id=\"79\" />\r\n        </data>\r\n      </_data>\r\n
    \   </ActionNode>\r\n    <ActionNode id=\"179\">\r\n      <_data>\r\n        <data
    selected=\"False\" position=\"975.55 563.3\" name=\"Custom/Movement/LookAtPlayer\"
    description=\"rotate to look towards the player\" cardinality=\"0\" hasParent=\"True\">\r\n
    \         <BehaviorTree id=\"0\" />\r\n          <ActionNode id=\"179\" />\r\n
    \         <SequenceNode id=\"176\" />\r\n        </data>\r\n      </_data>\r\n
    \   </ActionNode>\r\n    <ActionNode id=\"149\">\r\n      <_data>\r\n        <data
    selected=\"False\" position=\"1140 561\" name=\"Custom/Movement/MoveNearPlayer\"
    description=\"Gets the component of a given type if the game object has one attached,
    null if it doesn't\" cardinality=\"0\" hasParent=\"True\">\r\n          <BehaviorTree
    id=\"0\" />\r\n          <ActionNode id=\"149\" />\r\n          <SequenceNode
    id=\"176\" />\r\n        </data>\r\n      </_data>\r\n    </ActionNode>\r\n    <ConditionEvalNode
    id=\"164\">\r\n      <_data>\r\n        <data selected=\"False\" position=\"0
    0\" name=\"DecoratorGuard\" description=\"Description\" cardinality=\"1\" hasParent=\"False\">\r\n
    \         <BehaviorTree id=\"164\" />\r\n        </data>\r\n      </_data>\r\n
    \   </ConditionEvalNode>\r\n    <SequenceNode id=\"86\">\r\n      <_data>\r\n
    \       <data selected=\"False\" position=\"485.434 662.65\" name=\"Sequence\"
    description=\"Executes all its children in sequence until all of them are successful\"
    cardinality=\"-1\" hasParent=\"True\">\r\n          <BehaviorTree id=\"0\" />\r\n
    \         <SequenceNode id=\"86\" />\r\n          <DecoratorGuard id=\"163\" />\r\n
    \       </data>\r\n      </_data>\r\n    </SequenceNode>\r\n    <ActionNode id=\"183\">\r\n
    \     <_data>\r\n        <data selected=\"False\" position=\"373 804\" name=\"Custom/Movement/DontMove\"
    description=\"Tells the character not to move until DoMove node is reached.\"
    cardinality=\"0\" hasParent=\"True\">\r\n          <BehaviorTree id=\"0\" />\r\n
    \         <ActionNode id=\"183\" />\r\n          <SequenceNode id=\"86\" />\r\n
    \       </data>\r\n      </_data>\r\n    </ActionNode>\r\n    <ActionNode id=\"167\">\r\n
    \     <_data>\r\n        <data selected=\"False\" position=\"531.697 810.2025\"
    name=\"Custom/Movement/rotateTowardsNearestEnemy\" description=\"Tells the character
    to rotate towards the nearest enemy\" cardinality=\"0\" hasParent=\"True\">\r\n
    \         <BehaviorTree id=\"0\" />\r\n          <ActionNode id=\"167\" />\r\n
    \         <SequenceNode id=\"86\" />\r\n        </data>\r\n      </_data>\r\n
    \   </ActionNode>\r\n    <ActionNode id=\"88\">\r\n      <_data>\r\n        <data
    selected=\"False\" position=\"695.7396 814.65\" name=\"Custom/Attack/AllyAttack\"
    description=\"attack action for allied monsters. attacks nearest enemy, assumes
    it is within attackRange\" cardinality=\"0\" hasParent=\"True\">\r\n          <BehaviorTree
    id=\"0\" />\r\n          <ActionNode id=\"88\" />\r\n          <SequenceNode id=\"86\"
    />\r\n        </data>\r\n      </_data>\r\n    </ActionNode>\r\n  </editorInfo>\r\n
    \ <runtimeInfo>\r\n    <DecoratorGuard id=\"114\">\r\n      <guard>\r\n        <ConditionEvalNode
    id=\"115\" />\r\n      </guard>\r\n      <inputParams />\r\n      <outputParams
    />\r\n      <localParams />\r\n    </DecoratorGuard>\r\n    <BehaviorTree id=\"160\"
    nextId=\"1\">\r\n      <inputParams />\r\n      <outputParams />\r\n      <localParams
    />\r\n    </BehaviorTree>\r\n    <BehaviorTree id=\"81\" nextId=\"1\">\r\n      <inputParams
    />\r\n      <outputParams />\r\n      <localParams />\r\n    </BehaviorTree>\r\n
    \   <BehaviorTree id=\"156\" nextId=\"1\">\r\n      <inputParams />\r\n      <outputParams
    />\r\n      <localParams />\r\n    </BehaviorTree>\r\n    <BehaviorTree id=\"164\"
    nextId=\"1\">\r\n      <inputParams />\r\n      <outputParams />\r\n      <localParams
    />\r\n    </BehaviorTree>\r\n    <ConditionEvalNode id=\"115\" policy=\"WAIT_UNTIL_FALSE_AND_FAIL\"
    name=\"Custom/AllySpecific/MidpointNotNearTwig\">\r\n      <inputParams />\r\n
    \     <outputParams />\r\n      <localParams />\r\n    </ConditionEvalNode>\r\n
    \ </runtimeInfo>\r\n  <editorInfo>\r\n    <DecoratorGuard id=\"114\">\r\n      <_data>\r\n
    \       <data selected=\"False\" position=\"2127 180\" name=\"Custom/AllySpecific/MidpointNotNearTwig\"
    description=\"Checks if the midpoint of all allies is not within the AllyFollowRadius
    of Twig\" cardinality=\"1\" hasParent=\"False\">\r\n          <BehaviorTree id=\"0\"
    />\r\n          <DecoratorGuard id=\"114\" />\r\n        </data>\r\n      </_data>\r\n
    \   </DecoratorGuard>\r\n    <BehaviorTree id=\"160\" _removeIfClosed=\"False\">\r\n
    \     <_rootList />\r\n      <_nodes>\r\n        <nodes />\r\n      </_nodes>\r\n
    \   </BehaviorTree>\r\n    <BehaviorTree id=\"81\" _removeIfClosed=\"False\">\r\n
    \     <_rootList />\r\n      <_nodes>\r\n        <nodes />\r\n      </_nodes>\r\n
    \   </BehaviorTree>\r\n    <BehaviorTree id=\"156\" _removeIfClosed=\"False\">\r\n
    \     <_rootList />\r\n      <_nodes>\r\n        <nodes />\r\n      </_nodes>\r\n
    \   </BehaviorTree>\r\n    <BehaviorTree id=\"164\" _removeIfClosed=\"False\">\r\n
    \     <_rootList />\r\n      <_nodes>\r\n        <nodes />\r\n      </_nodes>\r\n
    \   </BehaviorTree>\r\n    <ConditionEvalNode id=\"115\">\r\n      <_data>\r\n
    \       <data selected=\"False\" position=\"0 0\" name=\"DecoratorGuard\" description=\"Description\"
    cardinality=\"1\" hasParent=\"False\">\r\n          <BehaviorTree id=\"115\" />\r\n
    \       </data>\r\n      </_data>\r\n    </ConditionEvalNode>\r\n  </editorInfo>\r\n
    \ <runtimeInfo>\r\n    <BehaviorTree id=\"115\" nextId=\"1\">\r\n      <inputParams
    />\r\n      <outputParams />\r\n      <localParams />\r\n    </BehaviorTree>\r\n
    \ </runtimeInfo>\r\n  <editorInfo>\r\n    <BehaviorTree id=\"115\" _removeIfClosed=\"False\">\r\n
    \     <_rootList />\r\n      <_nodes>\r\n        <nodes />\r\n      </_nodes>\r\n
    \   </BehaviorTree>\r\n  </editorInfo>\r\n</BehaviorBricks>"
  subslist: []
  _guid: 4815987ffe5e8ea4e8fb84a898d1deab
