%YAML 1.1
%TAG !u! tag:unity3d.com,2011:
--- !u!114 &11400000
MonoBehaviour:
  m_ObjectHideFlags: 0
  m_PrefabParentObject: {fileID: 0}
  m_PrefabInternal: {fileID: 0}
  m_GameObject: {fileID: 0}
  m_Enabled: 1
  m_EditorHideFlags: 0
  m_Script: {fileID: 11500000, guid: 34a7c8ca992f915438a96c2077353778, type: 3}
  m_Name: EnemyWaitTree
  m_EditorClassIdentifier: 
  brickName: Assets/BehaviorTree/EnemyWaitTree.asset
  xml: "\uFEFF<?xml version=\"1.0\" encoding=\"utf-8\"?>\r\n<BehaviorBricks xmlns:ref=\"urn:padaone\"
    version=\"1.0\">\r\n  <BehaviorTree id=\"0\" />\r\n  <runtimeInfo>\r\n    <BehaviorTree
    id=\"0\" guid=\"6be74983e9af7c947bb6f5f359e07a55\" nextId=\"29\">\r\n      <root>\r\n
    \       <SelectorNode id=\"1\" />\r\n      </root>\r\n      <inputParams />\r\n
    \     <outputParams />\r\n      <localParams />\r\n    </BehaviorTree>\r\n    <SelectorNode
    id=\"1\">\r\n      <children>\r\n        <elem>\r\n          <DecoratorGuard id=\"27\"
    />\r\n        </elem>\r\n        <elem>\r\n          <ActionNode id=\"14\" />\r\n
    \       </elem>\r\n      </children>\r\n      <inputParams />\r\n      <outputParams
    />\r\n      <localParams />\r\n    </SelectorNode>\r\n    <DecoratorGuard id=\"27\">\r\n
    \     <guard>\r\n        <ConditionEvalNode id=\"28\" />\r\n      </guard>\r\n
    \     <child>\r\n        <ActionNode id=\"4\" />\r\n      </child>\r\n      <inputParams
    />\r\n      <outputParams />\r\n      <localParams />\r\n    </DecoratorGuard>\r\n
    \   <ActionNode id=\"14\" action=\"Custom/Movement/Hangout\">\r\n      <inputParams
    />\r\n      <outputParams />\r\n      <localParams />\r\n    </ActionNode>\r\n
    \   <ConditionEvalNode id=\"28\" policy=\"WAIT_UNTIL_FALSE_AND_FAIL\" name=\"Custom/DistanceAndLOS/AllyVisibleInThreatRange\">\r\n
    \     <inputParams />\r\n      <outputParams />\r\n      <localParams />\r\n    </ConditionEvalNode>\r\n
    \   <ActionNode id=\"4\" action=\"Custom/Other/SwitchTreeAttack\">\r\n      <inputParams
    />\r\n      <outputParams />\r\n      <localParams />\r\n    </ActionNode>\r\n
    \ </runtimeInfo>\r\n  <editorInfo>\r\n    <BehaviorTree id=\"0\" _name=\"EnemyWaitTree\"
    _removeIfClosed=\"False\">\r\n      <_rootList>\r\n        <elem>\r\n          <SelectorNode
    id=\"1\" />\r\n        </elem>\r\n      </_rootList>\r\n      <_nodes>\r\n        <nodes>\r\n
    \         <SelectorNode id=\"1\" />\r\n          <ActionNode id=\"4\" />\r\n          <DecoratorGuard
    id=\"27\" />\r\n          <ActionNode id=\"14\" />\r\n        </nodes>\r\n      </_nodes>\r\n
    \     <_selectedNode>\r\n        <ActionNode id=\"4\" />\r\n      </_selectedNode>\r\n
    \   </BehaviorTree>\r\n    <SelectorNode id=\"1\">\r\n      <_data>\r\n        <data
    selected=\"False\" position=\"527 60\" name=\"Selector\" description=\"Executes
    all its children until one of them is successful\" cardinality=\"-1\" hasParent=\"False\">\r\n
    \         <BehaviorTree id=\"0\" />\r\n          <SelectorNode id=\"1\" />\r\n
    \       </data>\r\n      </_data>\r\n    </SelectorNode>\r\n    <DecoratorGuard
    id=\"27\">\r\n      <_data>\r\n        <data selected=\"False\" position=\"424
    183\" name=\"Custom/DistanceAndLOS/AllyVisibleInThreatRange\" description=\"checks
    if any allies (including twig) are visible and within the minions threatRange\"
    cardinality=\"1\" hasParent=\"True\">\r\n          <BehaviorTree id=\"0\" />\r\n
    \         <DecoratorGuard id=\"27\" />\r\n          <SelectorNode id=\"1\" />\r\n
    \       </data>\r\n      </_data>\r\n    </DecoratorGuard>\r\n    <ActionNode
    id=\"14\">\r\n      <_data>\r\n        <data selected=\"False\" position=\"701
    204.3986\" name=\"Custom/Movement/Hangout\" description=\"Tells the character
    to hangout at a target position when they don't see any enemies\" cardinality=\"0\"
    hasParent=\"True\">\r\n          <BehaviorTree id=\"0\" />\r\n          <ActionNode
    id=\"14\" />\r\n          <SelectorNode id=\"1\" />\r\n        </data>\r\n      </_data>\r\n
    \   </ActionNode>\r\n    <ConditionEvalNode id=\"28\">\r\n      <_data>\r\n        <data
    selected=\"False\" position=\"0 0\" name=\"DecoratorGuard\" description=\"Description\"
    cardinality=\"1\" hasParent=\"False\">\r\n          <BehaviorTree id=\"24\" />\r\n
    \         <ConditionEvalNode id=\"28\" />\r\n        </data>\r\n      </_data>\r\n
    \   </ConditionEvalNode>\r\n    <ActionNode id=\"4\">\r\n      <_data>\r\n        <data
    selected=\"True\" position=\"410 313.35\" name=\"Custom/Other/SwitchTreeAttack\"
    description=\"switches to the monster attack tree\" cardinality=\"0\" hasParent=\"True\">\r\n
    \         <BehaviorTree id=\"0\" />\r\n          <ActionNode id=\"4\" />\r\n          <DecoratorGuard
    id=\"27\" />\r\n        </data>\r\n      </_data>\r\n    </ActionNode>\r\n  </editorInfo>\r\n
    \ <runtimeInfo>\r\n    <BehaviorTree id=\"24\" nextId=\"1\">\r\n      <inputParams
    />\r\n      <outputParams />\r\n      <localParams />\r\n    </BehaviorTree>\r\n
    \ </runtimeInfo>\r\n  <editorInfo>\r\n    <BehaviorTree id=\"24\" _removeIfClosed=\"False\">\r\n
    \     <_rootList />\r\n      <_nodes>\r\n        <nodes />\r\n      </_nodes>\r\n
    \   </BehaviorTree>\r\n  </editorInfo>\r\n</BehaviorBricks>"
  subslist: []
  _guid: 6be74983e9af7c947bb6f5f359e07a55
