# Blender v2.78 (sub 0) OBJ File: ''
# www.blender.org
mtllib Thuja_BushTree_m_06.mtl
o Thuja_BushTree_m_06
v -0.456411 3.137637 -0.055856
v -0.362660 3.197462 -0.251250
v -0.567815 2.464821 -0.365902
v -0.820438 1.061753 -0.141975
v -0.631542 0.386310 -0.330600
v -0.690306 0.277135 0.125826
v -0.596762 1.049027 -0.597246
v -0.669619 2.329231 0.131131
v -0.721380 0.811897 0.495148
v -0.472485 1.851137 0.594103
v -0.221736 2.223476 -0.671743
v -0.223299 3.161026 -0.355277
v -0.008016 3.199010 -0.302704
v 0.288436 1.884722 -0.687817
v 0.275397 2.983443 -0.248179
v 0.585104 1.927393 -0.467171
v 0.134542 0.635129 -0.853946
v 0.298650 0.148285 -0.647863
v -0.198352 0.226892 -0.682587
v 0.698874 0.693578 -0.502611
v -0.330061 0.958281 -0.794334
v 0.638647 2.159630 -0.051321
v 0.277808 3.109138 0.026873
v 0.606149 2.026040 0.294845
v 0.174516 2.873555 0.319883
v 0.423757 1.828402 0.619809
v 0.824941 0.684925 0.144252
v 0.491967 0.028798 0.319495
v 0.697439 0.150085 -0.103739
v 0.487081 0.659737 0.718816
v -0.008355 1.820815 0.727560
v -0.033197 3.163222 0.223096
v -0.169738 0.494157 0.853538
v -0.346017 0.162676 0.662452
v 0.099663 0.075971 0.697827
v -0.609152 0.173738 0.521773
v -0.199759 -0.113006 -0.003556
v -0.146580 -0.031683 -0.413090
v 0.392040 -0.066992 -0.178955
v -0.180144 -0.079980 0.415297
v 0.013565 3.423928 -0.047690
v -0.247531 3.413600 -0.121423
v -0.322592 3.154458 0.132257
v -0.315448 3.339062 -0.177341
v -0.391339 0.137984 -0.377354
v -0.179230 -0.102469 0.211749
v 0.127226 2.592729 -0.504233
v 0.141775 3.271317 -0.144084
v 0.359446 0.046230 -0.429620
v 0.515414 1.916616 0.478429
v 0.444666 2.430709 -0.369611
v -0.261475 0.019718 0.560593
v 0.638604 2.109421 0.124677
v -0.429758 0.300885 -0.519878
v 0.574598 0.234279 -0.358985
v -0.185474 -0.075448 -0.218861
v 0.232287 1.181711 0.772031
v 0.149332 -0.063035 0.376442
v 0.158096 0.546577 0.823488
v -0.595365 2.090158 0.377965
v -0.287897 3.175626 -0.313377
v -0.084024 1.117060 0.818027
v -0.409205 2.565788 0.352682
v 0.449683 2.622877 0.148898
v 0.597493 1.300377 0.510262
v -0.425804 0.039461 0.470489
v -0.680232 0.340321 -0.107892
v -0.277920 3.336573 0.000316
v -0.491695 0.171210 0.589780
v 0.120306 3.235838 0.108738
v -0.558161 2.806072 0.018560
v -0.149164 3.351027 0.043032
v 0.713492 1.405622 -0.266410
v -0.011988 -0.024999 0.560590
v -0.091079 2.740229 -0.504586
v -0.038446 1.398212 -0.800882
v -0.462973 0.647344 0.704127
v 0.429526 0.641985 -0.719374
v -0.134392 3.181552 -0.336136
v -0.785220 0.627968 -0.003611
v -0.245660 1.820102 0.682163
v -0.710633 1.766773 -0.269861
v -0.350371 1.129982 0.752507
v 0.072018 3.046849 0.271926
v 0.502971 0.350799 -0.598206
v -0.639624 2.415666 -0.124886
v 0.462996 1.308339 0.680909
v -0.271072 0.284604 0.763526
v 0.280966 3.089420 -0.104133
v -0.762402 1.699788 0.001338
v 0.244652 0.335852 -0.763770
v -0.505787 2.761872 0.159489
v 0.797961 0.704547 -0.176339
v -0.450198 0.111799 -0.168725
v 0.529488 0.290084 0.536475
v -0.284971 1.478563 -0.761488
v -0.404459 3.160186 0.039231
v 0.697605 0.309772 0.257711
v 0.284711 2.492610 -0.473987
v 0.575512 0.044981 -0.134210
v 0.297799 0.287687 0.726481
v 0.227874 1.234354 -0.788782
v -0.413895 3.196050 -0.154943
v -0.178854 0.075591 -0.553325
v -0.467368 0.060322 0.053542
v 0.134733 3.106633 -0.283073
v 0.111084 -0.080314 -0.300035
v 0.720826 0.351206 -0.280578
v 0.687355 0.657460 0.438645
v -0.125056 3.367243 -0.200302
v 0.109930 -0.124628 -0.075693
v -0.535843 0.434091 0.617385
v -0.415058 2.365425 -0.532837
v 0.734842 1.346523 0.244394
v 0.464933 2.687606 -0.002509
v -0.004173 3.353049 0.075695
v 0.301635 2.339288 0.482121
v 0.302520 0.050599 0.539804
v -0.311558 2.786628 -0.455681
v 0.441946 -0.055135 0.065904
v 0.226752 3.030119 0.169682
v 0.085320 0.028309 -0.532680
v -0.433633 1.650027 -0.656073
v 0.758546 1.410094 0.034132
v -0.183894 3.159341 0.186441
v -0.749349 0.533134 0.298974
v 0.155331 -0.088847 0.162483
v -0.635897 0.677755 -0.472335
v 0.389781 2.528663 0.300700
v -0.050920 2.532092 0.483629
v -0.679025 0.427530 0.513181
v -0.270559 0.582214 -0.756400
v -0.129591 0.095388 0.692039
v 0.652710 1.393363 -0.495811
v -0.724825 1.567454 0.314980
v -0.012865 0.234182 0.798703
v -0.123583 0.810501 -0.833520
v -0.219055 2.812344 -0.493008
v -0.728517 1.075984 -0.384836
v -0.123744 3.433224 -0.080603
v -0.231820 3.315889 -0.241494
v 0.504158 1.243282 -0.647580
v 0.057907 0.151627 -0.684474
v 0.616310 2.042460 -0.279068
v 0.041994 2.041442 -0.702822
v -0.594261 1.752055 -0.496080
v 0.230663 1.815307 0.682494
v -0.253957 2.544439 0.424412
v -0.021468 0.368541 -0.791431
v -0.757560 0.690606 -0.248683
v -0.446869 0.054991 0.268033
v 0.082214 2.435112 0.519204
v -0.799366 0.967078 0.173957
v -0.652061 0.222184 0.352617
v 0.773747 0.353688 -0.001614
v 0.459098 2.640305 -0.150985
v -0.451709 2.883790 -0.321791
v 0.007783 3.365696 -0.167302
v -0.608716 1.315558 0.570711
v -0.520244 2.861705 -0.192915
v -0.451796 1.009990 -0.714858
v 0.630397 0.083970 0.092448
v -0.427233 0.588518 -0.646852
v -0.355224 3.309263 -0.075364
v 0.463390 1.886533 -0.579517
v 0.144088 3.307214 -0.018552
vt 0.6706 0.6037
vt 0.6695 0.6047
vt 0.6678 0.5968
vt 0.6671 0.5494
vt 0.6650 0.5411
vt 0.6684 0.5390
vt 0.6649 0.5899
vt 0.6623 0.5696
vt 0.6660 0.5696
vt 0.6633 0.5494
vt 0.6722 0.5858
vt 0.6746 0.5644
vt 0.6763 0.5784
vt 0.6720 0.5462
vt 0.6565 0.5841
vt 0.6610 0.5944
vt 0.6604 0.5967
vt 0.6624 0.5949
vt 0.7311 0.5844
vt 0.7253 0.5983
vt 0.7283 0.5786
vt 0.7255 0.5728
vt 0.7212 0.5888
vt 0.7226 0.5733
vt 0.7311 0.5355
vt 0.7262 0.5311
vt 0.7295 0.5280
vt 0.7228 0.5568
vt 0.7283 0.5541
vt 0.7257 0.5382
vt 0.6581 0.5667
vt 0.6607 0.5870
vt 0.6463 0.5364
vt 0.6497 0.5303
vt 0.6505 0.5423
vt 0.7130 0.5819
vt 0.7149 0.5933
vt 0.7130 0.5949
vt 0.7107 0.5798
vt 0.7084 0.5777
vt 0.7081 0.5907
vt 0.7053 0.5748
vt 0.7099 0.5413
vt 0.7083 0.5340
vt 0.7111 0.5355
vt 0.7041 0.5588
vt 0.7092 0.5595
vt 0.7049 0.5406
vt 0.7166 0.5614
vt 0.7163 0.5778
vt 0.7150 0.5411
vt 0.6946 0.5733
vt 0.7012 0.5885
vt 0.7014 0.5931
vt 0.6908 0.5741
vt 0.6893 0.5320
vt 0.6903 0.5267
vt 0.6942 0.5283
vt 0.6805 0.5711
vt 0.6787 0.5570
vt 0.6838 0.5507
vt 0.6872 0.5302
vt 0.6821 0.5366
vt 0.6842 0.5265
vt 0.6973 0.5566
vt 0.6983 0.5725
vt 0.6946 0.5360
vt 0.6762 0.5254
vt 0.6766 0.5342
vt 0.6730 0.5271
vt 0.6658 0.5127
vt 0.6643 0.5228
vt 0.6618 0.5146
vt 0.7197 0.5150
vt 0.7204 0.5209
vt 0.7164 0.5193
vt 0.7132 0.5235
vt 0.7167 0.5322
vt 0.7127 0.5267
vt 0.7097 0.5127
vt 0.7082 0.5197
vt 0.7057 0.5143
vt 0.7067 0.5267
vt 0.7033 0.5333
vt 0.7030 0.5257
vt 0.7083 0.6128
vt 0.7081 0.6082
vt 0.7106 0.6103
vt 0.7149 0.6181
vt 0.7159 0.6114
vt 0.7172 0.6152
vt 0.6695 0.6089
vt 0.6689 0.6073
vt 0.6701 0.6063
vt 0.6643 0.6092
vt 0.6649 0.6070
vt 0.6669 0.6091
vt 0.6707 0.6132
vt 0.6719 0.6091
vt 0.6733 0.6109
vt 0.6714 0.5947
vt 0.6719 0.6044
vt 0.6727 0.5954
vt 0.6686 0.5878
vt 0.6697 0.5676
vt 0.7225 0.5925
vt 0.7311 0.5599
vt 0.6514 0.5603
vt 0.6556 0.5662
vt 0.6547 0.5482
vt 0.6539 0.5362
vt 0.6572 0.5488
vt 0.7107 0.5928
vt 0.7114 0.5616
vt 0.6782 0.5899
vt 0.6768 0.5881
vt 0.6919 0.5526
vt 0.6701 0.5127
vt 0.6678 0.5207
vt 0.7017 0.5160
vt 0.7004 0.5203
vt 0.6965 0.5187
vt 0.6812 0.5228
vt 0.6791 0.5329
vt 0.6787 0.5241
vt 0.6628 0.5328
vt 0.6612 0.5411
vt 0.6580 0.5286
vt 0.7147 0.5138
vt 0.7114 0.5181
vt 0.7238 0.5178
vt 0.7172 0.5251
vt 0.7042 0.5214
vt 0.7099 0.5251
vt 0.7116 0.6155
vt 0.7140 0.6129
vt 0.6675 0.6112
vt 0.6701 0.6111
vt 0.6675 0.6069
vt 0.6714 0.6070
vt 0.6745 0.5127
vt 0.6779 0.5178
vt 0.6753 0.5191
vt 0.6721 0.5207
vt 0.6579 0.5166
vt 0.6603 0.5247
vt 0.6556 0.5204
vt 0.6532 0.5243
vt 0.6697 0.5287
vt 0.6732 0.6051
vt 0.6669 0.6053
vt 0.6684 0.6058
vt 0.6655 0.6048
vt 0.7149 0.6063
vt 0.7169 0.6048
vt 0.7130 0.6078
vt 0.7095 0.5282
vt 0.7123 0.5298
vt 0.6992 0.5247
vt 0.7207 0.5338
vt 0.7202 0.5409
vt 0.7212 0.5267
vt 0.7246 0.5236
vt 0.7279 0.5205
vt 0.6564 0.5368
vt 0.6596 0.5493
vt 0.6662 0.5308
vt 0.6770 0.5430
vt 0.6952 0.5230
vt 0.6913 0.5214
vt 0.6999 0.5399
vt 0.6881 0.5534
vt 0.6869 0.5748
vt 0.6746 0.6069
vt 0.6760 0.6087
vt 0.7049 0.5877
vt 0.7078 0.6036
vt 0.7021 0.5718
vt 0.7010 0.5559
vt 0.7104 0.6057
vt 0.7183 0.5893
vt 0.7197 0.5738
vt 0.7199 0.5574
vt 0.7182 0.6085
vt 0.7195 0.6123
vt 0.6666 0.5978
vt 0.6995 0.5323
vt 0.7163 0.5353
vt 0.6733 0.5358
vt 0.6976 0.5938
vn -0.9114 0.4003 0.0951
vn -0.8617 0.4307 -0.2684
vn -0.9240 0.2799 -0.2604
vn -0.9894 0.0102 -0.1447
vn -0.9332 -0.1781 -0.3122
vn -0.9818 -0.1841 -0.0470
vn -0.8327 0.2125 -0.5113
vn -0.7798 0.1214 -0.6142
vn -0.9424 0.1225 -0.3112
vn -0.8950 0.0075 -0.4460
vn -0.9463 0.2211 0.2359
vn -0.9311 0.1174 0.3454
vn -0.7851 0.2305 0.5749
vn -0.9886 0.0024 0.1503
vn -0.2126 0.2247 -0.9509
vn -0.1656 0.3329 -0.9283
vn 0.1575 0.3270 -0.9318
vn -0.4838 0.2944 -0.8242
vn 0.1204 0.2205 -0.9679
vn 0.3537 0.1967 -0.9144
vn 0.4910 0.3291 -0.8066
vn 0.5741 0.2045 -0.7928
vn 0.1431 -0.0767 -0.9867
vn 0.2961 -0.3189 -0.9004
vn -0.1341 -0.3096 -0.9414
vn 0.5723 0.0715 -0.8169
vn 0.2862 0.0887 -0.9541
vn 0.5304 -0.0683 -0.8450
vn -0.5663 0.1274 -0.8143
vn -0.5615 0.2126 -0.7997
vn -0.1622 -0.0386 -0.9860
vn 0.9658 0.2478 -0.0761
vn 0.9020 0.3428 -0.2624
vn 0.9305 0.3633 0.0475
vn 0.9524 0.2414 0.1862
vn 0.8732 0.2383 0.4251
vn 0.7162 0.3531 0.6020
vn 0.7740 0.2353 0.5878
vn 0.9826 -0.0487 0.1793
vn 0.8695 -0.3438 0.3546
vn 0.9630 -0.2680 0.0268
vn 0.8326 0.0977 0.5452
vn 0.9412 0.1149 0.3178
vn 0.8625 -0.0751 0.5005
vn 0.9709 0.1149 -0.2101
vn 0.9391 0.2276 -0.2576
vn 0.9817 -0.0207 -0.1893
vn -0.0006 0.2227 0.9749
vn 0.1441 0.3366 0.9305
vn -0.1163 0.3559 0.9273
vn -0.2562 0.2258 0.9399
vn -0.1941 -0.0923 0.9766
vn -0.3857 -0.3227 0.8644
vn 0.0303 -0.3669 0.9298
vn -0.5443 0.2193 0.8097
vn -0.7104 0.1019 0.6964
vn -0.3946 0.0849 0.9149
vn -0.5552 -0.0452 0.8305
vn 0.2276 0.0910 0.9695
vn 0.2409 0.2168 0.9460
vn 0.2158 -0.0670 0.9741
vn -0.7135 -0.5282 0.4603
vn -0.8252 -0.1590 0.5420
vn -0.8387 -0.5424 0.0489
vn -0.3100 -0.9495 -0.0485
vn -0.6559 -0.7146 -0.2432
vn -0.3524 -0.9081 -0.2262
vn -0.2873 -0.8692 -0.4024
vn 0.0643 -0.8439 -0.5327
vn 0.0767 -0.9454 -0.3168
vn 0.3881 -0.8873 -0.2490
vn 0.6920 -0.5281 -0.4922
vn 0.6123 -0.7352 -0.2909
vn 0.1285 -0.9822 0.1369
vn -0.2258 -0.9706 0.0838
vn 0.5561 -0.7484 0.3614
vn 0.7098 -0.3818 0.5920
vn 0.4250 -0.7302 0.5349
vn -0.0008 0.5300 0.8480
vn 0.2602 0.4665 0.8454
vn 0.5210 0.5867 0.6200
vn 0.3311 0.9401 0.0807
vn 0.6674 0.6077 -0.4304
vn 0.3575 0.7342 -0.5771
vn -0.3598 0.9256 -0.1178
vn -0.6046 0.6642 -0.4398
vn -0.7604 0.6301 0.1574
vn 0.2866 0.4932 -0.8213
vn 0.1154 0.4834 -0.8678
vn 0.0641 0.7465 -0.6623
vn -0.2146 0.7375 0.6404
vn 0.1544 0.7464 0.6474
vn -0.9408 0.2968 0.1639
vn -0.7441 0.4596 0.4849
vn -0.7660 0.3293 0.5521
vn -0.9704 0.1912 -0.1474
vn -0.9931 0.1172 0.0042
vn 0.3010 0.3319 -0.8940
vn -0.0058 0.1085 -0.9941
vn -0.3121 0.1085 -0.9438
vn -0.3898 -0.0297 -0.9204
vn -0.4324 -0.2016 -0.8789
vn -0.5913 -0.0290 -0.8059
vn 0.8475 0.3602 0.3898
vn 0.9918 0.1277 -0.0001
vn -0.2972 0.3490 0.8888
vn -0.5265 0.3386 0.7798
vn -0.0535 0.0980 0.9938
vn -0.6297 -0.7720 -0.0870
vn -0.1939 -0.9507 0.2418
vn 0.0344 -0.8826 0.4689
vn -0.2793 -0.7826 0.5563
vn -0.4038 -0.4961 0.7687
vn -0.5743 -0.1385 0.8068
vn -0.4514 -0.4480 0.7717
vn -0.7985 -0.4323 -0.4190
vn -0.7852 -0.1956 -0.5875
vn -0.6569 -0.4492 -0.6055
vn 0.0522 -0.9980 -0.0356
vn -0.3684 -0.7159 -0.5931
vn 0.4738 -0.7583 -0.4477
vn 0.1902 -0.9528 0.2365
vn 0.3852 -0.9174 0.1001
vn 0.7105 0.6874 0.1505
vn -0.0501 0.9981 0.0355
vn -0.1953 0.6374 -0.7453
vn -0.4595 0.7063 0.5386
vn -0.4795 -0.8373 0.2628
vn -0.5724 -0.8199 0.0133
vn -0.6365 -0.6704 -0.3813
vn -0.4073 -0.4786 -0.7779
vn -0.8604 -0.5067 -0.0541
vn -0.4973 0.4777 0.7243
vn -0.4619 0.4277 -0.7770
vn -0.6620 0.4308 -0.6134
vn -0.1758 0.4480 -0.8766
vn 0.8533 0.4760 -0.2126
vn 0.7172 0.4117 -0.5623
vn 0.8328 0.4992 0.2394
vn 0.7524 -0.6390 0.1603
vn 0.8160 -0.5439 -0.1957
vn 0.1972 -0.6641 0.7211
vn 0.6851 -0.3615 -0.6324
vn 0.8320 -0.0818 -0.5487
vn 0.3888 -0.6275 -0.6746
vn -0.0218 -0.6260 -0.7795
vn -0.6253 -0.2343 -0.7444
vn -0.7432 -0.0167 -0.6688
vn -0.8500 -0.4800 -0.2172
vn -0.8496 -0.0089 0.5273
vn -0.1760 -0.6471 0.7418
vn 0.5958 -0.0669 0.8003
vn -0.2725 0.4955 0.8248
vn 0.4860 0.3368 0.8064
vn 0.4524 0.4028 0.7957
vn 0.5502 0.2194 0.8057
vn 0.5725 0.1099 0.8125
vn 0.6574 0.4524 0.6027
vn 0.7596 0.3274 -0.5619
vn 0.8144 0.2177 -0.5379
vn 0.8458 0.1032 -0.5233
vn 0.4796 0.4489 -0.7539
vn -0.7211 0.3138 -0.6177
vn 0.4392 -0.3515 0.8268
vn 0.8441 -0.3339 -0.4196
vn -0.9742 -0.1676 0.1513
usemtl None
s 1
f 1/1/1 103/2/2 160/3/3
f 4/4/4 150/5/5 80/6/6
f 3/7/7 146/8/8 82/9/9
f 4/4/4 139/10/10 150/5/5
f 8/11/11 135/12/12 60/13/13
f 4/4/4 80/6/6 153/14/14
f 11/15/15 138/16/16 75/17/17
f 11/15/15 119/18/18 138/16/16
f 11/19/15 75/20/17 145/21/19
f 14/22/20 99/23/21 165/24/22
f 17/25/23 91/26/24 149/27/25
f 14/22/20 142/28/26 102/29/27
f 17/25/23 78/30/28 91/26/24
f 11/15/15 123/31/29 113/32/30
f 17/33/23 149/34/25 137/35/31
f 22/36/32 156/37/33 115/38/34
f 22/36/32 115/38/34 53/39/35
f 24/40/36 129/41/37 50/42/38
f 27/43/39 98/44/40 155/45/41
f 24/40/36 65/46/42 114/47/43
f 27/43/39 109/48/44 98/44/40
f 22/36/32 73/49/45 144/50/46
f 27/43/39 155/45/41 93/51/47
f 31/52/48 152/53/49 130/54/50
f 31/52/48 130/54/50 81/55/51
f 33/56/52 88/57/53 136/58/54
f 10/59/55 159/60/56 83/61/57
f 33/62/52 77/63/58 88/64/53
f 31/52/48 57/65/59 147/66/60
f 33/56/52 136/58/54 59/67/61
f 36/68/62 131/69/63 154/70/64
f 37/71/65 94/72/66 56/73/67
f 38/74/68 122/75/69 107/76/70
f 39/77/71 55/78/72 100/79/73
f 37/80/65 127/81/74 46/82/75
f 28/83/76 95/84/77 118/85/78
f 32/86/79 84/87/80 70/88/81
f 41/89/82 48/90/83 158/91/84
f 42/92/85 44/93/86 164/94/87
f 13/95/88 79/96/89 110/97/90
f 41/98/82 72/99/91 116/100/92
f 1/1/1 71/101/93 97/102/94
f 8/11/11 60/13/13 92/103/95
f 8/11/11 71/101/93 86/104/96
f 8/11/11 86/104/96 90/105/97
f 8/11/11 90/105/97 135/12/12
f 11/15/15 113/32/30 119/18/18
f 14/22/20 47/106/98 99/23/21
f 11/19/15 145/21/19 76/107/99
f 14/22/20 165/24/22 142/28/26
f 11/15/15 76/108/99 96/109/100
f 11/15/15 96/109/100 123/31/29
f 21/110/101 132/111/102 161/112/103
f 22/36/32 144/50/46 156/37/33
f 24/40/36 64/113/104 129/41/37
f 22/36/32 53/39/35 124/114/105
f 24/40/36 50/42/38 65/46/42
f 22/36/32 124/114/105 73/49/45
f 31/52/48 147/66/60 152/53/49
f 10/59/55 148/115/106 63/116/107
f 31/52/48 81/55/51 62/117/108
f 31/52/48 62/117/108 57/65/59
f 37/71/65 46/118/75 105/119/109
f 40/120/110 74/121/111 52/122/112
f 34/123/113 112/124/114 69/125/115
f 37/71/65 105/119/109 94/72/66
f 5/126/116 128/127/117 54/128/118
f 37/80/65 56/129/67 111/130/119
f 38/74/68 104/131/120 122/75/69
f 39/77/71 49/132/121 55/78/72
f 37/80/65 111/130/119 127/81/74
f 40/120/110 58/133/122 74/121/111
f 39/77/71 100/79/73 120/134/123
f 41/89/82 116/135/92 166/136/124
f 41/89/82 166/136/124 48/90/83
f 41/98/82 158/137/84 140/138/125
f 42/92/85 141/139/126 44/93/86
f 41/98/82 140/138/125 72/99/91
f 42/92/85 164/94/87 68/140/127
f 40/141/110 52/142/112 66/143/128
f 40/141/110 66/143/128 151/144/129
f 38/145/68 45/146/130 104/147/120
f 104/147/120 54/128/118 19/148/131
f 104/147/120 45/146/130 54/128/118
f 45/146/130 5/126/116 54/128/118
f 151/144/129 154/70/64 6/149/132
f 151/144/129 66/143/128 154/70/64
f 66/143/128 36/68/62 154/70/64
f 66/143/128 69/125/115 36/68/62
f 66/143/128 52/142/112 69/125/115
f 52/142/112 34/123/113 69/125/115
f 68/140/127 97/102/94 43/150/133
f 68/140/127 164/94/87 97/102/94
f 164/94/87 1/1/1 97/102/94
f 72/99/91 68/140/127 43/150/133
f 72/99/91 140/138/125 68/140/127
f 140/138/125 42/92/85 68/140/127
f 44/93/86 61/151/134 2/152/135
f 44/93/86 141/139/126 61/151/134
f 141/139/126 12/153/136 61/151/134
f 140/138/125 110/97/90 42/92/85
f 140/138/125 158/137/84 110/97/90
f 158/137/84 13/95/88 110/97/90
f 48/90/83 89/154/137 15/155/138
f 48/90/83 166/136/124 89/154/137
f 166/136/124 23/156/139 89/154/137
f 166/136/124 70/88/81 23/156/139
f 166/136/124 116/135/92 70/88/81
f 116/135/92 32/86/79 70/88/81
f 120/134/123 162/157/140 28/83/76
f 120/134/123 100/79/73 162/157/140
f 100/79/73 29/158/141 162/157/140
f 74/121/111 118/85/78 35/159/142
f 74/121/111 58/133/122 118/85/78
f 58/133/122 28/83/76 118/85/78
f 127/81/74 120/134/123 28/83/76
f 127/81/74 111/130/119 120/134/123
f 111/130/119 39/77/71 120/134/123
f 55/78/72 85/160/143 20/161/144
f 55/78/72 49/132/121 85/160/143
f 49/132/121 18/162/145 85/160/143
f 122/75/69 143/163/146 18/162/145
f 122/75/69 104/131/120 143/163/146
f 104/131/120 19/164/131 143/163/146
f 111/130/119 107/76/70 39/77/71
f 111/130/119 56/129/67 107/76/70
f 56/129/67 38/74/68 107/76/70
f 54/128/118 163/165/147 19/148/131
f 54/128/118 128/127/117 163/165/147
f 128/127/117 7/166/148 163/165/147
f 94/72/66 67/167/149 5/126/116
f 94/72/66 105/119/109 67/167/149
f 105/119/109 6/149/132 67/167/149
f 69/125/115 131/69/63 36/68/62
f 69/125/115 112/124/114 131/69/63
f 112/124/114 9/168/150 131/69/63
f 52/122/112 133/169/151 34/170/113
f 52/122/112 74/121/111 133/169/151
f 74/121/111 35/159/142 133/169/151
f 105/119/109 151/144/129 6/149/132
f 105/119/109 46/118/75 151/144/129
f 46/118/75 40/141/110 151/144/129
f 57/65/59 59/67/61 30/171/152
f 57/65/59 62/117/108 59/67/61
f 62/117/108 33/56/52 59/67/61
f 62/117/108 83/172/57 33/56/52
f 62/117/108 81/55/51 83/172/57
f 81/55/51 10/173/55 83/172/57
f 63/116/107 125/174/153 43/150/133
f 63/116/107 148/115/106 125/174/153
f 148/115/106 32/175/79 125/174/153
f 152/53/49 117/176/154 25/177/155
f 152/53/49 147/66/60 117/176/154
f 147/66/60 26/178/156 117/176/154
f 73/49/45 93/51/47 20/161/144
f 73/49/45 124/114/105 93/51/47
f 124/114/105 27/43/39 93/51/47
f 65/46/42 87/179/157 30/171/152
f 65/46/42 50/42/38 87/179/157
f 50/42/38 26/178/156 87/179/157
f 124/114/105 114/47/43 27/43/39
f 124/114/105 53/39/35 114/47/43
f 53/39/35 24/40/36 114/47/43
f 129/41/37 121/180/158 25/177/155
f 129/41/37 64/113/104 121/180/158
f 64/113/104 23/156/139 121/180/158
f 156/37/33 51/181/159 15/155/138
f 156/37/33 144/50/46 51/181/159
f 144/50/46 16/182/160 51/181/159
f 161/112/103 163/165/147 7/166/148
f 161/112/103 132/111/102 163/165/147
f 132/111/102 19/148/131 163/165/147
f 123/31/29 161/112/103 7/166/148
f 123/31/29 96/109/100 161/112/103
f 96/109/100 21/110/101 161/112/103
f 96/109/100 137/35/31 21/110/101
f 96/109/100 76/108/99 137/35/31
f 76/108/99 17/33/23 137/35/31
f 142/28/26 134/183/161 20/161/144
f 142/28/26 165/24/22 134/183/161
f 165/24/22 16/182/160 134/183/161
f 76/107/99 102/29/27 17/25/23
f 76/107/99 145/21/19 102/29/27
f 145/21/19 14/22/20 102/29/27
f 99/23/21 106/184/162 15/155/138
f 99/23/21 47/106/98 106/184/162
f 47/106/98 13/185/88 106/184/162
f 119/18/18 157/186/163 2/152/135
f 119/18/18 113/32/30 157/186/163
f 113/32/30 3/7/7 157/186/163
f 135/12/12 153/14/14 9/168/150
f 135/12/12 90/105/97 153/14/14
f 90/105/97 4/4/4 153/14/14
f 90/105/97 82/9/9 4/4/4
f 90/105/97 86/104/96 82/9/9
f 86/104/96 3/7/7 82/9/9
f 86/104/96 160/3/3 3/7/7
f 86/104/96 71/101/93 160/3/3
f 71/101/93 1/1/1 160/3/3
f 92/103/95 63/116/107 43/150/133
f 92/103/95 60/13/13 63/116/107
f 60/13/13 10/59/55 63/116/107
f 97/102/94 92/103/95 43/150/133
f 97/102/94 71/101/93 92/103/95
f 71/101/93 8/11/11 92/103/95
f 116/100/92 125/174/153 32/175/79
f 116/100/92 72/99/91 125/174/153
f 72/99/91 43/150/133 125/174/153
f 110/97/90 141/139/126 42/92/85
f 110/97/90 79/96/89 141/139/126
f 79/96/89 12/153/136 141/139/126
f 164/94/87 103/2/2 1/1/1
f 164/94/87 44/93/86 103/2/2
f 44/93/86 2/152/135 103/2/2
f 158/91/84 106/184/162 13/185/88
f 158/91/84 48/90/83 106/184/162
f 48/90/83 15/155/138 106/184/162
f 70/88/81 121/180/158 23/156/139
f 70/88/81 84/87/80 121/180/158
f 84/87/80 25/177/155 121/180/158
f 118/85/78 101/187/164 35/159/142
f 118/85/78 95/84/77 101/187/164
f 95/84/77 30/171/152 101/187/164
f 46/82/75 58/133/122 40/120/110
f 46/82/75 127/81/74 58/133/122
f 127/81/74 28/83/76 58/133/122
f 100/79/73 108/188/165 29/158/141
f 100/79/73 55/78/72 108/188/165
f 55/78/72 20/161/144 108/188/165
f 107/76/70 49/132/121 39/77/71
f 107/76/70 122/75/69 49/132/121
f 122/75/69 18/162/145 49/132/121
f 56/73/67 45/146/130 38/145/68
f 56/73/67 94/72/66 45/146/130
f 94/72/66 5/126/116 45/146/130
f 154/70/64 126/189/166 6/149/132
f 154/70/64 131/69/63 126/189/166
f 131/69/63 9/168/150 126/189/166
f 59/67/61 101/187/164 30/171/152
f 59/67/61 136/58/54 101/187/164
f 136/58/54 35/159/142 101/187/164
f 147/66/60 87/179/157 26/178/156
f 147/66/60 57/65/59 87/179/157
f 57/65/59 30/171/152 87/179/157
f 88/64/53 112/124/114 34/123/113
f 88/64/53 77/63/58 112/124/114
f 77/63/58 9/168/150 112/124/114
f 83/61/57 77/63/58 33/62/52
f 83/61/57 159/60/56 77/63/58
f 159/60/56 9/168/150 77/63/58
f 136/58/54 133/169/151 35/159/142
f 136/58/54 88/57/53 133/169/151
f 88/57/53 34/170/113 133/169/151
f 81/55/51 148/190/106 10/173/55
f 81/55/51 130/54/50 148/190/106
f 130/54/50 32/86/79 148/190/106
f 130/54/50 84/87/80 32/86/79
f 130/54/50 152/53/49 84/87/80
f 152/53/49 25/177/155 84/87/80
f 93/51/47 108/188/165 20/161/144
f 93/51/47 155/45/41 108/188/165
f 155/45/41 29/158/141 108/188/165
f 144/50/46 134/183/161 16/182/160
f 144/50/46 73/49/45 134/183/161
f 73/49/45 20/161/144 134/183/161
f 98/44/40 95/84/77 28/83/76
f 98/44/40 109/48/44 95/84/77
f 109/48/44 30/171/152 95/84/77
f 114/47/43 109/48/44 27/43/39
f 114/47/43 65/46/42 109/48/44
f 65/46/42 30/171/152 109/48/44
f 155/45/41 162/157/140 29/158/141
f 155/45/41 98/44/40 162/157/140
f 98/44/40 28/83/76 162/157/140
f 50/42/38 117/176/154 26/178/156
f 50/42/38 129/41/37 117/176/154
f 129/41/37 25/177/155 117/176/154
f 53/39/35 64/113/104 24/40/36
f 53/39/35 115/38/34 64/113/104
f 115/38/34 23/156/139 64/113/104
f 115/38/34 89/154/137 23/156/139
f 115/38/34 156/37/33 89/154/137
f 156/37/33 15/155/138 89/154/137
f 137/35/31 132/111/102 21/110/101
f 137/35/31 149/34/25 132/111/102
f 149/34/25 19/148/131 132/111/102
f 113/32/30 146/8/8 3/7/7
f 113/32/30 123/31/29 146/8/8
f 123/31/29 7/166/148 146/8/8
f 91/26/24 85/160/143 18/162/145
f 91/26/24 78/30/28 85/160/143
f 78/30/28 20/161/144 85/160/143
f 102/29/27 78/30/28 17/25/23
f 102/29/27 142/28/26 78/30/28
f 142/28/26 20/161/144 78/30/28
f 149/27/25 143/163/146 19/164/131
f 149/27/25 91/26/24 143/163/146
f 91/26/24 18/162/145 143/163/146
f 165/24/22 51/181/159 16/182/160
f 165/24/22 99/23/21 51/181/159
f 99/23/21 15/155/138 51/181/159
f 145/21/19 47/106/98 14/22/20
f 145/21/19 75/20/17 47/106/98
f 75/20/17 13/185/88 47/106/98
f 138/16/16 61/151/134 12/153/136
f 138/16/16 119/18/18 61/151/134
f 119/18/18 2/152/135 61/151/134
f 75/17/17 79/96/89 13/95/88
f 75/17/17 138/16/16 79/96/89
f 138/16/16 12/153/136 79/96/89
f 153/14/14 126/189/166 9/168/150
f 153/14/14 80/6/6 126/189/166
f 80/6/6 6/149/132 126/189/166
f 60/13/13 159/60/56 10/59/55
f 60/13/13 135/12/12 159/60/56
f 135/12/12 9/168/150 159/60/56
f 150/5/5 128/127/117 5/126/116
f 150/5/5 139/10/10 128/127/117
f 139/10/10 7/166/148 128/127/117
f 82/9/9 139/10/10 4/4/4
f 82/9/9 146/8/8 139/10/10
f 146/8/8 7/166/148 139/10/10
f 80/6/6 67/167/149 6/149/132
f 80/6/6 150/5/5 67/167/149
f 150/5/5 5/126/116 67/167/149
f 160/3/3 157/186/163 3/7/7
f 160/3/3 103/2/2 157/186/163
f 103/2/2 2/152/135 157/186/163
