# Blender v2.78 (sub 0) OBJ File: ''
# www.blender.org
mtllib Thuja_BushTree_m_08.mtl
o Thuja_BushTree_m_08
v 0.221943 3.756352 -0.038095
v 0.298201 3.804182 -0.162263
v -0.074100 3.019008 -0.231120
v -0.493966 1.385728 -0.090210
v -0.400755 0.557041 -0.214174
v -0.440545 0.430440 0.084973
v -0.350693 1.368219 -0.386724
v -0.180818 2.875964 0.083281
v -0.445303 1.077342 0.322487
v -0.177833 2.329436 0.380760
v 0.071542 2.730207 -0.427269
v 0.374736 3.757142 -0.224644
v 0.513057 3.761393 -0.194646
v 0.308508 2.334218 -0.439383
v 0.613248 3.501646 -0.158923
v 0.492867 2.368945 -0.299051
v 0.106758 0.876564 -0.552334
v 0.199003 0.275484 -0.419746
v -0.123315 0.381434 -0.444064
v 0.470045 0.934296 -0.323402
v -0.186552 1.249124 -0.516392
v 0.588214 2.600516 -0.036059
v 0.653953 3.639778 0.016982
v 0.532609 2.465652 0.190518
v 0.513561 3.389748 0.203567
v 0.368738 2.267795 0.398950
v 0.554143 0.924241 0.094705
v 0.323588 0.133385 0.208479
v 0.462132 0.280658 -0.065028
v 0.331377 0.900950 0.465954
v 0.107298 2.269446 0.466995
v 0.481581 3.718899 0.141936
v -0.097515 0.709889 0.554374
v -0.219136 0.293602 0.433914
v 0.071305 0.190953 0.455913
v -0.388673 0.307345 0.340185
v -0.121961 -0.033146 -0.001193
v -0.086814 0.061062 -0.268070
v 0.261440 0.022292 -0.117780
v -0.112385 0.005350 0.272783
v 0.594961 4.011390 -0.031945
v 0.439349 4.032173 -0.078602
v 0.308285 3.753201 0.081698
v 0.376114 3.961633 -0.113599
v -0.245944 0.253720 -0.245318
v -0.109008 -0.022264 0.140273
v 0.403548 3.117859 -0.323274
v 0.627386 3.839405 -0.092227
v 0.241010 0.156640 -0.281111
v 0.451384 2.351802 0.310597
v 0.542144 2.907639 -0.237817
v -0.164633 0.119113 0.369892
v 0.577488 2.553345 0.079371
v -0.273303 0.461265 -0.339238
v 0.382697 0.369847 -0.234580
v -0.113757 0.009635 -0.142659
v 0.193035 1.510201 0.503884
v 0.100546 0.017037 0.247521
v 0.114817 0.763808 0.538590
v -0.198893 2.604091 0.243458
v 0.338536 3.775682 -0.200995
v -0.009494 1.441550 0.531805
v 0.064993 3.129982 0.222616
v 0.601931 3.127173 0.094220
v 0.451011 1.630897 0.330926
v -0.274379 0.145839 0.307972
v -0.435216 0.505911 -0.068794
v 0.399438 3.959240 -0.002595
v -0.314552 0.304784 0.385272
v 0.603904 3.804204 0.066719
v 0.041026 3.416838 0.007906
v 0.479703 3.960582 0.025001
v 0.546635 1.743739 -0.171532
v 0.000956 0.066001 0.367416
v 0.308383 3.287667 -0.323429
v 0.069049 1.766534 -0.518655
v -0.287433 0.886423 0.461098
v 0.293610 0.875508 -0.469143
v 0.430184 3.763408 -0.214845
v -0.502103 0.850490 0.000755
v -0.040499 2.276468 0.440087
v -0.307033 2.213235 -0.173082
v -0.184577 1.467229 0.489467
v 0.509072 3.588681 0.172884
v 0.332519 0.508881 -0.389195
v -0.137758 2.974415 -0.079694
v 0.349488 1.677106 0.441092
v -0.171630 0.440119 0.498612
v 0.651670 3.624025 -0.065915
v -0.357238 2.141253 0.002143
v 0.168114 0.498476 -0.496152
v 0.055340 3.348025 0.103221
v 0.542301 0.948804 -0.112292
v -0.288098 0.226866 -0.108938
v 0.353308 0.442538 0.350727
v -0.095362 1.840647 -0.493826
v 0.259453 3.775326 0.022375
v 0.462791 0.465704 0.171406
v 0.470917 2.996887 -0.303203
v 0.385234 0.156284 -0.085967
v 0.199994 0.435101 0.475084
v 0.206045 1.576994 -0.509246
v 0.268418 3.816895 -0.101142
v -0.110333 0.190230 -0.360246
v -0.298556 0.167983 0.036106
v 0.570592 3.649505 -0.182593
v 0.078404 -0.001629 -0.195981
v 0.478174 0.510693 -0.177126
v 0.465880 0.891312 0.285782
v 0.501326 3.972393 -0.127603
v 0.080206 -0.053839 -0.047631
v -0.340242 0.610442 0.407768
v -0.012437 2.904790 -0.339507
v 0.545330 1.685950 0.161812
v 0.629102 3.190894 -0.001904
v 0.564927 3.940202 0.045455
v 0.426562 2.818769 0.310400
v 0.202565 0.159676 0.355918
v 0.185696 3.373057 -0.289648
v 0.292390 0.027504 0.042024
v 0.598377 3.563720 0.106940
v 0.063105 0.126346 -0.345586
v -0.166978 2.075125 -0.423302
v 0.576939 1.750327 0.019615
v 0.391181 3.735659 0.118419
v -0.481798 0.737899 0.195136
v 0.107797 -0.015227 0.107081
v -0.402854 0.907972 -0.307171
v 0.536740 3.031581 0.191721
v 0.270459 3.052594 0.310155
v -0.433884 0.600368 0.335108
v -0.165728 0.801660 -0.494186
v -0.078917 0.208713 0.453977
v 0.485517 1.769000 -0.319407
v -0.355466 1.979528 0.204018
v 0.000367 0.378627 0.522934
v -0.054978 1.081799 -0.541332
v 0.258994 3.401509 -0.309922
v -0.433784 1.405463 -0.249928
v 0.517803 4.040795 -0.052387
v 0.421713 3.929751 -0.153651
v 0.374092 1.577458 -0.421313
v 0.043343 0.277953 -0.446567
v 0.546839 2.481651 -0.182472
v 0.194958 2.514137 -0.450712
v -0.235781 2.191169 -0.319396
v 0.254812 2.255235 0.439599
v 0.152529 3.079130 0.272938
v -0.006235 0.542409 -0.516156
v -0.483124 0.925217 -0.161661
v -0.285629 0.156651 0.176951
v 0.327239 2.947743 0.331242
v -0.487497 1.274296 0.113913
v -0.416484 0.364282 0.234530
v 0.511813 0.515928 -0.001688
v 0.611916 3.141400 -0.098455
v 0.133176 3.484591 -0.206409
v 0.578122 3.953505 -0.107106
v -0.332540 1.688492 0.371658
v 0.082149 3.472527 -0.120920
v -0.259965 1.317273 -0.465910
v 0.420029 0.199366 0.059972
v -0.270291 0.806577 -0.420992
v 0.343268 3.937335 -0.048675
v 0.417337 2.324190 -0.370766
v 0.638826 3.874827 -0.013631
vt 0.6706 0.6037
vt 0.6695 0.6047
vt 0.6678 0.5968
vt 0.6671 0.5494
vt 0.6650 0.5411
vt 0.6684 0.5390
vt 0.6649 0.5899
vt 0.6623 0.5696
vt 0.6660 0.5696
vt 0.6633 0.5494
vt 0.6722 0.5858
vt 0.6746 0.5644
vt 0.6763 0.5784
vt 0.6720 0.5462
vt 0.6565 0.5841
vt 0.6610 0.5944
vt 0.6604 0.5967
vt 0.6624 0.5949
vt 0.7311 0.5844
vt 0.7253 0.5983
vt 0.7283 0.5786
vt 0.7255 0.5728
vt 0.7212 0.5888
vt 0.7226 0.5733
vt 0.7311 0.5355
vt 0.7262 0.5311
vt 0.7295 0.5280
vt 0.7228 0.5568
vt 0.7283 0.5541
vt 0.7257 0.5382
vt 0.6581 0.5667
vt 0.6607 0.5870
vt 0.6463 0.5364
vt 0.6497 0.5303
vt 0.6505 0.5423
vt 0.7130 0.5819
vt 0.7149 0.5933
vt 0.7130 0.5949
vt 0.7107 0.5798
vt 0.7084 0.5777
vt 0.7081 0.5907
vt 0.7053 0.5748
vt 0.7099 0.5413
vt 0.7083 0.5340
vt 0.7111 0.5355
vt 0.7041 0.5588
vt 0.7092 0.5595
vt 0.7049 0.5406
vt 0.7166 0.5614
vt 0.7163 0.5778
vt 0.7150 0.5411
vt 0.6946 0.5733
vt 0.7012 0.5885
vt 0.7014 0.5931
vt 0.6908 0.5741
vt 0.6893 0.5320
vt 0.6903 0.5267
vt 0.6942 0.5283
vt 0.6805 0.5711
vt 0.6787 0.5570
vt 0.6838 0.5507
vt 0.6872 0.5302
vt 0.6821 0.5366
vt 0.6842 0.5265
vt 0.6973 0.5566
vt 0.6983 0.5725
vt 0.6946 0.5360
vt 0.6762 0.5254
vt 0.6766 0.5342
vt 0.6730 0.5271
vt 0.6658 0.5127
vt 0.6643 0.5228
vt 0.6618 0.5146
vt 0.7197 0.5150
vt 0.7204 0.5209
vt 0.7164 0.5193
vt 0.7132 0.5235
vt 0.7167 0.5322
vt 0.7127 0.5267
vt 0.7097 0.5127
vt 0.7082 0.5197
vt 0.7057 0.5143
vt 0.7067 0.5267
vt 0.7033 0.5333
vt 0.7030 0.5257
vt 0.7083 0.6128
vt 0.7081 0.6082
vt 0.7106 0.6103
vt 0.7149 0.6181
vt 0.7159 0.6114
vt 0.7172 0.6152
vt 0.6695 0.6089
vt 0.6689 0.6073
vt 0.6701 0.6063
vt 0.6643 0.6092
vt 0.6649 0.6070
vt 0.6669 0.6091
vt 0.6707 0.6132
vt 0.6719 0.6091
vt 0.6733 0.6109
vt 0.6714 0.5947
vt 0.6719 0.6044
vt 0.6727 0.5954
vt 0.6686 0.5878
vt 0.6697 0.5676
vt 0.7225 0.5925
vt 0.7311 0.5599
vt 0.6514 0.5603
vt 0.6556 0.5662
vt 0.6547 0.5482
vt 0.6539 0.5362
vt 0.6572 0.5488
vt 0.7107 0.5928
vt 0.7114 0.5616
vt 0.6782 0.5899
vt 0.6768 0.5881
vt 0.6919 0.5526
vt 0.6701 0.5127
vt 0.6678 0.5207
vt 0.7017 0.5160
vt 0.7004 0.5203
vt 0.6965 0.5187
vt 0.6812 0.5228
vt 0.6791 0.5329
vt 0.6787 0.5241
vt 0.6628 0.5328
vt 0.6612 0.5411
vt 0.6580 0.5286
vt 0.7147 0.5138
vt 0.7114 0.5181
vt 0.7238 0.5178
vt 0.7172 0.5251
vt 0.7042 0.5214
vt 0.7099 0.5251
vt 0.7116 0.6155
vt 0.7140 0.6129
vt 0.6675 0.6112
vt 0.6701 0.6111
vt 0.6675 0.6069
vt 0.6714 0.6070
vt 0.6745 0.5127
vt 0.6779 0.5178
vt 0.6753 0.5191
vt 0.6721 0.5207
vt 0.6579 0.5166
vt 0.6603 0.5247
vt 0.6556 0.5204
vt 0.6532 0.5243
vt 0.6697 0.5287
vt 0.6732 0.6051
vt 0.6669 0.6053
vt 0.6684 0.6058
vt 0.6655 0.6048
vt 0.7149 0.6063
vt 0.7169 0.6048
vt 0.7130 0.6078
vt 0.7095 0.5282
vt 0.7123 0.5298
vt 0.6992 0.5247
vt 0.7207 0.5338
vt 0.7202 0.5409
vt 0.7212 0.5267
vt 0.7246 0.5236
vt 0.7279 0.5205
vt 0.6564 0.5368
vt 0.6596 0.5493
vt 0.6662 0.5308
vt 0.6770 0.5430
vt 0.6952 0.5230
vt 0.6913 0.5214
vt 0.6999 0.5399
vt 0.6881 0.5534
vt 0.6869 0.5748
vt 0.6746 0.6069
vt 0.6760 0.6087
vt 0.7049 0.5877
vt 0.7078 0.6036
vt 0.7021 0.5718
vt 0.7010 0.5559
vt 0.7104 0.6057
vt 0.7183 0.5893
vt 0.7197 0.5738
vt 0.7199 0.5574
vt 0.7182 0.6085
vt 0.7195 0.6123
vt 0.6666 0.5978
vt 0.6995 0.5323
vt 0.7163 0.5353
vt 0.6733 0.5358
vt 0.6976 0.5938
vn -0.8548 0.5107 0.0917
vn -0.8065 0.5182 -0.2845
vn -0.8636 0.4299 -0.2634
vn -0.9860 0.1082 -0.1268
vn -0.9482 -0.0593 -0.3120
vn -0.9966 -0.0709 -0.0409
vn -0.8086 0.3133 -0.4981
vn -0.7963 0.1940 -0.5729
vn -0.9227 0.2122 -0.3219
vn -0.8918 0.1019 -0.4408
vn -0.9201 0.3244 0.2193
vn -0.9357 0.1878 0.2985
vn -0.8011 0.2831 0.5273
vn -0.9801 0.0881 0.1781
vn -0.2258 0.1742 -0.9585
vn -0.1195 0.2507 -0.9607
vn 0.1708 0.1504 -0.9738
vn -0.4470 0.3043 -0.8412
vn 0.1239 0.1038 -0.9868
vn 0.3749 0.0560 -0.9254
vn 0.5596 0.0512 -0.8272
vn 0.6082 0.0262 -0.7933
vn 0.1457 -0.0428 -0.9884
vn 0.3092 -0.1883 -0.9322
vn -0.1387 -0.1700 -0.9756
vn 0.5777 0.0036 -0.8162
vn 0.3016 0.0303 -0.9530
vn 0.5333 -0.0528 -0.8443
vn -0.5855 0.1567 -0.7954
vn -0.5756 0.2468 -0.7796
vn -0.1418 -0.0094 -0.9899
vn 0.9954 -0.0499 -0.0818
vn 0.9651 -0.0626 -0.2541
vn 0.9968 -0.0644 0.0474
vn 0.9750 -0.0331 0.2198
vn 0.8831 -0.0067 0.4691
vn 0.7771 0.0086 0.6293
vn 0.7683 0.0231 0.6397
vn 0.9808 -0.0682 0.1828
vn 0.9069 -0.2109 0.3649
vn 0.9861 -0.1644 0.0242
vn 0.8111 0.0004 0.5850
vn 0.9348 -0.0093 0.3552
vn 0.8589 -0.0729 0.5070
vn 0.9616 -0.0158 -0.2740
vn 0.9437 -0.0253 -0.3300
vn 0.9790 -0.0600 -0.1946
vn 0.0014 0.1369 0.9906
vn 0.1781 0.1637 0.9703
vn -0.0982 0.2512 0.9629
vn -0.2502 0.1718 0.9528
vn -0.1963 -0.0369 0.9799
vn -0.3928 -0.1726 0.9033
vn 0.0295 -0.2128 0.9766
vn -0.5938 0.2130 0.7759
vn -0.7525 0.1260 0.6464
vn -0.3964 0.0756 0.9149
vn -0.5499 0.0034 0.8352
vn 0.2345 0.0399 0.9713
vn 0.2590 0.0917 0.9615
vn 0.2158 -0.0374 0.9757
vn -0.8019 -0.3776 0.4630
vn -0.8408 -0.0881 0.5342
vn -0.9375 -0.3452 0.0442
vn -0.4493 -0.8910 -0.0651
vn -0.8191 -0.4899 -0.2986
vn -0.4990 -0.7966 -0.3411
vn -0.3891 -0.7178 -0.5773
vn 0.1021 -0.6594 -0.7449
vn 0.1107 -0.8606 -0.4971
vn 0.5424 -0.7647 -0.3478
vn 0.7725 -0.3335 -0.5404
vn 0.7789 -0.5251 -0.3429
vn 0.2126 -0.9475 0.2388
vn -0.3404 -0.9298 0.1399
vn 0.6817 -0.5753 0.4521
vn 0.7435 -0.2331 0.6268
vn 0.5271 -0.5324 0.6623
vn 0.0661 0.3300 0.9417
vn 0.3347 0.1988 0.9211
vn 0.6620 0.2048 0.7210
vn 0.6407 0.7574 0.1257
vn 0.8561 0.1686 -0.4886
vn 0.5828 0.4197 -0.6958
vn -0.3063 0.9363 -0.1719
vn -0.5790 0.6373 -0.5086
vn -0.7486 0.6395 0.1751
vn 0.3736 0.2125 -0.9029
vn 0.1841 0.2546 -0.9494
vn 0.1881 0.5314 -0.8259
vn -0.1508 0.6012 0.7847
vn 0.3297 0.4917 0.8060
vn -0.8816 0.4409 0.1685
vn -0.6992 0.5031 0.5080
vn -0.7025 0.4024 0.5871
vn -0.9329 0.3170 -0.1709
vn -0.9776 0.2105 -0.0086
vn 0.3357 0.1130 -0.9352
vn 0.0131 0.0652 -0.9978
vn -0.3039 0.0985 -0.9476
vn -0.3812 0.0087 -0.9244
vn -0.4271 -0.0954 -0.8991
vn -0.5924 0.0352 -0.8049
vn 0.9149 -0.0307 0.4024
vn 0.9995 -0.0174 0.0278
vn -0.2910 0.2932 0.9107
vn -0.4875 0.3354 0.8061
vn -0.0539 0.0608 0.9967
vn -0.8162 -0.5661 -0.1154
vn -0.3013 -0.8794 0.3686
vn 0.0710 -0.7330 0.6765
vn -0.3696 -0.5890 0.7187
vn -0.4263 -0.3029 0.8524
vn -0.5785 -0.0650 0.8131
vn -0.4956 -0.2773 0.8231
vn -0.8564 -0.2464 -0.4536
vn -0.7936 -0.0777 -0.6034
vn -0.7094 -0.2631 -0.6539
vn 0.0876 -0.9938 -0.0686
vn -0.4507 -0.4996 -0.7398
vn 0.5894 -0.5565 -0.5856
vn 0.2993 -0.8746 0.3816
vn 0.5695 -0.8072 0.1553
vn 0.9514 0.2448 0.1866
vn 0.1341 0.9905 0.0290
vn -0.1289 0.4692 -0.8737
vn -0.4441 0.6379 0.6292
vn -0.6805 -0.6422 0.3529
vn -0.7811 -0.6242 0.0194
vn -0.7645 -0.4455 -0.4659
vn -0.4481 -0.2903 -0.8456
vn -0.9461 -0.3155 -0.0725
vn -0.4506 0.4320 0.7813
vn -0.4130 0.3961 -0.8201
vn -0.6120 0.4565 -0.6458
vn -0.1098 0.3193 -0.9413
vn 0.9751 0.0119 -0.2213
vn 0.8180 0.0085 -0.5752
vn 0.9616 0.0335 0.2724
vn 0.8780 -0.4413 0.1854
vn 0.9098 -0.3454 -0.2300
vn 0.2294 -0.4661 0.8544
vn 0.7147 -0.2131 -0.6662
vn 0.8244 -0.0688 -0.5618
vn 0.4539 -0.4291 -0.7809
vn -0.0341 -0.4152 -0.9091
vn -0.6395 -0.1153 -0.7601
vn -0.7486 0.0637 -0.6600
vn -0.9286 -0.2856 -0.2370
vn -0.8478 0.0438 0.5286
vn -0.2012 -0.4289 0.8807
vn 0.5886 -0.0468 0.8071
vn -0.2379 0.3794 0.8941
vn 0.5307 0.0770 0.8441
vn 0.5277 0.0965 0.8439
vn 0.5288 0.0627 0.8464
vn 0.5477 0.0312 0.8361
vn 0.7493 0.0616 0.6593
vn 0.8210 -0.0134 -0.5708
vn 0.8079 0.0080 -0.5893
vn 0.8147 -0.0021 -0.5799
vn 0.5803 0.1152 -0.8062
vn -0.6757 0.3976 -0.6208
vn 0.4608 -0.2052 0.8635
vn 0.8790 -0.1976 -0.4339
vn -0.9839 -0.0700 0.1645
usemtl None
s 1
f 1/1/1 103/2/2 160/3/3
f 4/4/4 150/5/5 80/6/6
f 3/7/7 146/8/8 82/9/9
f 4/4/4 139/10/10 150/5/5
f 8/11/11 135/12/12 60/13/13
f 4/4/4 80/6/6 153/14/14
f 11/15/15 138/16/16 75/17/17
f 11/15/15 119/18/18 138/16/16
f 11/19/15 75/20/17 145/21/19
f 14/22/20 99/23/21 165/24/22
f 17/25/23 91/26/24 149/27/25
f 14/22/20 142/28/26 102/29/27
f 17/25/23 78/30/28 91/26/24
f 11/15/15 123/31/29 113/32/30
f 17/33/23 149/34/25 137/35/31
f 22/36/32 156/37/33 115/38/34
f 22/36/32 115/38/34 53/39/35
f 24/40/36 129/41/37 50/42/38
f 27/43/39 98/44/40 155/45/41
f 24/40/36 65/46/42 114/47/43
f 27/43/39 109/48/44 98/44/40
f 22/36/32 73/49/45 144/50/46
f 27/43/39 155/45/41 93/51/47
f 31/52/48 152/53/49 130/54/50
f 31/52/48 130/54/50 81/55/51
f 33/56/52 88/57/53 136/58/54
f 10/59/55 159/60/56 83/61/57
f 33/62/52 77/63/58 88/64/53
f 31/52/48 57/65/59 147/66/60
f 33/56/52 136/58/54 59/67/61
f 36/68/62 131/69/63 154/70/64
f 37/71/65 94/72/66 56/73/67
f 38/74/68 122/75/69 107/76/70
f 39/77/71 55/78/72 100/79/73
f 37/80/65 127/81/74 46/82/75
f 28/83/76 95/84/77 118/85/78
f 32/86/79 84/87/80 70/88/81
f 41/89/82 48/90/83 158/91/84
f 42/92/85 44/93/86 164/94/87
f 13/95/88 79/96/89 110/97/90
f 41/98/82 72/99/91 116/100/92
f 1/1/1 71/101/93 97/102/94
f 8/11/11 60/13/13 92/103/95
f 8/11/11 71/101/93 86/104/96
f 8/11/11 86/104/96 90/105/97
f 8/11/11 90/105/97 135/12/12
f 11/15/15 113/32/30 119/18/18
f 14/22/20 47/106/98 99/23/21
f 11/19/15 145/21/19 76/107/99
f 14/22/20 165/24/22 142/28/26
f 11/15/15 76/108/99 96/109/100
f 11/15/15 96/109/100 123/31/29
f 21/110/101 132/111/102 161/112/103
f 22/36/32 144/50/46 156/37/33
f 24/40/36 64/113/104 129/41/37
f 22/36/32 53/39/35 124/114/105
f 24/40/36 50/42/38 65/46/42
f 22/36/32 124/114/105 73/49/45
f 31/52/48 147/66/60 152/53/49
f 10/59/55 148/115/106 63/116/107
f 31/52/48 81/55/51 62/117/108
f 31/52/48 62/117/108 57/65/59
f 37/71/65 46/118/75 105/119/109
f 40/120/110 74/121/111 52/122/112
f 34/123/113 112/124/114 69/125/115
f 37/71/65 105/119/109 94/72/66
f 5/126/116 128/127/117 54/128/118
f 37/80/65 56/129/67 111/130/119
f 38/74/68 104/131/120 122/75/69
f 39/77/71 49/132/121 55/78/72
f 37/80/65 111/130/119 127/81/74
f 40/120/110 58/133/122 74/121/111
f 39/77/71 100/79/73 120/134/123
f 41/89/82 116/135/92 166/136/124
f 41/89/82 166/136/124 48/90/83
f 41/98/82 158/137/84 140/138/125
f 42/92/85 141/139/126 44/93/86
f 41/98/82 140/138/125 72/99/91
f 42/92/85 164/94/87 68/140/127
f 40/141/110 52/142/112 66/143/128
f 40/141/110 66/143/128 151/144/129
f 38/145/68 45/146/130 104/147/120
f 104/147/120 54/128/118 19/148/131
f 104/147/120 45/146/130 54/128/118
f 45/146/130 5/126/116 54/128/118
f 151/144/129 154/70/64 6/149/132
f 151/144/129 66/143/128 154/70/64
f 66/143/128 36/68/62 154/70/64
f 66/143/128 69/125/115 36/68/62
f 66/143/128 52/142/112 69/125/115
f 52/142/112 34/123/113 69/125/115
f 68/140/127 97/102/94 43/150/133
f 68/140/127 164/94/87 97/102/94
f 164/94/87 1/1/1 97/102/94
f 72/99/91 68/140/127 43/150/133
f 72/99/91 140/138/125 68/140/127
f 140/138/125 42/92/85 68/140/127
f 44/93/86 61/151/134 2/152/135
f 44/93/86 141/139/126 61/151/134
f 141/139/126 12/153/136 61/151/134
f 140/138/125 110/97/90 42/92/85
f 140/138/125 158/137/84 110/97/90
f 158/137/84 13/95/88 110/97/90
f 48/90/83 89/154/137 15/155/138
f 48/90/83 166/136/124 89/154/137
f 166/136/124 23/156/139 89/154/137
f 166/136/124 70/88/81 23/156/139
f 166/136/124 116/135/92 70/88/81
f 116/135/92 32/86/79 70/88/81
f 120/134/123 162/157/140 28/83/76
f 120/134/123 100/79/73 162/157/140
f 100/79/73 29/158/141 162/157/140
f 74/121/111 118/85/78 35/159/142
f 74/121/111 58/133/122 118/85/78
f 58/133/122 28/83/76 118/85/78
f 127/81/74 120/134/123 28/83/76
f 127/81/74 111/130/119 120/134/123
f 111/130/119 39/77/71 120/134/123
f 55/78/72 85/160/143 20/161/144
f 55/78/72 49/132/121 85/160/143
f 49/132/121 18/162/145 85/160/143
f 122/75/69 143/163/146 18/162/145
f 122/75/69 104/131/120 143/163/146
f 104/131/120 19/164/131 143/163/146
f 111/130/119 107/76/70 39/77/71
f 111/130/119 56/129/67 107/76/70
f 56/129/67 38/74/68 107/76/70
f 54/128/118 163/165/147 19/148/131
f 54/128/118 128/127/117 163/165/147
f 128/127/117 7/166/148 163/165/147
f 94/72/66 67/167/149 5/126/116
f 94/72/66 105/119/109 67/167/149
f 105/119/109 6/149/132 67/167/149
f 69/125/115 131/69/63 36/68/62
f 69/125/115 112/124/114 131/69/63
f 112/124/114 9/168/150 131/69/63
f 52/122/112 133/169/151 34/170/113
f 52/122/112 74/121/111 133/169/151
f 74/121/111 35/159/142 133/169/151
f 105/119/109 151/144/129 6/149/132
f 105/119/109 46/118/75 151/144/129
f 46/118/75 40/141/110 151/144/129
f 57/65/59 59/67/61 30/171/152
f 57/65/59 62/117/108 59/67/61
f 62/117/108 33/56/52 59/67/61
f 62/117/108 83/172/57 33/56/52
f 62/117/108 81/55/51 83/172/57
f 81/55/51 10/173/55 83/172/57
f 63/116/107 125/174/153 43/150/133
f 63/116/107 148/115/106 125/174/153
f 148/115/106 32/175/79 125/174/153
f 152/53/49 117/176/154 25/177/155
f 152/53/49 147/66/60 117/176/154
f 147/66/60 26/178/156 117/176/154
f 73/49/45 93/51/47 20/161/144
f 73/49/45 124/114/105 93/51/47
f 124/114/105 27/43/39 93/51/47
f 65/46/42 87/179/157 30/171/152
f 65/46/42 50/42/38 87/179/157
f 50/42/38 26/178/156 87/179/157
f 124/114/105 114/47/43 27/43/39
f 124/114/105 53/39/35 114/47/43
f 53/39/35 24/40/36 114/47/43
f 129/41/37 121/180/158 25/177/155
f 129/41/37 64/113/104 121/180/158
f 64/113/104 23/156/139 121/180/158
f 156/37/33 51/181/159 15/155/138
f 156/37/33 144/50/46 51/181/159
f 144/50/46 16/182/160 51/181/159
f 161/112/103 163/165/147 7/166/148
f 161/112/103 132/111/102 163/165/147
f 132/111/102 19/148/131 163/165/147
f 123/31/29 161/112/103 7/166/148
f 123/31/29 96/109/100 161/112/103
f 96/109/100 21/110/101 161/112/103
f 96/109/100 137/35/31 21/110/101
f 96/109/100 76/108/99 137/35/31
f 76/108/99 17/33/23 137/35/31
f 142/28/26 134/183/161 20/161/144
f 142/28/26 165/24/22 134/183/161
f 165/24/22 16/182/160 134/183/161
f 76/107/99 102/29/27 17/25/23
f 76/107/99 145/21/19 102/29/27
f 145/21/19 14/22/20 102/29/27
f 99/23/21 106/184/162 15/155/138
f 99/23/21 47/106/98 106/184/162
f 47/106/98 13/185/88 106/184/162
f 119/18/18 157/186/163 2/152/135
f 119/18/18 113/32/30 157/186/163
f 113/32/30 3/7/7 157/186/163
f 135/12/12 153/14/14 9/168/150
f 135/12/12 90/105/97 153/14/14
f 90/105/97 4/4/4 153/14/14
f 90/105/97 82/9/9 4/4/4
f 90/105/97 86/104/96 82/9/9
f 86/104/96 3/7/7 82/9/9
f 86/104/96 160/3/3 3/7/7
f 86/104/96 71/101/93 160/3/3
f 71/101/93 1/1/1 160/3/3
f 92/103/95 63/116/107 43/150/133
f 92/103/95 60/13/13 63/116/107
f 60/13/13 10/59/55 63/116/107
f 97/102/94 92/103/95 43/150/133
f 97/102/94 71/101/93 92/103/95
f 71/101/93 8/11/11 92/103/95
f 116/100/92 125/174/153 32/175/79
f 116/100/92 72/99/91 125/174/153
f 72/99/91 43/150/133 125/174/153
f 110/97/90 141/139/126 42/92/85
f 110/97/90 79/96/89 141/139/126
f 79/96/89 12/153/136 141/139/126
f 164/94/87 103/2/2 1/1/1
f 164/94/87 44/93/86 103/2/2
f 44/93/86 2/152/135 103/2/2
f 158/91/84 106/184/162 13/185/88
f 158/91/84 48/90/83 106/184/162
f 48/90/83 15/155/138 106/184/162
f 70/88/81 121/180/158 23/156/139
f 70/88/81 84/87/80 121/180/158
f 84/87/80 25/177/155 121/180/158
f 118/85/78 101/187/164 35/159/142
f 118/85/78 95/84/77 101/187/164
f 95/84/77 30/171/152 101/187/164
f 46/82/75 58/133/122 40/120/110
f 46/82/75 127/81/74 58/133/122
f 127/81/74 28/83/76 58/133/122
f 100/79/73 108/188/165 29/158/141
f 100/79/73 55/78/72 108/188/165
f 55/78/72 20/161/144 108/188/165
f 107/76/70 49/132/121 39/77/71
f 107/76/70 122/75/69 49/132/121
f 122/75/69 18/162/145 49/132/121
f 56/73/67 45/146/130 38/145/68
f 56/73/67 94/72/66 45/146/130
f 94/72/66 5/126/116 45/146/130
f 154/70/64 126/189/166 6/149/132
f 154/70/64 131/69/63 126/189/166
f 131/69/63 9/168/150 126/189/166
f 59/67/61 101/187/164 30/171/152
f 59/67/61 136/58/54 101/187/164
f 136/58/54 35/159/142 101/187/164
f 147/66/60 87/179/157 26/178/156
f 147/66/60 57/65/59 87/179/157
f 57/65/59 30/171/152 87/179/157
f 88/64/53 112/124/114 34/123/113
f 88/64/53 77/63/58 112/124/114
f 77/63/58 9/168/150 112/124/114
f 83/61/57 77/63/58 33/62/52
f 83/61/57 159/60/56 77/63/58
f 159/60/56 9/168/150 77/63/58
f 136/58/54 133/169/151 35/159/142
f 136/58/54 88/57/53 133/169/151
f 88/57/53 34/170/113 133/169/151
f 81/55/51 148/190/106 10/173/55
f 81/55/51 130/54/50 148/190/106
f 130/54/50 32/86/79 148/190/106
f 130/54/50 84/87/80 32/86/79
f 130/54/50 152/53/49 84/87/80
f 152/53/49 25/177/155 84/87/80
f 93/51/47 108/188/165 20/161/144
f 93/51/47 155/45/41 108/188/165
f 155/45/41 29/158/141 108/188/165
f 144/50/46 134/183/161 16/182/160
f 144/50/46 73/49/45 134/183/161
f 73/49/45 20/161/144 134/183/161
f 98/44/40 95/84/77 28/83/76
f 98/44/40 109/48/44 95/84/77
f 109/48/44 30/171/152 95/84/77
f 114/47/43 109/48/44 27/43/39
f 114/47/43 65/46/42 109/48/44
f 65/46/42 30/171/152 109/48/44
f 155/45/41 162/157/140 29/158/141
f 155/45/41 98/44/40 162/157/140
f 98/44/40 28/83/76 162/157/140
f 50/42/38 117/176/154 26/178/156
f 50/42/38 129/41/37 117/176/154
f 129/41/37 25/177/155 117/176/154
f 53/39/35 64/113/104 24/40/36
f 53/39/35 115/38/34 64/113/104
f 115/38/34 23/156/139 64/113/104
f 115/38/34 89/154/137 23/156/139
f 115/38/34 156/37/33 89/154/137
f 156/37/33 15/155/138 89/154/137
f 137/35/31 132/111/102 21/110/101
f 137/35/31 149/34/25 132/111/102
f 149/34/25 19/148/131 132/111/102
f 113/32/30 146/8/8 3/7/7
f 113/32/30 123/31/29 146/8/8
f 123/31/29 7/166/148 146/8/8
f 91/26/24 85/160/143 18/162/145
f 91/26/24 78/30/28 85/160/143
f 78/30/28 20/161/144 85/160/143
f 102/29/27 78/30/28 17/25/23
f 102/29/27 142/28/26 78/30/28
f 142/28/26 20/161/144 78/30/28
f 149/27/25 143/163/146 19/164/131
f 149/27/25 91/26/24 143/163/146
f 91/26/24 18/162/145 143/163/146
f 165/24/22 51/181/159 16/182/160
f 165/24/22 99/23/21 51/181/159
f 99/23/21 15/155/138 51/181/159
f 145/21/19 47/106/98 14/22/20
f 145/21/19 75/20/17 47/106/98
f 75/20/17 13/185/88 47/106/98
f 138/16/16 61/151/134 12/153/136
f 138/16/16 119/18/18 61/151/134
f 119/18/18 2/152/135 61/151/134
f 75/17/17 79/96/89 13/95/88
f 75/17/17 138/16/16 79/96/89
f 138/16/16 12/153/136 79/96/89
f 153/14/14 126/189/166 9/168/150
f 153/14/14 80/6/6 126/189/166
f 80/6/6 6/149/132 126/189/166
f 60/13/13 159/60/56 10/59/55
f 60/13/13 135/12/12 159/60/56
f 135/12/12 9/168/150 159/60/56
f 150/5/5 128/127/117 5/126/116
f 150/5/5 139/10/10 128/127/117
f 139/10/10 7/166/148 128/127/117
f 82/9/9 139/10/10 4/4/4
f 82/9/9 146/8/8 139/10/10
f 146/8/8 7/166/148 139/10/10
f 80/6/6 67/167/149 6/149/132
f 80/6/6 150/5/5 67/167/149
f 150/5/5 5/126/116 67/167/149
f 160/3/3 157/186/163 3/7/7
f 160/3/3 103/2/2 157/186/163
f 103/2/2 2/152/135 157/186/163
