# Blender v2.78 (sub 0) OBJ File: ''
# www.blender.org
mtllib Thuja_Tree_m_07.mtl
o Thuja_Tree_m_07
v 0.465576 1.980356 -0.015116
v 0.342577 2.058936 -0.319771
v 0.393250 3.113371 -0.125580
v 0.463291 1.106285 -0.068177
v 0.378258 0.851622 0.049805
v 0.342799 0.831549 -0.172667
v 0.386213 1.164802 0.275974
v 0.279391 1.119789 -0.380461
v 0.270144 2.170790 0.378025
v 0.351010 3.402301 0.120333
v 0.049013 3.469119 0.214417
v -0.083027 1.093224 -0.468358
v -0.046594 0.825721 -0.374311
v -0.387237 1.084228 -0.283208
v 0.096575 3.916394 -0.143094
v -0.139685 3.255018 -0.226160
v -0.121949 3.625455 -0.011057
v 0.029210 0.980610 0.447566
v 0.082718 0.698085 -0.141967
v 0.157830 0.738909 0.200211
v -0.255630 0.757284 0.159557
v 0.095777 4.033805 -0.010303
v 0.288938 3.932438 -0.013075
v 0.206790 3.465779 -0.260404
v -0.320960 0.780688 -0.083121
v -0.314647 1.172915 0.387278
v 0.188797 0.837963 0.346695
v -0.250597 2.037334 -0.394345
v 0.138016 1.898484 -0.458791
v -0.454744 2.128852 -0.138812
v -0.384095 2.341187 0.233701
v -0.476936 1.119158 0.070370
v -0.174622 1.994926 0.452883
v -0.081588 0.007961 -0.057127
v -0.077969 0.796925 -0.047640
v 0.019653 0.796580 -0.080739
v 0.029008 0.007931 -0.094625
v 0.098815 0.007924 -0.001117
v 0.080934 0.796484 0.000854
v 0.021195 0.796731 0.084377
v 0.031364 0.007944 0.094172
v -0.080133 0.007971 0.059556
v -0.077023 0.797044 0.054410
v 0.251075 1.993738 -0.397643
v 0.077146 3.833465 0.088064
v -0.222628 0.912164 -0.337138
v 0.269844 0.958524 0.326469
v -0.162058 1.059320 0.428579
v 0.386167 3.280757 -0.004049
v -0.203569 2.682028 -0.307566
v 0.235548 0.768468 -0.168996
v -0.011268 3.637571 -0.185388
v 0.208536 1.484876 -0.440612
v -0.444524 1.558151 -0.214016
v 0.070978 0.007927 -0.053143
v -0.089675 0.007966 0.001327
v -0.452626 1.097644 -0.109676
v -0.434147 2.253556 0.048463
v 0.244019 0.754791 -0.040166
v -0.385443 0.898363 0.125348
v -0.023662 2.780949 -0.341491
v 0.152011 1.543524 0.435883
v -0.340336 1.522546 -0.349537
v 0.057247 0.796590 0.046935
v -0.303062 2.723086 -0.194000
v 0.316913 0.933289 -0.270046
v 0.415525 2.731660 0.067783
v -0.284659 2.198266 0.358290
v 0.267405 3.776577 -0.136097
v 0.095969 1.091014 -0.447730
v 0.362042 0.832767 -0.068348
v -0.080613 0.402512 0.058496
v -0.295213 0.927536 0.285680
v -0.031568 0.796751 -0.071302
v -0.186090 0.790840 -0.234062
v 0.002090 3.891042 -0.006648
v 0.349181 3.573092 -0.069644
v 0.396219 1.525393 -0.211781
v 0.114356 0.700906 0.034890
v 0.322114 1.586688 -0.355712
v -0.363590 0.899481 -0.180433
v 0.044147 2.099950 0.430825
v -0.052117 3.587828 0.108484
v -0.061484 0.931974 -0.430034
v 0.406855 0.950186 -0.133597
v 0.017958 0.760387 -0.272088
v -0.413632 0.904499 -0.008235
v 0.075035 0.804274 0.328121
v -0.085089 0.797013 0.003509
v 0.200566 3.966718 -0.088493
v 0.219414 3.476515 0.179416
v -0.405148 1.148782 0.239060
v -0.076987 1.476065 0.469586
v 0.321056 3.705438 0.058002
v 0.157880 2.848940 0.314722
v 0.393408 1.126412 -0.221707
v 0.468136 1.470800 -0.045732
v -0.260903 3.017046 0.108283
v -0.074050 2.702634 0.348811
v 0.180846 0.799798 0.292302
v -0.179977 2.948334 0.237077
v -0.372953 2.066811 -0.279076
v 0.025826 1.466391 -0.473226
v -0.030196 0.796903 0.076582
v 0.410692 1.995412 -0.188911
v 0.092410 0.402200 -0.000168
v 0.187333 3.788426 0.101302
v 0.072287 0.007934 0.051618
v 0.288242 0.915513 0.242272
v -0.299930 0.760442 0.032017
v 0.222420 1.096384 0.386620
v 0.132278 0.872477 0.392128
v -0.010341 3.825466 -0.087977
v 0.276785 0.794383 0.121176
v 0.186411 4.009804 -0.005098
v -0.141615 3.447756 -0.126203
v 0.166386 2.645486 -0.371776
v 0.027089 0.402337 0.091663
v -0.486209 1.593972 -0.034284
v 0.056396 0.796507 -0.044462
v 0.394056 0.983101 0.161185
v 0.287625 2.760407 -0.300344
v 0.111518 0.926242 -0.393176
v 0.025088 0.402253 -0.090093
v 0.390746 2.106518 0.199028
v -0.452510 1.695375 0.158600
v 0.338641 1.628351 0.335252
v -0.098795 0.701828 0.011140
v -0.081845 0.402445 -0.053838
v -0.134726 0.720360 -0.114712
v -0.029120 0.007946 -0.084225
v 0.318809 3.324583 -0.194142
v -0.043946 0.727795 0.177842
v -0.238354 1.078563 -0.393015
v 0.442306 1.570313 0.144579
v 0.447163 1.160770 0.098828
v -0.027002 0.007958 0.085283
v -0.121503 0.831880 0.317994
v -0.368096 1.706119 0.324279
v 0.432918 0.967885 0.001987
v -0.253624 1.560901 0.434934
v 0.153649 3.770946 -0.195584
v 0.099852 4.004680 -0.074113
v 0.375290 2.594121 -0.220794
v 0.022134 3.392624 -0.253417
v 0.318927 2.832308 0.244675
v 0.435144 2.582263 -0.078031
v -0.302302 2.902887 -0.066904
v -0.179122 1.505069 -0.441892
v 0.184925 0.862005 -0.284314
v -0.048333 1.998787 -0.436978
v -0.028599 0.402430 0.080932
v 0.063687 0.402217 -0.048802
v -0.087382 0.402489 0.002418
v 0.064767 0.402262 0.049277
v -0.030344 0.402349 -0.077764
vt 0.8382 0.5512
vt 0.8435 0.5518
vt 0.8391 0.5686
vt 0.8416 0.5269
vt 0.8404 0.5233
vt 0.8435 0.5233
vt 0.8350 0.5391
vt 0.8399 0.5390
vt 0.8367 0.5270
vt 0.8450 0.5387
vt 0.8468 0.5266
vt 0.8231 0.5563
vt 0.8273 0.5767
vt 0.8224 0.5791
vt 0.7691 0.5260
vt 0.7713 0.5217
vt 0.7746 0.5283
vt 0.7885 0.6144
vt 0.7867 0.6040
vt 0.7909 0.6095
vt 0.8224 0.5360
vt 0.8274 0.5416
vt 0.7837 0.5103
vt 0.7911 0.5103
vt 0.7880 0.5166
vt 0.8340 0.6142
vt 0.8346 0.6112
vt 0.8372 0.6133
vt 0.8352 0.6081
vt 0.8376 0.5971
vt 0.8400 0.6046
vt 0.8404 0.6123
vt 0.8378 0.6102
vt 0.8426 0.6067
vt 0.8285 0.6050
vt 0.8334 0.6026
vt 0.8279 0.6080
vt 0.7940 0.6178
vt 0.7937 0.6113
vt 0.7984 0.6096
vt 0.7836 0.6106
vt 0.7912 0.6161
vt 0.7735 0.5174
vt 0.7786 0.5138
vt 0.7799 0.5208
vt 0.7850 0.5173
vt 0.7923 0.5230
vt 0.8001 0.5224
vt 0.7957 0.5275
vt 0.7985 0.5103
vt 0.8019 0.5118
vt 0.8031 0.5161
vt 0.8345 0.5111
vt 0.8368 0.5154
vt 0.8332 0.5191
vt 0.8483 0.5103
vt 0.8468 0.5150
vt 0.8437 0.5150
vt 0.8531 0.5125
vt 0.8501 0.5183
vt 0.7743 0.5575
vt 0.7717 0.5418
vt 0.7772 0.5440
vt 0.7674 0.5567
vt 0.7793 0.5582
vt 0.7795 0.5755
vt 0.7963 0.5653
vt 0.7929 0.5487
vt 0.7976 0.5487
vt 0.7903 0.5621
vt 0.8007 0.5601
vt 0.7996 0.5834
vt 0.7933 0.6047
vt 0.7948 0.5850
vt 0.7981 0.6030
vt 0.8194 0.5609
vt 0.8122 0.5579
vt 0.8136 0.5414
vt 0.8306 0.5537
vt 0.8489 0.5524
vt 0.8528 0.5511
vt 0.8469 0.5768
vt 0.8400 0.5860
vt 0.8444 0.5692
vt 0.8424 0.5936
vt 0.7863 0.5242
vt 0.7832 0.5274
vt 0.7954 0.5166
vt 0.8319 0.5129
vt 0.8414 0.5107
vt 0.8627 0.5217
vt 0.8573 0.5240
vt 0.8603 0.5182
vt 0.8566 0.5499
vt 0.8542 0.5381
vt 0.8597 0.5358
vt 0.7765 0.5821
vt 0.7787 0.6067
vt 0.7817 0.6001
vt 0.7895 0.5321
vt 0.7909 0.5275
vt 0.7943 0.5321
vt 0.7848 0.5314
vt 0.7879 0.5282
vt 0.7869 0.5455
vt 0.7843 0.5589
vt 0.7888 0.5818
vt 0.7846 0.5762
vt 0.8218 0.5158
vt 0.8255 0.5152
vt 0.8268 0.5214
vt 0.8078 0.5219
vt 0.8064 0.5384
vt 0.8034 0.5270
vt 0.8112 0.5811
vt 0.8504 0.5394
vt 0.8348 0.5741
vt 0.3089 0.8126
vt 0.3089 0.8581
vt 0.3034 0.8581
vt 0.3030 0.8126
vt 0.2850 0.8131
vt 0.2869 0.8585
vt 0.2814 0.8588
vt 0.2790 0.8133
vt 0.3209 0.8127
vt 0.3199 0.8582
vt 0.3144 0.8581
vt 0.3149 0.8126
vt 0.2970 0.8127
vt 0.2979 0.8582
vt 0.2924 0.8583
vt 0.2910 0.8128
vt 0.3328 0.8131
vt 0.3309 0.8585
vt 0.3254 0.8583
vt 0.3268 0.8128
vt 0.3347 0.7675
vt 0.3283 0.7673
vt 0.3411 0.7678
vt 0.3388 0.8133
vt 0.3364 0.8588
vt 0.2961 0.7672
vt 0.2896 0.7673
vt 0.3025 0.7670
vt 0.3219 0.7672
vt 0.3154 0.7670
vt 0.2832 0.7675
vt 0.2767 0.7678
vt 0.3090 0.7670
vt 0.8357 0.5915
vt 0.8315 0.5970
vt 0.8519 0.5263
vt 0.8040 0.5782
vt 0.8050 0.5549
vt 0.8029 0.6014
vt 0.8020 0.5435
vt 0.7990 0.5321
vt 0.8305 0.5209
vt 0.8318 0.5270
vt 0.8293 0.5147
vt 0.7890 0.5991
vt 0.7848 0.5935
vt 0.7893 0.5236
vt 0.7822 0.5447
vt 0.7801 0.5306
vt 0.7696 0.5813
vt 0.7606 0.5559
vt 0.8549 0.5205
vt 0.8579 0.5147
vt 0.8486 0.5230
vt 0.8453 0.5197
vt 0.8391 0.5197
vt 0.7768 0.5240
vt 0.8448 0.6011
vt 0.8507 0.5755
vt 0.7649 0.5410
vt 0.8422 0.5197
vt 0.8354 0.5234
vt 0.8066 0.5176
vt 0.8054 0.5133
vt 0.8218 0.6018
vt 0.8267 0.5994
vn 0.9996 0.0265 -0.0084
vn 0.9245 0.0057 -0.3811
vn 0.9860 0.0484 -0.1596
vn 0.9819 -0.1040 -0.1585
vn 0.9518 -0.3010 0.0593
vn 0.8994 -0.2948 -0.3227
vn 0.9511 0.0161 0.3086
vn 0.9905 0.0048 -0.1371
vn 0.9704 -0.0867 0.2253
vn 0.9005 -0.0070 -0.4349
vn 0.8597 -0.0766 -0.5050
vn 0.5500 0.0785 0.8315
vn 0.6856 0.1089 0.7198
vn 0.2270 0.1586 0.9609
vn -0.1680 -0.1361 -0.9763
vn -0.1286 -0.3695 -0.9203
vn -0.5079 -0.1800 -0.8424
vn -0.2511 0.4835 -0.8385
vn -0.5117 0.2865 -0.8100
vn -0.7910 0.4130 -0.4514
vn 0.3105 -0.0001 0.9506
vn 0.7104 0.0109 0.7037
vn 0.1538 -0.9459 -0.2857
vn 0.2060 -0.9748 0.0854
vn -0.1455 -0.9885 0.0415
vn -0.3037 0.9188 0.2523
vn 0.3769 0.8597 0.3449
vn -0.2975 0.7762 -0.5560
vn 0.8162 0.5550 0.1605
vn 0.9573 0.1613 -0.2401
vn 0.6785 0.2782 -0.6799
vn 0.4305 0.6416 -0.6349
vn 0.1089 0.2931 -0.9499
vn 0.2479 0.3436 0.9058
vn 0.8153 0.2423 0.5259
vn -0.2784 0.4057 0.8706
vn -0.8305 0.5024 0.2405
vn -0.0701 -0.6843 -0.7258
vn 0.1076 -0.8391 -0.5332
vn -0.3932 -0.7747 -0.4952
vn -0.2346 -0.9411 -0.2436
vn -0.4570 -0.8047 0.3789
vn -0.2664 -0.6540 0.7081
vn -0.6201 -0.4404 0.6492
vn 0.3354 -0.8804 0.3354
vn 0.4949 -0.7474 0.4432
vn -0.0174 -0.7642 0.6448
vn 0.5936 -0.7396 0.3171
vn 0.7402 -0.4947 0.4555
vn 0.3934 -0.8129 -0.4294
vn 0.4691 -0.8831 -0.0095
vn 0.3970 -0.6122 -0.6838
vn -0.4497 0.0973 -0.8879
vn -0.3300 0.0133 -0.9439
vn -0.6570 0.0001 -0.7539
vn -0.1273 0.0924 -0.9875
vn -0.7630 0.0998 -0.6386
vn -0.5043 0.1651 -0.8476
vn -0.8587 0.1737 0.4821
vn -0.9515 0.0303 0.3062
vn -0.7918 0.0327 0.6099
vn -0.9845 0.1403 0.1055
vn -0.5874 0.1411 0.7969
vn -0.6002 0.2435 0.7619
vn -0.9271 0.3589 0.1076
vn -0.8968 0.2566 0.3603
vn -0.6466 0.3155 0.6945
vn 0.1228 0.0934 0.9880
vn 0.9003 0.0483 0.4326
vn 0.7735 0.0386 -0.6326
vn 0.5292 0.0595 -0.8464
vn 0.6036 0.0917 -0.7920
vn 0.9365 0.0877 -0.3395
vn 0.8463 0.0576 -0.5296
vn 0.7466 0.1328 -0.6519
vn -0.6141 -0.7540 -0.2333
vn -0.7621 -0.4795 -0.4351
vn -0.0850 -0.9317 0.3531
vn 0.2388 -0.1643 -0.9571
vn 0.1875 0.0627 -0.9802
vn 0.4018 -0.0166 -0.9156
vn 0.0175 0.0061 -0.9998
vn -0.1636 0.1436 -0.9760
vn 0.2935 0.1810 -0.9387
vn -0.2151 0.1838 -0.9592
vn -0.9755 -0.1535 0.1577
vn -0.8278 -0.4509 0.3337
vn -0.8672 -0.1491 0.4751
vn -0.9582 -0.1692 -0.2305
vn -0.8996 -0.4359 -0.0287
vn -0.9993 0.0119 -0.0353
vn -0.9585 0.1163 -0.2604
vn -0.9659 0.2295 -0.1199
vn -0.8418 0.1977 -0.5023
vn 0.0279 -0.2839 0.9584
vn 0.2020 -0.4694 0.8596
vn 0.4715 -0.0956 0.8767
vn -0.0330 -0.0148 0.9993
vn -0.3045 -0.2625 0.9156
vn 0.7600 -0.0073 -0.6498
vn 0.9623 0.0589 0.2656
vn -0.3211 0.0142 -0.9470
vn -0.3219 0.0171 -0.9466
vn 0.2922 0.0237 -0.9561
vn 0.2955 0.0205 -0.9551
vn 0.8148 0.0187 0.5795
vn 0.8137 0.0216 0.5809
vn 0.3177 0.0191 0.9480
vn 0.3211 0.0160 0.9469
vn -0.9999 0.0056 0.0110
vn -0.9999 0.0084 0.0106
vn -0.8168 0.0141 -0.5767
vn -0.8155 0.0109 -0.5786
vn 0.8004 0.0212 -0.5991
vn 0.7998 0.0241 -0.5998
vn 0.9996 0.0263 -0.0103
vn 0.9997 0.0230 -0.0118
vn -0.2943 0.0091 0.9557
vn -0.2940 0.0119 0.9557
vn -0.8014 0.0107 0.5980
vn -0.8009 0.0074 0.5987
vn -0.2949 0.0063 0.9555
vn -0.8006 0.0042 0.5991
vn 0.3235 0.0128 0.9461
vn 0.8009 0.0184 -0.5985
vn 0.9997 0.0199 -0.0129
vn 0.2980 0.0173 -0.9544
vn -0.9999 0.0028 0.0115
vn -0.8146 0.0077 -0.5799
vn 0.8158 0.0159 0.5781
vn -0.3204 0.0114 -0.9472
vn 0.9936 0.0970 0.0575
vn 0.8095 0.1595 0.5650
vn 0.6075 -0.1705 -0.7758
vn -0.2028 0.1839 0.9618
vn -0.2578 0.0869 0.9623
vn -0.1747 0.2652 0.9482
vn -0.4549 0.0027 0.8905
vn -0.6253 -0.1513 0.7656
vn 0.7072 -0.3238 0.6285
vn 0.7996 -0.1210 0.5882
vn 0.4794 -0.6269 0.6142
vn -0.8554 0.2881 -0.4305
vn -0.6172 0.2234 -0.7544
vn -0.5649 -0.8224 0.0678
vn -0.9043 0.0000 -0.4269
vn -0.7832 -0.2028 -0.5877
vn 0.1905 0.1145 -0.9750
vn 0.3700 -0.4658 -0.8038
vn 0.6025 -0.3916 -0.6954
vn 0.6537 -0.6313 -0.4174
vn 0.7706 -0.6014 0.2112
vn -0.5212 -0.4834 -0.7034
vn 0.7427 -0.6658 -0.0716
vn 0.8353 -0.3428 0.4299
vn 0.3439 0.2166 0.9137
usemtl None
s 1
f 1/1/1 105/2/2 147/3/3
f 4/4/4 140/5/5 85/6/6
f 1/1/1 135/7/7 97/8/8
f 4/4/4 136/9/9 140/5/5
f 1/1/1 78/10/10 105/2/2
f 4/4/4 85/6/6 96/11/11
f 9/12/12 146/13/13 95/14/14
f 12/15/15 84/16/16 134/17/17
f 15/18/18 52/19/19 113/20/20
f 1/1/1 97/8/8 78/10/10
f 9/12/12 62/21/21 127/22/22
f 19/23/23 79/24/24 128/25/25
f 22/26/26 115/27/27 143/28/28
f 23/29/29 77/30/30 69/31/31
f 15/32/18 90/33/32 142/34/33
f 23/29/29 107/35/34 94/36/35
f 22/26/26 45/37/36 115/27/27
f 22/38/26 76/39/37 45/40/36
f 15/18/18 142/41/33 52/19/19
f 22/38/26 143/42/28 76/39/37
f 13/43/38 86/44/39 75/45/40
f 19/23/23 128/25/25 130/46/41
f 21/47/42 138/48/43 73/49/44
f 20/50/45 100/51/46 88/52/47
f 20/53/45 114/54/48 109/55/49
f 19/56/23 51/57/50 59/58/51
f 19/56/23 86/59/39 150/60/52
f 28/61/53 149/62/54 63/63/55
f 28/61/53 151/64/56 149/62/54
f 28/61/53 102/65/57 50/66/58
f 31/67/59 126/68/60 139/69/61
f 31/67/59 58/70/62 126/68/60
f 31/67/59 68/71/63 101/72/64
f 17/73/65 98/74/66 83/75/67
f 9/76/12 82/77/68 62/78/21
f 1/1/1 125/79/69 135/7/7
f 2/80/70 44/81/71 122/82/72
f 3/83/73 144/84/74 132/85/75
f 23/29/29 94/36/35 77/30/30
f 25/86/76 81/87/77 75/45/40
f 20/50/45 88/52/47 133/88/78
f 20/53/45 109/55/49 100/89/46
f 19/56/23 59/58/51 79/90/24
f 19/56/23 150/60/52 51/57/50
f 28/61/53 63/63/55 102/65/57
f 12/91/15 70/92/79 84/93/16
f 29/94/80 53/95/81 103/96/82
f 28/61/53 61/97/83 151/64/56
f 24/98/84 61/97/83 145/99/85
f 32/100/86 60/101/87 92/102/88
f 31/67/59 139/69/61 68/71/63
f 32/100/86 57/103/89 87/104/90
f 32/100/86 119/105/91 57/103/89
f 32/100/86 87/104/90 60/101/87
f 30/106/92 148/107/93 65/108/94
f 31/67/59 98/74/66 58/70/62
f 18/109/95 112/110/96 111/111/97
f 18/112/95 93/113/98 48/114/99
f 9/76/12 95/115/14 82/77/68
f 2/80/70 80/116/100 44/81/71
f 1/1/1 67/117/101 125/79/69
f 1/1/1 147/3/3 67/117/101
f 156/118/102 74/119/103 36/120/104 124/121/105
f 155/122/106 64/123/107 40/124/108 118/125/109
f 154/126/110 89/127/111 35/128/112 129/129/113
f 153/130/114 120/131/115 39/132/116 106/133/117
f 152/134/118 104/135/119 43/136/120 72/137/121
f 137/138/122 152/134/118 72/137/121 42/139/123
f 41/140/124 118/141/109 152/134/118 137/138/122
f 118/141/109 40/142/108 104/135/119 152/134/118
f 55/143/125 153/130/114 106/133/117 38/144/126
f 37/145/127 124/121/105 153/130/114 55/143/125
f 124/121/105 36/120/104 120/131/115 153/130/114
f 56/146/128 154/126/110 129/129/113 34/147/129
f 42/139/123 72/137/121 154/126/110 56/146/128
f 72/137/121 43/136/120 89/127/111 154/126/110
f 108/148/130 155/122/106 118/125/109 41/149/124
f 38/144/126 106/133/117 155/122/106 108/148/130
f 106/133/117 39/132/116 64/123/107 155/122/106
f 131/150/131 156/118/102 124/121/105 37/145/127
f 34/147/129 129/129/113 156/118/102 131/150/131
f 129/129/113 35/128/112 74/119/103 156/118/102
f 67/117/101 49/151/132 10/152/133
f 67/117/101 147/3/3 49/151/132
f 147/3/3 3/83/73 49/151/132
f 125/79/69 146/13/13 9/12/12
f 125/79/69 67/117/101 146/13/13
f 67/117/101 10/152/133 146/13/13
f 44/81/71 53/95/81 29/94/80
f 44/81/71 80/116/100 53/95/81
f 80/116/100 8/153/134 53/95/81
f 82/77/68 99/154/135 33/155/136
f 82/77/68 95/115/14 99/154/135
f 95/115/14 11/156/137 99/154/135
f 48/114/99 141/157/138 26/158/139
f 48/114/99 93/113/98 141/157/138
f 93/113/98 33/155/136 141/157/138
f 111/111/97 47/159/140 7/160/141
f 111/111/97 112/110/96 47/159/140
f 112/110/96 27/161/142 47/159/140
f 58/70/62 148/107/93 30/106/92
f 58/70/62 98/74/66 148/107/93
f 98/74/66 17/73/65 148/107/93
f 65/108/94 116/162/143 16/163/144
f 65/108/94 148/107/93 116/162/143
f 148/107/93 17/73/65 116/162/143
f 60/101/87 110/164/145 21/47/42
f 60/101/87 87/104/90 110/164/145
f 87/104/90 25/86/76 110/164/145
f 57/103/89 54/165/146 14/166/147
f 57/103/89 119/105/91 54/165/146
f 119/105/91 30/106/92 54/165/146
f 87/104/90 81/87/77 25/86/76
f 87/104/90 57/103/89 81/87/77
f 57/103/89 14/166/147 81/87/77
f 68/71/63 141/157/138 33/155/136
f 68/71/63 139/69/61 141/157/138
f 139/69/61 26/158/139 141/157/138
f 92/102/88 73/49/44 26/158/139
f 92/102/88 60/101/87 73/49/44
f 60/101/87 21/47/42 73/49/44
f 145/99/85 50/66/58 16/163/144
f 145/99/85 61/97/83 50/66/58
f 61/97/83 28/61/53 50/66/58
f 151/64/56 117/167/148 29/168/80
f 151/64/56 61/97/83 117/167/148
f 61/97/83 24/98/84 117/167/148
f 103/96/82 70/92/79 12/91/15
f 103/96/82 53/95/81 70/92/79
f 53/95/81 8/153/134 70/92/79
f 84/93/16 123/169/149 13/170/38
f 84/93/16 70/92/79 123/169/149
f 70/92/79 8/153/134 123/169/149
f 102/65/57 54/165/146 30/106/92
f 102/65/57 63/63/55 54/165/146
f 63/63/55 14/166/147 54/165/146
f 51/57/50 66/171/150 6/172/151
f 51/57/50 150/60/52 66/171/150
f 150/60/52 8/153/134 66/171/150
f 79/90/24 114/54/48 20/53/45
f 79/90/24 59/58/51 114/54/48
f 59/58/51 5/173/152 114/54/48
f 100/89/46 47/159/140 27/161/142
f 100/89/46 109/55/49 47/159/140
f 109/55/49 7/160/141 47/159/140
f 133/88/78 138/48/43 21/47/42
f 133/88/78 88/52/47 138/48/43
f 88/52/47 18/112/95 138/48/43
f 75/45/40 46/174/153 13/43/38
f 75/45/40 81/87/77 46/174/153
f 81/87/77 14/166/147 46/174/153
f 77/30/30 49/151/132 3/83/73
f 77/30/30 94/36/35 49/151/132
f 94/36/35 10/152/133 49/151/132
f 132/85/75 122/82/72 24/175/84
f 132/85/75 144/84/74 122/82/72
f 144/84/74 2/80/70 122/82/72
f 122/82/72 117/176/148 24/175/84
f 122/82/72 44/81/71 117/176/148
f 44/81/71 29/94/80 117/176/148
f 135/7/7 127/22/22 7/160/141
f 135/7/7 125/79/69 127/22/22
f 125/79/69 9/12/12 127/22/22
f 62/78/21 93/113/98 18/112/95
f 62/78/21 82/77/68 93/113/98
f 82/77/68 33/155/136 93/113/98
f 83/75/67 101/72/64 11/156/137
f 83/75/67 98/74/66 101/72/64
f 98/74/66 31/67/59 101/72/64
f 101/72/64 99/154/135 11/156/137
f 101/72/64 68/71/63 99/154/135
f 68/71/63 33/155/136 99/154/135
f 126/68/60 119/105/91 32/100/86
f 126/68/60 58/70/62 119/105/91
f 58/70/62 30/106/92 119/105/91
f 139/69/61 92/102/88 26/158/139
f 139/69/61 126/68/60 92/102/88
f 126/68/60 32/100/86 92/102/88
f 50/66/58 65/108/94 16/163/144
f 50/66/58 102/65/57 65/108/94
f 102/65/57 30/106/92 65/108/94
f 149/62/54 103/177/82 12/15/15
f 149/62/54 151/64/56 103/177/82
f 151/64/56 29/168/80 103/177/82
f 63/63/55 134/17/17 14/166/147
f 63/63/55 149/62/54 134/17/17
f 149/62/54 12/15/15 134/17/17
f 150/60/52 123/169/149 8/153/134
f 150/60/52 86/59/39 123/169/149
f 86/59/39 13/170/38 123/169/149
f 59/58/51 71/178/154 5/173/152
f 59/58/51 51/57/50 71/178/154
f 51/57/50 6/172/151 71/178/154
f 109/55/49 121/179/155 7/160/141
f 109/55/49 114/54/48 121/179/155
f 114/54/48 5/173/152 121/179/155
f 88/52/47 112/180/96 18/112/95
f 88/52/47 100/51/46 112/180/96
f 100/51/46 27/181/142 112/180/96
f 73/49/44 48/114/99 26/158/139
f 73/49/44 138/48/43 48/114/99
f 138/48/43 18/112/95 48/114/99
f 130/46/41 110/164/145 25/86/76
f 130/46/41 128/25/25 110/164/145
f 128/25/25 21/47/42 110/164/145
f 75/45/40 130/46/41 25/86/76
f 75/45/40 86/44/39 130/46/41
f 86/44/39 19/23/23 130/46/41
f 76/39/37 113/20/20 17/73/65
f 76/39/37 143/42/28 113/20/20
f 143/42/28 15/18/18 113/20/20
f 52/19/19 145/99/85 16/163/144
f 52/19/19 142/41/33 145/99/85
f 142/41/33 24/98/84 145/99/85
f 45/40/36 83/75/67 11/156/137
f 45/40/36 76/39/37 83/75/67
f 76/39/37 17/73/65 83/75/67
f 115/27/27 107/35/34 23/29/29
f 115/27/27 45/37/36 107/35/34
f 45/37/36 11/182/137 107/35/34
f 94/36/35 91/183/156 10/152/133
f 94/36/35 107/35/34 91/183/156
f 107/35/34 11/182/137 91/183/156
f 142/34/33 69/31/31 24/175/84
f 142/34/33 90/33/32 69/31/31
f 90/33/32 23/29/29 69/31/31
f 69/31/31 132/85/75 24/175/84
f 69/31/31 77/30/30 132/85/75
f 77/30/30 3/83/73 132/85/75
f 143/28/28 90/33/32 15/32/18
f 143/28/28 115/27/27 90/33/32
f 115/27/27 23/29/29 90/33/32
f 128/25/25 133/88/78 21/47/42
f 128/25/25 79/24/24 133/88/78
f 79/24/24 20/50/45 133/88/78
f 127/22/22 111/111/97 7/160/141
f 127/22/22 62/21/21 111/111/97
f 62/21/21 18/109/95 111/111/97
f 78/10/10 96/11/11 8/153/134
f 78/10/10 97/8/8 96/11/11
f 97/8/8 4/4/4 96/11/11
f 113/20/20 116/162/143 17/73/65
f 113/20/20 52/19/19 116/162/143
f 52/19/19 16/163/144 116/162/143
f 134/17/17 46/174/153 14/166/147
f 134/17/17 84/16/16 46/174/153
f 84/16/16 13/43/38 46/174/153
f 95/14/14 91/183/156 11/182/137
f 95/14/14 146/13/13 91/183/156
f 146/13/13 10/152/133 91/183/156
f 96/11/11 66/171/150 8/153/134
f 96/11/11 85/6/6 66/171/150
f 85/6/6 6/172/151 66/171/150
f 105/2/2 80/116/100 2/80/70
f 105/2/2 78/10/10 80/116/100
f 78/10/10 8/153/134 80/116/100
f 140/5/5 121/179/155 5/173/152
f 140/5/5 136/9/9 121/179/155
f 136/9/9 7/160/141 121/179/155
f 97/8/8 136/9/9 4/4/4
f 97/8/8 135/7/7 136/9/9
f 135/7/7 7/160/141 136/9/9
f 85/6/6 71/178/154 6/172/151
f 85/6/6 140/5/5 71/178/154
f 140/5/5 5/173/152 71/178/154
f 147/3/3 144/84/74 3/83/73
f 147/3/3 105/2/2 144/84/74
f 105/2/2 2/80/70 144/84/74
