# Blender v2.78 (sub 0) OBJ File: ''
# www.blender.org
mtllib Thuja_Tree_m_09.mtl
o Thuja_Tree_m_09
v 0.063381 0.006671 0.087182
v 0.057027 0.745852 0.078027
v -0.056523 0.745890 0.078027
v -0.063324 0.006676 0.087182
v -0.102483 0.006678 -0.033301
v -0.091644 0.745902 -0.029804
v 0.000262 0.745872 -0.096446
v 0.000031 0.006674 -0.107763
v 0.102529 0.006669 -0.033301
v 0.092080 0.745841 -0.029804
v 0.387995 4.631217 0.000001
v 0.258186 4.316911 0.250397
v 0.550908 4.284644 0.154682
v 0.513506 2.839140 0.287062
v 0.609610 3.105710 0.000001
v 0.077108 4.336821 0.000001
v 0.258186 4.316911 -0.250395
v 0.550908 4.284644 -0.154681
v 0.554525 1.630328 0.174790
v -0.034679 2.870933 0.465550
v 0.014665 1.639995 0.565306
v 0.296994 3.128011 0.431334
v -0.374891 2.890597 0.000000
v -0.526181 1.649674 0.174581
v -0.211843 3.162986 0.267178
v -0.034679 2.870933 -0.465549
v -0.318863 1.646094 -0.457473
v -0.211843 3.162987 -0.267177
v 0.513506 2.839140 -0.287061
v 0.349128 1.634171 -0.457205
v 0.296994 3.128011 -0.431333
v 0.349128 1.634171 0.457206
v -0.318863 1.646094 0.457473
v -0.526181 1.649674 -0.174581
v 0.014665 1.639996 -0.565305
v 0.554525 1.630328 -0.174789
v 0.159099 1.090354 0.487521
v 0.092292 0.734658 0.284058
v 0.391856 1.022718 0.284059
v -0.416135 1.092741 0.301303
v -0.241895 0.734829 0.175557
v -0.149914 1.024543 0.459617
v -0.416135 1.092741 -0.301302
v -0.241895 0.734829 -0.175556
v -0.485192 1.025660 0.000000
v 0.159099 1.090354 -0.487521
v 0.092292 0.734658 -0.284058
v -0.149914 1.024543 -0.459617
v 0.513685 1.088862 0.000000
v 0.298757 0.734553 0.000000
v 0.391856 1.022717 -0.284059
v -0.000019 0.603749 0.000000
v 0.102707 3.610706 0.371748
v -0.183996 2.255113 -0.477010
v 0.028303 3.846586 -0.264539
v 0.539156 3.575214 0.229340
v 0.484958 1.269226 -0.242703
v -0.063369 3.855655 -0.138101
v -0.247693 1.275836 0.479870
v 0.382409 1.270291 -0.383743
v 0.252535 0.849088 -0.291037
v -0.302347 3.071043 -0.130729
v 0.102707 3.610706 -0.371747
v 0.130986 0.901152 0.402695
v 0.439826 2.232157 0.377985
v 0.316136 2.332233 -0.465168
v 0.190519 1.656359 0.530452
v -0.247693 1.275836 -0.479870
v 0.355024 0.848984 -0.149999
v -0.462143 1.047748 -0.163255
v 0.086258 0.745842 0.027910
v 0.484958 1.269226 0.242704
v -0.078965 0.709766 -0.242702
v 0.424901 3.024903 -0.365583
v 0.152264 2.337275 0.518238
v -0.059574 0.006676 -0.082022
v 0.316136 2.332233 0.465169
v -0.388287 1.298949 0.387420
v 0.469370 1.044301 -0.138540
v 0.277358 1.045040 -0.402695
v -0.376252 0.849953 0.087166
v -0.376252 0.849953 -0.087165
v -0.471945 2.265877 0.083670
v 0.053409 0.745853 -0.073068
v -0.100962 0.376291 -0.032817
v -0.081209 1.274132 0.533743
v 0.591733 2.319767 0.085630
v 0.129782 3.043124 0.461710
v 0.000149 0.376273 -0.106198
v 0.482692 4.567322 0.073958
v 0.343070 4.584514 -0.119666
v 0.130986 0.901152 -0.402695
v 0.538027 2.228609 0.242735
v 0.422276 4.389939 0.212961
v -0.167881 3.632610 0.000001
v 0.250940 1.293236 -0.488319
v -0.062331 0.376283 0.085916
v 0.438819 3.809782 -0.300977
v 0.152264 2.337274 -0.518238
v -0.085797 0.745901 0.027910
v 0.045000 0.641780 0.138540
v 0.422276 4.389939 -0.212960
v 0.000029 0.006673 0.101384
v -0.063369 3.855655 0.138102
v 0.290773 3.824447 -0.349363
v 0.591733 2.319767 -0.085630
v 0.250940 1.293236 0.488320
v 0.543932 1.290702 -0.085622
v -0.295929 2.356782 -0.373593
v -0.489731 1.299961 -0.248878
v 0.577721 3.014232 0.154587
v 0.190519 1.656360 -0.530452
v -0.489730 1.299961 0.248878
v -0.534793 1.278188 -0.087166
v 0.206502 0.709658 -0.149998
v 0.062613 0.376261 0.085916
v 0.252535 0.849088 0.291037
v 0.600057 3.795708 0.078053
v 0.577721 3.014232 -0.154586
v 0.382409 1.270291 0.383743
v -0.078965 0.709766 0.242702
v -0.471945 2.265877 -0.083669
v 0.277358 1.045040 0.402696
v -0.183996 2.255114 0.477011
v 0.028303 3.846586 0.264540
v -0.462143 1.047748 0.163256
v -0.549754 1.630428 0.000000
v -0.119191 3.059753 -0.381441
v 0.539156 3.575215 -0.229339
v -0.388287 1.298949 -0.387419
v -0.160931 1.623622 0.531405
v 0.145658 0.641781 0.000000
v 0.173208 4.418060 -0.131698
v 0.576941 1.649047 0.000000
v -0.436566 1.667974 -0.327918
v 0.469370 1.044301 0.138540
v -0.343545 0.901995 0.248878
v -0.160931 1.623623 -0.531404
v 0.045000 0.641780 -0.138539
v -0.302347 3.071043 0.130730
v -0.052926 0.745890 -0.073068
v -0.397584 2.359897 -0.234892
v -0.199376 0.849689 -0.329869
v 0.439826 2.232156 -0.377985
v -0.343545 0.901995 -0.248877
v -0.397584 2.359897 0.234893
v -0.024337 2.249548 -0.528590
v 0.096462 0.006670 0.031329
v -0.298522 1.047169 -0.387418
v 0.423778 0.900625 0.000000
v 0.600057 3.795708 -0.078052
v -0.436566 1.667974 0.327918
v -0.255440 0.709833 0.000000
v 0.059628 0.006672 -0.082022
v 0.424901 3.024902 0.365584
v 0.013019 1.045989 -0.488318
v -0.024337 2.249548 0.528590
v 0.087204 1.294890 -0.541237
v 0.343070 4.584514 0.119667
v -0.119191 3.059753 0.381442
v -0.295929 2.356782 0.373593
v 0.543932 1.290702 0.085622
v -0.117869 0.641781 -0.085622
v 0.013019 1.045988 0.488318
v -0.199376 0.849689 0.329869
v 0.256777 4.595137 0.000001
v 0.438819 3.809782 0.300978
v 0.129782 3.043124 -0.461709
v -0.033359 0.849521 0.383741
v 0.173208 4.418060 0.131699
v -0.096411 0.006677 0.031329
v 0.575963 4.372459 0.000001
v 0.087204 1.294890 0.541238
v 0.466659 1.612569 -0.328334
v 0.000258 0.745871 0.090317
v 0.206501 0.709658 0.149999
v -0.298522 1.047169 0.387419
v -0.117869 0.641781 0.085622
v 0.101199 0.376254 -0.032817
v 0.355024 0.848984 0.149999
v 0.290773 3.824447 0.349364
v -0.534794 1.278188 0.087166
v -0.081209 1.274132 -0.533742
v -0.033359 0.849521 -0.383741
v 0.538027 2.228609 -0.242735
v 0.466659 1.612569 0.328335
v 0.482692 4.567322 -0.073957
v 0.056518 0.376262 -0.077545
v -0.091104 0.376289 0.029619
v 0.091360 0.376256 0.029619
v -0.056250 0.376283 -0.077545
v 0.000143 0.376272 0.095851
vt 0.3089 0.8126
vt 0.3089 0.8581
vt 0.3034 0.8581
vt 0.3030 0.8126
vt 0.2850 0.8131
vt 0.2869 0.8585
vt 0.2814 0.8588
vt 0.2790 0.8133
vt 0.3209 0.8127
vt 0.3199 0.8582
vt 0.3144 0.8581
vt 0.3149 0.8126
vt 0.2970 0.8127
vt 0.2979 0.8582
vt 0.2924 0.8583
vt 0.2910 0.8128
vt 0.3328 0.8131
vt 0.3309 0.8585
vt 0.3254 0.8583
vt 0.3268 0.8128
vt 0.7170 0.6145
vt 0.7129 0.6119
vt 0.7168 0.6103
vt 0.7143 0.5703
vt 0.7181 0.5736
vt 0.7154 0.5882
vt 0.6553 0.6207
vt 0.6575 0.6168
vt 0.6608 0.6198
vt 0.6540 0.6163
vt 0.6503 0.6184
vt 0.7159 0.5563
vt 0.6991 0.5722
vt 0.6997 0.5569
vt 0.7033 0.5750
vt 0.6684 0.5788
vt 0.6727 0.5655
vt 0.6712 0.5830
vt 0.6532 0.5762
vt 0.6575 0.5627
vt 0.6565 0.5801
vt 0.7293 0.5705
vt 0.7320 0.5559
vt 0.7325 0.5742
vt 0.7117 0.5562
vt 0.6834 0.5829
vt 0.6844 0.5677
vt 0.6892 0.5674
vt 0.6689 0.5650
vt 0.6535 0.5613
vt 0.7276 0.5563
vt 0.7063 0.5302
vt 0.7086 0.5252
vt 0.7103 0.5301
vt 0.6804 0.5428
vt 0.6796 0.5389
vt 0.6835 0.5411
vt 0.6684 0.5414
vt 0.6701 0.5378
vt 0.6715 0.5415
vt 0.6556 0.5330
vt 0.6612 0.5294
vt 0.6594 0.5350
vt 0.7212 0.5320
vt 0.7209 0.5269
vt 0.7246 0.5307
vt 0.6768 0.5191
vt 0.6763 0.5238
vt 0.6718 0.5225
vt 0.7206 0.5218
vt 0.7253 0.5204
vt 0.7243 0.5256
vt 0.7279 0.5293
vt 0.7289 0.5242
vt 0.7318 0.5289
vt 0.6668 0.5259
vt 0.6713 0.5272
vt 0.6693 0.5300
vt 0.6651 0.5314
vt 0.6633 0.5369
vt 0.6675 0.5355
vt 0.6658 0.5391
vt 0.6717 0.5341
vt 0.6738 0.5312
vt 0.6752 0.5345
vt 0.6731 0.5378
vt 0.6745 0.5415
vt 0.6766 0.5382
vt 0.6775 0.5422
vt 0.6788 0.5349
vt 0.6773 0.5317
vt 0.6820 0.5314
vt 0.6827 0.5372
vt 0.6866 0.5394
vt 0.6859 0.5336
vt 0.6908 0.5381
vt 0.6852 0.5278
vt 0.6805 0.5281
vt 0.6810 0.5235
vt 0.7110 0.5201
vt 0.7158 0.5209
vt 0.7126 0.5251
vt 0.7142 0.5301
vt 0.7174 0.5259
vt 0.7177 0.5310
vt 0.7259 0.5421
vt 0.7235 0.5371
vt 0.7269 0.5357
vt 0.7303 0.5417
vt 0.7347 0.5413
vt 0.7313 0.5353
vt 0.7352 0.5349
vt 0.6538 0.5465
vt 0.6547 0.5397
vt 0.6586 0.5417
vt 0.6579 0.5479
vt 0.6619 0.5492
vt 0.6626 0.5430
vt 0.6651 0.5453
vt 0.6695 0.5512
vt 0.6689 0.5463
vt 0.6720 0.5464
vt 0.6732 0.5517
vt 0.6770 0.5523
vt 0.6758 0.5469
vt 0.6787 0.5475
vt 0.6853 0.5525
vt 0.6829 0.5476
vt 0.6860 0.5459
vt 0.6902 0.5522
vt 0.6950 0.5519
vt 0.6908 0.5457
vt 0.6949 0.5444
vt 0.7091 0.5421
vt 0.7077 0.5361
vt 0.7117 0.5361
vt 0.7133 0.5422
vt 0.7175 0.5423
vt 0.7158 0.5362
vt 0.7193 0.5372
vt 0.6449 0.5434
vt 0.6503 0.5382
vt 0.6494 0.5450
vt 0.6449 0.5631
vt 0.6449 0.5828
vt 0.6494 0.5646
vt 0.6490 0.5795
vt 0.6657 0.5502
vt 0.6609 0.5666
vt 0.6599 0.5840
vt 0.6647 0.5676
vt 0.6641 0.5814
vt 0.6811 0.5524
vt 0.6755 0.5697
vt 0.6740 0.5872
vt 0.6797 0.5698
vt 0.6787 0.5850
vt 0.7003 0.5417
vt 0.7033 0.5360
vt 0.7047 0.5419
vt 0.7039 0.5597
vt 0.7074 0.5778
vt 0.7083 0.5599
vt 0.7109 0.5740
vt 0.7217 0.5422
vt 0.7197 0.5596
vt 0.7218 0.5769
vt 0.7239 0.5595
vt 0.7256 0.5737
vt 0.7245 0.6084
vt 0.7269 0.5895
vt 0.7301 0.5932
vt 0.6452 0.6162
vt 0.6451 0.5995
vt 0.6490 0.6140
vt 0.6528 0.6119
vt 0.6489 0.5974
vt 0.6530 0.5940
vt 0.6564 0.5979
vt 0.6563 0.6123
vt 0.6598 0.6128
vt 0.6599 0.5984
vt 0.6641 0.5958
vt 0.6669 0.6000
vt 0.6630 0.6158
vt 0.6663 0.6188
vt 0.6702 0.6030
vt 0.6748 0.6008
vt 0.7232 0.5926
vt 0.7192 0.5915
vt 0.7165 0.6061
vt 0.7205 0.6072
vt 0.7088 0.6093
vt 0.7040 0.5907
vt 0.7081 0.5935
vt 0.7127 0.6077
vt 0.7120 0.5919
vt 0.7207 0.6114
vt 0.7357 0.5779
vt 0.6949 0.5368
vt 0.7357 0.5285
vt 0.6758 0.5284
vt 0.6901 0.5323
vt 0.7328 0.5238
vt 0.7299 0.5191
vt 0.7352 0.5596
vt 0.3347 0.7675
vt 0.3283 0.7673
vt 0.3411 0.7678
vt 0.3388 0.8133
vt 0.3364 0.8588
vt 0.2961 0.7672
vt 0.2896 0.7673
vt 0.3025 0.7670
vt 0.3219 0.7672
vt 0.3154 0.7670
vt 0.2832 0.7675
vt 0.2767 0.7678
vt 0.3090 0.7670
vn 0.0000 0.0145 0.9999
vn 0.0000 0.0196 0.9998
vn -0.5873 0.0214 0.8091
vn -0.5874 0.0159 0.8091
vn -0.5873 0.0146 -0.8092
vn -0.5871 0.0197 -0.8093
vn 0.0001 0.0213 -0.9998
vn 0.0001 0.0157 -0.9999
vn 0.9509 0.0141 0.3090
vn 0.9509 0.0192 0.3090
vn 0.5875 0.0211 0.8090
vn 0.5876 0.0155 0.8090
vn -0.9508 0.0146 0.3093
vn -0.9507 0.0197 0.3094
vn -0.9508 0.0215 -0.3092
vn -0.9509 0.0159 -0.3091
vn 0.5875 0.0143 -0.8091
vn 0.5874 0.0194 -0.8090
vn 0.9508 0.0209 -0.3091
vn 0.9509 0.0154 -0.3091
vn 0.1222 0.9925 -0.0000
vn -0.1166 0.7488 0.6524
vn 0.6465 0.6463 0.4053
vn 0.8076 0.0159 0.5895
vn 0.9461 0.0013 0.3239
vn 0.8097 0.0325 0.5859
vn -0.5841 0.8116 0.0000
vn -0.1166 0.7488 -0.6524
vn 0.6465 0.6463 -0.4053
vn 0.8886 -0.0104 0.4586
vn -0.3083 0.1327 0.9420
vn -0.1420 0.0751 0.9870
vn 0.0020 0.1168 0.9931
vn -0.9789 0.2042 -0.0000
vn -0.9721 0.1445 0.1845
vn -0.9209 0.2308 0.3140
vn -0.3083 0.1327 -0.9420
vn -0.4666 0.1024 -0.8785
vn -0.5721 0.1862 -0.7988
vn 0.8065 0.0118 -0.5911
vn 0.7064 0.0054 -0.7078
vn 0.5991 0.0403 -0.7996
vn 0.7072 0.0041 0.7070
vn -0.4666 0.1024 0.8785
vn -0.9721 0.1445 -0.1845
vn -0.1420 0.0751 -0.9870
vn 0.8880 -0.0115 -0.4597
vn 0.2927 -0.2986 0.9084
vn 0.2633 -0.5152 0.8157
vn 0.5522 -0.3500 0.7566
vn -0.7723 -0.2945 0.5628
vn -0.6935 -0.5140 0.5048
vn -0.5480 -0.3444 0.7623
vn -0.7723 -0.2945 -0.5628
vn -0.6935 -0.5140 -0.5048
vn -0.8936 -0.3449 -0.2872
vn 0.2927 -0.2986 -0.9084
vn 0.2633 -0.5152 -0.8157
vn -0.0055 -0.3462 -0.9381
vn 0.9525 -0.3044 0.0000
vn 0.8554 -0.5180 0.0000
vn 0.8886 -0.3529 -0.2929
vn 0.6690 -0.7433 0.0000
vn 0.3870 -0.9221 0.0000
vn 0.4966 -0.7893 -0.3612
vn 0.7417 -0.5813 -0.3346
vn 0.7507 -0.3708 -0.5467
vn 0.5469 -0.5805 -0.6033
vn 0.5522 -0.3500 -0.7566
vn 0.2063 -0.7424 -0.6374
vn 0.1195 -0.9219 -0.3684
vn -0.1902 -0.7885 -0.5849
vn -0.0898 -0.5783 -0.8108
vn -0.2884 -0.3644 -0.8855
vn -0.4047 -0.5782 -0.7084
vn -0.5480 -0.3444 -0.7623
vn -0.5417 -0.7424 -0.3941
vn -0.3134 -0.9219 -0.2278
vn -0.6142 -0.7891 0.0000
vn -0.7979 -0.5793 -0.1663
vn -0.9312 -0.3646 -0.0000
vn -0.7979 -0.5793 0.1663
vn -0.8936 -0.3449 0.2872
vn -0.5417 -0.7424 0.3941
vn -0.3134 -0.9219 0.2278
vn -0.1902 -0.7885 0.5849
vn -0.4047 -0.5782 0.7084
vn -0.2884 -0.3644 0.8855
vn -0.0898 -0.5783 0.8108
vn -0.0055 -0.3462 0.9381
vn 0.2063 -0.7424 0.6374
vn 0.1195 -0.9219 0.3684
vn 0.4966 -0.7893 0.3612
vn 0.5469 -0.5805 0.6033
vn 0.7507 -0.3708 0.5467
vn 0.7417 -0.5813 0.3346
vn 0.8886 -0.3529 0.2929
vn 0.9474 -0.0551 -0.3152
vn 0.9745 -0.1444 -0.1717
vn 0.8730 -0.1639 -0.4593
vn 0.8066 -0.0536 -0.5887
vn 0.5875 -0.0329 -0.8085
vn 0.7045 -0.1598 -0.6915
vn 0.4616 -0.1294 -0.8776
vn -0.0021 0.0013 -1.0000
vn 0.1343 -0.1213 -0.9835
vn -0.1684 -0.1400 -0.9757
vn -0.3096 0.0068 -0.9508
vn -0.5896 0.0360 -0.8069
vn -0.4394 -0.1346 -0.8881
vn -0.6902 -0.1009 -0.7165
vn -0.9468 0.0556 -0.3169
vn -0.8941 -0.0974 -0.4371
vn -0.9816 -0.1257 -0.1438
vn -0.9991 0.0424 -0.0000
vn -0.9468 0.0556 0.3169
vn -0.9816 -0.1257 0.1438
vn -0.8941 -0.0974 0.4371
vn -0.5896 0.0360 0.8069
vn -0.6902 -0.1009 0.7165
vn -0.4394 -0.1346 0.8881
vn -0.3096 0.0068 0.9508
vn -0.0021 0.0013 1.0000
vn -0.1684 -0.1400 0.9757
vn 0.1343 -0.1213 0.9835
vn 0.5875 -0.0329 0.8085
vn 0.4616 -0.1294 0.8776
vn 0.7045 -0.1598 0.6915
vn 0.8066 -0.0536 0.5887
vn 0.9474 -0.0551 0.3152
vn 0.8730 -0.1639 0.4593
vn 0.9745 -0.1444 0.1717
vn 0.3067 -0.0059 -0.9518
vn 0.4529 0.0308 -0.8910
vn 0.3122 0.0821 -0.9465
vn 0.1663 0.0591 -0.9843
vn 0.0035 0.1180 -0.9930
vn -0.8049 0.0642 -0.5899
vn -0.7084 0.1383 -0.6921
vn -0.7820 0.2270 -0.5804
vn -0.8672 0.1527 -0.4740
vn -0.9209 0.2308 -0.3140
vn -0.8049 0.0642 0.5899
vn -0.8672 0.1527 0.4740
vn -0.7820 0.2270 0.5804
vn -0.7084 0.1383 0.6921
vn -0.5721 0.1862 0.7988
vn 0.3067 -0.0059 0.9518
vn 0.1662 0.0571 0.9844
vn 0.3126 0.0821 0.9463
vn 0.4530 0.0328 0.8909
vn 0.5967 0.0434 0.8013
vn 0.9987 -0.0510 0.0000
vn 0.9869 -0.0175 0.1606
vn 1.0000 -0.0060 -0.0000
vn 0.9869 -0.0175 -0.1606
vn 0.9465 0.0008 -0.3228
vn 0.8064 0.1759 -0.5646
vn 0.8094 0.0347 -0.5862
vn 0.5052 0.1021 -0.8569
vn 0.3284 0.3427 -0.8802
vn -0.2533 0.3393 -0.9059
vn 0.1171 0.1606 -0.9800
vn -0.2900 0.1959 -0.9368
vn -0.6278 0.2771 -0.7274
vn -0.6842 0.4944 -0.5360
vn -0.8985 0.4390 0.0000
vn -0.8639 0.3138 -0.3939
vn -0.9557 0.2943 0.0000
vn -0.8639 0.3138 0.3939
vn -0.6842 0.4944 0.5360
vn -0.2533 0.3393 0.9059
vn -0.6278 0.2771 0.7274
vn -0.2900 0.1959 0.9368
vn 0.9785 0.0275 -0.2046
vn 0.9785 0.0275 0.2046
vn 0.8064 0.1759 0.5646
vn 0.9691 0.2466 -0.0000
vn 0.1177 0.1624 0.9797
vn 0.3284 0.3427 0.8802
vn 0.5054 0.1003 0.8570
vn -0.0000 -1.0000 0.0000
vn 0.5876 0.0092 -0.8091
vn 0.9510 0.0098 -0.3091
vn -0.0000 0.0102 -0.9999
vn -0.9509 0.0096 0.3092
vn -0.9510 0.0104 -0.3091
vn -0.5876 0.0103 0.8091
vn 0.9510 0.0090 0.3090
vn 0.5876 0.0100 0.8091
vn -0.5875 0.0095 -0.8091
vn -0.0000 0.0094 1.0000
usemtl None
s 1
f 192/1/1 175/2/2 3/3/3 97/4/4
f 191/5/5 141/6/6 7/7/7 89/8/8
f 190/9/9 71/10/10 2/11/11 116/12/12
f 189/13/13 100/14/14 6/15/15 85/16/16
f 188/17/17 84/18/18 10/19/19 179/20/20
f 11/21/21 159/22/22 90/23/23
f 14/24/24 111/25/25 56/26/26
f 11/27/21 166/28/27 159/29/22
f 11/27/21 91/30/28 166/28/27
f 11/27/21 187/31/29 91/30/28
f 14/24/24 93/32/30 111/25/25
f 20/33/31 157/34/32 88/35/33
f 23/36/34 83/37/35 140/38/36
f 26/39/37 54/40/38 128/41/39
f 29/42/40 144/43/41 74/44/42
f 14/24/24 65/45/43 93/32/30
f 20/46/31 124/47/44 157/48/32
f 23/36/34 122/49/45 83/37/35
f 26/39/37 147/50/46 54/40/38
f 29/42/40 185/51/47 144/43/41
f 37/52/48 64/53/49 123/54/50
f 40/55/51 137/56/52 177/57/53
f 43/58/54 145/59/55 70/60/56
f 46/61/57 92/62/58 156/63/59
f 49/64/60 150/65/61 79/66/62
f 50/67/63 132/68/64 115/69/65
f 50/70/63 115/71/65 69/72/66
f 51/73/67 61/74/68 80/75/69
f 47/76/70 139/77/71 73/78/72
f 47/76/70 73/78/72 184/79/73
f 48/80/74 143/81/75 149/82/76
f 44/83/77 163/84/78 153/85/79
f 44/83/77 153/85/79 82/86/80
f 45/87/81 81/88/82 126/89/83
f 41/90/84 178/91/85 121/92/86
f 41/90/84 121/92/86 165/93/87
f 42/94/88 169/95/89 164/96/90
f 38/97/91 101/98/92 176/99/93
f 38/100/91 176/101/93 117/102/94
f 39/103/95 180/104/96 136/105/97
f 36/106/98 108/107/99 57/108/100
f 36/106/98 57/108/100 174/109/101
f 30/110/102 60/111/103 96/112/104
f 35/113/105 158/114/106 183/115/107
f 35/113/105 183/115/107 138/116/108
f 27/117/109 68/118/110 130/119/111
f 34/120/112 110/121/113 114/122/114
f 34/120/112 114/122/114 127/123/115
f 24/124/116 182/125/117 113/126/118
f 33/127/119 78/128/120 59/129/121
f 33/127/119 59/129/121 131/130/122
f 21/131/123 86/132/124 173/133/125
f 32/134/126 107/135/127 120/136/128
f 32/134/126 120/136/128 186/137/129
f 19/138/130 72/139/131 162/140/132
f 30/141/102 96/142/104 112/143/133
f 30/141/102 112/143/133 66/144/134
f 31/145/135 99/146/136 168/147/137
f 27/117/109 130/119/111 135/148/138
f 27/117/109 135/148/138 109/149/139
f 28/150/140 142/151/141 62/152/142
f 24/124/116 113/126/118 152/153/143
f 24/124/116 152/153/143 146/154/144
f 25/155/145 161/156/146 160/157/147
f 21/158/123 173/159/125 67/160/148
f 21/158/123 67/160/148 75/161/149
f 22/162/150 77/163/151 155/164/152
f 19/138/130 162/140/132 134/165/153
f 19/138/130 134/165/153 87/166/154
f 15/167/155 106/168/156 119/169/157
f 18/170/158 129/171/159 98/172/160
f 18/173/158 98/174/160 102/175/161
f 17/176/162 105/177/163 63/178/164
f 17/176/162 63/178/164 55/179/165
f 17/176/162 55/179/165 133/180/166
f 16/181/167 58/182/168 95/183/169
f 16/181/167 95/183/169 104/184/170
f 16/181/167 104/184/170 170/185/171
f 12/186/172 125/187/173 53/188/174
f 15/167/155 119/169/157 151/189/175
f 15/167/155 151/189/175 118/190/176
f 13/191/177 172/192/178 90/23/23
f 12/193/172 53/194/174 181/195/179
f 12/193/172 181/195/179 94/196/180
f 13/191/177 167/197/181 56/26/26
f 56/26/26 155/164/152 14/24/24
f 56/26/26 167/197/181 155/164/152
f 167/197/181 22/162/150 155/164/152
f 94/196/180 167/197/181 13/191/177
f 94/196/180 181/195/179 167/197/181
f 181/195/179 22/162/150 167/197/181
f 181/195/179 88/35/33 22/162/150
f 181/195/179 53/194/174 88/35/33
f 53/194/174 20/33/31 88/35/33
f 90/23/23 187/198/29 11/21/21
f 90/23/23 172/192/178 187/198/29
f 172/192/178 18/170/158 187/198/29
f 118/190/176 172/192/178 13/191/177
f 118/190/176 151/189/175 172/192/178
f 151/189/175 18/170/158 172/192/178
f 151/189/175 129/171/159 18/170/158
f 151/189/175 119/169/157 129/171/159
f 119/169/157 29/42/40 129/171/159
f 53/188/174 160/157/147 20/46/31
f 53/188/174 125/187/173 160/157/147
f 125/187/173 25/155/145 160/157/147
f 170/185/171 125/187/173 12/186/172
f 170/185/171 104/184/170 125/187/173
f 104/184/170 25/155/145 125/187/173
f 104/184/170 140/38/36 25/155/145
f 104/184/170 95/183/169 140/38/36
f 95/183/169 23/36/34 140/38/36
f 95/183/169 62/152/142 23/36/34
f 95/183/169 58/182/168 62/152/142
f 58/182/168 28/150/140 62/152/142
f 133/180/166 58/182/168 16/181/167
f 133/180/166 55/179/165 58/182/168
f 55/179/165 28/150/140 58/182/168
f 55/179/165 128/41/39 28/150/140
f 55/179/165 63/178/164 128/41/39
f 63/178/164 26/39/37 128/41/39
f 63/178/164 168/147/137 26/39/37
f 63/178/164 105/177/163 168/147/137
f 105/177/163 31/145/135 168/147/137
f 102/175/161 105/177/163 17/176/162
f 102/175/161 98/174/160 105/177/163
f 98/174/160 31/145/135 105/177/163
f 98/172/160 74/44/42 31/199/135
f 98/172/160 129/171/159 74/44/42
f 129/171/159 29/42/40 74/44/42
f 119/169/157 185/51/47 29/42/40
f 119/169/157 106/168/156 185/51/47
f 106/168/156 36/106/98 185/51/47
f 87/166/154 106/168/156 15/167/155
f 87/166/154 134/165/153 106/168/156
f 134/165/153 36/106/98 106/168/156
f 134/165/153 108/107/99 36/106/98
f 134/165/153 162/140/132 108/107/99
f 162/140/132 49/64/60 108/107/99
f 155/164/152 65/45/43 14/24/24
f 155/164/152 77/163/151 65/45/43
f 77/163/151 32/134/126 65/45/43
f 75/161/149 77/163/151 22/162/150
f 75/161/149 67/160/148 77/163/151
f 67/160/148 32/134/126 77/163/151
f 67/160/148 107/135/127 32/134/126
f 67/160/148 173/159/125 107/135/127
f 173/159/125 37/52/48 107/135/127
f 160/157/147 124/47/44 20/46/31
f 160/157/147 161/156/146 124/47/44
f 161/156/146 33/127/119 124/47/44
f 146/154/144 161/156/146 25/155/145
f 146/154/144 152/153/143 161/156/146
f 152/153/143 33/127/119 161/156/146
f 152/153/143 78/128/120 33/127/119
f 152/153/143 113/126/118 78/128/120
f 113/126/118 40/55/51 78/128/120
f 62/152/142 122/49/45 23/36/34
f 62/152/142 142/151/141 122/49/45
f 142/151/141 34/120/112 122/49/45
f 109/149/139 142/151/141 28/150/140
f 109/149/139 135/148/138 142/151/141
f 135/148/138 34/120/112 142/151/141
f 135/148/138 110/121/113 34/120/112
f 135/148/138 130/119/111 110/121/113
f 130/119/111 43/58/54 110/121/113
f 168/147/137 147/50/46 26/39/37
f 168/147/137 99/146/136 147/50/46
f 99/146/136 35/113/105 147/50/46
f 66/144/134 99/146/136 31/145/135
f 66/144/134 112/143/133 99/146/136
f 112/143/133 35/113/105 99/146/136
f 112/143/133 158/114/106 35/113/105
f 112/143/133 96/142/104 158/114/106
f 96/142/104 46/61/57 158/114/106
f 162/140/132 136/105/97 49/64/60
f 162/140/132 72/139/131 136/105/97
f 72/139/131 39/103/95 136/105/97
f 186/137/129 72/139/131 19/138/130
f 186/137/129 120/136/128 72/139/131
f 120/136/128 39/103/95 72/139/131
f 120/136/128 123/54/50 39/103/95
f 120/136/128 107/135/127 123/54/50
f 107/135/127 37/52/48 123/54/50
f 173/133/125 164/96/90 37/200/48
f 173/133/125 86/132/124 164/96/90
f 86/132/124 42/94/88 164/96/90
f 131/130/122 86/132/124 21/131/123
f 131/130/122 59/129/121 86/132/124
f 59/129/121 42/94/88 86/132/124
f 59/129/121 177/57/53 42/94/88
f 59/129/121 78/128/120 177/57/53
f 78/128/120 40/55/51 177/57/53
f 113/126/118 126/89/83 40/55/51
f 113/126/118 182/125/117 126/89/83
f 182/125/117 45/87/81 126/89/83
f 127/123/115 182/125/117 24/124/116
f 127/123/115 114/122/114 182/125/117
f 114/122/114 45/87/81 182/125/117
f 114/122/114 70/60/56 45/87/81
f 114/122/114 110/121/113 70/60/56
f 110/121/113 43/58/54 70/60/56
f 130/119/111 149/82/76 43/58/54
f 130/119/111 68/118/110 149/82/76
f 68/118/110 48/80/74 149/82/76
f 138/116/108 68/118/110 27/117/109
f 138/116/108 183/115/107 68/118/110
f 183/115/107 48/80/74 68/118/110
f 183/115/107 156/63/59 48/80/74
f 183/115/107 158/114/106 156/63/59
f 158/114/106 46/61/57 156/63/59
f 96/112/104 80/75/69 46/201/57
f 96/112/104 60/111/103 80/75/69
f 60/111/103 51/73/67 80/75/69
f 174/109/101 60/111/103 30/110/102
f 174/109/101 57/108/100 60/111/103
f 57/108/100 51/73/67 60/111/103
f 57/108/100 79/66/62 51/73/67
f 57/108/100 108/107/99 79/66/62
f 108/107/99 49/64/60 79/66/62
f 136/105/97 150/65/61 49/64/60
f 136/105/97 180/104/96 150/65/61
f 180/104/96 50/70/63 150/65/61
f 117/102/94 180/104/96 39/103/95
f 117/102/94 176/101/93 180/104/96
f 176/101/93 50/70/63 180/104/96
f 176/99/93 132/68/64 50/67/63
f 176/99/93 101/98/92 132/68/64
f 101/98/92 52/202/182 132/68/64
f 164/96/90 64/203/49 37/200/48
f 164/96/90 169/95/89 64/203/49
f 169/95/89 38/97/91 64/203/49
f 165/93/87 169/95/89 42/94/88
f 165/93/87 121/92/86 169/95/89
f 121/92/86 38/97/91 169/95/89
f 121/92/86 101/98/92 38/97/91
f 121/92/86 178/91/85 101/98/92
f 178/91/85 52/202/182 101/98/92
f 126/89/83 137/56/52 40/55/51
f 126/89/83 81/88/82 137/56/52
f 81/88/82 41/90/84 137/56/52
f 82/86/80 81/88/82 45/87/81
f 82/86/80 153/85/79 81/88/82
f 153/85/79 41/90/84 81/88/82
f 153/85/79 178/91/85 41/90/84
f 153/85/79 163/84/78 178/91/85
f 163/84/78 52/202/182 178/91/85
f 149/82/76 145/59/55 43/58/54
f 149/82/76 143/81/75 145/59/55
f 143/81/75 44/83/77 145/59/55
f 184/79/73 143/81/75 48/80/74
f 184/79/73 73/78/72 143/81/75
f 73/78/72 44/83/77 143/81/75
f 73/78/72 163/84/78 44/83/77
f 73/78/72 139/77/71 163/84/78
f 139/77/71 52/202/182 163/84/78
f 80/75/69 92/204/58 46/201/57
f 80/75/69 61/74/68 92/204/58
f 61/74/68 47/205/70 92/204/58
f 69/72/66 61/74/68 51/73/67
f 69/72/66 115/71/65 61/74/68
f 115/71/65 47/205/70 61/74/68
f 115/69/65 139/77/71 47/76/70
f 115/69/65 132/68/64 139/77/71
f 132/68/64 52/202/182 139/77/71
f 79/66/62 69/72/66 51/73/67
f 79/66/62 150/65/61 69/72/66
f 150/65/61 50/70/63 69/72/66
f 156/63/59 184/79/73 48/80/74
f 156/63/59 92/62/58 184/79/73
f 92/62/58 47/76/70 184/79/73
f 70/60/56 82/86/80 45/87/81
f 70/60/56 145/59/55 82/86/80
f 145/59/55 44/83/77 82/86/80
f 177/57/53 165/93/87 42/94/88
f 177/57/53 137/56/52 165/93/87
f 137/56/52 41/90/84 165/93/87
f 123/54/50 117/102/94 39/103/95
f 123/54/50 64/53/49 117/102/94
f 64/53/49 38/100/91 117/102/94
f 144/43/41 174/109/101 30/110/102
f 144/43/41 185/51/47 174/109/101
f 185/51/47 36/106/98 174/109/101
f 54/40/38 138/116/108 27/117/109
f 54/40/38 147/50/46 138/116/108
f 147/50/46 35/113/105 138/116/108
f 83/37/35 127/123/115 24/124/116
f 83/37/35 122/49/45 127/123/115
f 122/49/45 34/120/112 127/123/115
f 157/48/32 131/130/122 21/131/123
f 157/48/32 124/47/44 131/130/122
f 124/47/44 33/127/119 131/130/122
f 93/32/30 186/137/129 19/138/130
f 93/32/30 65/45/43 186/137/129
f 65/45/43 32/134/126 186/137/129
f 74/44/42 66/206/134 31/199/135
f 74/44/42 144/43/41 66/206/134
f 144/43/41 30/110/102 66/206/134
f 128/41/39 109/149/139 28/150/140
f 128/41/39 54/40/38 109/149/139
f 54/40/38 27/117/109 109/149/139
f 140/38/36 146/154/144 25/155/145
f 140/38/36 83/37/35 146/154/144
f 83/37/35 24/124/116 146/154/144
f 88/35/33 75/161/149 22/162/150
f 88/35/33 157/34/32 75/161/149
f 157/34/32 21/158/123 75/161/149
f 111/25/25 87/166/154 15/167/155
f 111/25/25 93/32/30 87/166/154
f 93/32/30 19/138/130 87/166/154
f 91/30/28 102/175/161 17/176/162
f 91/30/28 187/31/29 102/175/161
f 187/31/29 18/173/158 102/175/161
f 166/28/27 133/180/166 16/181/167
f 166/28/27 91/30/28 133/180/166
f 91/30/28 17/176/162 133/180/166
f 159/29/22 170/185/171 12/186/172
f 159/29/22 166/28/27 170/185/171
f 166/28/27 16/181/167 170/185/171
f 56/26/26 118/190/176 13/191/177
f 56/26/26 111/25/25 118/190/176
f 111/25/25 15/167/155 118/190/176
f 90/23/23 94/196/180 13/191/177
f 90/23/23 159/22/22 94/196/180
f 159/22/22 12/193/172 94/196/180
f 154/207/183 188/17/17 179/20/20 9/208/184
f 8/209/185 89/210/8 188/17/17 154/207/183
f 89/210/8 7/211/7 84/18/18 188/17/17
f 171/212/186 189/13/13 85/16/16 5/213/187
f 4/214/188 97/4/4 189/13/13 171/212/186
f 97/4/4 3/3/3 100/14/14 189/13/13
f 148/215/189 190/9/9 116/12/12 1/216/190
f 9/208/184 179/20/20 190/9/9 148/215/189
f 179/20/20 10/19/19 71/10/10 190/9/9
f 76/217/191 191/5/5 89/8/8 8/218/185
f 5/213/187 85/16/16 191/5/5 76/217/191
f 85/16/16 6/15/15 141/6/6 191/5/5
f 103/219/192 192/1/1 97/4/4 4/214/188
f 1/216/190 116/12/12 192/1/1 103/219/192
f 116/12/12 2/11/11 175/2/2 192/1/1
