# Blender v2.78 (sub 0) OBJ File: ''
# www.blender.org
mtllib Thuja_Tree_s_07.mtl
o Thuja_Tree_s_07
v -0.900516 1.276788 0.000000
v -0.850667 1.264950 0.364048
v -0.984282 1.655439 0.420548
v -0.985983 1.656986 0.000000
v -0.881358 2.057825 0.444500
v -0.868817 2.043918 0.000000
v -0.679542 1.257207 0.679520
v -0.797418 1.633635 0.797396
v -0.764854 1.950428 0.764832
v -0.984282 1.655439 -0.420547
v -0.850667 1.264950 -0.364047
v -0.797418 1.633635 -0.797396
v -0.679542 1.257207 -0.679519
v -0.881358 2.057825 -0.444499
v -0.764854 1.950428 -0.764831
v -0.732081 0.973134 -0.312789
v -0.733041 0.972680 0.000000
v -0.532617 0.730571 -0.268613
v -0.524815 0.737280 0.000000
v -0.595861 0.980685 -0.595839
v -0.477388 0.789085 -0.477366
v -0.732081 0.973134 0.312789
v -0.595861 0.980685 0.595839
v -0.532617 0.730571 0.268613
v -0.477388 0.789085 0.477367
v -0.000022 1.276788 -0.900493
v -0.364069 1.264950 -0.850645
v -0.420569 1.655439 -0.984260
v -0.000022 1.656986 -0.985961
v -0.444522 2.057825 -0.881335
v -0.000022 2.043918 -0.868795
v 0.420526 1.655439 -0.984260
v 0.364026 1.264950 -0.850645
v 0.797374 1.633635 -0.797396
v 0.679498 1.257207 -0.679519
v 0.444478 2.057825 -0.881335
v 0.764810 1.950428 -0.764831
v 0.312767 0.973134 -0.732059
v -0.000022 0.972680 -0.733019
v 0.268591 0.730571 -0.532594
v -0.000022 0.737280 -0.524792
v 0.595817 0.980685 -0.595839
v 0.477345 0.789085 -0.477366
v -0.312811 0.973134 -0.732059
v -0.268635 0.730571 -0.532594
v 0.900472 1.276788 0.000000
v 0.850624 1.264950 -0.364047
v 0.984239 1.655439 -0.420547
v 0.985939 1.656986 0.000000
v 0.881314 2.057825 -0.444499
v 0.868774 2.043918 0.000000
v 0.984239 1.655439 0.420548
v 0.850624 1.264950 0.364048
v 0.797374 1.633635 0.797396
v 0.679498 1.257207 0.679520
v 0.881314 2.057825 0.444500
v 0.764810 1.950428 0.764832
v 0.732038 0.973134 0.312789
v 0.732997 0.972680 0.000000
v 0.532573 0.730571 0.268613
v 0.524771 0.737280 0.000000
v 0.595817 0.980685 0.595839
v 0.477345 0.789085 0.477367
v 0.732038 0.973134 -0.312789
v 0.532573 0.730571 -0.268613
v -0.000022 1.276788 0.900494
v 0.364026 1.264950 0.850646
v 0.420526 1.655439 0.984261
v -0.000022 1.656986 0.985961
v 0.444478 2.057825 0.881336
v -0.000022 2.043918 0.868796
v -0.420569 1.655439 0.984261
v -0.364069 1.264950 0.850646
v -0.444522 2.057825 0.881336
v -0.312811 0.973134 0.732060
v -0.000022 0.972680 0.733019
v -0.268635 0.730571 0.532595
v -0.000022 0.737280 0.524793
v 0.312767 0.973134 0.732060
v 0.268591 0.730571 0.532595
v -0.000022 0.571282 0.000000
v -0.000022 0.607599 0.270338
v -0.269444 0.608717 0.269422
v -0.270359 0.607599 0.000000
v -0.269444 0.608717 -0.269422
v -0.000022 0.607599 -0.270337
v 0.269400 0.608717 -0.269422
v 0.270316 0.607599 0.000000
v 0.269400 0.608717 0.269422
v -0.000022 2.331105 0.000000
v -0.000022 2.266314 0.482288
v 0.480633 2.264321 0.480655
v 0.482266 2.266314 0.000000
v 0.480633 2.264321 -0.480655
v -0.000022 2.266314 -0.482288
v -0.000022 2.331105 0.000000
v -0.480677 2.264321 -0.480655
v -0.482310 2.266314 0.000000
v -0.480677 2.264321 0.480655
v 0.065433 -0.000000 0.090061
v 0.055739 0.924006 0.076718
v -0.055739 0.924006 0.076718
v -0.065433 -0.000000 0.090061
v -0.105873 0.000000 -0.034400
v -0.090187 0.924006 -0.029304
v 0.000000 0.924006 -0.094829
v 0.000000 0.000000 -0.111321
v 0.105873 0.000000 -0.034400
v 0.090187 0.924006 -0.029304
v 0.917431 1.460194 0.392298
v 0.823062 2.004127 -0.604665
v -0.000022 2.155116 0.675542
v 0.927356 1.850452 0.000000
v 0.134284 0.733925 0.528694
v -0.608994 1.644537 -0.890828
v -0.269040 0.669644 0.401009
v -0.134328 0.733925 0.528694
v 0.528672 0.733925 0.134307
v 0.680973 2.161073 -0.462577
v 0.134689 0.608158 0.269880
v -0.269902 0.608158 -0.134711
v -0.521806 1.261078 0.765083
v 0.608950 1.644537 -0.890828
v -0.890850 1.644537 -0.608971
v 0.462555 2.161073 -0.680995
v 0.372968 0.759828 0.504981
v 0.290679 0.851853 -0.632326
v 0.521762 1.261078 0.765083
v -0.481494 2.265317 0.240328
v 0.637658 1.118946 -0.637679
v -0.604688 2.004127 -0.823083
v 0.791331 1.119042 0.338419
v 0.222228 2.050872 -0.875065
v 0.241122 2.298709 0.000000
v 0.632306 0.851853 -0.290701
v 0.400986 0.669644 -0.269017
v -0.454336 0.976909 0.663950
v 0.338396 1.119042 -0.791352
v 0.397543 0.672440 0.000000
v -0.505002 0.759828 0.372990
v 0.637658 1.118946 0.637680
v -0.875087 2.050871 0.222250
v 0.269858 0.608158 0.134711
v 0.182002 1.270869 -0.875569
v -0.536624 0.884885 -0.536602
v -0.505002 0.759828 -0.372989
v 0.481449 2.265317 0.240328
v 0.338396 1.119042 0.791353
v -0.338440 1.119042 -0.791352
v -0.637702 1.118946 0.637680
v -0.628928 0.854980 0.000000
v -0.681018 2.161073 0.462578
v 0.504959 0.759828 -0.372989
v 0.052937 0.000000 -0.072861
v 0.932776 1.856632 0.432524
v -0.210295 1.656213 -0.985110
v -0.000022 1.466887 -0.943227
v -0.875592 1.270869 0.182024
v -0.604688 2.004126 0.823084
v -0.085653 -0.000000 0.027831
v -0.338440 1.119042 0.791353
v -0.134328 0.733926 -0.528693
v -0.392319 1.460194 0.917454
v 0.816734 1.124734 0.000000
v -0.000022 1.850452 -0.927378
v 0.135147 0.589441 0.000000
v 0.536581 0.884885 -0.536602
v 0.632306 0.851852 0.290701
v 0.372968 0.759828 -0.504980
v 0.392276 1.460195 -0.917452
v 0.269858 0.608158 -0.134711
v -0.608994 1.644537 0.890829
v 0.875548 1.270869 -0.182023
v -0.401030 0.669644 -0.269017
v -0.000022 0.672439 0.397566
v -0.521806 1.261079 -0.765082
v -0.738480 1.445421 -0.738457
v -0.269902 0.608158 0.134711
v -0.000022 1.850452 0.927379
v -0.135191 0.589441 0.000000
v -0.182046 1.270869 0.875570
v 0.210252 1.656212 0.985111
v -0.000022 1.466887 0.943228
v -0.241166 2.298709 0.000000
v 0.156373 0.972907 -0.732539
v 0.932776 1.856632 -0.432523
v -0.000022 2.298709 0.241144
v -0.000022 0.854980 -0.628905
v -0.875592 1.270869 -0.182023
v -0.000022 2.155116 -0.675541
v 0.240305 2.265317 0.481472
v -0.462600 2.161073 -0.680995
v 0.045093 0.924006 -0.062066
v -0.732561 0.972907 -0.156394
v -0.432545 1.856632 0.932799
v -0.000022 1.124734 -0.816756
v 0.738436 1.445421 -0.738457
v -0.528716 0.733925 0.134307
v -0.632349 0.851853 -0.290701
v -0.781136 1.792031 0.781114
v -0.681018 2.161073 -0.462577
v -0.000022 2.298709 -0.241144
v 0.738436 1.445421 0.738458
v -0.432545 1.856632 -0.932797
v -0.098030 0.462003 -0.031852
v -0.675563 2.155116 0.000000
v 0.400986 0.669644 0.269018
v -0.791374 1.119042 0.338419
v -0.637702 1.118946 -0.637679
v -0.156416 0.972907 0.732540
v 0.098030 0.462003 -0.031852
v -0.392319 1.460195 -0.917452
v -0.000022 0.854980 0.628906
v 0.604644 2.004126 0.823084
v -0.373011 0.759828 -0.504980
v -0.072963 0.924006 0.023707
v 0.210252 1.656213 -0.985110
v 0.504959 0.759828 0.372990
v 0.875044 2.050871 -0.222249
v 0.060586 0.462003 0.083390
v -0.462600 2.161073 0.680996
v 0.454292 0.976910 -0.663949
v 0.134689 0.608158 -0.269879
v 0.432502 1.856632 0.932799
v 0.628884 0.854980 0.000000
v -0.932820 1.856632 -0.432523
v 0.290679 0.851852 0.632328
v -0.210295 1.656212 0.985111
v 0.528672 0.733925 -0.134306
v 0.732517 0.972907 0.156395
v -0.791374 1.119042 -0.338418
v 0.608950 1.644537 0.890829
v 0.791331 1.119042 -0.338418
v 0.680973 2.161073 0.462578
v -0.397587 0.672440 0.000000
v -0.156416 0.972907 -0.732539
v -0.985133 1.656213 -0.210273
v 0.536581 0.884885 0.536603
v -0.000022 2.298709 -0.241144
v 0.432502 1.856632 -0.932797
v 0.917431 1.460195 -0.392297
v 0.392276 1.460194 0.917454
v -0.663971 0.976909 0.454314
v -0.875087 2.050871 -0.222249
v -0.134733 0.608158 0.269880
v -0.536624 0.884885 0.536603
v -0.373011 0.759828 0.504981
v 0.875548 1.270869 0.182024
v 0.240305 2.265317 -0.481471
v 0.085653 -0.000000 0.027831
v -0.927400 1.850452 0.000000
v -0.240350 2.265317 -0.481471
v -0.738480 1.445421 0.738458
v -0.000022 2.298709 0.241144
v -0.045093 0.924006 -0.062066
v -0.528716 0.733925 -0.134306
v -0.890850 1.644537 0.608972
v -0.240350 2.265317 0.481472
v -0.290723 0.851852 0.632328
v 0.890806 1.644537 0.608972
v -0.985133 1.656213 0.210274
v -0.454336 0.976910 -0.663949
v -0.943249 1.466887 0.000000
v 0.156373 0.972907 0.732540
v -0.182046 1.270869 -0.875569
v 0.875044 2.050871 0.222250
v -0.000022 0.672440 -0.397564
v 0.000000 0.924006 0.076718
v 0.985089 1.656213 0.210274
v -0.222272 2.050872 -0.875065
v 0.765061 1.261079 -0.521783
v -0.290723 0.851853 -0.632326
v 0.462555 2.161073 0.680996
v 0.663928 0.976909 0.454314
v -0.816778 1.124734 0.000000
v -0.781136 1.792032 -0.781113
v 0.732517 0.972907 -0.156394
v 0.222228 2.050871 0.875066
v 0.943205 1.466887 0.000000
v -0.765105 1.261079 -0.521783
v -0.134733 0.608158 -0.269879
v 0.675520 2.155116 0.000000
v -0.052937 0.000000 -0.072861
v -0.481494 2.265317 -0.240327
v -0.000022 0.589441 -0.135168
v -0.917475 1.460195 -0.392297
v 0.454292 0.976909 0.663950
v 0.985089 1.656213 -0.210273
v -0.823106 2.004127 -0.604665
v -0.632349 0.851852 0.290701
v -0.823106 2.004127 0.604666
v -0.401030 0.669644 0.269018
v -0.000022 0.589441 0.135169
v 0.134284 0.733926 -0.528693
v 0.268995 0.669644 0.401009
v 0.604644 2.004127 -0.823083
v -0.732561 0.972907 0.156395
v 0.182002 1.270869 0.875570
v 0.781092 1.792032 -0.781113
v -0.765105 1.261078 0.521784
v 0.521762 1.261079 -0.765082
v 0.663928 0.976910 -0.454314
v 0.072963 0.924006 0.023707
v 0.268995 0.669644 -0.401008
v 0.781092 1.792031 0.781114
v -0.932820 1.856632 0.432524
v 0.765061 1.261078 0.521784
v -0.663971 0.976910 -0.454314
v 0.481449 2.265317 -0.240327
v -0.269040 0.669644 -0.401008
v 0.000000 0.462003 -0.103075
v 0.000000 -0.000000 0.090061
v -0.917475 1.460194 0.392298
v 0.823062 2.004127 0.604666
v -0.060586 0.462003 0.083390
v -0.000022 1.124734 0.816757
v -0.222272 2.050871 0.875066
v 0.890806 1.644537 -0.608971
v 0.049015 0.462003 -0.067463
v -0.079308 0.462003 0.025769
v 0.079308 0.462003 0.025769
v -0.049015 0.462003 -0.067463
v 0.000000 0.462003 0.083390
v -0.642853 2.082600 0.642831
v -0.678290 2.158095 0.231289
v -0.231311 2.158094 0.678269
v -0.240758 2.282013 0.240736
v -0.642853 2.082600 -0.642830
v -0.231311 2.158095 -0.678268
v -0.678290 2.158094 -0.231288
v -0.240758 2.282013 -0.240735
v 0.642809 2.082600 -0.642830
v 0.678247 2.158095 -0.231288
v 0.231267 2.158094 -0.678268
v 0.240714 2.282013 -0.240735
v 0.642809 2.082600 0.642831
v 0.231267 2.158095 0.678269
v 0.678247 2.158094 0.231289
v 0.240714 2.282013 0.240736
v 0.386977 0.714736 0.386999
v 0.399265 0.671042 0.134509
v 0.134487 0.671042 0.399287
v 0.134918 0.598799 0.134940
v 0.386977 0.714736 -0.386999
v 0.134487 0.671042 -0.399286
v 0.399265 0.671042 -0.134509
v 0.134918 0.598799 -0.134940
v -0.387021 0.714736 -0.386999
v -0.399309 0.671042 -0.134509
v -0.134531 0.671042 -0.399286
v -0.134962 0.598799 -0.134940
v -0.387021 0.714736 0.386999
v -0.134531 0.671042 0.399287
v -0.399309 0.671042 0.134509
v -0.134962 0.598799 0.134940
v 0.413630 0.868369 0.584465
v 0.145328 0.853416 0.630617
v 0.488027 1.118994 0.714516
v 0.169187 1.121888 0.804055
v -0.413674 0.868369 0.584465
v -0.488071 1.118994 0.714516
v -0.145372 0.853416 0.630617
v -0.169231 1.121888 0.804055
v -0.606841 1.824332 0.856957
v -0.216284 1.853542 0.930089
v -0.565400 1.452808 0.827956
v -0.196171 1.463541 0.930341
v 0.606797 1.824332 0.856957
v 0.565356 1.452808 0.827956
v 0.216240 1.853542 0.930089
v 0.196127 1.463541 0.930341
v 0.584443 0.868369 -0.413652
v 0.630595 0.853416 -0.145350
v 0.714494 1.118994 -0.488048
v 0.804033 1.121888 -0.169209
v 0.584443 0.868369 0.413652
v 0.714494 1.118994 0.488049
v 0.630595 0.853416 0.145351
v 0.804033 1.121888 0.169209
v 0.856934 1.824332 0.606819
v 0.930066 1.853542 0.216262
v 0.827934 1.452808 0.565378
v 0.930318 1.463541 0.196149
v 0.856934 1.824332 -0.606818
v 0.827934 1.452808 -0.565377
v 0.930066 1.853542 -0.216261
v 0.930318 1.463541 -0.196148
v -0.413674 0.868369 -0.584464
v -0.145372 0.853416 -0.630616
v -0.488071 1.118994 -0.714515
v -0.169231 1.121888 -0.804054
v 0.413630 0.868369 -0.584464
v 0.488027 1.118994 -0.714515
v 0.145328 0.853416 -0.630616
v 0.169187 1.121888 -0.804054
v 0.606797 1.824332 -0.856955
v 0.216240 1.853542 -0.930088
v 0.565356 1.452808 -0.827955
v 0.196127 1.463541 -0.930340
v -0.606841 1.824332 -0.856955
v -0.565400 1.452808 -0.827955
v -0.216284 1.853542 -0.930087
v -0.196171 1.463541 -0.930340
v -0.584487 0.868369 0.413652
v -0.630638 0.853416 0.145351
v -0.714538 1.118994 0.488049
v -0.804076 1.121888 0.169209
v -0.584487 0.868369 -0.413652
v -0.714538 1.118994 -0.488048
v -0.630638 0.853416 -0.145350
v -0.804076 1.121888 -0.169209
v -0.856978 1.824332 -0.606818
v -0.930110 1.853542 -0.216261
v -0.827977 1.452808 -0.565377
v -0.930362 1.463541 -0.196148
v -0.856978 1.824332 0.606819
v -0.827977 1.452808 0.565378
v -0.930110 1.853542 0.216262
v -0.930362 1.463541 0.196149
vt 0.5587 0.5351
vt 0.5567 0.5337
vt 0.5582 0.5317
vt 0.5602 0.5331
vt 0.5616 0.5311
vt 0.5596 0.5297
vt 0.5610 0.5277
vt 0.5631 0.5290
vt 0.5547 0.5322
vt 0.5527 0.5307
vt 0.5543 0.5288
vt 0.5562 0.5303
vt 0.5577 0.5286
vt 0.5558 0.5274
vt 0.5573 0.5260
vt 0.5591 0.5268
vt 0.5627 0.5379
vt 0.5641 0.5360
vt 0.5660 0.5374
vt 0.5646 0.5394
vt 0.5667 0.5408
vt 0.5680 0.5387
vt 0.5700 0.5401
vt 0.5687 0.5422
vt 0.5655 0.5339
vt 0.5670 0.5319
vt 0.5689 0.5335
vt 0.5674 0.5354
vt 0.5691 0.5369
vt 0.5703 0.5350
vt 0.5717 0.5365
vt 0.5709 0.5383
vt 0.5599 0.5419
vt 0.5619 0.5433
vt 0.5604 0.5452
vt 0.5584 0.5439
vt 0.5570 0.5459
vt 0.5590 0.5472
vt 0.5576 0.5492
vt 0.5555 0.5479
vt 0.5638 0.5447
vt 0.5658 0.5462
vt 0.5642 0.5481
vt 0.5623 0.5466
vt 0.5609 0.5483
vt 0.5627 0.5495
vt 0.5613 0.5509
vt 0.5595 0.5501
vt 0.5559 0.5391
vt 0.5545 0.5411
vt 0.5525 0.5396
vt 0.5539 0.5376
vt 0.5519 0.5362
vt 0.5505 0.5382
vt 0.5485 0.5368
vt 0.5498 0.5347
vt 0.5530 0.5430
vt 0.5515 0.5450
vt 0.5496 0.5434
vt 0.5511 0.5415
vt 0.5494 0.5401
vt 0.5482 0.5419
vt 0.5468 0.5405
vt 0.5476 0.5387
vt 0.5776 0.5467
vt 0.5739 0.5450
vt 0.5753 0.5420
vt 0.5795 0.5430
vt 0.5797 0.5391
vt 0.5757 0.5389
vt 0.5762 0.5357
vt 0.5799 0.5352
vt 0.5713 0.5436
vt 0.5726 0.5410
vt 0.5733 0.5386
vt 0.5739 0.5361
vt 0.5729 0.6036
vt 0.5699 0.6065
vt 0.5677 0.6030
vt 0.5701 0.6006
vt 0.5680 0.5986
vt 0.5660 0.6007
vt 0.5642 0.5985
vt 0.5658 0.5966
vt 0.5663 0.6080
vt 0.5626 0.6094
vt 0.5620 0.6057
vt 0.5648 0.6043
vt 0.5638 0.6021
vt 0.5616 0.6035
vt 0.5613 0.6012
vt 0.5627 0.5998
vt 0.5776 0.5970
vt 0.5739 0.5953
vt 0.5753 0.5923
vt 0.5795 0.5933
vt 0.5797 0.5894
vt 0.5757 0.5892
vt 0.5762 0.5861
vt 0.5799 0.5855
vt 0.5713 0.5940
vt 0.5687 0.5926
vt 0.5700 0.5905
vt 0.5726 0.5914
vt 0.5733 0.5889
vt 0.5709 0.5886
vt 0.5717 0.5868
vt 0.5739 0.5864
vt 0.5729 0.5533
vt 0.5699 0.5562
vt 0.5677 0.5526
vt 0.5701 0.5503
vt 0.5680 0.5483
vt 0.5660 0.5504
vt 0.5663 0.5577
vt 0.5626 0.5591
vt 0.5620 0.5554
vt 0.5648 0.5540
vt 0.5638 0.5518
vt 0.5616 0.5531
vt 0.5599 0.5922
vt 0.5619 0.5936
vt 0.5604 0.5956
vt 0.5584 0.5942
vt 0.5570 0.5962
vt 0.5590 0.5976
vt 0.5576 0.5996
vt 0.5555 0.5983
vt 0.5638 0.5951
vt 0.5623 0.5971
vt 0.5609 0.5987
vt 0.5595 0.6004
vt 0.5559 0.5894
vt 0.5545 0.5914
vt 0.5525 0.5899
vt 0.5539 0.5879
vt 0.5519 0.5865
vt 0.5505 0.5885
vt 0.5485 0.5871
vt 0.5498 0.5850
vt 0.5530 0.5934
vt 0.5515 0.5954
vt 0.5496 0.5938
vt 0.5511 0.5919
vt 0.5494 0.5904
vt 0.5482 0.5923
vt 0.5468 0.5908
vt 0.5476 0.5890
vt 0.5587 0.5854
vt 0.5567 0.5840
vt 0.5582 0.5820
vt 0.5602 0.5834
vt 0.5616 0.5814
vt 0.5596 0.5800
vt 0.5610 0.5781
vt 0.5631 0.5794
vt 0.5547 0.5825
vt 0.5527 0.5811
vt 0.5543 0.5791
vt 0.5562 0.5806
vt 0.5577 0.5789
vt 0.5558 0.5777
vt 0.5573 0.5764
vt 0.5591 0.5773
vt 0.5627 0.5882
vt 0.5641 0.5863
vt 0.5660 0.5877
vt 0.5646 0.5897
vt 0.5667 0.5911
vt 0.5680 0.5891
vt 0.5655 0.5842
vt 0.5670 0.5822
vt 0.5689 0.5838
vt 0.5674 0.5857
vt 0.5691 0.5872
vt 0.5703 0.5853
vt 0.5409 0.5806
vt 0.5447 0.5823
vt 0.5432 0.5853
vt 0.5391 0.5842
vt 0.5389 0.5882
vt 0.5428 0.5884
vt 0.5424 0.5915
vt 0.5387 0.5921
vt 0.5473 0.5837
vt 0.5459 0.5862
vt 0.5452 0.5887
vt 0.5446 0.5911
vt 0.5457 0.5236
vt 0.5486 0.5207
vt 0.5509 0.5243
vt 0.5485 0.5266
vt 0.5506 0.5286
vt 0.5526 0.5265
vt 0.5523 0.5193
vt 0.5560 0.5179
vt 0.5565 0.5216
vt 0.5537 0.5229
vt 0.5547 0.5252
vt 0.5569 0.5238
vt 0.5409 0.5302
vt 0.5447 0.5319
vt 0.5432 0.5350
vt 0.5391 0.5339
vt 0.5389 0.5379
vt 0.5428 0.5381
vt 0.5424 0.5412
vt 0.5387 0.5418
vt 0.5473 0.5333
vt 0.5459 0.5359
vt 0.5452 0.5384
vt 0.5446 0.5408
vt 0.5457 0.5740
vt 0.5486 0.5711
vt 0.5509 0.5747
vt 0.5485 0.5770
vt 0.5506 0.5790
vt 0.5526 0.5769
vt 0.5523 0.5696
vt 0.5560 0.5682
vt 0.5565 0.5719
vt 0.5537 0.5733
vt 0.5547 0.5755
vt 0.5569 0.5741
vt 0.5445 0.5521
vt 0.5415 0.5491
vt 0.5451 0.5469
vt 0.5474 0.5493
vt 0.5495 0.5471
vt 0.5473 0.5451
vt 0.5401 0.5455
vt 0.5437 0.5440
vt 0.5460 0.5430
vt 0.5511 0.5568
vt 0.5528 0.5531
vt 0.5558 0.5545
vt 0.5547 0.5587
vt 0.5587 0.5589
vt 0.5589 0.5549
vt 0.5541 0.5505
vt 0.5567 0.5518
vt 0.5592 0.5525
vt 0.5741 0.5752
vt 0.5770 0.5781
vt 0.5734 0.5804
vt 0.5711 0.5780
vt 0.5691 0.5801
vt 0.5712 0.5821
vt 0.5785 0.5818
vt 0.5748 0.5832
vt 0.5725 0.5843
vt 0.5675 0.5705
vt 0.5658 0.5742
vt 0.5628 0.5727
vt 0.5638 0.5686
vt 0.5599 0.5684
vt 0.5597 0.5723
vt 0.5644 0.5768
vt 0.5619 0.5754
vt 0.5594 0.5748
vt 0.5445 0.6024
vt 0.5415 0.5995
vt 0.5451 0.5972
vt 0.5474 0.5996
vt 0.5495 0.5975
vt 0.5473 0.5955
vt 0.5401 0.5958
vt 0.5437 0.5943
vt 0.5460 0.5933
vt 0.5511 0.6071
vt 0.5528 0.6035
vt 0.5558 0.6049
vt 0.5547 0.6090
vt 0.5587 0.6092
vt 0.5589 0.6053
vt 0.5541 0.6008
vt 0.5567 0.6022
vt 0.5592 0.6028
vt 0.5741 0.5249
vt 0.5770 0.5278
vt 0.5734 0.5301
vt 0.5711 0.5277
vt 0.5691 0.5298
vt 0.5712 0.5318
vt 0.5785 0.5315
vt 0.5748 0.5329
vt 0.5725 0.5339
vt 0.5675 0.5201
vt 0.5658 0.5239
vt 0.5628 0.5224
vt 0.5638 0.5183
vt 0.5599 0.5181
vt 0.5597 0.5220
vt 0.5644 0.5265
vt 0.5619 0.5251
vt 0.5594 0.5244
vt 0.3089 0.8126
vt 0.3089 0.8581
vt 0.3034 0.8581
vt 0.3030 0.8126
vt 0.2850 0.8131
vt 0.2869 0.8585
vt 0.2814 0.8588
vt 0.2790 0.8133
vt 0.3209 0.8127
vt 0.3199 0.8582
vt 0.3144 0.8581
vt 0.3149 0.8126
vt 0.2970 0.8127
vt 0.2979 0.8582
vt 0.2924 0.8583
vt 0.2910 0.8128
vt 0.3328 0.8131
vt 0.3309 0.8585
vt 0.3254 0.8583
vt 0.3268 0.8128
vt 0.3347 0.7675
vt 0.3283 0.7673
vt 0.3411 0.7678
vt 0.3388 0.8133
vt 0.3364 0.8588
vt 0.2961 0.7672
vt 0.2896 0.7673
vt 0.3025 0.7670
vt 0.3219 0.7672
vt 0.3154 0.7670
vt 0.2832 0.7675
vt 0.2767 0.7678
vt 0.3090 0.7670
vt 0.5688 0.5253
vt 0.5669 0.5279
vt 0.5651 0.5304
vt 0.5602 0.5142
vt 0.5554 0.5142
vt 0.5649 0.5142
vt 0.5692 0.5164
vt 0.5736 0.5186
vt 0.5712 0.5220
vt 0.5806 0.5255
vt 0.5821 0.5301
vt 0.5836 0.5346
vt 0.5771 0.5221
vt 0.5498 0.6020
vt 0.5516 0.5994
vt 0.5534 0.5969
vt 0.5584 0.6131
vt 0.5632 0.6131
vt 0.5537 0.6131
vt 0.5494 0.6108
vt 0.5450 0.6086
vt 0.5474 0.6053
vt 0.5380 0.6018
vt 0.5365 0.5972
vt 0.5350 0.5927
vt 0.5415 0.6052
vt 0.5688 0.5756
vt 0.5669 0.5782
vt 0.5651 0.5807
vt 0.5602 0.5645
vt 0.5554 0.5645
vt 0.5649 0.5645
vt 0.5692 0.5667
vt 0.5736 0.5690
vt 0.5712 0.5723
vt 0.5806 0.5758
vt 0.5821 0.5804
vt 0.5836 0.5849
vt 0.5771 0.5724
vt 0.5498 0.5517
vt 0.5516 0.5491
vt 0.5534 0.5466
vt 0.5584 0.5628
vt 0.5632 0.5628
vt 0.5537 0.5628
vt 0.5494 0.5605
vt 0.5450 0.5583
vt 0.5474 0.5550
vt 0.5380 0.5514
vt 0.5365 0.5469
vt 0.5350 0.5424
vt 0.5415 0.5548
vt 0.5463 0.5675
vt 0.5509 0.5660
vt 0.5487 0.5811
vt 0.5512 0.5830
vt 0.5461 0.5793
vt 0.5428 0.5769
vt 0.5394 0.5745
vt 0.5429 0.5710
vt 0.5461 0.5289
vt 0.5487 0.5308
vt 0.5512 0.5326
vt 0.5350 0.5376
vt 0.5350 0.5328
vt 0.5372 0.5285
vt 0.5394 0.5241
vt 0.5428 0.5265
vt 0.5463 0.5172
vt 0.5509 0.5157
vt 0.5429 0.5207
vt 0.5350 0.5879
vt 0.5350 0.5832
vt 0.5372 0.5789
vt 0.5622 0.5848
vt 0.5637 0.5827
vt 0.5653 0.5932
vt 0.5674 0.5947
vt 0.5633 0.5917
vt 0.5613 0.5903
vt 0.5593 0.5888
vt 0.5608 0.5868
vt 0.5553 0.5859
vt 0.5532 0.5845
vt 0.5573 0.5874
vt 0.5564 0.5928
vt 0.5549 0.5949
vt 0.5579 0.5908
vt 0.5722 0.5598
vt 0.5677 0.5613
vt 0.5699 0.5461
vt 0.5674 0.5443
vt 0.5725 0.5480
vt 0.5758 0.5504
vt 0.5791 0.5528
vt 0.5756 0.5563
vt 0.5725 0.5983
vt 0.5699 0.5965
vt 0.5836 0.5897
vt 0.5836 0.5944
vt 0.5813 0.5987
vt 0.5791 0.6031
vt 0.5758 0.6007
vt 0.5722 0.6101
vt 0.5677 0.6116
vt 0.5756 0.6066
vt 0.5836 0.5394
vt 0.5836 0.5441
vt 0.5813 0.5484
vt 0.5564 0.5425
vt 0.5549 0.5446
vt 0.5532 0.5341
vt 0.5553 0.5356
vt 0.5573 0.5371
vt 0.5593 0.5385
vt 0.5579 0.5405
vt 0.5633 0.5414
vt 0.5653 0.5429
vt 0.5613 0.5400
vt 0.5622 0.5345
vt 0.5637 0.5324
vt 0.5608 0.5365
vn -0.9592 -0.2766 0.0593
vn -0.9101 -0.3370 0.2411
vn -0.9728 -0.0494 0.2263
vn -0.9999 -0.0036 0.0125
vn -0.9630 0.2691 -0.0158
vn -0.9510 0.2292 0.2074
vn -0.7721 0.6021 0.2034
vn -0.7819 0.6227 -0.0296
vn -0.8323 -0.3674 0.4152
vn -0.6497 -0.3947 0.6497
vn -0.7018 -0.1228 0.7018
vn -0.8944 -0.1017 0.4355
vn -0.8917 0.1717 0.4189
vn -0.6974 0.1651 0.6974
vn -0.6406 0.4233 0.6406
vn -0.7223 0.5231 0.4524
vn -0.9592 -0.2766 -0.0593
vn -0.9999 -0.0036 -0.0125
vn -0.9728 -0.0494 -0.2263
vn -0.9101 -0.3370 -0.2411
vn -0.8323 -0.3674 -0.4152
vn -0.8944 -0.1017 -0.4355
vn -0.7018 -0.1228 -0.7018
vn -0.6497 -0.3947 -0.6497
vn -0.9630 0.2691 0.0158
vn -0.7819 0.6227 0.0296
vn -0.7721 0.6021 -0.2034
vn -0.9510 0.2292 -0.2074
vn -0.8917 0.1717 -0.4189
vn -0.7223 0.5231 -0.4524
vn -0.6406 0.4233 -0.6406
vn -0.6974 0.1651 -0.6974
vn -0.8982 -0.4356 -0.0590
vn -0.8778 -0.4117 -0.2448
vn -0.8258 -0.5272 -0.2004
vn -0.8374 -0.5464 -0.0136
vn -0.7615 -0.6480 0.0163
vn -0.7413 -0.6487 -0.1721
vn -0.5955 -0.7875 -0.1585
vn -0.6122 -0.7903 0.0264
vn -0.8189 -0.3910 -0.4201
vn -0.6479 -0.4007 -0.6479
vn -0.6044 -0.5190 -0.6044
vn -0.7628 -0.5186 -0.3863
vn -0.6867 -0.6354 -0.3530
vn -0.5338 -0.6559 -0.5338
vn -0.4818 -0.7320 -0.4818
vn -0.5387 -0.7605 -0.3627
vn -0.8982 -0.4356 0.0590
vn -0.8374 -0.5464 0.0136
vn -0.8258 -0.5272 0.2004
vn -0.8778 -0.4117 0.2448
vn -0.8189 -0.3910 0.4201
vn -0.7628 -0.5186 0.3863
vn -0.6044 -0.5190 0.6044
vn -0.6479 -0.4007 0.6479
vn -0.7615 -0.6480 -0.0163
vn -0.6122 -0.7903 -0.0264
vn -0.5955 -0.7875 0.1585
vn -0.7413 -0.6487 0.1721
vn -0.6867 -0.6354 0.3530
vn -0.5387 -0.7605 0.3627
vn -0.4818 -0.7320 0.4818
vn -0.5338 -0.6559 0.5338
vn -0.0593 -0.2766 -0.9592
vn -0.2411 -0.3370 -0.9101
vn -0.2263 -0.0494 -0.9728
vn -0.0125 -0.0036 -0.9999
vn 0.0158 0.2691 -0.9630
vn -0.2074 0.2292 -0.9510
vn -0.2034 0.6021 -0.7721
vn 0.0296 0.6227 -0.7819
vn -0.4152 -0.3674 -0.8323
vn -0.4355 -0.1017 -0.8944
vn -0.4189 0.1717 -0.8917
vn -0.4524 0.5231 -0.7223
vn 0.0593 -0.2766 -0.9592
vn 0.0125 -0.0036 -0.9999
vn 0.2263 -0.0494 -0.9728
vn 0.2411 -0.3370 -0.9101
vn 0.4152 -0.3674 -0.8323
vn 0.4355 -0.1017 -0.8944
vn 0.7018 -0.1228 -0.7018
vn 0.6497 -0.3947 -0.6497
vn -0.0158 0.2691 -0.9630
vn -0.0296 0.6227 -0.7819
vn 0.2034 0.6021 -0.7721
vn 0.2074 0.2292 -0.9510
vn 0.4189 0.1717 -0.8917
vn 0.4524 0.5231 -0.7223
vn 0.6406 0.4233 -0.6406
vn 0.6974 0.1651 -0.6974
vn 0.0590 -0.4356 -0.8982
vn 0.2448 -0.4117 -0.8778
vn 0.2004 -0.5272 -0.8258
vn 0.0136 -0.5464 -0.8374
vn -0.0163 -0.6480 -0.7615
vn 0.1721 -0.6487 -0.7413
vn 0.1585 -0.7875 -0.5955
vn -0.0264 -0.7903 -0.6122
vn 0.4201 -0.3910 -0.8189
vn 0.6479 -0.4007 -0.6479
vn 0.6044 -0.5190 -0.6044
vn 0.3863 -0.5186 -0.7628
vn 0.3530 -0.6354 -0.6867
vn 0.5338 -0.6559 -0.5338
vn 0.4818 -0.7320 -0.4818
vn 0.3627 -0.7605 -0.5387
vn -0.0590 -0.4356 -0.8982
vn -0.0136 -0.5464 -0.8374
vn -0.2004 -0.5272 -0.8258
vn -0.2448 -0.4117 -0.8778
vn -0.4201 -0.3910 -0.8189
vn -0.3863 -0.5186 -0.7628
vn 0.0163 -0.6480 -0.7615
vn 0.0264 -0.7903 -0.6122
vn -0.1585 -0.7875 -0.5955
vn -0.1721 -0.6487 -0.7413
vn -0.3530 -0.6354 -0.6867
vn -0.3627 -0.7605 -0.5387
vn 0.9592 -0.2766 -0.0593
vn 0.9101 -0.3370 -0.2411
vn 0.9728 -0.0494 -0.2263
vn 0.9999 -0.0036 -0.0125
vn 0.9630 0.2691 0.0158
vn 0.9510 0.2292 -0.2074
vn 0.7721 0.6021 -0.2034
vn 0.7819 0.6227 0.0296
vn 0.8323 -0.3674 -0.4152
vn 0.8944 -0.1017 -0.4355
vn 0.8917 0.1717 -0.4189
vn 0.7223 0.5231 -0.4524
vn 0.9592 -0.2766 0.0593
vn 0.9999 -0.0036 0.0125
vn 0.9728 -0.0494 0.2263
vn 0.9101 -0.3370 0.2411
vn 0.8323 -0.3674 0.4152
vn 0.8944 -0.1017 0.4355
vn 0.7018 -0.1228 0.7018
vn 0.6497 -0.3947 0.6497
vn 0.9630 0.2691 -0.0158
vn 0.7819 0.6227 -0.0296
vn 0.7721 0.6021 0.2034
vn 0.9510 0.2292 0.2074
vn 0.8917 0.1717 0.4189
vn 0.7223 0.5231 0.4524
vn 0.6406 0.4233 0.6406
vn 0.6974 0.1651 0.6974
vn 0.8982 -0.4356 0.0590
vn 0.8778 -0.4117 0.2448
vn 0.8258 -0.5272 0.2004
vn 0.8374 -0.5464 0.0136
vn 0.7615 -0.6480 -0.0163
vn 0.7413 -0.6487 0.1721
vn 0.5955 -0.7875 0.1585
vn 0.6122 -0.7903 -0.0264
vn 0.8189 -0.3910 0.4201
vn 0.6479 -0.4007 0.6479
vn 0.6044 -0.5190 0.6044
vn 0.7628 -0.5186 0.3863
vn 0.6867 -0.6354 0.3530
vn 0.5338 -0.6559 0.5338
vn 0.4818 -0.7320 0.4818
vn 0.5387 -0.7605 0.3627
vn 0.8982 -0.4356 -0.0590
vn 0.8374 -0.5464 -0.0136
vn 0.8258 -0.5272 -0.2004
vn 0.8778 -0.4117 -0.2448
vn 0.8189 -0.3910 -0.4201
vn 0.7628 -0.5186 -0.3863
vn 0.7615 -0.6480 0.0163
vn 0.6122 -0.7903 0.0264
vn 0.5955 -0.7875 -0.1585
vn 0.7413 -0.6487 -0.1721
vn 0.6867 -0.6354 -0.3530
vn 0.5387 -0.7605 -0.3627
vn 0.0593 -0.2766 0.9592
vn 0.2411 -0.3370 0.9101
vn 0.2263 -0.0494 0.9728
vn 0.0125 -0.0036 0.9999
vn -0.0158 0.2691 0.9630
vn 0.2074 0.2292 0.9510
vn 0.2034 0.6021 0.7721
vn -0.0296 0.6227 0.7819
vn 0.4152 -0.3674 0.8323
vn 0.4355 -0.1017 0.8944
vn 0.4189 0.1717 0.8917
vn 0.4524 0.5231 0.7223
vn -0.0593 -0.2766 0.9592
vn -0.0125 -0.0036 0.9999
vn -0.2263 -0.0494 0.9728
vn -0.2411 -0.3370 0.9101
vn -0.4152 -0.3674 0.8323
vn -0.4355 -0.1017 0.8944
vn 0.0158 0.2691 0.9630
vn 0.0296 0.6227 0.7819
vn -0.2034 0.6021 0.7721
vn -0.2074 0.2292 0.9510
vn -0.4189 0.1717 0.8917
vn -0.4524 0.5231 0.7223
vn -0.0590 -0.4356 0.8982
vn -0.2448 -0.4117 0.8778
vn -0.2004 -0.5272 0.8258
vn -0.0136 -0.5464 0.8374
vn 0.0163 -0.6480 0.7615
vn -0.1721 -0.6487 0.7413
vn -0.1585 -0.7875 0.5955
vn 0.0264 -0.7903 0.6122
vn -0.4201 -0.3910 0.8189
vn -0.3863 -0.5186 0.7628
vn -0.3530 -0.6354 0.6867
vn -0.3627 -0.7605 0.5387
vn 0.0590 -0.4356 0.8982
vn 0.0136 -0.5464 0.8374
vn 0.2004 -0.5272 0.8258
vn 0.2448 -0.4117 0.8778
vn 0.4201 -0.3910 0.8189
vn 0.3863 -0.5186 0.7628
vn -0.0163 -0.6480 0.7615
vn -0.0264 -0.7903 0.6122
vn 0.1585 -0.7875 0.5955
vn 0.1721 -0.6487 0.7413
vn 0.3530 -0.6354 0.6867
vn 0.3627 -0.7605 0.5387
vn -0.0690 -0.9952 0.0690
vn -0.0163 -0.9660 0.2580
vn -0.2139 -0.9531 0.2139
vn -0.2580 -0.9660 0.0163
vn -0.4370 -0.8993 -0.0149
vn -0.4129 -0.8927 0.1804
vn 0.0149 -0.8993 0.4370
vn -0.1804 -0.8927 0.4129
vn -0.3688 -0.8532 0.3688
vn -0.0690 -0.9952 -0.0690
vn -0.2580 -0.9660 -0.0163
vn -0.2139 -0.9531 -0.2139
vn -0.0163 -0.9660 -0.2580
vn 0.0149 -0.8993 -0.4370
vn -0.1804 -0.8927 -0.4129
vn -0.4370 -0.8993 0.0149
vn -0.4129 -0.8927 -0.1804
vn -0.3688 -0.8532 -0.3688
vn 0.0690 -0.9952 -0.0690
vn 0.0163 -0.9660 -0.2580
vn 0.2139 -0.9531 -0.2139
vn 0.2580 -0.9660 -0.0163
vn 0.4370 -0.8993 0.0149
vn 0.4129 -0.8927 -0.1804
vn -0.0149 -0.8993 -0.4370
vn 0.1804 -0.8927 -0.4129
vn 0.3688 -0.8532 -0.3688
vn 0.0690 -0.9952 0.0690
vn 0.2580 -0.9660 0.0163
vn 0.2139 -0.9531 0.2139
vn 0.0163 -0.9660 0.2580
vn -0.0149 -0.8993 0.4370
vn 0.1804 -0.8927 0.4129
vn 0.4370 -0.8993 -0.0149
vn 0.4129 -0.8927 0.1804
vn 0.3688 -0.8532 0.3688
vn 0.0690 0.9952 0.0690
vn 0.0160 0.9598 0.2801
vn 0.2450 0.9380 0.2450
vn 0.2801 0.9598 0.0160
vn 0.4778 0.8783 -0.0172
vn 0.4661 0.8583 0.2149
vn -0.0172 0.8783 0.4778
vn 0.2149 0.8583 0.4661
vn 0.4349 0.7885 0.4349
vn 0.0690 0.9952 -0.0690
vn 0.2801 0.9598 -0.0160
vn 0.2450 0.9380 -0.2450
vn 0.0160 0.9598 -0.2801
vn -0.0172 0.8783 -0.4778
vn 0.2149 0.8583 -0.4661
vn 0.4778 0.8783 0.0172
vn 0.4661 0.8583 -0.2149
vn 0.4349 0.7885 -0.4349
vn -0.0690 0.9952 -0.0690
vn -0.0160 0.9598 -0.2801
vn -0.2450 0.9380 -0.2450
vn -0.2801 0.9598 -0.0160
vn -0.4778 0.8783 0.0172
vn -0.4661 0.8583 -0.2149
vn 0.0172 0.8783 -0.4778
vn -0.2149 0.8583 -0.4661
vn -0.4349 0.7885 -0.4349
vn -0.0690 0.9952 0.0690
vn -0.2801 0.9598 0.0160
vn -0.2450 0.9380 0.2450
vn -0.0160 0.9598 0.2801
vn 0.0172 0.8783 0.4778
vn -0.2149 0.8583 0.4661
vn -0.4778 0.8783 -0.0172
vn -0.4661 0.8583 0.2149
vn -0.4349 0.7885 0.4349
vn 0.0000 0.0144 0.9999
vn -0.5877 0.0178 0.8089
vn -0.5877 0.0144 -0.8089
vn 0.0000 0.0178 -0.9998
vn 0.9510 0.0144 0.3090
vn 0.5877 0.0178 0.8089
vn -0.9510 0.0144 0.3090
vn -0.9509 0.0178 -0.3090
vn 0.5877 0.0144 -0.8089
vn 0.9509 0.0178 -0.3090
vn -0.3015 0.9535 -0.0000
vn -0.4883 0.8727 -0.0000
vn -0.7836 0.6213 -0.0000
vn -0.0000 0.8727 0.4883
vn -0.0000 0.6213 0.7836
vn -0.0000 0.9535 0.3015
vn -0.0691 0.9925 0.1012
vn -0.1014 0.9948 0.0000
vn 0.0000 0.9535 -0.3015
vn 0.0000 0.8727 -0.4883
vn 0.0000 0.6213 -0.7836
vn -0.0691 0.9925 -0.1012
vn 0.3015 0.9535 0.0000
vn 0.4883 0.8727 0.0000
vn 0.7836 0.6213 0.0000
vn 0.0691 0.9925 -0.1012
vn 0.1014 0.9948 0.0000
vn 0.0691 0.9925 0.1012
vn 0.2782 -0.9605 0.0000
vn 0.4455 -0.8953 -0.0000
vn 0.6117 -0.7911 -0.0000
vn -0.0000 -0.8953 0.4455
vn -0.0000 -0.7911 0.6117
vn -0.0000 -0.9605 0.2782
vn -0.0000 -0.9948 0.1014
vn -0.0000 -1.0000 -0.0000
vn 0.1014 -0.9948 -0.0000
vn -0.0000 -0.9605 -0.2782
vn 0.0000 -0.8953 -0.4455
vn 0.0000 -0.7911 -0.6117
vn -0.0000 -0.9948 -0.1014
vn -0.2782 -0.9605 -0.0000
vn -0.4455 -0.8953 -0.0000
vn -0.6117 -0.7911 0.0000
vn -0.1014 -0.9948 -0.0000
vn -0.0000 -0.5615 0.8275
vn -0.0000 -0.6554 0.7553
vn 0.4256 -0.3795 0.8215
vn 0.6489 -0.3972 0.6489
vn 0.2614 -0.3736 0.8900
vn 0.0872 -0.3586 0.9294
vn -0.0000 -0.3526 0.9358
vn -0.0000 -0.4603 0.8877
vn -0.2614 -0.3736 0.8900
vn -0.4256 -0.3795 0.8215
vn -0.6489 -0.3972 0.6489
vn -0.0872 -0.3586 0.9294
vn -0.0000 0.0169 0.9999
vn -0.0000 0.2794 0.9602
vn -0.0000 -0.2489 0.9685
vn 0.8275 -0.5615 0.0000
vn 0.7553 -0.6554 -0.0000
vn 0.8215 -0.3795 -0.4256
vn 0.6489 -0.3972 -0.6489
vn 0.8900 -0.3736 -0.2614
vn 0.9294 -0.3586 -0.0872
vn 0.9358 -0.3526 0.0000
vn 0.8877 -0.4603 0.0000
vn 0.8900 -0.3736 0.2614
vn 0.8215 -0.3795 0.4256
vn 0.9294 -0.3586 0.0872
vn 0.9999 0.0169 -0.0000
vn 0.9602 0.2794 0.0000
vn 0.9685 -0.2489 -0.0000
vn -0.0000 -0.5615 -0.8275
vn 0.0000 -0.6554 -0.7553
vn -0.4256 -0.3795 -0.8215
vn -0.6489 -0.3972 -0.6489
vn -0.2614 -0.3736 -0.8900
vn -0.0872 -0.3586 -0.9294
vn -0.0000 -0.3526 -0.9358
vn -0.0000 -0.4603 -0.8877
vn 0.2614 -0.3736 -0.8900
vn 0.4256 -0.3795 -0.8215
vn 0.0872 -0.3586 -0.9294
vn -0.0000 0.0169 -0.9999
vn -0.0000 0.2794 -0.9602
vn -0.0000 -0.2489 -0.9685
vn -0.8275 -0.5615 0.0000
vn -0.7553 -0.6554 -0.0000
vn -0.8215 -0.3795 0.4256
vn -0.8900 -0.3736 0.2614
vn -0.9294 -0.3586 0.0872
vn -0.9358 -0.3526 -0.0000
vn -0.8877 -0.4603 0.0000
vn -0.8900 -0.3736 -0.2614
vn -0.8215 -0.3795 -0.4256
vn -0.9294 -0.3586 -0.0872
vn -0.9999 0.0169 -0.0000
vn -0.9602 0.2794 0.0000
vn -0.9685 -0.2489 -0.0000
usemtl None
s 1
f 419/1/1 313/2/2 3/3/3 261/4/4
f 418/5/5 306/6/6 5/7/7 142/8/8
f 417/9/9 253/10/10 8/11/11 257/12/12
f 416/13/13 200/14/14 9/15/15 291/16/16
f 415/17/17 237/18/18 10/19/19 286/20/20
f 414/21/21 124/22/22 12/23/23 177/24/24
f 413/25/25 244/26/26 14/27/27 226/28/28
f 412/29/29 289/30/30 15/31/31 276/32/32
f 411/33/33 231/34/34 16/35/35 194/36/36
f 410/37/37 199/38/38 18/39/39 256/40/40
f 409/41/41 209/42/42 20/43/43 308/44/44
f 408/45/45 145/46/46 21/47/47 146/48/48
f 407/49/49 297/50/50 22/51/51 208/52/52
f 406/53/53 243/54/54 23/55/55 150/56/56
f 405/57/57 198/58/58 24/59/59 290/60/60
f 404/61/61 140/62/62 25/63/63 246/64/64
f 403/65/65 212/66/66 28/67/67 156/68/68
f 402/69/69 204/70/70 30/71/71 270/72/72
f 401/73/73 177/24/24 12/23/23 115/74/74
f 400/75/75 276/32/32 15/31/31 131/76/76
f 399/77/77 217/78/78 32/79/79 170/80/80
f 398/81/81 123/82/82 34/83/83 197/84/84
f 397/85/85 133/86/86 36/87/87 240/88/88
f 396/89/89 296/90/90 37/91/91 299/92/92
f 395/93/93 138/94/94 38/95/95 185/96/96
f 394/97/97 127/98/98 40/99/99 294/100/100
f 393/101/101 130/102/102 42/103/103 222/104/104
f 392/105/105 167/106/106 43/107/107 169/108/108
f 391/109/109 236/110/110 44/111/111 149/112/112
f 390/113/113 262/114/114 20/43/43 209/42/42
f 389/115/115 162/116/116 45/117/117 272/118/118
f 388/119/119 215/120/120 21/47/47 145/46/46
f 387/121/121 241/122/122 48/123/123 288/124/124
f 386/125/125 186/126/126 50/127/127 219/128/128
f 385/129/129 197/84/84 34/83/83 318/130/130
f 384/131/131 299/92/92 37/91/91 111/132/132
f 383/133/133 269/134/134 52/135/135 110/136/136
f 382/137/137 260/138/138 54/139/139 203/140/140
f 381/141/141 266/142/142 56/143/143 155/144/144
f 380/145/145 314/146/146 57/147/147 305/148/148
f 379/149/149 132/150/150 58/151/151 230/152/152
f 378/153/153 168/154/154 60/155/155 118/156/156
f 377/157/157 141/158/158 62/159/159 274/160/160
f 376/161/161 238/162/162 63/163/163 218/164/164
f 375/165/165 277/166/166 64/167/167 233/168/168
f 374/169/169 302/170/170 42/103/103 130/102/102
f 373/171/171 229/172/172 65/173/173 135/174/174
f 372/175/175 153/176/176 43/107/107 167/106/106
f 371/177/177 242/178/178 68/179/179 182/180/180
f 370/181/181 224/182/182 70/183/183 278/184/184
f 369/185/185 203/140/140 54/139/139 232/186/186
f 368/187/187 305/148/148 57/147/147 214/188/188
f 367/189/189 228/190/190 72/191/191 163/192/192
f 366/193/193 172/194/194 8/11/11 253/10/10
f 365/195/195 317/196/196 74/197/197 195/198/198
f 364/199/199 159/200/200 9/15/15 200/14/14
f 363/201/201 161/202/202 75/203/203 210/204/204
f 362/205/205 259/206/206 77/207/207 117/208/208
f 361/209/209 150/56/56 23/55/55 137/210/210
f 360/211/211 246/64/64 25/63/63 247/212/212
f 359/213/213 264/214/214 79/215/215 148/216/216
f 358/217/217 287/218/218 62/159/159 141/158/158
f 357/219/219 114/220/220 80/221/221 227/222/222
f 356/223/223 126/224/224 63/163/163 238/162/162
f 355/225/225 245/226/226 83/227/227 178/228/228
f 354/229/229 292/230/230 24/59/59 198/58/58
f 353/231/231 117/208/208 77/207/207 116/232/232
f 352/233/233 247/212/212 25/63/63 140/62/62
f 351/234/234 121/235/235 85/236/236 281/237/237
f 350/238/238 310/239/239 45/117/117 162/116/116
f 349/240/240 256/40/40 18/39/39 174/241/241
f 348/242/242 146/48/48 21/47/47 215/120/120
f 347/243/243 223/244/244 87/245/245 171/246/246
f 346/247/247 136/248/248 65/173/173 229/172/172
f 345/249/249 294/100/100 40/99/99 304/250/250
f 344/251/251 169/108/108 43/107/107 153/176/176
f 343/252/252 143/253/253 89/254/254 120/255/255
f 342/256/256 295/257/257 80/221/221 114/220/220
f 341/258/258 118/156/156 60/155/155 207/259/259
f 340/260/260 218/164/164 63/163/163 126/224/224
f 339/261/261 191/262/262 92/263/263 147/264/264
f 338/265/265 234/266/266 56/143/143 266/142/142
f 337/267/267 278/184/184 70/183/183 273/268/268
f 336/269/269 214/188/188 57/147/147 314/146/146
f 335/270/270 309/271/271 94/272/272 249/273/273
f 334/274/274 125/275/275 36/87/87 133/86/86
f 333/276/276 219/128/128 50/127/127 119/277/277
f 332/278/278 111/132/132 37/91/91 296/90/90
f 331/279/279 252/280/280 97/281/281 284/282/282
f 330/283/283 201/284/284 14/27/27 244/26/26
f 329/285/285 270/72/72 30/71/71 192/286/286
f 328/287/287 131/76/76 15/31/31 289/30/30
f 327/288/288 129/289/289 99/290/290 258/291/291
f 326/292/292 221/293/293 74/197/197 317/196/196
f 325/294/294 142/8/8 5/7/7 152/295/295
f 324/296/296 291/16/16 9/15/15 159/200/200
f 323/297/297 268/298/297 102/299/298 315/300/298
f 322/301/299 255/302/299 106/303/300 311/304/300
f 321/305/301 303/306/301 101/307/302 220/308/302
f 320/309/303 216/310/303 105/311/304 205/312/304
f 319/313/305 193/314/305 109/315/306 211/316/306
f 154/317/305 319/313/305 211/316/306 108/318/306
f 107/319/300 311/320/300 319/313/305 154/317/305
f 311/320/300 106/321/300 193/314/305 319/313/305
f 160/322/303 320/309/303 205/312/304 104/323/304
f 103/324/298 315/300/298 320/309/303 160/322/303
f 315/300/298 102/299/298 216/310/303 320/309/303
f 250/325/301 321/305/301 220/308/302 100/326/302
f 108/318/306 211/316/306 321/305/301 250/325/301
f 211/316/306 109/315/306 303/306/301 321/305/301
f 283/327/299 322/301/299 311/304/300 107/328/300
f 104/323/304 205/312/304 322/301/299 283/327/299
f 205/312/304 105/311/304 255/302/299 322/301/299
f 312/329/297 323/297/297 315/300/298 103/324/298
f 100/326/302 220/308/302 323/297/297 312/329/297
f 220/308/302 101/307/302 268/298/297 323/297/297
f 221/293/293 324/296/296 159/200/200 74/197/197
f 99/290/290 152/295/295 324/296/296 221/293/293
f 152/295/295 5/7/7 291/16/16 324/296/296
f 129/289/289 325/294/294 152/295/295 99/290/290
f 98/330/307 206/331/308 325/294/294 129/289/289
f 206/331/308 6/332/309 142/8/8 325/294/294
f 112/333/310 326/292/292 317/196/196 71/334/311
f 91/335/312 258/291/291 326/292/292 112/333/310
f 258/291/291 99/290/290 221/293/293 326/292/292
f 187/336/313 327/288/288 258/291/291 91/335/312
f 96/337/314 184/338/314 327/288/288 187/336/313
f 184/338/314 98/330/307 129/289/289 327/288/288
f 201/284/284 328/287/287 289/30/30 14/27/27
f 97/281/281 192/286/286 328/287/287 201/284/284
f 192/286/286 30/71/71 131/76/76 328/287/287
f 252/280/280 329/285/285 192/286/286 97/281/281
f 95/339/315 190/340/316 329/285/285 252/280/280
f 190/340/316 31/341/317 270/72/72 329/285/285
f 206/331/308 330/283/283 244/26/26 6/332/309
f 98/330/307 284/282/282 330/283/283 206/331/308
f 284/282/282 97/281/281 201/284/284 330/283/283
f 184/338/314 331/279/279 284/282/282 98/330/307
f 96/337/314 202/342/318 331/279/279 184/338/314
f 202/342/318 95/339/315 252/280/280 331/279/279
f 125/275/275 332/278/278 296/90/90 36/87/87
f 94/272/272 119/277/277 332/278/278 125/275/275
f 119/277/277 50/127/127 111/132/132 332/278/278
f 309/271/271 333/276/276 119/277/277 94/272/272
f 93/343/319 282/344/320 333/276/276 309/271/271
f 282/344/320 51/345/321 219/128/128 333/276/276
f 190/346/316 334/274/274 133/86/86 31/347/317
f 95/348/315 249/273/273 334/274/274 190/346/316
f 249/273/273 94/272/272 125/275/275 334/274/274
f 239/349/322 335/270/270 249/273/273 95/348/315
f 90/350/323 134/351/323 335/270/270 239/349/322
f 134/351/323 93/343/319 309/271/271 335/270/270
f 234/266/266 336/269/269 314/146/146 56/143/143
f 92/263/263 273/268/268 336/269/269 234/266/266
f 273/268/268 70/183/183 214/188/188 336/269/269
f 191/262/262 337/267/267 273/268/268 92/263/263
f 91/352/312 112/353/310 337/267/267 191/262/262
f 112/353/310 71/354/311 278/184/184 337/267/267
f 282/344/320 338/265/265 266/142/142 51/345/321
f 93/343/319 147/264/264 338/265/265 282/344/320
f 147/264/264 92/263/263 234/266/266 338/265/265
f 134/351/323 339/261/261 147/264/264 93/343/319
f 90/350/323 254/355/324 339/261/261 134/351/323
f 254/355/324 91/352/312 191/262/262 339/261/261
f 295/257/257 340/260/260 126/224/224 80/221/221
f 89/254/254 207/259/259 340/260/260 295/257/257
f 207/259/259 60/155/155 218/164/164 340/260/260
f 143/253/253 341/258/258 207/259/259 89/254/254
f 88/356/325 139/357/326 341/258/258 143/253/253
f 139/357/326 61/358/327 118/156/156 341/258/258
f 175/359/328 342/256/256 114/220/220 78/360/329
f 82/361/330 120/255/255 342/256/256 175/359/328
f 120/255/255 89/254/254 295/257/257 342/256/256
f 293/362/331 343/252/252 120/255/255 82/361/330
f 81/363/332 166/364/333 343/252/252 293/362/331
f 166/364/333 88/356/325 143/253/253 343/252/252
f 136/248/248 344/251/251 153/176/176 65/173/173
f 87/245/245 304/250/250 344/251/251 136/248/248
f 304/250/250 40/99/99 169/108/108 344/251/251
f 223/244/244 345/249/249 304/250/250 87/245/245
f 86/365/334 267/366/335 345/249/249 223/244/244
f 267/366/335 41/367/336 294/100/100 345/249/249
f 139/357/326 346/247/247 229/172/172 61/358/327
f 88/356/325 171/246/246 346/247/247 139/357/326
f 171/246/246 87/245/245 136/248/248 346/247/247
f 166/364/333 347/243/243 171/246/246 88/356/325
f 81/363/332 285/368/337 347/243/243 166/364/333
f 285/368/337 86/365/334 223/244/244 347/243/243
f 310/239/239 348/242/242 215/120/120 45/117/117
f 85/236/236 174/241/241 348/242/242 310/239/239
f 174/241/241 18/39/39 146/48/48 348/242/242
f 121/235/235 349/240/240 174/241/241 85/236/236
f 84/369/338 235/370/339 349/240/240 121/235/235
f 235/370/339 19/371/340 256/40/40 349/240/240
f 267/372/335 350/238/238 162/116/116 41/373/336
f 86/374/334 281/237/237 350/238/238 267/372/335
f 281/237/237 85/236/236 310/239/239 350/238/238
f 285/375/337 351/234/234 281/237/237 86/374/334
f 81/376/332 180/377/341 351/234/234 285/375/337
f 180/377/341 84/369/338 121/235/235 351/234/234
f 292/230/230 352/233/233 140/62/62 24/59/59
f 83/227/227 116/232/232 352/233/233 292/230/230
f 116/232/232 77/207/207 247/212/212 352/233/233
f 245/226/226 353/231/231 116/232/232 83/227/227
f 82/378/330 175/379/328 353/231/231 245/226/226
f 175/379/328 78/380/329 117/208/208 353/231/231
f 235/370/339 354/229/229 198/58/58 19/371/340
f 84/369/338 178/228/228 354/229/229 235/370/339
f 178/228/228 83/227/227 292/230/230 354/229/229
f 180/377/341 355/225/225 178/228/228 84/369/338
f 81/376/332 293/381/331 355/225/225 180/377/341
f 293/381/331 82/378/330 245/226/226 355/225/225
f 287/218/218 356/223/223 238/162/162 62/159/159
f 79/215/215 227/222/222 356/223/223 287/218/218
f 227/222/222 80/221/221 126/224/224 356/223/223
f 264/214/214 357/219/219 227/222/222 79/215/215
f 76/382/342 213/383/343 357/219/219 264/214/214
f 213/383/343 78/360/329 114/220/220 357/219/219
f 128/384/344 358/217/217 141/158/158 55/385/345
f 67/386/346 148/216/216 358/217/217 128/384/344
f 148/216/216 79/215/215 287/218/218 358/217/217
f 298/387/347 359/213/213 148/216/216 67/386/346
f 66/388/348 316/389/349 359/213/213 298/387/347
f 316/389/349 76/382/342 264/214/214 359/213/213
f 259/206/206 360/211/211 247/212/212 77/207/207
f 75/203/203 137/210/210 360/211/211 259/206/206
f 137/210/210 23/55/55 246/64/64 360/211/211
f 161/202/202 361/209/209 137/210/210 75/203/203
f 73/390/350 122/391/351 361/209/209 161/202/202
f 122/391/351 7/392/352 150/56/56 361/209/209
f 213/393/343 362/205/205 117/208/208 78/380/329
f 76/394/342 210/204/204 362/205/205 213/393/343
f 210/204/204 75/203/203 259/206/206 362/205/205
f 316/395/349 363/201/201 210/204/204 76/394/342
f 66/396/348 181/397/353 363/201/201 316/395/349
f 181/397/353 73/390/350 161/202/202 363/201/201
f 172/194/194 364/199/199 200/14/14 8/11/11
f 72/191/191 195/198/198 364/199/199 172/194/194
f 195/198/198 74/197/197 159/200/200 364/199/199
f 228/190/190 365/195/195 195/198/198 72/191/191
f 69/398/354 179/399/355 365/195/195 228/190/190
f 179/399/355 71/334/311 317/196/196 365/195/195
f 122/391/351 366/193/193 253/10/10 7/392/352
f 73/390/350 163/192/192 366/193/193 122/391/351
f 163/192/192 72/191/191 172/194/194 366/193/193
f 181/397/353 367/189/189 163/192/192 73/390/350
f 66/396/348 183/400/356 367/189/189 181/397/353
f 183/400/356 69/398/354 228/190/190 367/189/189
f 224/182/182 368/187/187 214/188/188 70/183/183
f 68/179/179 232/186/186 368/187/187 224/182/182
f 232/186/186 54/139/139 305/148/148 368/187/187
f 242/178/178 369/185/185 232/186/186 68/179/179
f 67/386/346 128/384/344 369/185/185 242/178/178
f 128/384/344 55/385/345 203/140/140 369/185/185
f 179/401/355 370/181/181 278/184/184 71/354/311
f 69/402/354 182/180/180 370/181/181 179/401/355
f 182/180/180 68/179/179 224/182/182 370/181/181
f 183/403/356 371/177/177 182/180/180 69/402/354
f 66/388/348 298/387/347 371/177/177 183/403/356
f 298/387/347 67/386/346 242/178/178 371/177/177
f 302/170/170 372/175/175 167/106/106 42/103/103
f 64/167/167 135/174/174 372/175/175 302/170/170
f 135/174/174 65/173/173 153/176/176 372/175/175
f 277/166/166 373/171/171 135/174/174 64/167/167
f 59/404/357 225/405/358 373/171/171 277/166/166
f 225/405/358 61/358/327 229/172/172 373/171/171
f 271/406/359 374/169/169 130/102/102 35/407/360
f 47/408/361 233/168/168 374/169/169 271/406/359
f 233/168/168 64/167/167 302/170/170 374/169/169
f 173/409/362 375/165/165 233/168/168 47/408/361
f 46/410/363 164/411/364 375/165/165 173/409/362
f 164/411/364 59/404/357 277/166/166 375/165/165
f 168/154/154 376/161/161 218/164/164 60/155/155
f 58/151/151 274/160/160 376/161/161 168/154/154
f 274/160/160 62/159/159 238/162/162 376/161/161
f 132/150/150 377/157/157 274/160/160 58/151/151
f 53/412/365 307/413/366 377/157/157 132/150/150
f 307/413/366 55/385/345 141/158/158 377/157/157
f 225/405/358 378/153/153 118/156/156 61/358/327
f 59/404/357 230/152/152 378/153/153 225/405/358
f 230/152/152 58/151/151 168/154/154 378/153/153
f 164/411/364 379/149/149 230/152/152 59/404/357
f 46/410/363 248/414/367 379/149/149 164/411/364
f 248/414/367 53/412/365 132/150/150 379/149/149
f 260/138/138 380/145/145 305/148/148 54/139/139
f 52/135/135 155/144/144 380/145/145 260/138/138
f 155/144/144 56/143/143 314/146/146 380/145/145
f 269/134/134 381/141/141 155/144/144 52/135/135
f 49/415/368 113/416/369 381/141/141 269/134/134
f 113/416/369 51/345/321 266/142/142 381/141/141
f 307/413/366 382/137/137 203/140/140 55/385/345
f 53/412/365 110/136/136 382/137/137 307/413/366
f 110/136/136 52/135/135 260/138/138 382/137/137
f 248/414/367 383/133/133 110/136/136 53/412/365
f 46/410/363 279/417/370 383/133/133 248/414/367
f 279/417/370 49/415/368 269/134/134 383/133/133
f 186/126/126 384/131/131 111/132/132 50/127/127
f 48/123/123 318/130/130 384/131/131 186/126/126
f 318/130/130 34/83/83 299/92/92 384/131/131
f 241/122/122 385/129/129 318/130/130 48/123/123
f 47/408/361 271/406/359 385/129/129 241/122/122
f 271/406/359 35/407/360 197/84/84 385/129/129
f 113/416/369 386/125/125 219/128/128 51/345/321
f 49/415/368 288/124/124 386/125/125 113/416/369
f 288/124/124 48/123/123 186/126/126 386/125/125
f 279/417/370 387/121/121 288/124/124 49/415/368
f 46/410/363 173/409/362 387/121/121 279/417/370
f 173/409/362 47/408/361 241/122/122 387/121/121
f 262/114/114 388/119/119 145/46/46 20/43/43
f 44/111/111 272/118/118 388/119/119 262/114/114
f 272/118/118 45/117/117 215/120/120 388/119/119
f 236/110/110 389/115/115 272/118/118 44/111/111
f 39/418/371 188/419/372 389/115/115 236/110/110
f 188/419/372 41/373/336 162/116/116 389/115/115
f 176/420/373 390/113/113 209/42/42 13/421/374
f 27/422/375 149/112/112 390/113/113 176/420/373
f 149/112/112 44/111/111 262/114/114 390/113/113
f 265/423/376 391/109/109 149/112/112 27/422/375
f 26/424/377 196/425/378 391/109/109 265/423/376
f 196/425/378 39/418/371 236/110/110 391/109/109
f 127/98/98 392/105/105 169/108/108 40/99/99
f 38/95/95 222/104/104 392/105/105 127/98/98
f 222/104/104 42/103/103 167/106/106 392/105/105
f 138/94/94 393/101/101 222/104/104 38/95/95
f 33/426/379 301/427/380 393/101/101 138/94/94
f 301/427/380 35/407/360 130/102/102 393/101/101
f 188/428/372 394/97/97 294/100/100 41/367/336
f 39/429/371 185/96/96 394/97/97 188/428/372
f 185/96/96 38/95/95 127/98/98 394/97/97
f 196/430/378 395/93/93 185/96/96 39/429/371
f 26/431/377 144/432/381 395/93/93 196/430/378
f 144/432/381 33/426/379 138/94/94 395/93/93
f 123/82/82 396/89/89 299/92/92 34/83/83
f 32/79/79 240/88/88 396/89/89 123/82/82
f 240/88/88 36/87/87 296/90/90 396/89/89
f 217/78/78 397/85/85 240/88/88 32/79/79
f 29/433/382 165/434/383 397/85/85 217/78/78
f 165/434/383 31/347/317 133/86/86 397/85/85
f 301/427/380 398/81/81 197/84/84 35/407/360
f 33/426/379 170/80/80 398/81/81 301/427/380
f 170/80/80 32/79/79 123/82/82 398/81/81
f 144/432/381 399/77/77 170/80/80 33/426/379
f 26/431/377 157/435/384 399/77/77 144/432/381
f 157/435/384 29/433/382 217/78/78 399/77/77
f 204/70/70 400/75/75 131/76/76 30/71/71
f 28/67/67 115/74/74 400/75/75 204/70/70
f 115/74/74 12/23/23 276/32/32 400/75/75
f 212/66/66 401/73/73 115/74/74 28/67/67
f 27/422/375 176/420/373 401/73/73 212/66/66
f 176/420/373 13/421/374 177/24/24 401/73/73
f 165/436/383 402/69/69 270/72/72 31/341/317
f 29/437/382 156/68/68 402/69/69 165/436/383
f 156/68/68 28/67/67 204/70/70 402/69/69
f 157/438/384 403/65/65 156/68/68 29/437/382
f 26/424/377 265/423/376 403/65/65 157/438/384
f 265/423/376 27/422/375 212/66/66 403/65/65
f 243/54/54 404/61/61 246/64/64 23/55/55
f 22/51/51 290/60/60 404/61/61 243/54/54
f 290/60/60 24/59/59 140/62/62 404/61/61
f 297/50/50 405/57/57 290/60/60 22/51/51
f 17/439/385 151/440/386 405/57/57 297/50/50
f 151/440/386 19/371/340 198/58/58 405/57/57
f 300/441/387 406/53/53 150/56/56 7/392/352
f 2/442/388 208/52/52 406/53/53 300/441/387
f 208/52/52 22/51/51 243/54/54 406/53/53
f 158/443/389 407/49/49 208/52/52 2/442/388
f 1/444/390 275/445/391 407/49/49 158/443/389
f 275/445/391 17/439/385 297/50/50 407/49/49
f 199/38/38 408/45/45 146/48/48 18/39/39
f 16/35/35 308/44/44 408/45/45 199/38/38
f 308/44/44 20/43/43 145/46/46 408/45/45
f 231/34/34 409/41/41 308/44/44 16/35/35
f 11/446/392 280/447/393 409/41/41 231/34/34
f 280/447/393 13/421/374 209/42/42 409/41/41
f 151/440/386 410/37/37 256/40/40 19/371/340
f 17/439/385 194/36/36 410/37/37 151/440/386
f 194/36/36 16/35/35 199/38/38 410/37/37
f 275/445/391 411/33/33 194/36/36 17/439/385
f 1/444/390 189/448/394 411/33/33 275/445/391
f 189/448/394 11/446/392 231/34/34 411/33/33
f 124/22/22 412/29/29 276/32/32 12/23/23
f 10/19/19 226/28/28 412/29/29 124/22/22
f 226/28/28 14/27/27 289/30/30 412/29/29
f 237/18/18 413/25/25 226/28/28 10/19/19
f 4/449/395 251/450/396 413/25/25 237/18/18
f 251/450/396 6/332/309 244/26/26 413/25/25
f 280/447/393 414/21/21 177/24/24 13/421/374
f 11/446/392 286/20/20 414/21/21 280/447/393
f 286/20/20 10/19/19 124/22/22 414/21/21
f 189/448/394 415/17/17 286/20/20 11/446/392
f 1/444/390 263/451/397 415/17/17 189/448/394
f 263/451/397 4/449/395 237/18/18 415/17/17
f 306/6/6 416/13/13 291/16/16 5/7/7
f 3/3/3 257/12/12 416/13/13 306/6/6
f 257/12/12 8/11/11 200/14/14 416/13/13
f 313/2/2 417/9/9 257/12/12 3/3/3
f 2/442/388 300/441/387 417/9/9 313/2/2
f 300/441/387 7/392/352 253/10/10 417/9/9
f 251/450/396 418/5/5 142/8/8 6/332/309
f 4/449/395 261/4/4 418/5/5 251/450/396
f 261/4/4 3/3/3 306/6/6 418/5/5
f 263/451/397 419/1/1 261/4/4 4/449/395
f 1/444/390 158/443/389 419/1/1 263/451/397
f 158/443/389 2/442/388 313/2/2 419/1/1
