# Blender v2.78 (sub 0) OBJ File: ''
# www.blender.org
mtllib Thuja_Tree_s_02.mtl
o Thuja_Tree_s_02
v 0.211639 3.027143 -0.203599
v 0.276125 3.059877 -0.073534
v 0.415032 2.535907 -0.145048
v 0.448010 1.578862 -0.411988
v 0.481753 0.937587 -0.192518
v 0.243246 0.832314 -0.436476
v 0.613900 1.573188 -0.060056
v 0.200683 2.443555 -0.397783
v 0.037364 1.356135 -0.641685
v -0.126717 2.151070 -0.488918
v 0.432958 2.379846 0.166342
v 0.266176 3.051609 0.034834
v 0.158953 3.058741 0.127990
v 0.225121 2.166841 0.450422
v 0.008793 2.902110 0.251532
v -0.008423 2.180908 0.502835
v 0.415407 1.237021 0.499647
v 0.222682 0.803057 0.487903
v 0.485216 0.862145 0.217152
v -0.053974 1.276006 0.662427
v 0.607275 1.487844 0.202222
v -0.238182 2.311487 0.366728
v -0.136378 2.997065 0.133399
v -0.411373 2.226609 0.193306
v -0.251155 2.810749 -0.034427
v -0.501161 2.109433 -0.031302
v -0.492521 1.270119 0.439525
v -0.380190 0.678887 0.168464
v -0.266612 0.812798 0.482233
v -0.628957 1.242382 -0.011556
v -0.386084 2.098380 -0.289824
v -0.110581 3.023620 -0.112308
v -0.417522 1.106256 -0.474744
v -0.235888 0.802608 -0.500858
v -0.382399 0.679369 -0.201985
v -0.018275 0.788109 -0.568000
v 0.059594 0.507550 -0.022900
v 0.306882 0.613275 0.142248
v -0.068770 0.608173 0.328942
v -0.119284 0.535787 -0.251377
v 0.015207 3.232146 0.029279
v 0.158087 3.227669 -0.070427
v 0.058224 3.035432 -0.215856
v 0.058902 -0.004296 0.082026
v 0.051808 0.718514 0.071930
v -0.051798 0.717887 0.071994
v -0.058911 -0.004193 0.082058
v -0.095043 -0.002190 -0.029960
v -0.083541 0.715781 -0.026459
v 0.000074 0.716852 -0.087229
v 0.000018 -0.001867 -0.099054
v 0.095261 -0.002184 -0.030015
v 0.084097 0.721556 -0.026595
v 0.216435 3.178616 -0.085127
v 0.397936 0.718913 -0.016331
v -0.042992 0.509440 -0.128411
v 0.206017 2.669136 0.278317
v -0.056364 -0.001734 -0.076719
v 0.010643 3.136892 0.135312
v 0.080960 0.715422 0.429579
v -0.473137 2.155681 0.067725
v 0.093774 0.359886 -0.029643
v 0.001931 2.517980 0.389975
v -0.190564 0.640158 -0.387280
v -0.339193 2.286169 0.290623
v 0.508172 0.892841 0.005616
v -0.065264 0.856964 0.534141
v 0.199134 0.555680 0.055945
v -0.545345 1.611652 -0.192123
v 0.080047 0.720447 0.026564
v 0.000031 0.357413 -0.097422
v -0.246027 0.550062 -0.042558
v -0.548650 1.132777 -0.262489
v 0.040620 2.299170 -0.473299
v 0.049553 0.719577 -0.067170
v -0.000017 -0.004561 0.097160
v 0.275798 3.052369 -0.009466
v 0.057877 0.356995 0.080454
v -0.433640 1.565796 -0.392486
v -0.017711 2.662327 -0.350461
v -0.263061 2.671047 0.172518
v -0.562123 1.697806 0.133284
v -0.051134 0.651571 -0.441483
v 0.375876 0.891784 -0.324172
v 0.108071 3.185549 -0.134059
v -0.117095 0.802902 -0.546554
v -0.109523 3.113507 0.019552
v 0.215827 2.809186 -0.279884
v 0.033332 3.197549 -0.089020
v -0.190073 1.777786 0.545472
v -0.266900 0.580589 -0.206348
v 0.289943 2.751440 0.173715
v 0.454665 1.784782 0.359639
v -0.208954 1.231847 -0.597471
v -0.057892 0.356858 0.080503
v -0.079715 0.716824 0.026682
v 0.204815 1.235504 0.622142
v 0.229030 3.056291 0.071190
v 0.365672 1.166437 -0.461653
v -0.271059 2.105680 -0.408488
v 0.456441 2.073018 -0.278666
v -0.275557 1.592780 -0.529830
v -0.181723 2.946223 -0.072213
v 0.101006 0.962592 0.599071
v 0.326853 2.509202 -0.282897
v -0.576361 1.754110 -0.025280
v -0.321336 0.905791 -0.506324
v -0.071333 2.993583 0.191055
v 0.325881 2.023447 -0.426975
v 0.310295 0.958591 0.532203
v 0.111706 2.761426 -0.326796
v -0.301273 1.291716 0.581546
v 0.293250 0.683016 -0.132781
v -0.547023 0.902611 0.105743
v -0.093356 0.356778 -0.029543
v 0.555111 1.822259 0.198458
v 0.143425 3.045202 -0.220864
v -0.490750 0.932654 0.320856
v 0.118903 2.598845 0.350507
v -0.190086 0.717378 0.425065
v -0.523985 0.868724 -0.113478
v 0.319579 1.679419 0.504939
v 0.247390 3.072948 -0.141031
v 0.406181 0.708142 0.174390
v 0.174046 0.630659 -0.238104
v 0.089186 2.997948 0.195979
v 0.126627 0.569809 0.232100
v -0.198347 0.965647 0.580943
v -0.589938 1.240090 0.234332
v 0.147894 3.205926 0.023172
v -0.027037 0.514825 0.155803
v -0.137208 1.025538 -0.605811
v 0.447552 2.481312 0.002086
v -0.488538 1.742651 0.312899
v -0.194339 2.710855 0.242264
v -0.041446 3.188838 -0.029320
v -0.383197 2.450187 -0.039917
v 0.056493 -0.001921 -0.076750
v -0.402612 0.671601 -0.028316
v 0.356442 2.798547 0.025212
v -0.223395 0.596481 0.252859
v -0.190650 2.943692 0.052316
v 0.262714 0.672454 0.318797
v 0.556315 2.001250 0.049263
v -0.372931 1.783507 0.436500
v -0.029604 3.031773 -0.174962
v 0.181804 1.091118 -0.575792
v -0.169635 0.531878 0.079259
v 0.574305 1.220766 -0.144056
v -0.320095 2.603290 0.079490
v -0.232372 2.608486 -0.229068
v -0.049198 0.715634 -0.067085
v 0.013296 0.996232 -0.623492
v 0.568870 1.173291 0.218839
v -0.312424 0.705798 -0.363499
v -0.028189 1.825549 0.591897
v 0.140242 1.913282 -0.545733
v -0.438542 0.835924 -0.335848
v 0.535992 1.372314 0.335045
v 0.326917 2.840483 0.087676
v 0.091454 -0.003309 0.030658
v 0.557319 1.600130 -0.243728
v 0.087715 3.245104 -0.027969
v 0.212200 3.169175 -0.013339
v 0.123929 1.679072 0.600900
v 0.364748 0.786257 0.374052
v -0.109325 2.243783 0.452586
v 0.341930 2.257411 0.330967
v 0.532338 2.060039 -0.108572
v -0.466107 2.094241 -0.144718
v -0.128859 2.630354 -0.306830
v 0.464617 0.982199 0.386174
v 0.502751 1.227888 -0.326564
v 0.067598 0.620891 -0.344551
v -0.310278 2.550003 -0.158558
v 0.265103 1.499044 -0.548551
v 0.094149 0.804201 -0.524404
v -0.372275 0.972799 0.492636
v -0.111088 2.679625 0.304393
v 0.343037 2.851139 -0.088885
v -0.000047 0.718108 0.084651
v 0.077977 3.201111 0.077033
v -0.063004 1.741768 -0.591226
v 0.300159 2.842353 -0.188870
v -0.091339 -0.003204 0.030708
v 0.617911 1.537754 0.092518
v -0.336877 0.744567 0.360128
v 0.581004 1.164608 0.057756
v 0.176884 3.162643 -0.147294
v 0.091079 2.154353 0.501314
v -0.053548 3.157337 0.084981
v 0.053023 0.358828 -0.071960
v -0.085527 0.356810 0.028695
v 0.085751 0.358569 0.028611
v -0.052781 0.356950 -0.071902
v -0.000032 0.356773 0.090905
vt 0.6706 0.6037
vt 0.6695 0.6047
vt 0.6678 0.5968
vt 0.6671 0.5494
vt 0.6650 0.5411
vt 0.6684 0.5390
vt 0.6649 0.5899
vt 0.6623 0.5696
vt 0.6660 0.5696
vt 0.6633 0.5494
vt 0.6722 0.5858
vt 0.6746 0.5644
vt 0.6763 0.5784
vt 0.6720 0.5462
vt 0.6565 0.5841
vt 0.6610 0.5944
vt 0.6604 0.5967
vt 0.6624 0.5949
vt 0.7311 0.5844
vt 0.7253 0.5983
vt 0.7283 0.5786
vt 0.7255 0.5728
vt 0.7212 0.5888
vt 0.7226 0.5733
vt 0.7311 0.5355
vt 0.7262 0.5311
vt 0.7295 0.5280
vt 0.7228 0.5568
vt 0.7283 0.5541
vt 0.7257 0.5382
vt 0.6581 0.5667
vt 0.6607 0.5870
vt 0.6463 0.5364
vt 0.6497 0.5303
vt 0.6505 0.5423
vt 0.7130 0.5819
vt 0.7149 0.5933
vt 0.7130 0.5949
vt 0.7107 0.5798
vt 0.7084 0.5777
vt 0.7081 0.5907
vt 0.7053 0.5748
vt 0.7099 0.5413
vt 0.7083 0.5340
vt 0.7111 0.5355
vt 0.7041 0.5588
vt 0.7092 0.5595
vt 0.7049 0.5406
vt 0.7166 0.5614
vt 0.7163 0.5778
vt 0.7150 0.5411
vt 0.6946 0.5733
vt 0.7012 0.5885
vt 0.7014 0.5931
vt 0.6908 0.5741
vt 0.6893 0.5320
vt 0.6903 0.5267
vt 0.6942 0.5283
vt 0.6805 0.5711
vt 0.6787 0.5570
vt 0.6838 0.5507
vt 0.6872 0.5302
vt 0.6821 0.5366
vt 0.6842 0.5265
vt 0.6973 0.5566
vt 0.6983 0.5725
vt 0.6946 0.5360
vt 0.6762 0.5254
vt 0.6766 0.5342
vt 0.6730 0.5271
vt 0.6658 0.5127
vt 0.6643 0.5228
vt 0.6618 0.5146
vt 0.7197 0.5150
vt 0.7204 0.5209
vt 0.7164 0.5193
vt 0.7132 0.5235
vt 0.7167 0.5322
vt 0.7127 0.5267
vt 0.7097 0.5127
vt 0.7082 0.5197
vt 0.7057 0.5143
vt 0.7067 0.5267
vt 0.7033 0.5333
vt 0.7030 0.5257
vt 0.7083 0.6128
vt 0.7081 0.6082
vt 0.7106 0.6103
vt 0.7149 0.6181
vt 0.7159 0.6114
vt 0.7172 0.6152
vt 0.6695 0.6089
vt 0.6689 0.6073
vt 0.6701 0.6063
vt 0.6643 0.6092
vt 0.6649 0.6070
vt 0.6669 0.6091
vt 0.6707 0.6132
vt 0.6719 0.6091
vt 0.6733 0.6109
vt 0.6714 0.5947
vt 0.6719 0.6044
vt 0.6727 0.5954
vt 0.6686 0.5878
vt 0.6697 0.5676
vt 0.7225 0.5925
vt 0.7311 0.5599
vt 0.6514 0.5603
vt 0.6556 0.5662
vt 0.6547 0.5482
vt 0.6539 0.5362
vt 0.6572 0.5488
vt 0.7107 0.5928
vt 0.7114 0.5616
vt 0.6782 0.5899
vt 0.6768 0.5881
vt 0.6919 0.5526
vt 0.6701 0.5127
vt 0.6678 0.5207
vt 0.7017 0.5160
vt 0.7004 0.5203
vt 0.6965 0.5187
vt 0.6812 0.5228
vt 0.6791 0.5329
vt 0.6787 0.5241
vt 0.6628 0.5328
vt 0.6612 0.5411
vt 0.6580 0.5286
vt 0.7147 0.5138
vt 0.7114 0.5181
vt 0.7238 0.5178
vt 0.7172 0.5251
vt 0.7042 0.5214
vt 0.7099 0.5251
vt 0.7116 0.6155
vt 0.7140 0.6129
vt 0.6675 0.6112
vt 0.6701 0.6111
vt 0.6675 0.6069
vt 0.6714 0.6070
vt 0.6745 0.5127
vt 0.6779 0.5178
vt 0.6753 0.5191
vt 0.6721 0.5207
vt 0.6579 0.5166
vt 0.6603 0.5247
vt 0.6556 0.5204
vt 0.3089 0.8126
vt 0.3089 0.8581
vt 0.3034 0.8581
vt 0.3030 0.8126
vt 0.2850 0.8131
vt 0.2869 0.8585
vt 0.2814 0.8588
vt 0.2790 0.8133
vt 0.3209 0.8127
vt 0.3199 0.8582
vt 0.3144 0.8581
vt 0.3149 0.8126
vt 0.2970 0.8127
vt 0.2979 0.8582
vt 0.2924 0.8583
vt 0.2910 0.8128
vt 0.3328 0.8131
vt 0.3309 0.8585
vt 0.3254 0.8583
vt 0.3268 0.8128
vt 0.3347 0.7675
vt 0.3283 0.7673
vt 0.3411 0.7678
vt 0.3388 0.8133
vt 0.3364 0.8588
vt 0.2961 0.7672
vt 0.2896 0.7673
vt 0.3025 0.7670
vt 0.3219 0.7672
vt 0.3154 0.7670
vt 0.2832 0.7675
vt 0.2767 0.7678
vt 0.3090 0.7670
vt 0.6532 0.5243
vt 0.6697 0.5287
vt 0.6732 0.6051
vt 0.6669 0.6053
vt 0.6684 0.6058
vt 0.6655 0.6048
vt 0.7149 0.6063
vt 0.7169 0.6048
vt 0.7130 0.6078
vt 0.7095 0.5282
vt 0.7123 0.5298
vt 0.6992 0.5247
vt 0.7207 0.5338
vt 0.7202 0.5409
vt 0.7212 0.5267
vt 0.7246 0.5236
vt 0.7279 0.5205
vt 0.6564 0.5368
vt 0.6596 0.5493
vt 0.6662 0.5308
vt 0.6770 0.5430
vt 0.6952 0.5230
vt 0.6913 0.5214
vt 0.6999 0.5399
vt 0.6881 0.5534
vt 0.6869 0.5748
vt 0.6746 0.6069
vt 0.6760 0.6087
vt 0.7049 0.5877
vt 0.7078 0.6036
vt 0.7021 0.5718
vt 0.7010 0.5559
vt 0.7104 0.6057
vt 0.7183 0.5893
vt 0.7197 0.5738
vt 0.7199 0.5574
vt 0.7182 0.6085
vt 0.7195 0.6123
vt 0.6666 0.5978
vt 0.6995 0.5323
vt 0.7163 0.5353
vt 0.6733 0.5358
vt 0.6976 0.5938
vn 0.5214 0.3534 -0.7767
vn 0.7763 0.3885 -0.4964
vn 0.7819 0.2695 -0.5621
vn 0.7166 0.0639 -0.6946
vn 0.8336 -0.1452 -0.5329
vn 0.6528 -0.1663 -0.7391
vn 0.9080 0.2359 -0.3463
vn 0.9547 0.1859 -0.2325
vn 0.8171 0.1867 -0.5454
vn 0.9062 0.0628 -0.4182
vn 0.4028 0.2478 -0.8811
vn 0.2686 0.1762 -0.9470
vn 0.0303 0.2624 -0.9645
vn 0.4747 0.0483 -0.8788
vn 0.8637 0.2551 0.4347
vn 0.8290 0.3260 0.4544
vn 0.6647 0.3139 0.6780
vn 0.9482 0.2839 0.1423
vn 0.6774 0.2499 0.6918
vn 0.4696 0.2433 0.8487
vn 0.2723 0.3296 0.9040
vn 0.2058 0.2594 0.9436
vn 0.6749 -0.0180 0.7377
vn 0.4965 -0.2976 0.8154
vn 0.8149 -0.2658 0.5151
vn 0.2589 0.1481 0.9545
vn 0.5547 0.1544 0.8176
vn 0.3284 -0.0250 0.9442
vn 0.9768 0.1947 0.0893
vn 0.9682 0.2435 0.0573
vn 0.8447 0.0114 0.5352
vn -0.5282 0.2778 0.8024
vn -0.3603 0.3303 0.8724
vn -0.6307 0.3458 0.6947
vn -0.7472 0.2822 0.6018
vn -0.8857 0.2737 0.3751
vn -0.9224 0.3357 0.1911
vn -0.9385 0.2690 0.2163
vn -0.7765 -0.0018 0.6301
vn -0.8291 -0.3554 0.4317
vn -0.6155 -0.2772 0.7378
vn -0.9584 0.1583 0.2374
vn -0.8528 0.1936 0.4851
vn -0.9536 -0.0429 0.2979
vn -0.4034 0.1924 0.8946
vn -0.3523 0.2784 0.8935
vn -0.4599 0.0260 0.8876
vn -0.7854 0.2365 -0.5720
vn -0.8387 0.3247 -0.4372
vn -0.6887 0.3406 -0.6401
vn -0.6204 0.2418 -0.7460
vn -0.7054 -0.0673 -0.7056
vn -0.5400 -0.2976 -0.7873
vn -0.7929 -0.4036 -0.4565
vn -0.3410 0.2522 -0.9056
vn -0.1506 0.1581 -0.9759
vn -0.5204 0.1360 -0.8430
vn -0.3605 0.0090 -0.9327
vn -0.9106 0.1227 -0.3947
vn -0.8906 0.2372 -0.3880
vn -0.9157 -0.0895 -0.3917
vn 0.0640 -0.4883 -0.8704
vn 0.1159 -0.1912 -0.9747
vn 0.4372 -0.4902 -0.7540
vn 0.2263 -0.9699 -0.0903
vn 0.6096 -0.7187 -0.3345
vn 0.4185 -0.9066 -0.0549
vn 0.5456 -0.8291 0.1222
vn 0.3935 -0.7628 0.5132
vn 0.2337 -0.8821 0.4091
vn -0.0444 -0.7966 0.6029
vn -0.0460 -0.4998 0.8649
vn -0.1880 -0.6764 0.7121
vn -0.3043 -0.9442 0.1259
vn 0.0555 -0.9851 -0.1629
vn -0.6869 -0.6886 0.2322
vn -0.9146 -0.3835 0.1282
vn -0.7367 -0.6762 0.0005
vn -0.6802 0.4798 -0.5542
vn -0.8403 0.4306 -0.3294
vn -0.8286 0.5599 0.0075
vn -0.3031 0.9265 0.2230
vn -0.0971 0.5834 0.8064
vn 0.2047 0.7280 0.6543
vn 0.3463 0.9142 -0.2106
vn 0.7401 0.6378 -0.2132
vn 0.3535 0.6052 -0.7132
vn 0.4914 0.4477 0.7471
vn 0.6181 0.4421 0.6500
vn 0.4785 0.7408 0.4714
vn -0.3860 0.7283 -0.5661
vn -0.6319 0.7236 -0.2778
vn 0.4772 0.2831 -0.8320
vn 0.1062 0.4209 -0.9008
vn 0.0909 0.3222 -0.9423
vn 0.7010 0.2289 -0.6755
vn 0.5856 0.1823 -0.7898
vn 0.5161 0.3278 0.7913
vn 0.7442 0.1722 0.6454
vn 0.9072 0.1726 0.3836
vn 0.9524 0.0251 0.3039
vn 0.9562 -0.1614 0.2443
vn 0.9981 0.0291 0.0552
vn -0.8354 0.3443 0.4284
vn -0.6300 0.2084 0.7481
vn -0.5233 0.3446 -0.7794
vn -0.2580 0.3420 -0.9036
vn -0.7705 0.1305 -0.6239
vn 0.5223 -0.7783 -0.3485
vn -0.1020 -0.9349 -0.3400
vn -0.4983 -0.8296 -0.2518
vn -0.3334 -0.7305 -0.5960
vn -0.4024 -0.4698 -0.7857
vn -0.2578 -0.1477 -0.9548
vn -0.2744 -0.4322 -0.8590
vn 0.8426 -0.4047 -0.3552
vn 0.9615 -0.1522 -0.2288
vn 0.9177 -0.3877 -0.0862
vn -0.0094 -0.9689 0.2472
vn 0.7524 -0.6361 0.1713
vn 0.0775 -0.6885 0.7210
vn -0.4370 -0.8994 0.0089
vn -0.3860 -0.8365 0.3889
vn -0.5745 0.6682 0.4728
vn -0.0029 0.9982 -0.0597
vn 0.7285 0.6079 0.3158
vn -0.1184 0.6934 -0.7107
vn 0.0435 -0.7509 -0.6590
vn 0.3671 -0.7996 -0.4752
vn 0.7251 -0.6509 -0.2246
vn 0.0003 0.0167 0.9999
vn 0.0011 0.0222 0.9998
vn -0.5858 0.0237 0.8101
vn -0.5885 0.0177 0.8083
vn -0.5879 0.0161 -0.8088
vn -0.5868 0.0216 -0.8094
vn 0.0085 0.0230 -0.9997
vn -0.0014 0.0170 -0.9999
vn 0.9505 0.0161 0.3102
vn 0.9514 0.0216 0.3073
vn 0.5918 0.0236 0.8058
vn 0.5872 0.0176 0.8092
vn -0.9516 0.0164 0.3068
vn -0.9508 0.0220 0.3091
vn -0.9514 0.0234 -0.3070
vn -0.9506 0.0173 -0.3098
vn 0.5857 0.0158 -0.8104
vn 0.5898 0.0213 -0.8073
vn 0.9513 0.0229 -0.3074
vn 0.9507 0.0169 -0.3096
vn 0.5866 0.0102 -0.8098
vn 0.9518 0.0109 -0.3065
vn -0.0004 0.0111 -0.9999
vn -0.9509 0.0109 0.3092
vn -0.9518 0.0114 -0.3065
vn -0.5859 0.0118 0.8103
vn 0.9501 0.0106 0.3118
vn 0.5853 0.0117 0.8107
vn -0.5882 0.0105 -0.8086
vn 0.0004 0.0111 0.9999
vn 0.8934 -0.3942 0.2155
vn 0.6004 -0.4896 -0.6323
vn -0.2509 0.4461 -0.8591
vn 0.9127 0.3884 0.1271
vn 0.9191 0.3745 -0.1227
vn 0.8005 0.4235 0.4240
vn -0.4004 0.4393 0.8042
vn -0.0394 0.3827 0.9230
vn -0.7384 0.4485 0.5036
vn -0.5985 -0.6139 0.5147
vn -0.3565 -0.5311 0.7687
vn -0.7236 -0.6467 -0.2414
vn 0.0721 -0.3400 0.9377
vn -0.0864 -0.0240 0.9960
vn 0.2716 -0.5846 0.7645
vn 0.6290 -0.5606 0.5386
vn 0.9828 -0.1849 0.0023
vn 0.9886 0.0371 -0.1459
vn 0.7212 -0.4637 -0.5147
vn 0.0936 0.0305 -0.9951
vn -0.5773 -0.6174 -0.5343
vn -0.9968 -0.0459 -0.0654
vn -0.4861 0.4633 -0.7410
vn -0.9398 0.3232 -0.1107
vn -0.9200 0.3730 -0.1198
vn -0.9630 0.2565 -0.0823
vn -0.9824 0.1681 -0.0814
vn -0.8979 0.4151 0.1467
vn -0.0746 0.3228 0.9435
vn -0.1002 0.2799 0.9548
vn -0.1039 0.1991 0.9745
vn 0.2839 0.4201 0.8619
vn 0.9378 0.2907 -0.1899
vn -0.9075 -0.3902 -0.1558
vn -0.2056 -0.3058 0.9296
vn 0.4623 -0.1617 -0.8718
usemtl None
s 1
f 1/1/1 123/2/2 184/3/3
f 4/4/4 173/5/5 99/6/6
f 3/7/7 169/8/8 101/9/9
f 4/4/4 162/10/10 173/5/5
f 8/11/11 157/12/12 74/13/13
f 4/4/4 99/6/6 176/14/14
f 11/15/15 160/16/16 92/17/17
f 11/15/15 140/18/18 160/16/16
f 11/19/15 92/20/17 168/21/19
f 14/22/20 119/23/21 190/24/22
f 17/25/23 110/26/24 172/27/25
f 14/22/20 165/28/26 122/29/27
f 17/25/23 97/30/28 110/26/24
f 11/15/15 144/31/29 133/32/30
f 17/33/23 172/34/25 159/35/31
f 22/36/32 179/37/33 135/38/34
f 22/36/32 135/38/34 65/39/35
f 24/40/36 150/41/37 61/42/38
f 27/43/39 118/44/40 178/45/41
f 24/40/36 82/46/42 134/47/43
f 27/43/39 129/48/44 118/44/40
f 22/36/32 90/49/45 167/50/46
f 27/43/39 178/45/41 112/51/47
f 31/52/48 175/53/49 151/54/50
f 31/52/48 151/54/50 100/55/51
f 33/56/52 107/57/53 158/58/54
f 10/59/55 183/60/56 102/61/57
f 33/62/52 94/63/58 107/64/53
f 31/52/48 69/65/59 170/66/60
f 33/56/52 158/58/54 73/67/61
f 36/68/62 153/69/63 177/70/64
f 37/71/65 113/72/66 68/73/67
f 38/74/68 143/75/69 127/76/70
f 39/77/71 67/78/72 120/79/73
f 37/80/65 148/81/74 56/82/75
f 28/83/76 114/84/77 139/85/78
f 32/86/79 103/87/80 87/88/81
f 41/89/82 59/90/83 182/91/84
f 42/92/85 54/93/86 189/94/87
f 13/95/88 98/96/89 130/97/90
f 41/98/82 89/99/91 136/100/92
f 1/1/1 88/101/93 117/102/94
f 8/11/11 74/13/13 111/103/95
f 8/11/11 88/101/93 105/104/96
f 8/11/11 105/104/96 109/105/97
f 8/11/11 109/105/97 157/12/12
f 11/15/15 133/32/30 140/18/18
f 14/22/20 57/106/98 119/23/21
f 11/19/15 168/21/19 93/107/99
f 14/22/20 190/24/22 165/28/26
f 11/15/15 93/108/99 116/109/100
f 11/15/15 116/109/100 144/31/29
f 21/110/101 154/111/102 186/112/103
f 22/36/32 167/50/46 179/37/33
f 24/40/36 81/113/104 150/41/37
f 22/36/32 65/39/35 145/114/105
f 24/40/36 61/42/38 82/46/42
f 22/36/32 145/114/105 90/49/45
f 31/52/48 170/66/60 175/53/49
f 10/59/55 171/115/106 80/116/107
f 31/52/48 100/55/51 79/117/108
f 31/52/48 79/117/108 69/65/59
f 37/71/65 56/118/75 125/119/109
f 40/120/110 91/121/111 64/122/112
f 34/123/113 132/124/114 86/125/115
f 37/71/65 125/119/109 113/72/66
f 5/126/116 149/127/117 66/128/118
f 37/80/65 68/129/67 131/130/119
f 38/74/68 124/131/120 143/75/69
f 39/77/71 60/132/121 67/78/72
f 37/80/65 131/130/119 148/81/74
f 40/120/110 72/133/122 91/121/111
f 39/77/71 120/79/73 141/134/123
f 41/89/82 136/135/92 191/136/124
f 41/89/82 191/136/124 59/90/83
f 41/98/82 182/137/84 163/138/125
f 42/92/85 164/139/126 54/93/86
f 41/98/82 163/138/125 89/99/91
f 42/92/85 189/94/87 85/140/127
f 40/141/110 64/142/112 83/143/128
f 40/141/110 83/143/128 174/144/129
f 38/145/68 55/146/130 124/147/120
f 196/148/131 181/149/132 46/150/133 95/151/134
f 195/152/135 152/153/136 50/154/137 71/155/138
f 194/156/139 70/157/140 45/158/141 78/159/142
f 193/160/143 96/161/144 49/162/145 115/163/146
f 192/164/147 75/165/148 53/166/149 62/167/150
f 138/168/151 192/164/147 62/167/150 52/169/152
f 51/170/153 71/171/138 192/164/147 138/168/151
f 71/171/138 50/172/137 75/165/148 192/164/147
f 185/173/154 193/160/143 115/163/146 48/174/155
f 47/175/156 95/151/134 193/160/143 185/173/154
f 95/151/134 46/150/133 96/161/144 193/160/143
f 161/176/157 194/156/139 78/159/142 44/177/158
f 52/169/152 62/167/150 194/156/139 161/176/157
f 62/167/150 53/166/149 70/157/140 194/156/139
f 58/178/159 195/152/135 71/155/138 51/179/153
f 48/174/155 115/163/146 195/152/135 58/178/159
f 115/163/146 49/162/145 152/153/136 195/152/135
f 76/180/160 196/148/131 95/151/134 47/175/156
f 44/177/158 78/159/142 196/148/131 76/180/160
f 78/159/142 45/158/141 181/149/132 196/148/131
f 124/147/120 66/128/118 19/181/161
f 124/147/120 55/146/130 66/128/118
f 55/146/130 5/126/116 66/128/118
f 174/144/129 177/70/64 6/182/162
f 174/144/129 83/143/128 177/70/64
f 83/143/128 36/68/62 177/70/64
f 83/143/128 86/125/115 36/68/62
f 83/143/128 64/142/112 86/125/115
f 64/142/112 34/123/113 86/125/115
f 85/140/127 117/102/94 43/183/163
f 85/140/127 189/94/87 117/102/94
f 189/94/87 1/1/1 117/102/94
f 89/99/91 85/140/127 43/183/163
f 89/99/91 163/138/125 85/140/127
f 163/138/125 42/92/85 85/140/127
f 54/93/86 77/184/164 2/185/165
f 54/93/86 164/139/126 77/184/164
f 164/139/126 12/186/166 77/184/164
f 163/138/125 130/97/90 42/92/85
f 163/138/125 182/137/84 130/97/90
f 182/137/84 13/95/88 130/97/90
f 59/90/83 108/187/167 15/188/168
f 59/90/83 191/136/124 108/187/167
f 191/136/124 23/189/169 108/187/167
f 191/136/124 87/88/81 23/189/169
f 191/136/124 136/135/92 87/88/81
f 136/135/92 32/86/79 87/88/81
f 141/134/123 187/190/170 28/83/76
f 141/134/123 120/79/73 187/190/170
f 120/79/73 29/191/171 187/190/170
f 91/121/111 139/85/78 35/192/172
f 91/121/111 72/133/122 139/85/78
f 72/133/122 28/83/76 139/85/78
f 148/81/74 141/134/123 28/83/76
f 148/81/74 131/130/119 141/134/123
f 131/130/119 39/77/71 141/134/123
f 67/78/72 104/193/173 20/194/174
f 67/78/72 60/132/121 104/193/173
f 60/132/121 18/195/175 104/193/173
f 143/75/69 166/196/176 18/195/175
f 143/75/69 124/131/120 166/196/176
f 124/131/120 19/197/161 166/196/176
f 131/130/119 127/76/70 39/77/71
f 131/130/119 68/129/67 127/76/70
f 68/129/67 38/74/68 127/76/70
f 66/128/118 188/198/177 19/181/161
f 66/128/118 149/127/117 188/198/177
f 149/127/117 7/199/178 188/198/177
f 113/72/66 84/200/179 5/126/116
f 113/72/66 125/119/109 84/200/179
f 125/119/109 6/182/162 84/200/179
f 86/125/115 153/69/63 36/68/62
f 86/125/115 132/124/114 153/69/63
f 132/124/114 9/201/180 153/69/63
f 64/122/112 155/202/181 34/203/113
f 64/122/112 91/121/111 155/202/181
f 91/121/111 35/192/172 155/202/181
f 125/119/109 174/144/129 6/182/162
f 125/119/109 56/118/75 174/144/129
f 56/118/75 40/141/110 174/144/129
f 69/65/59 73/67/61 30/204/182
f 69/65/59 79/117/108 73/67/61
f 79/117/108 33/56/52 73/67/61
f 79/117/108 102/205/57 33/56/52
f 79/117/108 100/55/51 102/205/57
f 100/55/51 10/206/55 102/205/57
f 80/116/107 146/207/183 43/183/163
f 80/116/107 171/115/106 146/207/183
f 171/115/106 32/208/79 146/207/183
f 175/53/49 137/209/184 25/210/185
f 175/53/49 170/66/60 137/209/184
f 170/66/60 26/211/186 137/209/184
f 90/49/45 112/51/47 20/194/174
f 90/49/45 145/114/105 112/51/47
f 145/114/105 27/43/39 112/51/47
f 82/46/42 106/212/187 30/204/182
f 82/46/42 61/42/38 106/212/187
f 61/42/38 26/211/186 106/212/187
f 145/114/105 134/47/43 27/43/39
f 145/114/105 65/39/35 134/47/43
f 65/39/35 24/40/36 134/47/43
f 150/41/37 142/213/188 25/210/185
f 150/41/37 81/113/104 142/213/188
f 81/113/104 23/189/169 142/213/188
f 179/37/33 63/214/189 15/188/168
f 179/37/33 167/50/46 63/214/189
f 167/50/46 16/215/190 63/214/189
f 186/112/103 188/198/177 7/199/178
f 186/112/103 154/111/102 188/198/177
f 154/111/102 19/181/161 188/198/177
f 144/31/29 186/112/103 7/199/178
f 144/31/29 116/109/100 186/112/103
f 116/109/100 21/110/101 186/112/103
f 116/109/100 159/35/31 21/110/101
f 116/109/100 93/108/99 159/35/31
f 93/108/99 17/33/23 159/35/31
f 165/28/26 156/216/191 20/194/174
f 165/28/26 190/24/22 156/216/191
f 190/24/22 16/215/190 156/216/191
f 93/107/99 122/29/27 17/25/23
f 93/107/99 168/21/19 122/29/27
f 168/21/19 14/22/20 122/29/27
f 119/23/21 126/217/192 15/188/168
f 119/23/21 57/106/98 126/217/192
f 57/106/98 13/218/88 126/217/192
f 140/18/18 180/219/193 2/185/165
f 140/18/18 133/32/30 180/219/193
f 133/32/30 3/7/7 180/219/193
f 157/12/12 176/14/14 9/201/180
f 157/12/12 109/105/97 176/14/14
f 109/105/97 4/4/4 176/14/14
f 109/105/97 101/9/9 4/4/4
f 109/105/97 105/104/96 101/9/9
f 105/104/96 3/7/7 101/9/9
f 105/104/96 184/3/3 3/7/7
f 105/104/96 88/101/93 184/3/3
f 88/101/93 1/1/1 184/3/3
f 111/103/95 80/116/107 43/183/163
f 111/103/95 74/13/13 80/116/107
f 74/13/13 10/59/55 80/116/107
f 117/102/94 111/103/95 43/183/163
f 117/102/94 88/101/93 111/103/95
f 88/101/93 8/11/11 111/103/95
f 136/100/92 146/207/183 32/208/79
f 136/100/92 89/99/91 146/207/183
f 89/99/91 43/183/163 146/207/183
f 130/97/90 164/139/126 42/92/85
f 130/97/90 98/96/89 164/139/126
f 98/96/89 12/186/166 164/139/126
f 189/94/87 123/2/2 1/1/1
f 189/94/87 54/93/86 123/2/2
f 54/93/86 2/185/165 123/2/2
f 182/91/84 126/217/192 13/218/88
f 182/91/84 59/90/83 126/217/192
f 59/90/83 15/188/168 126/217/192
f 87/88/81 142/213/188 23/189/169
f 87/88/81 103/87/80 142/213/188
f 103/87/80 25/210/185 142/213/188
f 139/85/78 121/220/194 35/192/172
f 139/85/78 114/84/77 121/220/194
f 114/84/77 30/204/182 121/220/194
f 56/82/75 72/133/122 40/120/110
f 56/82/75 148/81/74 72/133/122
f 148/81/74 28/83/76 72/133/122
f 120/79/73 128/221/195 29/191/171
f 120/79/73 67/78/72 128/221/195
f 67/78/72 20/194/174 128/221/195
f 127/76/70 60/132/121 39/77/71
f 127/76/70 143/75/69 60/132/121
f 143/75/69 18/195/175 60/132/121
f 68/73/67 55/146/130 38/145/68
f 68/73/67 113/72/66 55/146/130
f 113/72/66 5/126/116 55/146/130
f 177/70/64 147/222/196 6/182/162
f 177/70/64 153/69/63 147/222/196
f 153/69/63 9/201/180 147/222/196
f 73/67/61 121/220/194 30/204/182
f 73/67/61 158/58/54 121/220/194
f 158/58/54 35/192/172 121/220/194
f 170/66/60 106/212/187 26/211/186
f 170/66/60 69/65/59 106/212/187
f 69/65/59 30/204/182 106/212/187
f 107/64/53 132/124/114 34/123/113
f 107/64/53 94/63/58 132/124/114
f 94/63/58 9/201/180 132/124/114
f 102/61/57 94/63/58 33/62/52
f 102/61/57 183/60/56 94/63/58
f 183/60/56 9/201/180 94/63/58
f 158/58/54 155/202/181 35/192/172
f 158/58/54 107/57/53 155/202/181
f 107/57/53 34/203/113 155/202/181
f 100/55/51 171/223/106 10/206/55
f 100/55/51 151/54/50 171/223/106
f 151/54/50 32/86/79 171/223/106
f 151/54/50 103/87/80 32/86/79
f 151/54/50 175/53/49 103/87/80
f 175/53/49 25/210/185 103/87/80
f 112/51/47 128/221/195 20/194/174
f 112/51/47 178/45/41 128/221/195
f 178/45/41 29/191/171 128/221/195
f 167/50/46 156/216/191 16/215/190
f 167/50/46 90/49/45 156/216/191
f 90/49/45 20/194/174 156/216/191
f 118/44/40 114/84/77 28/83/76
f 118/44/40 129/48/44 114/84/77
f 129/48/44 30/204/182 114/84/77
f 134/47/43 129/48/44 27/43/39
f 134/47/43 82/46/42 129/48/44
f 82/46/42 30/204/182 129/48/44
f 178/45/41 187/190/170 29/191/171
f 178/45/41 118/44/40 187/190/170
f 118/44/40 28/83/76 187/190/170
f 61/42/38 137/209/184 26/211/186
f 61/42/38 150/41/37 137/209/184
f 150/41/37 25/210/185 137/209/184
f 65/39/35 81/113/104 24/40/36
f 65/39/35 135/38/34 81/113/104
f 135/38/34 23/189/169 81/113/104
f 135/38/34 108/187/167 23/189/169
f 135/38/34 179/37/33 108/187/167
f 179/37/33 15/188/168 108/187/167
f 159/35/31 154/111/102 21/110/101
f 159/35/31 172/34/25 154/111/102
f 172/34/25 19/181/161 154/111/102
f 133/32/30 169/8/8 3/7/7
f 133/32/30 144/31/29 169/8/8
f 144/31/29 7/199/178 169/8/8
f 110/26/24 104/193/173 18/195/175
f 110/26/24 97/30/28 104/193/173
f 97/30/28 20/194/174 104/193/173
f 122/29/27 97/30/28 17/25/23
f 122/29/27 165/28/26 97/30/28
f 165/28/26 20/194/174 97/30/28
f 172/27/25 166/196/176 19/197/161
f 172/27/25 110/26/24 166/196/176
f 110/26/24 18/195/175 166/196/176
f 190/24/22 63/214/189 16/215/190
f 190/24/22 119/23/21 63/214/189
f 119/23/21 15/188/168 63/214/189
f 168/21/19 57/106/98 14/22/20
f 168/21/19 92/20/17 57/106/98
f 92/20/17 13/218/88 57/106/98
f 160/16/16 77/184/164 12/186/166
f 160/16/16 140/18/18 77/184/164
f 140/18/18 2/185/165 77/184/164
f 92/17/17 98/96/89 13/95/88
f 92/17/17 160/16/16 98/96/89
f 160/16/16 12/186/166 98/96/89
f 176/14/14 147/222/196 9/201/180
f 176/14/14 99/6/6 147/222/196
f 99/6/6 6/182/162 147/222/196
f 74/13/13 183/60/56 10/59/55
f 74/13/13 157/12/12 183/60/56
f 157/12/12 9/201/180 183/60/56
f 173/5/5 149/127/117 5/126/116
f 173/5/5 162/10/10 149/127/117
f 162/10/10 7/199/178 149/127/117
f 101/9/9 162/10/10 4/4/4
f 101/9/9 169/8/8 162/10/10
f 169/8/8 7/199/178 162/10/10
f 99/6/6 84/200/179 6/182/162
f 99/6/6 173/5/5 84/200/179
f 173/5/5 5/126/116 84/200/179
f 184/3/3 180/219/193 3/7/7
f 184/3/3 123/2/2 180/219/193
f 123/2/2 2/185/165 180/219/193
