# Blender v2.78 (sub 0) OBJ File: ''
# www.blender.org
mtllib Apple_Tree_m_01.mtl
o Apple_Tree_m_01
v 0.458676 3.123191 0.033901
v -0.072729 3.046365 0.624705
v -0.867769 2.582414 -0.255640
v -1.030897 2.951385 -1.076379
v 0.218774 3.091186 -0.814239
v 0.141367 3.414390 -1.453915
v 1.268405 3.768871 -0.188839
v 1.669081 4.560539 -0.514525
v 1.680435 4.596479 0.313379
v 1.211149 4.163489 -1.274626
v 0.965011 3.957344 1.080111
v -0.266146 3.363404 1.131295
v -0.768653 4.403738 -2.162359
v -1.513368 3.404204 -1.654333
v -2.144092 3.971914 -2.024304
v -0.216789 3.847715 -1.839184
v -1.349608 5.121405 -2.243296
v -2.973601 4.720111 -1.653845
v -1.823928 5.547643 -1.995766
v 0.278914 5.406545 -2.040954
v 0.703162 6.113854 -1.530685
v 1.274339 5.361186 -1.479993
v -0.859830 6.346467 -1.491048
v 0.864245 4.615718 -1.914869
v -2.674427 6.001015 -0.851185
v -3.344877 4.667686 -0.559556
v -2.565061 5.950926 0.100707
v -2.888394 4.489568 0.616597
v -2.337862 5.808106 0.792856
v -1.248512 6.982437 -0.214955
v 0.179512 6.715341 0.387803
v -0.204811 6.910196 -0.533143
v -1.072301 6.256584 1.092519
v -2.214765 5.766663 -1.507287
v -1.619921 4.607187 1.546584
v -2.335328 3.583369 0.854877
v -0.799300 3.847018 1.431514
v -1.730958 2.947165 0.322032
v 0.159793 5.161338 1.724422
v 1.120392 5.342293 1.358297
v 0.515614 6.123871 1.297403
v -2.194119 5.416263 1.330591
v 1.398787 5.900068 0.810535
v 1.725011 5.912839 -0.008049
v 1.646508 5.612932 -0.861457
v 0.821639 6.744584 -0.537745
v -2.957347 3.654695 0.118093
v -3.027668 3.563990 -0.706987
v -2.687820 3.606779 -1.477641
v -2.026619 2.912677 -0.765687
v 0.120260 0.041693 0.184158
v 0.150383 0.464439 0.185522
v -0.027937 0.450906 0.186715
v -0.107225 0.040161 0.184937
v -0.177522 0.039688 -0.031455
v -0.083041 0.446725 0.016686
v 0.061223 0.457672 -0.089639
v 0.006518 0.040927 -0.166085
v 0.190557 0.042166 -0.032768
v 0.205486 0.468620 0.014738
v 0.127977 1.219770 0.103233
v 0.084209 1.215211 0.240284
v -0.057425 1.200460 0.240675
v -0.100396 1.190446 0.104152
v 0.013392 1.207836 0.019009
v -0.067439 2.147905 0.100299
v -0.102844 2.143872 0.210424
v -0.243793 2.143840 0.204062
v -0.282173 2.015806 0.099224
v -0.188199 2.149286 0.031980
v -0.034252 3.071534 0.083892
v 0.012811 3.068136 0.118376
v -0.005165 3.069434 0.174156
v -0.063338 3.073634 0.174014
v -0.268879 2.309027 0.097690
v -0.079516 3.086767 0.118175
v -0.555466 2.480305 0.070215
v -0.582927 2.425132 0.131426
v -0.549588 2.411481 0.026897
v -0.613053 2.392832 0.066063
v -1.198648 2.718205 -0.141696
v -1.157903 2.721211 -0.165909
v -1.151318 2.763431 -0.137628
v -1.176484 2.734898 -0.101426
v 0.061223 0.457672 0.199259
v 0.374056 4.242122 -1.908978
v -2.627974 5.355238 -1.580711
v 1.465372 5.465583 -1.206279
v -0.650959 6.981825 -0.423174
v -3.113820 5.364294 -0.740764
v -0.601942 2.406199 0.102729
v -0.034252 3.071534 0.179423
v 0.555116 3.995990 -1.643939
v -0.869893 2.635228 -0.037028
v -0.567926 2.456786 0.105206
v 0.175259 0.827015 0.061326
v -2.484684 3.177546 -0.218919
v -0.892698 3.153503 0.828430
v -0.033451 2.652925 0.108914
v 1.338432 6.242207 -0.688521
v -0.243134 2.043336 0.057275
v -1.718602 5.793822 1.284561
v -0.689541 3.370440 -1.505458
v -1.968820 5.069808 1.427166
v -0.891560 3.611168 -1.770249
v -0.080480 1.660027 0.027751
v -1.540974 2.862908 -0.907922
v -0.154326 3.216120 0.907229
v 1.259730 3.895297 -0.742711
v -0.049657 1.198495 0.052974
v -0.099695 0.040308 -0.118285
v 1.110917 4.793758 1.287778
v -1.172648 3.874699 -1.959418
v -0.925802 2.571985 -0.041578
v 0.190378 0.467568 0.104100
v -1.303518 3.346448 0.944171
v -0.008106 3.606042 -1.620386
v 0.054783 6.275049 -1.538600
v -2.973479 5.358207 -1.235144
v 1.780325 5.250510 0.165160
v -1.021320 5.730873 -1.984751
v 0.770674 3.569157 -1.041641
v -1.414623 5.895778 -1.840616
v -0.180609 1.617653 0.105791
v 0.180211 3.260299 -1.185276
v 0.485424 5.821827 -1.800257
v -0.080760 0.803202 0.062737
v 0.006518 0.040927 0.208721
v -1.645301 5.391579 -2.109127
v 1.044512 6.406772 0.207437
v -0.070165 0.213644 0.186769
v 0.229801 6.865657 -0.529047
v -2.652002 5.249164 0.709889
v 0.221982 3.071042 0.362917
v -2.522072 4.970757 1.064260
v -2.673185 6.027968 -0.379467
v -0.833216 2.917603 0.493996
v -1.168552 6.720419 0.430324
v 0.008860 3.068155 0.147920
v -2.673801 3.556422 0.487456
v -0.548575 2.448676 0.044571
v 1.266979 5.581853 1.132291
v -2.415332 3.254294 -1.142319
v -1.162237 2.752319 -0.115796
v -1.191200 2.724969 -0.118294
v -0.275260 2.040186 0.156725
v 0.034607 0.217312 -0.137050
v -2.481712 3.269751 0.194053
v -3.265074 4.696784 -1.098531
v 1.425038 4.314304 0.672486
v -0.160766 6.235055 1.238649
v 1.200999 3.793545 0.432993
v 0.116051 1.218536 0.175023
v -2.553700 3.181055 -0.704744
v 0.124827 3.924055 1.385790
v -1.503459 4.160114 -2.122161
v 0.023691 1.674682 0.104469
v 0.349293 5.732749 1.547629
v 0.777163 3.450181 0.522936
v -1.199758 4.216030 1.553010
v -0.454985 6.754501 -0.928377
v 0.316465 6.440570 0.911447
v 0.873001 5.417767 -1.780492
v 0.804083 3.421872 -0.544059
v -3.226029 4.093583 -0.208371
v -2.336794 4.453510 1.142102
v 0.870550 3.417457 -0.043163
v -3.012795 4.002142 0.324355
v -0.540543 5.309422 -2.168542
v 1.699668 4.557293 -0.106501
v -0.165338 0.039925 0.084288
v -2.478084 3.783012 -1.776623
v -0.202851 4.910465 -2.163874
v 0.105950 4.534610 -2.075693
v -0.447526 2.940278 -0.935436
v -0.163754 2.700377 0.108242
v -0.144830 2.652094 0.190597
v 1.320175 6.403581 -0.229589
v -2.855272 5.209609 0.298091
v -0.151184 2.812119 -0.116098
v 0.047249 0.815109 -0.031967
v 1.357301 4.840559 -1.385387
v 1.219583 5.960008 -1.183722
v -1.955252 2.858821 -0.265294
v -0.405893 2.273066 0.173898
v -0.059998 3.079540 0.096712
v -2.015025 5.656450 -1.758960
v -0.430219 2.221794 0.090958
v 1.558797 5.959486 0.408705
v -1.693573 6.057671 -1.513204
v -0.582591 2.398089 0.042095
v -2.435404 5.867843 -1.249250
v -0.057405 6.900641 -0.121971
v 0.076839 1.214449 0.052477
v 0.112731 0.041547 -0.119036
v -0.108630 2.143270 0.059199
v -1.294129 3.152105 -1.356860
v 0.280695 3.568124 1.175462
v -0.007607 3.069446 0.096818
v 0.013392 1.207836 0.251141
v 1.516661 4.369394 -0.859359
v 0.126364 0.822467 0.213657
v -3.003159 3.593377 -0.265339
v -0.472581 4.110228 -2.024348
v -0.160132 2.137346 0.218938
v -1.498647 2.679518 -0.472314
v -2.079255 3.261177 0.631977
v 0.609688 3.697853 -1.413988
v -0.016250 1.670126 0.229238
v -3.277140 4.093622 -0.691355
v -1.150977 2.743904 -0.155035
v 0.759163 5.231100 1.553693
v -1.828164 6.300357 -1.129530
v -0.255005 5.875620 -1.866771
v -2.264142 5.626323 1.067914
v -3.154192 4.107037 -1.192235
v 1.786776 5.197318 -0.271461
v -2.657465 3.952076 0.766364
v -2.020494 4.026529 1.225685
v -0.395419 3.191439 -1.301648
v 1.517214 4.142948 -0.393846
v -0.067932 0.447777 0.105855
v -2.349023 5.193345 -1.908122
v -0.395100 2.350576 0.091786
v -1.840889 6.272390 0.556497
v -1.019010 2.708062 -0.674461
v -2.423743 5.854356 0.516981
v 0.581112 6.776303 -0.073930
v -1.298518 2.687921 0.020925
v -0.267893 2.271250 0.152745
v -0.237474 2.273980 0.058692
v -0.134917 0.211376 -0.012672
v -1.848533 6.072227 0.930190
v -3.045330 5.315202 -0.237955
v 0.070867 6.647864 -1.034250
v 0.139378 0.220981 0.185744
v -0.575890 6.930902 0.140251
v 1.735798 5.793212 -0.437129
v -0.440670 6.609386 0.749766
v -0.361553 2.268760 0.036382
v 0.965698 6.121007 1.056909
v 0.742364 6.445959 -1.080032
v -0.102030 2.654108 0.058164
v 0.204131 0.223248 -0.014371
v 0.141045 0.463788 -0.048140
v -0.873185 2.579360 -0.072143
v -0.898472 2.594335 0.010652
v -0.059903 2.651682 0.191076
v -1.043128 4.754183 -2.250040
v -2.904232 3.591038 -1.136147
v 0.593262 4.541656 1.504438
v -0.270601 4.462283 1.643369
v -1.853690 3.677489 -1.875128
v 0.474852 3.393228 0.864671
v -0.088869 1.194408 0.175739
v 0.178374 0.041929 0.083099
v 1.341345 4.955685 0.970721
v -0.417814 5.720110 1.510620
v 1.139000 4.968728 -1.703878
v -1.818412 4.515220 -2.168635
v -0.735288 4.919931 1.684446
v -0.481752 3.546569 1.253388
v -1.179940 2.716554 -0.157534
v 0.889167 5.744163 1.365981
v -1.142209 6.755501 -0.852729
v 1.040403 5.749903 -1.524282
v 1.546503 4.897984 -1.067111
v 1.606228 5.222174 0.581827
v -1.641641 3.663652 1.155201
v -0.076800 2.146931 0.158126
v 1.514481 4.129834 0.120271
v -0.145106 1.652655 0.229133
v -2.146926 3.442507 -1.561660
v -1.278372 5.439561 1.456990
v 0.631071 4.995188 -1.996871
v -0.031865 0.807750 0.214524
v -2.579050 4.298859 -1.908015
v -2.924841 4.058330 -1.578641
v 1.710156 5.057810 -0.693526
v -0.347510 2.776581 -0.544432
v 0.332418 3.060151 -0.385250
v 0.891519 6.368938 0.634387
v -0.076465 3.080831 0.147739
v -1.988024 6.560400 -0.560874
v -1.824364 3.115513 -1.225948
v -1.949914 6.539297 -0.022612
v -2.201921 4.881978 -2.048645
v -0.496023 2.772929 0.204141
v -0.018599 0.451556 -0.047050
v 1.067978 4.415512 -1.647475
v -3.176903 4.564901 0.018137
v -0.915476 2.581175 -0.012245
v -0.882924 2.617998 -0.009596
v -0.375059 2.314787 0.058464
v -0.421324 2.242311 0.138049
v -0.868200 2.609279 -0.057803
v -0.395507 2.239804 0.057981
v -0.160015 2.678169 0.151358
v -0.900753 2.572456 -0.060452
v -0.023678 0.808512 0.005795
v -0.400876 2.317294 0.138531
v -0.040618 2.652589 0.151997
v -0.136300 2.679285 0.077996
v -0.102704 2.649669 0.197277
v -0.064333 2.651474 0.078365
v -0.136000 1.636831 0.058947
v -0.080877 1.662755 0.238889
v -0.022939 1.669364 0.058166
v -0.171808 1.632746 0.170512
v 0.012870 1.673448 0.169868
v 0.047250 0.815108 0.225991
v 0.118177 0.821706 0.005013
v -0.067513 0.804434 0.142370
v 0.162012 0.825783 0.141108
v 0.128536 0.220601 -0.088409
v -0.117374 0.211991 0.091956
v 0.186588 0.222634 0.090448
v -0.059323 0.214023 -0.087466
v 0.034607 0.217312 0.201892
vt 0.4646 0.1872
vt 0.4668 0.1859
vt 0.4673 0.1894
vt 0.4700 0.1916
vt 0.4690 0.1940
vt 0.4666 0.1919
vt 0.4632 0.1921
vt 0.4656 0.1943
vt 0.4619 0.1937
vt 0.4595 0.1859
vt 0.4570 0.1859
vt 0.4586 0.1832
vt 0.4592 0.1919
vt 0.4614 0.1890
vt 0.4574 0.1887
vt 0.4647 0.1829
vt 0.4691 0.1846
vt 0.4670 0.1815
vt 0.4706 0.1827
vt 0.4622 0.1822
vt 0.4564 0.2072
vt 0.4615 0.2045
vt 0.4623 0.2085
vt 0.4588 0.1997
vt 0.4634 0.1980
vt 0.4627 0.2007
vt 0.4246 0.1669
vt 0.4302 0.1693
vt 0.4244 0.1708
vt 0.4242 0.1748
vt 0.4281 0.1784
vt 0.4243 0.1773
vt 0.4127 0.1732
vt 0.4123 0.1769
vt 0.4083 0.1752
vt 0.4216 0.1789
vt 0.4184 0.1740
vt 0.4158 0.1781
vt 0.4543 0.2014
vt 0.4576 0.2034
vt 0.4570 0.1956
vt 0.4597 0.1975
vt 0.4447 0.2012
vt 0.4448 0.1966
vt 0.4485 0.1984
vt 0.4266 0.1883
vt 0.4293 0.1851
vt 0.4300 0.1886
vt 0.4267 0.1905
vt 0.4268 0.1928
vt 0.4309 0.1952
vt 0.4269 0.1948
vt 0.4205 0.1911
vt 0.4179 0.1929
vt 0.4183 0.1900
vt 0.4240 0.1960
vt 0.4237 0.1919
vt 0.4209 0.1952
vt 0.4227 0.1857
vt 0.4260 0.1860
vt 0.4254 0.1838
vt 0.4222 0.1834
vt 0.4248 0.1819
vt 0.4197 0.1871
vt 0.4297 0.2071
vt 0.4323 0.2024
vt 0.4353 0.2063
vt 0.4302 0.2113
vt 0.4770 0.1766
vt 0.4767 0.1834
vt 0.4745 0.1787
vt 0.4178 0.2109
vt 0.4134 0.2105
vt 0.4160 0.2069
vt 0.4710 0.1775
vt 0.4727 0.1717
vt 0.4684 0.1669
vt 0.4667 0.1727
vt 0.4649 0.1686
vt 0.4254 0.2032
vt 0.4288 0.2040
vt 0.4280 0.2008
vt 0.4246 0.2000
vt 0.4275 0.1988
vt 0.4195 0.2050
vt 0.4540 0.1693
vt 0.4595 0.1739
vt 0.4558 0.1749
vt 0.4480 0.1765
vt 0.4513 0.1812
vt 0.4464 0.1808
vt 0.4447 0.1851
vt 0.4499 0.1883
vt 0.4448 0.1885
vt 0.4008 0.1846
vt 0.4064 0.1826
vt 0.4061 0.1867
vt 0.4115 0.1888
vt 0.4152 0.1860
vt 0.4138 0.1889
vt 0.4008 0.1943
vt 0.4080 0.1945
vt 0.4032 0.1981
vt 0.4152 0.1947
vt 0.4182 0.1970
vt 0.4147 0.1988
vt 0.4428 0.1956
vt 0.4389 0.1966
vt 0.4381 0.1922
vt 0.4433 0.1862
vt 0.4377 0.1840
vt 0.4419 0.1819
vt 0.4405 0.1776
vt 0.4363 0.1797
vt 0.4382 0.1747
vt 0.4734 0.1975
vt 0.4707 0.1970
vt 0.4717 0.1946
vt 0.4756 0.2084
vt 0.4711 0.2051
vt 0.4745 0.2030
vt 0.4833 0.2033
vt 0.4798 0.1968
vt 0.4852 0.1995
vt 0.4696 0.1881
vt 0.4732 0.1909
vt 0.4728 0.1874
vt 0.4639 0.1896
vt 0.4621 0.1865
vt 0.4301 0.1733
vt 0.4187 0.1700
vt 0.4506 0.2042
vt 0.4556 0.1977
vt 0.4523 0.1956
vt 0.4487 0.1938
vt 0.4538 0.1936
vt 0.4287 0.1829
vt 0.4301 0.1908
vt 0.4236 0.1897
vt 0.4315 0.1992
vt 0.4809 0.1818
vt 0.4237 0.2090
vt 0.4510 0.1729
vt 0.4528 0.1785
vt 0.4056 0.2019
vt 0.4099 0.2024
vt 0.4073 0.2060
vt 0.4577 0.1698
vt 0.4496 0.1855
vt 0.4008 0.1894
vt 0.4061 0.1916
vt 0.4023 0.1810
vt 0.4117 0.1847
vt 0.4104 0.1983
vt 0.4133 0.1918
vt 0.4430 0.1909
vt 0.4384 0.1875
vt 0.4419 0.2006
vt 0.4794 0.2059
vt 0.4783 0.2004
vt 0.4719 0.2091
vt 0.4700 0.1997
vt 0.4871 0.1956
vt 0.4818 0.1929
vt 0.4859 0.1913
vt 0.4749 0.1939
vt 0.3161 0.7810
vt 0.3167 0.7846
vt 0.3151 0.7846
vt 0.3143 0.7810
vt 0.3270 0.7814
vt 0.3260 0.7846
vt 0.3245 0.7845
vt 0.3252 0.7811
vt 0.3198 0.7811
vt 0.3198 0.7846
vt 0.3183 0.7846
vt 0.3179 0.7810
vt 0.3124 0.7814
vt 0.3135 0.7849
vt 0.3119 0.7851
vt 0.3106 0.7818
vt 0.3234 0.7811
vt 0.3230 0.7846
vt 0.3214 0.7846
vt 0.3216 0.7811
vt 0.3199 0.7906
vt 0.3185 0.7907
vt 0.3143 0.7909
vt 0.3128 0.7910
vt 0.3227 0.7905
vt 0.3212 0.7905
vt 0.3171 0.7907
vt 0.3175 0.7968
vt 0.3163 0.7969
vt 0.3157 0.7908
vt 0.3201 0.8045
vt 0.3212 0.8044
vt 0.3213 0.8123
vt 0.3202 0.8124
vt 0.3154 0.8044
vt 0.3166 0.8046
vt 0.3169 0.8124
vt 0.3158 0.8118
vt 0.3224 0.8044
vt 0.3235 0.8043
vt 0.3235 0.8121
vt 0.3224 0.8122
vt 0.3178 0.8046
vt 0.3189 0.8045
vt 0.3191 0.8124
vt 0.3180 0.8124
vt 0.3247 0.8041
vt 0.3259 0.8040
vt 0.3257 0.8111
vt 0.3246 0.8116
vt 0.3224 0.8211
vt 0.3232 0.8210
vt 0.3230 0.8299
vt 0.3225 0.8300
vt 0.3193 0.8212
vt 0.3201 0.8212
vt 0.3210 0.8301
vt 0.3205 0.8301
vt 0.3240 0.8214
vt 0.3248 0.8218
vt 0.3240 0.8298
vt 0.3235 0.8299
vt 0.3209 0.8212
vt 0.3216 0.8212
vt 0.3220 0.8301
vt 0.3215 0.8301
vt 0.3317 0.8005
vt 0.3327 0.8009
vt 0.3327 0.8038
vt 0.3320 0.8037
vt 0.3254 0.7907
vt 0.3248 0.7967
vt 0.3236 0.7965
vt 0.3241 0.7905
vt 0.3347 0.8098
vt 0.3352 0.8102
vt 0.3351 0.8166
vt 0.3347 0.8163
vt 0.3178 0.8219
vt 0.3185 0.8212
vt 0.3200 0.8301
vt 0.3195 0.8302
vt 0.3349 0.7996
vt 0.3357 0.8000
vt 0.3353 0.8038
vt 0.3347 0.8033
vt 0.3336 0.8098
vt 0.3343 0.8095
vt 0.3344 0.8161
vt 0.3339 0.8163
vt 0.3297 0.8002
vt 0.3307 0.8001
vt 0.3312 0.8035
vt 0.3306 0.8038
vt 0.3334 0.8001
vt 0.3340 0.7994
vt 0.3341 0.8029
vt 0.3334 0.8033
vt 0.3324 0.8100
vt 0.3331 0.8102
vt 0.3334 0.8165
vt 0.3329 0.8164
vt 0.3313 0.8102
vt 0.3318 0.8099
vt 0.3323 0.8163
vt 0.3320 0.8166
vt 0.3307 0.8104
vt 0.3316 0.8168
vt 0.3299 0.8041
vt 0.3327 0.7981
vt 0.3333 0.7969
vt 0.3339 0.7958
vt 0.3288 0.8003
vt 0.3276 0.7966
vt 0.3289 0.7966
vt 0.3302 0.7966
vt 0.3350 0.7959
vt 0.3362 0.7961
vt 0.3171 0.8225
vt 0.3190 0.8302
vt 0.3151 0.8147
vt 0.3160 0.8135
vt 0.3275 0.7848
vt 0.3268 0.7908
vt 0.3261 0.7968
vt 0.3314 0.7973
vt 0.3245 0.8130
vt 0.3255 0.8138
vt 0.3187 0.7967
vt 0.3211 0.7965
vt 0.3223 0.7965
vt 0.3142 0.8041
vt 0.3147 0.8112
vt 0.3138 0.7970
vt 0.3151 0.7969
vt 0.3199 0.7966
vt 0.3239 0.7776
vt 0.3218 0.7776
vt 0.3260 0.7777
vt 0.3114 0.7780
vt 0.3093 0.7786
vt 0.3135 0.7775
vt 0.3196 0.7775
vt 0.3175 0.7775
vt 0.3281 0.7781
vt 0.3302 0.7784
vt 0.3288 0.7816
vt 0.3155 0.7775
vt 0.4764 0.1902
vt 0.4806 0.1886
vt 0.4848 0.1870
vt 0.4674 0.1991
vt 0.4680 0.1964
vt 0.4667 0.2018
vt 0.4674 0.2058
vt 0.4682 0.2098
vt 0.4327 0.1854
vt 0.4320 0.1819
vt 0.4334 0.1889
vt 0.4380 0.2016
vt 0.4350 0.1976
vt 0.4409 0.2055
vt 0.4157 0.1918
vt 0.4161 0.1889
vt 0.4142 0.2029
vt 0.4154 0.1819
vt 0.4189 0.1831
vt 0.4119 0.1806
vt 0.4079 0.1790
vt 0.4038 0.1773
vt 0.4548 0.1887
vt 0.4552 0.1916
vt 0.4545 0.1859
vt 0.4560 0.1832
vt 0.4576 0.1805
vt 0.4632 0.1744
vt 0.4649 0.1785
vt 0.4615 0.1703
vt 0.4116 0.2065
vt 0.4090 0.2101
vt 0.4212 0.1992
vt 0.4685 0.1797
vt 0.4720 0.1808
vt 0.4243 0.2131
vt 0.4307 0.2154
vt 0.4309 0.1972
vt 0.4269 0.1968
vt 0.4241 0.1980
vt 0.4342 0.1933
vt 0.4281 0.1809
vt 0.4243 0.1799
vt 0.4501 0.1918
vt 0.4450 0.1920
vt 0.4216 0.1815
vt 0.4340 0.1768
vt 0.4359 0.1718
vt 0.4643 0.1958
vt 0.4606 0.1953
vt 0.4579 0.1935
vt 0.4742 0.1855
vt 0.4177 0.2011
vt 0.4175 0.1860
vt 0.4613 0.1795
vt 0.4358 0.2104
vn 0.5178 -0.8511 0.0871
vn 0.4114 -0.8745 0.2567
vn 0.3627 -0.9297 0.0637
vn 0.0721 -0.9973 0.0118
vn 0.0329 -0.9160 -0.3999
vn 0.2896 -0.9214 -0.2591
vn 0.4278 -0.8466 -0.3165
vn 0.1868 -0.8557 -0.4826
vn 0.3652 -0.8049 -0.4677
vn 0.7382 -0.6738 -0.0320
vn 0.8670 -0.4849 -0.1151
vn 0.8624 -0.4896 0.1284
vn 0.5865 -0.7160 -0.3785
vn 0.6106 -0.7711 -0.1805
vn 0.7351 -0.6237 -0.2658
vn 0.5877 -0.7583 0.2821
vn 0.2303 -0.8702 0.4355
vn 0.4372 -0.7578 0.4844
vn 0.1445 -0.8094 0.5691
vn 0.7266 -0.6340 0.2647
vn 0.0847 -0.2674 -0.9598
vn 0.0607 -0.4895 -0.8699
vn -0.0042 -0.3253 -0.9456
vn 0.1753 -0.5350 -0.8265
vn 0.0942 -0.6959 -0.7119
vn 0.0960 -0.6141 -0.7834
vn 0.0338 -0.0780 -0.9964
vn -0.0841 0.1783 -0.9804
vn -0.3571 0.1175 -0.9267
vn -0.1899 0.3470 -0.9184
vn 0.2177 0.2724 -0.9372
vn 0.2718 0.4649 -0.8426
vn 0.4907 0.2716 -0.8279
vn -0.0175 0.5150 -0.8570
vn 0.0745 0.2637 -0.9617
vn 0.0596 0.5382 -0.8407
vn 0.1843 -0.2115 -0.9598
vn 0.1188 -0.4103 -0.9042
vn 0.4052 -0.5296 -0.7453
vn 0.2011 -0.5655 -0.7998
vn 0.3378 0.0800 -0.9378
vn -0.6626 0.6917 -0.2872
vn -0.7638 0.4650 -0.4477
vn -0.9008 0.4309 -0.0533
vn -0.7464 0.6553 0.1165
vn -0.7288 0.5951 0.3388
vn -0.8578 0.3308 0.3933
vn -0.7085 0.6051 0.3631
vn -0.2654 0.9637 0.0293
vn 0.0290 0.9549 0.2956
vn 0.0178 0.9840 -0.1771
vn -0.4686 0.7633 0.4447
vn -0.5396 0.7974 0.2701
vn -0.2632 0.8348 0.4836
vn -0.3541 0.7657 -0.5370
vn -0.4835 0.6623 -0.5724
vn -0.4362 0.6455 -0.6269
vn -0.3235 0.7295 -0.6027
vn -0.4307 0.6349 -0.6414
vn -0.1984 0.8573 -0.4750
vn -0.2795 -0.0782 0.9569
vn -0.5705 -0.1502 0.8074
vn -0.3983 -0.3267 0.8571
vn -0.1493 -0.2994 0.9424
vn -0.0541 -0.4737 0.8790
vn -0.1573 -0.6994 0.6972
vn -0.0240 -0.5571 0.8301
vn 0.0978 0.0599 0.9934
vn 0.3709 0.0357 0.9280
vn 0.1222 0.3762 0.9185
vn 0.1887 -0.3989 0.8974
vn 0.0584 -0.2439 0.9681
vn 0.3314 -0.2686 0.9045
vn -0.1520 0.2937 0.9437
vn -0.3303 0.0445 0.9428
vn -0.5092 0.2887 0.8108
vn -0.2464 0.5018 0.8291
vn -0.6511 0.5072 0.5647
vn -0.1150 0.3890 0.9141
vn 0.7614 0.4354 0.4804
vn 0.8354 -0.0994 0.5407
vn 0.8816 0.0207 0.4716
vn 0.8946 0.4292 0.1242
vn 0.9972 -0.0313 -0.0675
vn 0.9283 0.3222 -0.1854
vn 0.8815 0.2412 -0.4059
vn 0.8915 -0.1184 -0.4373
vn 0.8069 0.1938 -0.5579
vn 0.6541 0.5214 -0.5480
vn 0.6923 0.6266 -0.3580
vn 0.4121 0.8902 -0.1943
vn 0.1256 0.8429 -0.5231
vn 0.1580 0.9662 -0.2037
vn 0.5061 0.8102 0.2957
vn 0.7952 0.5141 0.3214
vn 0.2101 0.9073 0.3642
vn -0.0100 0.8430 0.5378
vn 0.1832 0.8472 0.4987
vn -0.7836 -0.5439 0.3002
vn -0.8574 -0.2299 0.4605
vn -0.9485 -0.2309 0.2169
vn -0.7851 -0.6139 -0.0813
vn -0.8925 -0.2696 -0.3615
vn -0.7088 -0.6158 -0.3442
vn -0.5328 -0.6408 -0.5527
vn -0.7272 -0.2987 -0.6181
vn -0.4109 -0.5159 -0.7517
vn -0.3517 -0.8983 -0.2634
vn -0.1269 -0.8739 -0.4693
vn -0.2188 -0.9676 -0.1256
vn -0.2346 -0.7450 -0.6245
vn -0.4073 -0.8106 -0.4208
vn -0.5479 -0.8235 0.1470
vn -0.7823 -0.6085 0.1332
vn 0.1620 -0.9252 0.3432
vn -0.1718 -0.9324 0.3180
vn -0.0349 -0.8531 0.5206
vn 0.4984 -0.8599 -0.1100
vn 0.6263 -0.7790 0.0297
vn -0.1817 -0.0755 -0.9805
vn 0.1362 -0.0174 -0.9905
vn 0.2867 -0.4573 -0.8418
vn 0.4734 -0.2179 -0.8535
vn 0.6899 0.0351 -0.7231
vn 0.6511 -0.3976 -0.6465
vn -0.5622 0.5093 -0.6515
vn -0.8819 0.3854 0.2714
vn -0.4921 0.8456 -0.2070
vn -0.7325 0.0758 0.6766
vn -0.2151 -0.5644 0.7970
vn -0.1107 0.0610 0.9920
vn 0.9785 0.0200 0.2051
vn 0.4847 0.6685 0.5640
vn 0.7840 0.1930 0.5900
vn 0.9610 -0.0716 -0.2670
vn 0.6631 0.7447 0.0748
vn 0.3801 0.7561 -0.5327
vn 0.4329 0.8397 0.3280
vn 0.3197 0.9172 0.2377
vn -0.9595 -0.2735 -0.0683
vn -0.6470 -0.5900 0.4830
vn -0.5525 -0.8267 -0.1063
vn -0.1798 -0.8163 -0.5489
vn -0.5212 -0.8052 0.2830
vn -0.4219 -0.8964 0.1357
vn 0.0086 0.0135 0.9999
vn 0.0156 -0.0330 0.9993
vn -0.5720 0.0154 0.8201
vn -0.5778 0.1203 0.8073
vn -0.5767 0.2419 -0.7803
vn -0.5863 0.1722 -0.7916
vn 0.0090 0.1749 -0.9845
vn 0.0008 0.1875 -0.9823
vn 0.9506 -0.0534 0.3058
vn 0.9527 0.0064 0.3038
vn 0.6090 -0.0245 0.7928
vn 0.5947 -0.0380 0.8031
vn -0.9315 0.2018 0.3028
vn -0.9486 0.0755 0.3074
vn -0.9395 0.1507 -0.3076
vn -0.9188 0.2613 -0.2957
vn 0.5851 0.0849 -0.8065
vn 0.5800 0.1288 -0.8044
vn 0.9486 0.0751 -0.3074
vn 0.9504 0.0068 -0.3110
vn 0.9496 0.0641 0.3069
vn 0.5969 -0.0062 0.8023
vn -0.9495 -0.0545 0.3090
vn -0.9531 0.0149 -0.3023
vn 0.5743 0.1567 -0.8035
vn 0.9438 0.1315 -0.3033
vn 0.0134 -0.0683 0.9976
vn 0.0096 -0.0172 0.9998
vn -0.5618 -0.0902 0.8224
vn -0.5758 -0.0815 0.8135
vn 0.9307 0.1995 0.3064
vn 0.9311 0.1958 -0.3078
vn 0.9443 0.0582 -0.3239
vn 0.9486 0.0600 0.3108
vn -0.9139 -0.1871 0.3602
vn -0.5382 -0.0801 0.8390
vn -0.3608 -0.0313 0.9321
vn -0.8005 -0.3131 0.5110
vn 0.5616 0.1213 -0.8185
vn 0.0042 0.0075 -1.0000
vn 0.0581 -0.0063 -0.9983
vn 0.5385 0.0455 -0.8414
vn -0.0091 0.0332 0.9994
vn 0.5699 0.1407 0.8096
vn 0.5569 0.0610 0.8284
vn -0.0251 0.0405 0.9989
vn -0.5566 -0.1204 -0.8220
vn -0.9313 -0.2028 -0.3025
vn -0.8754 -0.3806 -0.2980
vn -0.4486 -0.2066 -0.8696
vn 0.5702 -0.0316 -0.8209
vn 0.0313 0.0560 -0.9979
vn 0.0123 0.0582 -0.9982
vn 0.5976 -0.0443 -0.8006
vn -0.0088 0.0442 0.9990
vn 0.5828 -0.0312 0.8120
vn 0.6016 -0.0483 0.7973
vn 0.0063 0.0426 0.9991
vn -0.5334 0.1546 -0.8316
vn -0.9248 0.2263 -0.3057
vn -0.9274 0.2079 -0.3110
vn -0.5708 0.1479 -0.8076
vn 0.9482 -0.0865 0.3055
vn 0.9475 -0.0796 -0.3098
vn 0.9491 -0.1003 -0.2987
vn 0.9469 -0.1083 0.3028
vn 0.2799 0.6360 0.7192
vn 0.5053 0.8618 0.0437
vn 0.5173 0.8551 0.0356
vn 0.2532 0.6760 0.6921
vn -0.5974 0.0836 -0.7975
vn -0.5928 -0.0234 -0.8050
vn 0.0053 0.0764 -0.9971
vn -0.0102 0.1442 -0.9895
vn -0.2147 -0.7749 -0.5945
vn -0.4787 -0.8780 0.0011
vn -0.4776 -0.8781 0.0290
vn -0.2641 -0.8327 -0.4866
vn -0.9063 0.2124 0.3653
vn -0.5162 0.1329 0.8461
vn -0.5805 0.1426 0.8017
vn -0.9312 0.1976 0.3062
vn -0.3540 -0.3861 -0.8518
vn -0.7251 -0.6547 -0.2135
vn -0.5598 -0.8261 -0.0652
vn -0.2758 -0.6193 -0.7351
vn 0.4747 0.4619 -0.7492
vn 0.1979 -0.2031 -0.9589
vn 0.1370 -0.3425 -0.9295
vn 0.4728 0.4507 -0.7572
vn -0.6302 -0.5024 0.5920
vn -0.2109 0.0468 0.9764
vn -0.2138 0.1048 0.9712
vn -0.5846 -0.5809 0.5664
vn 0.3423 0.5846 -0.7356
vn -0.0086 0.0375 -0.9993
vn 0.1411 -0.0167 -0.9898
vn 0.5002 0.5315 -0.6836
vn 0.1055 0.7250 0.6806
vn 0.4406 0.8965 -0.0453
vn 0.4331 0.8996 -0.0552
vn 0.0982 0.7377 0.6680
vn -0.5475 -0.6157 0.5667
vn -0.3208 0.0929 0.9426
vn -0.3781 -0.0144 0.9257
vn -0.5452 -0.6645 0.5111
vn -0.4794 0.8349 -0.2703
vn -0.1585 0.3090 -0.9378
vn -0.4071 0.4781 0.7782
vn -0.9501 -0.0947 -0.2971
vn 0.5896 0.0788 0.8038
vn 0.9405 0.1784 -0.2890
vn 0.5803 0.1478 -0.8009
vn -0.9405 -0.1262 0.3155
vn 0.9395 0.1489 0.3086
vn 0.5679 0.0713 -0.8200
vn 0.9396 -0.0147 -0.3419
vn -0.0473 0.1909 -0.9805
vn -0.9307 0.2268 0.2869
vn -0.9124 0.2789 -0.2996
vn -0.6187 0.1461 0.7720
vn 0.9496 -0.0748 0.3043
vn 0.5703 -0.0471 0.8201
vn -0.5820 0.2530 -0.7728
vn -0.0151 0.0218 0.9996
vn -0.2880 -0.8507 0.4397
vn -0.3302 -0.7668 0.5504
vn -0.4626 -0.5432 0.7007
vn 0.0123 -0.7781 -0.6280
vn 0.0477 -0.8193 -0.5714
vn -0.0144 -0.7017 -0.7124
vn -0.0815 -0.5994 -0.7963
vn -0.2352 -0.3536 -0.9053
vn -0.9471 0.1004 -0.3049
vn -0.7284 0.1265 -0.6734
vn -0.9910 0.1122 0.0732
vn -0.6780 -0.2640 0.6861
vn -0.8274 0.0191 0.5613
vn 0.1535 0.9805 0.1226
vn 0.1045 0.9662 -0.2358
vn 0.2119 0.6468 0.7326
vn 0.1043 0.7085 -0.6979
vn -0.0848 0.7414 -0.6657
vn 0.3760 0.6177 -0.6907
vn 0.5844 0.4012 -0.7054
vn 0.7269 0.1923 -0.6593
vn 0.8732 -0.3482 -0.3411
vn 0.7218 -0.4801 -0.4984
vn 0.9523 -0.2528 -0.1710
vn 0.9649 -0.2627 -0.0004
vn 0.9343 -0.2255 0.2759
vn 0.6835 -0.1979 0.7026
vn 0.5938 -0.4745 0.6498
vn 0.6665 0.0625 0.7429
vn 0.4434 0.3788 0.8123
vn -0.1965 0.6665 0.7191
vn 0.2814 -0.5803 0.7642
vn 0.0632 -0.6776 0.7327
vn -0.8396 0.3179 0.4404
vn -0.6739 0.6097 0.4174
vn -0.4152 0.7426 0.5255
vn -0.9246 0.1053 0.3660
vn -0.4683 0.3651 -0.8046
vn -0.3231 0.5125 -0.7955
vn 0.8386 -0.1248 -0.5303
vn -0.1880 0.6504 -0.7360
vn -0.4796 -0.1157 -0.8698
vn 0.1235 -0.7620 -0.6356
vn 0.2888 -0.6744 -0.6795
vn 0.4876 -0.6031 -0.6313
vn -0.0923 -0.7660 0.6361
vn -0.0246 0.6651 0.7463
vn 0.0198 0.8663 -0.4991
vn 0.8194 -0.3276 0.4704
usemtl None
s 1
f 1/1/1 134/2/2 180/3/3
f 3/4/4 226/5/5 280/6/6
f 5/7/7 175/8/8 125/9/9
f 7/10/10 221/11/11 271/12/12
f 5/7/7 122/13/13 164/14/14
f 7/10/10 109/15/15 221/11/11
f 1/1/1 159/16/16 134/2/2
f 2/17/17 254/18/18 108/19/19
f 7/10/10 271/12/12 152/20/20
f 13/21/21 113/22/22 156/23/23
f 16/24/24 103/25/25 105/26/26
f 13/27/21 156/28/23 249/29/27
f 17/30/28 287/31/29 129/32/30
f 20/33/31 126/34/32 163/35/33
f 17/30/28 121/36/34 169/37/35
f 20/33/31 214/38/36 126/34/32
f 13/21/21 174/39/37 204/40/38
f 16/24/24 93/41/39 117/42/40
f 20/43/31 163/44/33 275/45/41
f 25/46/42 119/47/43 90/48/44
f 25/46/42 90/48/44 136/49/45
f 27/50/46 179/51/47 227/52/48
f 30/53/49 237/54/50 89/55/51
f 27/50/46 225/56/52 286/57/53
f 30/53/49 138/58/54 237/54/50
f 25/46/42 213/59/55 192/60/56
f 34/61/57 190/62/58 187/63/59
f 30/53/49 89/55/51 265/64/60
f 35/65/61 166/66/62 219/67/63
f 35/65/61 219/67/63 160/68/64
f 37/69/65 116/70/66 262/71/67
f 39/72/68 212/73/69 158/74/70
f 37/69/65 155/75/71 252/76/72
f 39/77/68 251/78/73 212/79/69
f 35/65/61 274/80/74 104/81/75
f 42/82/76 102/83/77 215/84/78
f 39/72/68 158/74/70 258/85/79
f 43/86/80 257/87/81 268/88/82
f 44/89/83 217/90/84 238/91/85
f 45/92/86 267/93/87 88/94/88
f 45/95/86 183/96/89 100/97/90
f 46/98/91 235/99/92 132/100/93
f 44/101/83 130/102/94 189/103/95
f 31/104/96 239/105/97 162/106/98
f 47/107/99 168/108/100 165/109/101
f 48/110/102 216/111/103 250/112/104
f 49/113/105 278/114/106 172/115/107
f 50/116/108 107/117/109 206/118/110
f 49/119/105 273/120/111 143/121/112
f 48/122/102 97/123/113 203/124/114
f 3/4/4 288/125/115 229/126/116
f 2/17/17 108/19/19 137/127/117
f 1/1/1 180/3/3 281/128/118
f 1/1/1 281/128/118 167/129/119
f 5/7/7 125/9/9 122/13/13
f 1/1/1 167/129/119 159/16/16
f 13/21/21 204/40/38 113/22/22
f 16/24/24 117/42/40 103/25/25
f 17/30/28 260/130/120 287/31/29
f 13/27/21 249/29/27 173/131/121
f 17/30/28 129/32/30 121/36/34
f 13/21/21 173/132/121 174/39/37
f 16/24/24 86/133/122 93/41/39
f 24/134/123 259/135/124 290/136/125
f 25/46/42 192/60/56 119/47/43
f 34/61/57 187/63/59 87/137/126
f 27/50/46 234/138/127 179/51/47
f 25/46/42 136/49/45 284/139/128
f 27/50/46 227/52/48 225/56/52
f 25/46/42 284/139/128 213/59/55
f 35/65/61 104/81/75 166/66/62
f 42/82/76 215/84/78 135/140/129
f 37/69/65 269/141/130 116/70/66
f 35/65/61 160/68/64 261/142/131
f 37/69/65 262/71/67 155/75/71
f 35/65/61 261/142/131 274/80/74
f 44/89/83 189/143/95 120/144/132
f 43/145/80 241/146/133 142/147/134
f 43/86/80 142/148/134 257/87/81
f 44/89/83 120/144/132 217/90/84
f 45/92/86 279/149/135 267/93/87
f 44/101/83 238/150/85 178/151/136
f 45/95/86 88/152/88 183/96/89
f 46/98/91 242/153/137 235/99/92
f 44/101/83 178/151/136 130/102/94
f 43/145/80 282/154/138 241/146/133
f 46/98/91 132/100/93 228/155/139
f 48/110/102 203/156/114 210/157/140
f 47/107/99 140/158/141 168/108/100
f 48/110/102 210/157/140 216/111/103
f 48/122/102 250/159/104 154/160/142
f 49/119/105 172/161/107 273/120/111
f 50/116/108 285/162/143 107/117/109
f 48/122/102 154/160/142 97/123/113
f 47/163/99 148/164/144 140/165/141
f 50/116/108 206/118/110 184/166/145
f 319/167/146 85/168/147 53/169/148 131/170/149
f 318/171/150 289/172/151 57/173/152 147/174/153
f 317/175/154 115/176/155 52/177/156 236/178/157
f 316/179/158 222/180/159 56/181/160 232/182/161
f 315/183/162 245/184/163 60/185/164 244/186/165
f 314/187/166 202/188/167 52/177/156 115/176/155
f 313/189/168 127/190/169 56/181/160 222/180/159
f 312/191/170 96/192/171 60/185/164 245/184/163
f 311/193/172 200/194/173 63/195/174 276/196/175
f 310/197/176 157/198/177 66/199/178 270/200/179
f 309/201/180 272/202/181 68/203/182 146/204/183
f 308/205/184 106/206/185 70/207/186 196/208/187
f 307/209/188 209/210/189 67/211/190 205/212/191
f 306/213/192 124/214/193 69/215/194 101/216/195
f 305/217/196 243/218/197 71/219/198 199/220/199
f 304/221/200 248/222/201 73/223/202 92/224/203
f 303/225/204 176/226/205 76/227/206 186/228/207
f 302/229/208 99/230/209 72/231/210 139/232/211
f 301/233/212 224/234/213 77/235/214 95/236/215
f 300/237/216 110/238/217 65/239/218 181/240/219
f 299/241/220 114/242/221 81/243/222 263/244/223
f 298/245/224 177/246/225 74/247/226 283/248/227
f 297/249/228 188/250/229 80/251/230 191/252/231
f 296/253/232 246/254/233 82/255/234 211/256/235
f 295/257/236 185/258/237 78/259/238 91/260/239
f 294/261/240 240/262/241 79/263/242 141/264/243
f 293/265/244 94/266/245 83/267/246 144/268/247
f 292/269/248 247/270/249 84/271/250 145/272/251
f 114/273/221 292/269/248 145/272/251 81/274/222
f 80/275/230 91/260/239 292/269/248 114/273/221
f 91/260/239 78/259/238 247/270/249 292/269/248
f 247/270/249 293/265/244 144/268/247 84/271/250
f 78/259/238 95/236/215 293/265/244 247/270/249
f 95/236/215 77/235/214 94/266/245 293/265/244
f 224/234/213 294/261/240 141/264/243 77/235/214
f 75/276/252 231/277/253 294/261/240 224/234/213
f 231/277/253 70/278/186 240/262/241 294/261/240
f 188/279/229 295/257/236 91/260/239 80/275/230
f 69/280/194 146/281/183 295/257/236 188/279/229
f 146/281/183 68/282/182 185/258/237 295/257/236
f 94/266/245 296/253/232 211/256/235 83/267/246
f 77/235/214 141/264/243 296/253/232 94/266/245
f 141/264/243 79/263/242 246/254/233 296/253/232
f 240/262/241 297/249/228 191/252/231 79/263/242
f 70/278/186 101/283/195 297/249/228 240/262/241
f 101/283/195 69/284/194 188/250/229 297/249/228
f 176/285/205 298/245/224 283/248/227 76/286/206
f 75/287/252 230/288/254 298/245/224 176/285/205
f 230/288/254 68/203/182 177/246/225 298/245/224
f 246/254/233 299/241/220 263/244/223 82/255/234
f 79/263/242 191/252/231 299/241/220 246/254/233
f 191/252/231 80/251/230 114/242/221 299/241/220
f 289/172/151 300/237/216 181/240/219 57/173/152
f 56/289/160 127/290/169 300/237/216 289/172/151
f 127/290/169 64/291/255 110/238/217 300/237/216
f 185/258/237 301/233/212 95/236/215 78/259/238
f 68/282/182 230/292/254 301/233/212 185/258/237
f 230/292/254 75/276/252 224/234/213 301/233/212
f 248/222/201 302/229/208 139/232/211 73/223/202
f 67/211/190 270/200/179 302/229/208 248/222/201
f 270/200/179 66/199/178 99/230/209 302/229/208
f 243/218/197 303/225/204 186/228/207 71/219/198
f 70/207/186 231/293/253 303/225/204 243/218/197
f 231/293/253 75/294/252 176/226/205 303/225/204
f 177/246/225 304/221/200 92/224/203 74/247/226
f 68/203/182 205/212/191 304/221/200 177/246/225
f 205/212/191 67/211/190 248/222/201 304/221/200
f 99/230/209 305/217/196 199/220/199 72/231/210
f 66/199/178 196/208/187 305/217/196 99/230/209
f 196/208/187 70/207/186 243/218/197 305/217/196
f 106/206/185 306/213/192 101/216/195 70/207/186
f 65/239/218 110/238/217 306/213/192 106/206/185
f 110/238/217 64/291/255 124/214/193 306/213/192
f 272/202/181 307/209/188 205/212/191 68/203/182
f 63/195/174 200/194/173 307/209/188 272/202/181
f 200/194/173 62/295/256 209/210/189 307/209/188
f 157/198/177 308/205/184 196/208/187 66/199/178
f 61/296/257 194/297/258 308/205/184 157/198/177
f 194/297/258 65/239/218 106/206/185 308/205/184
f 124/298/193 309/201/180 146/204/183 69/299/194
f 64/300/255 255/301/259 309/201/180 124/298/193
f 255/301/259 63/195/174 272/202/181 309/201/180
f 209/210/189 310/197/176 270/200/179 67/211/190
f 62/295/256 153/302/260 310/197/176 209/210/189
f 153/302/260 61/296/257 157/198/177 310/197/176
f 85/168/147 311/193/172 276/196/175 53/169/148
f 52/177/156 202/188/167 311/193/172 85/168/147
f 202/188/167 62/295/256 200/194/173 311/193/172
f 181/240/219 312/191/170 245/184/163 57/173/152
f 65/239/218 194/297/258 312/191/170 181/240/219
f 194/297/258 61/296/257 96/192/171 312/191/170
f 276/196/175 313/189/168 222/180/159 53/169/148
f 63/195/174 255/301/259 313/189/168 276/196/175
f 255/301/259 64/300/255 127/190/169 313/189/168
f 96/192/171 314/187/166 115/176/155 60/185/164
f 61/296/257 153/302/260 314/187/166 96/192/171
f 153/302/260 62/295/256 202/188/167 314/187/166
f 195/303/261 315/183/162 244/186/165 59/304/262
f 58/305/263 147/174/153 315/183/162 195/303/261
f 147/174/153 57/173/152 245/184/163 315/183/162
f 171/306/264 316/179/158 232/182/161 55/307/265
f 54/308/266 131/170/149 316/179/158 171/306/264
f 131/170/149 53/169/148 222/180/159 316/179/158
f 256/309/267 317/175/154 236/178/157 51/310/268
f 59/304/262 244/186/165 317/175/154 256/309/267
f 244/186/165 60/185/164 115/176/155 317/175/154
f 111/311/269 318/171/150 147/174/153 58/305/263
f 55/312/265 232/313/161 318/171/150 111/311/269
f 232/313/161 56/289/160 289/172/151 318/171/150
f 128/314/270 319/167/146 131/170/149 54/308/266
f 51/310/268 236/178/157 319/167/146 128/314/270
f 236/178/157 52/177/156 85/168/147 319/167/146
f 184/166/145 229/126/116 38/315/271
f 184/166/145 206/118/110 229/126/116
f 206/118/110 3/4/4 229/126/116
f 140/165/141 207/316/272 36/317/273
f 140/165/141 148/164/144 207/316/272
f 148/164/144 38/315/271 207/316/272
f 97/123/113 184/166/145 38/315/271
f 97/123/113 154/160/142 184/166/145
f 154/160/142 50/116/108 184/166/145
f 107/117/109 197/318/274 4/319/275
f 107/117/109 285/162/143 197/318/274
f 285/162/143 14/320/276 197/318/274
f 273/120/111 253/321/277 14/320/276
f 273/120/111 172/161/107 253/321/277
f 172/161/107 15/322/278 253/321/277
f 154/160/142 143/121/112 50/116/108
f 154/160/142 250/159/104 143/121/112
f 250/159/104 49/119/105 143/121/112
f 216/111/103 149/323/279 18/324/280
f 216/111/103 210/157/140 149/323/279
f 210/157/140 26/325/281 149/323/279
f 168/108/100 218/326/282 28/327/283
f 168/108/100 140/158/141 218/326/282
f 140/158/141 36/328/273 218/326/282
f 210/157/140 165/109/101 26/325/281
f 210/157/140 203/156/114 165/109/101
f 203/156/114 47/107/99 165/109/101
f 228/155/139 193/329/284 31/104/96
f 228/155/139 132/100/93 193/329/284
f 132/100/93 32/330/285 193/329/284
f 241/146/133 162/106/98 41/331/286
f 241/146/133 282/154/138 162/106/98
f 282/154/138 31/104/96 162/106/98
f 130/102/94 228/155/139 31/104/96
f 130/102/94 178/151/136 228/155/139
f 178/151/136 46/98/91 228/155/139
f 235/99/92 118/332/287 23/333/288
f 235/99/92 242/153/137 118/332/287
f 242/153/137 21/334/289 118/332/287
f 183/96/89 266/335/290 21/334/289
f 183/96/89 88/152/88 266/335/290
f 88/152/88 22/336/291 266/335/290
f 178/151/136 100/97/90 46/98/91
f 178/151/136 238/150/85 100/97/90
f 238/150/85 45/95/86 100/97/90
f 267/93/87 201/337/292 10/338/293
f 267/93/87 279/149/135 201/337/292
f 279/149/135 8/339/294 201/337/292
f 217/90/84 170/340/295 8/339/294
f 217/90/84 120/144/132 170/340/295
f 120/144/132 9/341/296 170/340/295
f 257/87/81 112/342/297 11/343/298
f 257/87/81 142/148/134 112/342/297
f 142/148/134 40/344/299 112/342/297
f 142/147/134 264/345/300 40/346/299
f 142/147/134 241/146/133 264/345/300
f 241/146/133 41/331/286 264/345/300
f 120/144/132 268/88/82 9/341/296
f 120/144/132 189/143/95 268/88/82
f 189/143/95 43/86/80 268/88/82
f 274/80/74 258/85/79 33/347/301
f 274/80/74 261/142/131 258/85/79
f 261/142/131 39/72/68 258/85/79
f 155/75/71 198/348/302 11/343/298
f 155/75/71 262/71/67 198/348/302
f 262/71/67 12/349/303 198/348/302
f 261/142/131 252/350/72 39/72/68
f 261/142/131 160/68/64 252/350/72
f 160/68/64 37/351/65 252/350/72
f 116/70/66 207/316/272 38/315/271
f 116/70/66 269/141/130 207/316/272
f 269/141/130 36/317/273 207/316/272
f 135/140/129 133/352/304 28/327/283
f 135/140/129 215/84/78 133/352/304
f 215/84/78 29/353/305 133/352/304
f 166/66/62 135/140/129 28/327/283
f 166/66/62 104/81/75 135/140/129
f 104/81/75 42/82/76 135/140/129
f 213/59/55 265/64/60 23/333/288
f 213/59/55 284/139/128 265/64/60
f 284/139/128 30/53/49 265/64/60
f 225/56/52 233/354/306 33/347/301
f 225/56/52 227/52/48 233/354/306
f 227/52/48 29/353/305 233/354/306
f 284/139/128 286/57/53 30/53/49
f 284/139/128 136/49/45 286/57/53
f 136/49/45 27/50/46 286/57/53
f 179/51/47 291/355/307 28/327/283
f 179/51/47 234/138/127 291/355/307
f 234/138/127 26/325/281 291/355/307
f 87/137/126 223/356/308 18/324/280
f 87/137/126 187/63/59 223/356/308
f 187/63/59 19/357/309 223/356/308
f 119/47/43 87/137/126 18/324/280
f 119/47/43 192/60/56 87/137/126
f 192/60/56 34/61/57 87/137/126
f 290/136/125 182/358/310 10/338/293
f 290/136/125 259/135/124 182/358/310
f 259/135/124 22/359/291 182/358/310
f 93/41/39 290/136/125 10/338/293
f 93/41/39 86/133/122 290/136/125
f 86/133/122 24/134/123 290/136/125
f 174/39/37 275/45/41 24/134/123
f 174/39/37 173/132/121 275/45/41
f 173/132/121 20/43/31 275/45/41
f 121/36/34 123/360/311 23/333/288
f 121/36/34 129/32/30 123/360/311
f 129/32/30 19/357/309 123/360/311
f 173/131/121 169/37/35 20/33/31
f 173/131/121 249/29/27 169/37/35
f 249/29/27 17/30/28 169/37/35
f 287/31/29 277/361/312 18/324/280
f 287/31/29 260/130/120 277/361/312
f 260/130/120 15/362/278 277/361/312
f 103/25/25 220/363/313 4/319/275
f 103/25/25 117/42/40 220/363/313
f 117/42/40 6/364/314 220/363/313
f 113/22/22 105/26/26 14/320/276
f 113/22/22 204/40/38 105/26/26
f 204/40/38 16/24/24 105/26/26
f 159/16/16 152/20/20 11/343/298
f 159/16/16 167/129/119 152/20/20
f 167/129/119 7/10/10 152/20/20
f 122/13/13 208/365/315 10/338/293
f 122/13/13 125/9/9 208/365/315
f 125/9/9 6/364/314 208/365/315
f 167/129/119 164/14/14 7/10/10
f 167/129/119 281/128/118 164/14/14
f 281/128/118 5/7/7 164/14/14
f 281/128/118 280/6/6 5/7/7
f 281/128/118 180/3/3 280/6/6
f 180/3/3 3/4/4 280/6/6
f 137/127/117 98/366/316 38/315/271
f 137/127/117 108/19/19 98/366/316
f 108/19/19 12/349/303 98/366/316
f 229/126/116 137/127/117 38/315/271
f 229/126/116 288/125/115 137/127/117
f 288/125/115 2/17/17 137/127/117
f 203/124/114 148/164/144 47/163/99
f 203/124/114 97/123/113 148/164/144
f 97/123/113 38/315/271 148/164/144
f 143/121/112 285/162/143 50/116/108
f 143/121/112 273/120/111 285/162/143
f 273/120/111 14/320/276 285/162/143
f 206/118/110 226/5/5 3/4/4
f 206/118/110 107/117/109 226/5/5
f 107/117/109 4/319/275 226/5/5
f 172/115/107 277/361/312 15/362/278
f 172/115/107 278/114/106 277/361/312
f 278/114/106 18/324/280 277/361/312
f 250/112/104 278/114/106 49/113/105
f 250/112/104 216/111/103 278/114/106
f 216/111/103 18/324/280 278/114/106
f 165/109/101 291/355/307 26/325/281
f 165/109/101 168/108/100 291/355/307
f 168/108/100 28/327/283 291/355/307
f 162/106/98 151/367/317 41/331/286
f 162/106/98 239/105/97 151/367/317
f 239/105/97 33/347/301 151/367/317
f 189/103/95 282/154/138 43/145/80
f 189/103/95 130/102/94 282/154/138
f 130/102/94 31/104/96 282/154/138
f 132/100/93 161/368/318 32/330/285
f 132/100/93 235/99/92 161/368/318
f 235/99/92 23/333/288 161/368/318
f 100/97/90 242/153/137 46/98/91
f 100/97/90 183/96/89 242/153/137
f 183/96/89 21/334/289 242/153/137
f 88/94/88 182/358/310 22/359/291
f 88/94/88 267/93/87 182/358/310
f 267/93/87 10/338/293 182/358/310
f 238/91/85 279/149/135 45/92/86
f 238/91/85 217/90/84 279/149/135
f 217/90/84 8/339/294 279/149/135
f 268/88/82 150/369/319 9/341/296
f 268/88/82 257/87/81 150/369/319
f 257/87/81 11/343/298 150/369/319
f 258/85/79 151/367/317 33/347/301
f 258/85/79 158/74/70 151/367/317
f 158/74/70 41/331/286 151/367/317
f 215/84/78 233/354/306 29/353/305
f 215/84/78 102/83/77 233/354/306
f 102/83/77 33/347/301 233/354/306
f 104/81/75 102/83/77 42/82/76
f 104/81/75 274/80/74 102/83/77
f 274/80/74 33/347/301 102/83/77
f 212/79/69 112/342/297 40/344/299
f 212/79/69 251/78/73 112/342/297
f 251/78/73 11/343/298 112/342/297
f 252/76/72 251/78/73 39/77/68
f 252/76/72 155/75/71 251/78/73
f 155/75/71 11/343/298 251/78/73
f 158/74/70 264/345/300 41/331/286
f 158/74/70 212/73/69 264/345/300
f 212/73/69 40/346/299 264/345/300
f 262/71/67 98/366/316 12/349/303
f 262/71/67 116/70/66 98/366/316
f 116/70/66 38/315/271 98/366/316
f 160/68/64 269/370/130 37/351/65
f 160/68/64 219/67/63 269/370/130
f 219/67/63 36/328/273 269/370/130
f 219/67/63 218/326/282 36/328/273
f 219/67/63 166/66/62 218/326/282
f 166/66/62 28/327/283 218/326/282
f 265/64/60 161/368/318 23/333/288
f 265/64/60 89/55/51 161/368/318
f 89/55/51 32/330/285 161/368/318
f 187/63/59 123/360/311 19/357/309
f 187/63/59 190/62/58 123/360/311
f 190/62/58 23/333/288 123/360/311
f 192/60/56 190/62/58 34/61/57
f 192/60/56 213/59/55 190/62/58
f 213/59/55 23/333/288 190/62/58
f 237/54/50 239/105/97 31/104/96
f 237/54/50 138/58/54 239/105/97
f 138/58/54 33/347/301 239/105/97
f 286/57/53 138/58/54 30/53/49
f 286/57/53 225/56/52 138/58/54
f 225/56/52 33/347/301 138/58/54
f 89/55/51 193/329/284 32/330/285
f 89/55/51 237/54/50 193/329/284
f 237/54/50 31/104/96 193/329/284
f 227/52/48 133/352/304 29/353/305
f 227/52/48 179/51/47 133/352/304
f 179/51/47 28/327/283 133/352/304
f 136/49/45 234/138/127 27/50/46
f 136/49/45 90/48/44 234/138/127
f 90/48/44 26/325/281 234/138/127
f 90/48/44 149/323/279 26/325/281
f 90/48/44 119/47/43 149/323/279
f 119/47/43 18/324/280 149/323/279
f 275/45/41 259/135/124 24/134/123
f 275/45/41 163/44/33 259/135/124
f 163/44/33 22/359/291 259/135/124
f 117/42/40 208/365/315 6/364/314
f 117/42/40 93/41/39 208/365/315
f 93/41/39 10/338/293 208/365/315
f 204/40/38 86/133/122 16/24/24
f 204/40/38 174/39/37 86/133/122
f 174/39/37 24/134/123 86/133/122
f 126/34/32 118/332/287 21/334/289
f 126/34/32 214/38/36 118/332/287
f 214/38/36 23/333/288 118/332/287
f 169/37/35 214/38/36 20/33/31
f 169/37/35 121/36/34 214/38/36
f 121/36/34 23/333/288 214/38/36
f 163/35/33 266/335/290 22/336/291
f 163/35/33 126/34/32 266/335/290
f 126/34/32 21/334/289 266/335/290
f 129/32/30 223/356/308 19/357/309
f 129/32/30 287/31/29 223/356/308
f 287/31/29 18/324/280 223/356/308
f 249/29/27 260/130/120 17/30/28
f 249/29/27 156/28/23 260/130/120
f 156/28/23 15/362/278 260/130/120
f 105/26/26 197/318/274 14/320/276
f 105/26/26 103/25/25 197/318/274
f 103/25/25 4/319/275 197/318/274
f 156/23/23 253/321/277 15/322/278
f 156/23/23 113/22/22 253/321/277
f 113/22/22 14/320/276 253/321/277
f 152/20/20 150/369/319 11/343/298
f 152/20/20 271/12/12 150/369/319
f 271/12/12 9/341/296 150/369/319
f 108/19/19 198/348/302 12/349/303
f 108/19/19 254/18/18 198/348/302
f 254/18/18 11/343/298 198/348/302
f 134/2/2 254/18/18 2/17/17
f 134/2/2 159/16/16 254/18/18
f 159/16/16 11/343/298 254/18/18
f 221/11/11 201/337/292 8/339/294
f 221/11/11 109/15/15 201/337/292
f 109/15/15 10/338/293 201/337/292
f 164/14/14 109/15/15 7/10/10
f 164/14/14 122/13/13 109/15/15
f 122/13/13 10/338/293 109/15/15
f 271/12/12 170/340/295 9/341/296
f 271/12/12 221/11/11 170/340/295
f 221/11/11 8/339/294 170/340/295
f 125/9/9 220/363/313 6/364/314
f 125/9/9 175/8/8 220/363/313
f 175/8/8 4/319/275 220/363/313
f 280/6/6 175/8/8 5/7/7
f 280/6/6 226/5/5 175/8/8
f 226/5/5 4/319/275 175/8/8
f 180/3/3 288/125/115 3/4/4
f 180/3/3 134/2/2 288/125/115
f 134/2/2 2/17/17 288/125/115
