# Blender v2.78 (sub 0) OBJ File: ''
# www.blender.org
mtllib Apple_Tree_m_02.mtl
o Apple_Tree_m_02
v 0.800106 4.132757 -1.770620
v -0.170628 4.269303 -2.125976
v 0.278088 5.136603 -1.593009
v 0.905472 5.395407 -0.798814
v 1.425759 4.545800 -1.068859
v 1.866182 4.651249 -0.417891
v 1.372115 3.405600 -1.132054
v 1.870214 2.788157 -0.519384
v 0.951134 2.616582 -1.151517
v 2.201752 3.589840 -0.166668
v -0.186128 3.185259 -1.847900
v -0.832189 4.006719 -2.067810
v 1.810302 4.989488 0.903100
v 0.952848 5.573339 -0.014524
v 0.734182 5.648302 0.673592
v 1.955063 4.802368 0.188670
v 1.210880 4.954778 1.422928
v -0.261405 5.561824 1.059132
v 0.617386 4.967316 1.812767
v 2.012575 3.845429 1.243313
v 1.710264 3.088684 1.284274
v 2.260908 3.118670 0.726398
v 0.619785 3.834863 1.803296
v 2.379444 3.862801 0.535785
v -1.040548 4.542630 1.307546
v -1.507175 5.319909 0.468973
v -2.146535 3.984473 0.772074
v -2.240606 4.734793 -0.497831
v -2.390713 3.656757 0.099876
v -1.131406 3.178417 1.338893
v -0.774755 2.293837 0.507577
v -0.070438 2.868521 1.386542
v -1.888787 2.738273 0.010694
v -0.128348 4.857714 1.692467
v -2.207608 3.808093 -1.271111
v -2.000381 4.955861 -1.464001
v -1.569182 3.892999 -1.896924
v -0.921806 5.228133 -1.638353
v -1.488967 2.770915 -1.370967
v -0.741982 2.497687 -1.327947
v -1.182362 2.248369 -0.652689
v -2.489465 3.660953 -0.552765
v -0.230553 2.127220 -0.852882
v 0.925083 2.195626 -0.190810
v 1.838110 2.556181 0.382197
v 0.714058 2.460358 1.013359
v -1.646172 5.472265 -0.716989
v -0.884718 5.790061 -0.197827
v -0.016459 5.952699 0.225588
v -0.049007 5.780897 -0.847159
v 0.151337 0.058929 0.196697
v 0.144963 0.510368 0.172956
v -0.071089 0.506482 0.192958
v -0.119472 0.058045 0.210500
v -0.216189 0.057721 -0.043163
v -0.156486 0.504245 -0.007375
v 0.007053 0.506818 -0.151221
v -0.004839 0.058412 -0.213811
v 0.222260 0.059136 -0.065345
v 0.193344 0.510479 -0.039571
v 0.189207 1.128274 0.032185
v 0.166247 1.131092 0.194974
v 0.006643 1.151037 0.221868
v -0.070216 1.141101 0.076617
v 0.043622 1.134333 -0.041251
v 0.212487 2.011742 0.035874
v 0.199797 1.912812 0.185441
v 0.058677 2.055311 0.174205
v -0.055074 1.930555 0.090649
v 0.053679 2.020396 -0.024508
v 0.221418 2.401815 -0.350563
v 0.292198 2.410232 -0.327135
v 0.211992 2.173698 0.115468
v 0.290696 2.455859 -0.263419
v 0.217109 2.454932 -0.242854
v 0.016944 2.192456 0.040079
v 0.181553 2.443556 -0.299786
v 0.471096 2.113926 0.359903
v 0.385082 2.173614 0.375684
v -0.418128 2.202347 0.110042
v -0.425598 2.144675 0.191618
v -0.407143 2.115661 0.064822
v -0.464718 2.088199 0.128734
v -1.091278 2.394184 0.000078
v -1.050778 2.394986 -0.039308
v -1.036577 2.446709 -0.013009
v -1.056736 2.420999 0.038776
v 0.435014 2.224452 0.313490
v 0.476411 2.153882 0.272678
v 0.740506 2.565854 0.570904
v 0.779864 2.538264 0.548994
v 0.786377 2.515737 0.600424
v 0.727889 2.531000 0.611357
v 0.030445 2.149807 -0.004757
v 0.038752 0.508469 0.203400
v 2.245450 4.310631 0.395898
v -0.248357 5.178993 1.474731
v 2.106073 2.857266 0.579660
v -0.501799 2.993748 1.426902
v -1.344868 4.966779 0.951093
v 0.243993 2.318166 -0.086539
v 2.206867 4.201005 0.055922
v 0.188988 0.800266 -0.002646
v -1.075154 2.389359 -0.024139
v -0.771413 2.289671 0.115246
v -0.759246 2.260746 0.013859
v 0.020122 2.165182 0.097185
v -0.923943 5.640339 -0.930953
v -0.910510 4.507238 -1.976368
v 0.247017 2.252192 -0.167912
v 1.329008 2.416322 0.687903
v -0.020124 1.942179 0.037504
v -2.294450 3.225795 -0.350562
v 1.441184 5.180843 -0.279915
v -2.378713 3.725099 -0.832847
v 1.485964 5.249536 0.104891
v 0.059358 1.572319 -0.019404
v 0.415297 5.636121 -0.893981
v -0.532888 4.119024 -2.110666
v 1.852545 3.511998 -0.687757
v 0.727039 2.550562 0.593429
v -0.024452 1.137909 0.006846
v -0.134012 0.058067 -0.157938
v -0.550650 2.704645 -1.558192
v 0.332742 2.078465 0.160773
v -0.448573 2.111823 0.168017
v 1.435500 5.336332 0.476097
v -0.420638 2.181361 0.156508
v 0.189081 0.511027 0.071233
v -1.356130 4.584392 -1.865494
v 1.911478 4.706712 -0.162501
v 1.290602 3.363700 1.566690
v 0.480859 2.126660 0.313474
v -0.409220 2.163618 0.079591
v -0.772015 5.141330 1.195690
v -0.756295 2.330579 0.048081
v 0.994460 2.347479 -0.738909
v 1.121191 4.413484 1.703427
v 1.864908 4.063396 -0.664331
v 0.690145 4.550818 1.882133
v 0.645976 2.356576 0.423632
v -0.039962 1.560886 0.085222
v 1.696062 4.614511 -0.694365
v 0.458563 2.193996 0.284695
v 1.864329 3.434787 1.341249
v 0.757268 2.519331 0.612198
v -0.224692 2.030523 0.117228
v -0.111870 0.806071 0.036423
v 0.017645 0.058487 0.241217
v 0.840581 4.956450 1.670064
v 0.072313 2.150202 0.162920
v -0.103334 0.247211 0.205534
v 0.235801 2.688730 1.261411
v -2.394930 4.142929 -0.111578
v 0.296206 4.181747 -2.002447
v -2.437483 4.134690 -0.596811
v -1.669342 4.269249 1.091815
v -0.495224 4.747259 -1.979602
v -1.593828 2.873321 0.780932
v -0.178295 2.096859 0.194358
v -1.835382 5.278512 -1.146341
v 0.159135 2.154631 0.145898
v 0.119103 2.322120 -0.138487
v -0.535383 2.330563 -1.171109
v -0.051354 5.911614 -0.271033
v 0.602690 2.404528 0.453021
v -0.808843 2.249488 0.064682
v 0.227989 2.134982 0.069853
v -0.032049 1.955412 0.147596
v -0.000997 0.248575 -0.195319
v -1.360610 5.466990 -1.152390
v -0.959248 5.485329 0.769280
v 0.463512 2.821181 -1.477018
v -1.503425 2.369140 -0.328068
v 0.708658 3.286438 -1.555248
v 0.192944 1.128645 0.115740
v -0.510116 5.831530 -0.591732
v -1.004167 3.444750 -1.942873
v 1.277438 5.389469 0.796263
v 0.187241 1.563004 0.041680
v -1.381386 2.436890 -0.966250
v 0.436014 3.681799 -1.865902
v 0.790279 2.524866 0.572410
v 0.302670 2.165558 0.221152
v -1.964115 3.839857 -1.656724
v 0.207572 3.196451 1.612329
v 0.402942 2.206276 0.347403
v 0.300666 2.433105 -0.295114
v -1.099201 2.208717 -0.121174
v 2.217106 3.402548 0.996511
v 1.502636 3.958054 -1.086740
v -1.613239 5.468118 -0.152336
v -2.313046 4.361783 -1.009858
v 1.056193 3.786353 -1.498836
v -1.951566 5.231833 -0.610834
v 1.640031 4.409414 1.406077
v 1.463867 2.695604 -0.848385
v -0.203073 0.057883 0.096959
v 0.327067 5.838576 0.470693
v 2.003422 4.425620 1.109147
v 2.182790 4.402339 0.760053
v 1.138481 5.045630 -1.000249
v -0.158937 2.071043 0.041007
v 0.769486 2.227056 0.430513
v -2.243531 4.451084 0.221466
v 0.604532 4.623202 -1.738770
v 0.024401 0.800973 -0.093595
v 2.299675 3.230485 0.324976
v 1.772456 2.735777 0.891949
v -1.078684 2.406302 0.025802
v -0.467709 5.607662 -1.239630
v 0.256014 4.915791 1.775035
v -1.042530 2.439080 0.017407
v 0.298244 2.111881 -0.500656
v 0.147929 4.466017 1.812668
v -0.473041 4.741645 1.534741
v -0.433610 2.581865 1.082711
v 0.123062 1.129961 -0.018590
v 0.129459 0.058774 -0.171040
v 0.146200 1.992884 -0.028683
v 0.913363 5.519448 -0.435611
v -0.623015 3.655823 -2.066669
v 0.259812 2.401475 -0.346277
v 0.089220 1.141795 0.223785
v 2.065910 3.097337 -0.359253
v 0.154273 0.805205 0.183228
v -1.297835 5.634346 -0.485329
v 1.931562 4.908196 0.552810
v 0.142114 1.945867 0.207058
v 0.045889 5.530501 -1.299528
v -1.562548 5.109745 -1.587230
v 2.064311 4.249012 -0.310887
v 0.171391 1.544098 0.183418
v -1.185579 5.644078 0.190437
v -0.437156 2.094080 0.091100
v -1.035915 2.597265 -1.392742
v -0.340366 4.152243 1.643784
v 1.459806 3.861804 1.585438
v -2.432809 3.639368 -0.225232
v -0.675427 5.769217 0.455948
v 1.520694 2.454210 -0.400546
v -2.155279 4.922594 -1.061972
v -2.159496 4.439417 -1.435977
v 1.476460 5.012473 -0.583008
v 1.722253 3.072413 -0.803904
v 0.574826 2.361192 0.506170
v 0.760049 2.556097 0.553642
v -0.132604 0.504773 0.100903
v 0.293858 5.263793 1.544196
v 0.191777 2.452018 -0.266831
v -2.065135 3.266076 0.577872
v 0.563042 5.351103 -1.212523
v -2.329184 3.765735 0.362324
v 0.016407 2.312440 0.778312
v -0.290172 5.244937 -1.681819
v 0.149854 2.299004 -0.057732
v -0.197510 0.246004 -0.031876
v -2.251898 3.234034 0.134671
v -1.892313 4.711762 0.650120
v 0.194124 2.419815 -0.329928
v 0.747832 3.044861 1.499079
v 0.425238 2.138940 0.376183
v 0.151073 0.250508 0.188864
v 0.225875 2.105734 0.279592
v -1.066550 2.666585 0.981516
v 1.445746 2.325234 0.117381
v 0.256595 2.459981 -0.245608
v -1.392848 2.431675 0.358636
v -0.769798 2.135383 -0.683068
v 1.260223 2.799440 1.215458
v 0.160186 2.252276 -0.202782
v 0.214385 0.251295 -0.058663
v 0.110714 0.508986 -0.113038
v -1.039000 2.422137 -0.032534
v 1.577984 4.983075 1.178989
v -0.434730 5.918086 0.064708
v -0.949199 2.962714 -1.711236
v -1.541910 3.297555 -1.717890
v 0.868479 5.646052 0.369160
v -0.127382 3.767550 -2.091542
v -0.045272 1.147528 0.156612
v 0.223078 0.059033 0.075679
v -0.128226 2.549860 -1.402878
v -1.748763 2.680261 -0.768276
v 2.373267 3.448039 0.603027
v 0.970146 5.375906 1.053098
v -1.905696 3.221940 -1.318268
v -1.116004 3.972041 -2.008954
v -0.957706 2.333415 -1.057687
v -0.336637 3.522872 1.655475
v 2.053545 3.065606 1.015372
v 2.135961 2.959798 0.106745
v 0.392477 2.351597 -1.076408
v -1.840089 4.497376 -1.732213
v 0.216430 1.927406 0.125443
v 1.157768 2.976296 -1.208194
v 0.032703 1.589113 0.208087
v 0.427826 5.824274 0.051091
v -2.105546 3.164660 -0.750687
v 2.276532 3.835442 0.881015
v -0.031402 0.808797 0.207432
v 0.648147 2.326461 0.493120
v 0.297342 5.670321 0.868813
v -0.177046 5.857427 0.585730
v 1.908606 2.651692 -0.107330
v 0.870939 4.904756 -1.378012
v 1.126453 4.361165 -1.454613
v -0.495992 2.096776 -0.208753
v -1.108016 3.848928 1.413500
v 0.319507 2.028800 0.258684
v 0.431123 5.750680 -0.446352
v -1.733257 3.533725 1.084361
v 0.556518 5.356075 1.288948
v 0.026683 4.732639 -1.925905
v -0.088158 0.505139 -0.094750
v 2.363593 3.715093 0.241207
v -0.175468 2.171436 0.100530
v -1.936894 5.072055 0.019435
v 0.582520 2.387282 0.481866
v 0.610112 2.339897 0.506205
v 0.332741 2.044859 0.205381
v 0.257656 2.144420 0.254720
v 0.653298 2.337096 0.456106
v 0.625707 2.384481 0.431766
v 0.254844 2.286816 -0.127004
v 0.322522 2.127868 0.182600
v -0.793589 2.266789 0.096275
v -0.761694 2.316010 0.086199
v -0.163534 2.127396 0.061673
v -0.205162 2.057534 0.164889
v -0.754308 2.298453 0.024659
v -0.193412 2.041865 0.071808
v 0.127735 2.312879 -0.093367
v -0.786204 2.249232 0.034735
v -0.056033 0.803422 -0.041731
v -0.175284 2.143066 0.154753
v 0.267875 2.061410 0.277501
v 0.133865 2.289008 -0.176558
v 0.198129 2.310454 -0.063994
v 0.205580 2.244601 -0.192529
v -0.000371 1.565163 0.023702
v 0.104940 1.567245 0.209014
v 0.129111 1.569781 -0.001253
v -0.015593 1.576881 0.153137
v 0.192644 1.550350 0.114404
v 0.063731 0.807387 0.213233
v 0.115276 0.800117 -0.063970
v -0.087786 0.807868 0.129668
v 0.189202 0.802518 0.093641
v 0.119732 0.250104 -0.147610
v -0.173046 0.246312 0.095869
v 0.206297 0.251203 0.071121
v -0.114786 0.247093 -0.132368
v 0.025420 0.248881 0.221527
vt 0.5841 0.1872
vt 0.5863 0.1859
vt 0.5868 0.1894
vt 0.5894 0.1916
vt 0.5884 0.1940
vt 0.5861 0.1919
vt 0.5827 0.1921
vt 0.5850 0.1943
vt 0.5814 0.1937
vt 0.5790 0.1859
vt 0.5765 0.1859
vt 0.5781 0.1832
vt 0.5787 0.1919
vt 0.5809 0.1890
vt 0.5768 0.1887
vt 0.5842 0.1829
vt 0.5886 0.1846
vt 0.5865 0.1815
vt 0.5900 0.1827
vt 0.5817 0.1822
vt 0.5759 0.2072
vt 0.5810 0.2045
vt 0.5818 0.2085
vt 0.5783 0.1997
vt 0.5828 0.1980
vt 0.5822 0.2007
vt 0.5441 0.1669
vt 0.5497 0.1693
vt 0.5439 0.1708
vt 0.5436 0.1748
vt 0.5476 0.1784
vt 0.5437 0.1773
vt 0.5322 0.1732
vt 0.5317 0.1769
vt 0.5277 0.1752
vt 0.5410 0.1789
vt 0.5379 0.1740
vt 0.5353 0.1781
vt 0.5738 0.2014
vt 0.5771 0.2034
vt 0.5765 0.1956
vt 0.5792 0.1975
vt 0.5641 0.2012
vt 0.5643 0.1966
vt 0.5679 0.1984
vt 0.5461 0.1883
vt 0.5488 0.1851
vt 0.5495 0.1886
vt 0.5462 0.1905
vt 0.5463 0.1928
vt 0.5504 0.1952
vt 0.5464 0.1948
vt 0.5399 0.1911
vt 0.5373 0.1929
vt 0.5378 0.1900
vt 0.5435 0.1960
vt 0.5431 0.1919
vt 0.5403 0.1952
vt 0.5423 0.1857
vt 0.5454 0.1860
vt 0.5448 0.1838
vt 0.5416 0.1834
vt 0.5443 0.1819
vt 0.5391 0.1871
vt 0.5492 0.2071
vt 0.5518 0.2024
vt 0.5548 0.2063
vt 0.5497 0.2113
vt 0.5965 0.1766
vt 0.5962 0.1834
vt 0.5940 0.1787
vt 0.5373 0.2109
vt 0.5329 0.2105
vt 0.5355 0.2069
vt 0.5904 0.1775
vt 0.5921 0.1717
vt 0.5878 0.1669
vt 0.5861 0.1727
vt 0.5844 0.1686
vt 0.5450 0.2032
vt 0.5483 0.2040
vt 0.5475 0.2008
vt 0.5441 0.2000
vt 0.5469 0.1988
vt 0.5390 0.2050
vt 0.5735 0.1693
vt 0.5789 0.1739
vt 0.5753 0.1749
vt 0.5675 0.1765
vt 0.5707 0.1812
vt 0.5658 0.1808
vt 0.5641 0.1851
vt 0.5694 0.1883
vt 0.5643 0.1885
vt 0.5202 0.1846
vt 0.5258 0.1826
vt 0.5256 0.1867
vt 0.5309 0.1888
vt 0.5346 0.1860
vt 0.5332 0.1889
vt 0.5202 0.1943
vt 0.5274 0.1945
vt 0.5227 0.1981
vt 0.5347 0.1947
vt 0.5377 0.1970
vt 0.5342 0.1988
vt 0.5623 0.1956
vt 0.5584 0.1966
vt 0.5576 0.1922
vt 0.5628 0.1862
vt 0.5572 0.1840
vt 0.5614 0.1819
vt 0.5600 0.1776
vt 0.5558 0.1797
vt 0.5577 0.1747
vt 0.5928 0.1975
vt 0.5901 0.1970
vt 0.5911 0.1946
vt 0.5950 0.2084
vt 0.5906 0.2051
vt 0.5939 0.2030
vt 0.6028 0.2033
vt 0.5993 0.1968
vt 0.6047 0.1995
vt 0.5890 0.1881
vt 0.5926 0.1909
vt 0.5922 0.1874
vt 0.5834 0.1896
vt 0.5816 0.1865
vt 0.5495 0.1733
vt 0.5381 0.1700
vt 0.5700 0.2042
vt 0.5750 0.1977
vt 0.5717 0.1956
vt 0.5681 0.1938
vt 0.5732 0.1936
vt 0.5482 0.1829
vt 0.5496 0.1908
vt 0.5430 0.1897
vt 0.5510 0.1992
vt 0.6004 0.1818
vt 0.5432 0.2090
vt 0.5705 0.1729
vt 0.5723 0.1785
vt 0.5251 0.2019
vt 0.5294 0.2024
vt 0.5268 0.2060
vt 0.5773 0.1698
vt 0.5691 0.1855
vt 0.5202 0.1894
vt 0.5256 0.1916
vt 0.5217 0.1810
vt 0.5311 0.1847
vt 0.5299 0.1983
vt 0.5328 0.1918
vt 0.5626 0.1909
vt 0.5579 0.1875
vt 0.5613 0.2006
vt 0.5989 0.2059
vt 0.5978 0.2004
vt 0.5914 0.2091
vt 0.5895 0.1997
vt 0.6066 0.1956
vt 0.6012 0.1929
vt 0.6055 0.1913
vt 0.5943 0.1939
vt 0.5414 0.7646
vt 0.5420 0.7703
vt 0.5391 0.7704
vt 0.5381 0.7647
vt 0.5607 0.7654
vt 0.5594 0.7709
vt 0.5566 0.7704
vt 0.5575 0.7648
vt 0.5479 0.7644
vt 0.5479 0.7702
vt 0.5449 0.7703
vt 0.5446 0.7644
vt 0.5349 0.7653
vt 0.5363 0.7707
vt 0.5335 0.7711
vt 0.5317 0.7658
vt 0.5543 0.7646
vt 0.5537 0.7703
vt 0.5509 0.7702
vt 0.5511 0.7644
vt 0.5479 0.7827
vt 0.5453 0.7828
vt 0.5379 0.7833
vt 0.5353 0.7835
vt 0.5530 0.7827
vt 0.5505 0.7826
vt 0.5428 0.7829
vt 0.5437 0.7955
vt 0.5416 0.7957
vt 0.5403 0.7831
vt 0.5480 0.8045
vt 0.5500 0.8049
vt 0.5498 0.8148
vt 0.5480 0.8139
vt 0.5400 0.8054
vt 0.5421 0.8058
vt 0.5425 0.8159
vt 0.5406 0.8149
vt 0.5519 0.8051
vt 0.5539 0.8054
vt 0.5534 0.8154
vt 0.5516 0.8151
vt 0.5440 0.8049
vt 0.5459 0.8041
vt 0.5461 0.8129
vt 0.5443 0.8144
vt 0.5560 0.8053
vt 0.5580 0.8052
vt 0.5573 0.8142
vt 0.5553 0.8148
vt 0.5515 0.8212
vt 0.5529 0.8213
vt 0.5523 0.8272
vt 0.5515 0.8273
vt 0.5459 0.8209
vt 0.5473 0.8213
vt 0.5489 0.8273
vt 0.5480 0.8274
vt 0.5425 0.8236
vt 0.5438 0.8230
vt 0.5455 0.8283
vt 0.5448 0.8289
vt 0.5990 0.7998
vt 0.6004 0.8007
vt 0.5997 0.8039
vt 0.5984 0.8033
vt 0.5725 0.8009
vt 0.5743 0.8007
vt 0.5750 0.8057
vt 0.5736 0.8056
vt 0.5580 0.7833
vt 0.5566 0.7957
vt 0.5545 0.7953
vt 0.5555 0.7829
vt 0.5788 0.8150
vt 0.5796 0.8156
vt 0.5793 0.8252
vt 0.5786 0.8248
vt 0.5442 0.8218
vt 0.5446 0.8205
vt 0.5471 0.8275
vt 0.5463 0.8279
vt 0.5787 0.8001
vt 0.5798 0.8012
vt 0.5800 0.8060
vt 0.5789 0.8052
vt 0.5768 0.8149
vt 0.5779 0.8144
vt 0.5780 0.8244
vt 0.5773 0.8248
vt 0.5694 0.8021
vt 0.5707 0.8011
vt 0.5722 0.8056
vt 0.5711 0.8063
vt 0.5759 0.7999
vt 0.5775 0.7990
vt 0.5778 0.8043
vt 0.5764 0.8050
vt 0.5747 0.8153
vt 0.5758 0.8154
vt 0.5766 0.8251
vt 0.5758 0.8249
vt 0.5727 0.8157
vt 0.5736 0.8152
vt 0.5750 0.8247
vt 0.5743 0.8251
vt 0.5932 0.7996
vt 0.5947 0.8004
vt 0.5943 0.8033
vt 0.5931 0.8029
vt 0.5487 0.8212
vt 0.5502 0.8211
vt 0.5506 0.8273
vt 0.5497 0.8273
vt 0.5932 0.8106
vt 0.5941 0.8109
vt 0.5939 0.8185
vt 0.5933 0.8183
vt 0.5912 0.8106
vt 0.5922 0.8103
vt 0.5927 0.8180
vt 0.5920 0.8183
vt 0.5961 0.7997
vt 0.5976 0.7990
vt 0.5971 0.8027
vt 0.5957 0.8030
vt 0.5902 0.7993
vt 0.5918 0.7988
vt 0.5918 0.8025
vt 0.5904 0.8030
vt 0.5972 0.8109
vt 0.5983 0.8114
vt 0.5969 0.8189
vt 0.5961 0.8185
vt 0.5951 0.8107
vt 0.5962 0.8104
vt 0.5953 0.8182
vt 0.5946 0.8183
vt 0.5886 0.7998
vt 0.5891 0.8034
vt 0.5882 0.7963
vt 0.5900 0.7957
vt 0.5918 0.7950
vt 0.5950 0.7975
vt 0.5965 0.7964
vt 0.5981 0.7953
vt 0.5902 0.8110
vt 0.5913 0.8186
vt 0.5457 0.8154
vt 0.5477 0.8151
vt 0.5934 0.7962
vt 0.5719 0.8162
vt 0.5737 0.8255
vt 0.5700 0.8070
vt 0.5736 0.7957
vt 0.5754 0.7947
vt 0.5772 0.7938
vt 0.5681 0.8031
vt 0.5661 0.7993
vt 0.5676 0.7979
vt 0.5692 0.7965
vt 0.5784 0.7951
vt 0.5797 0.7964
vt 0.5421 0.8177
vt 0.5421 0.8156
vt 0.5421 0.8135
vt 0.5621 0.7713
vt 0.5604 0.7837
vt 0.5588 0.7961
vt 0.5714 0.7961
vt 0.5996 0.7964
vt 0.6011 0.7975
vt 0.5412 0.8242
vt 0.5441 0.8294
vt 0.5383 0.8190
vt 0.5402 0.8184
vt 0.5439 0.8145
vt 0.5458 0.7953
vt 0.5501 0.7950
vt 0.5523 0.7952
vt 0.5379 0.8049
vt 0.5387 0.8140
vt 0.5372 0.7959
vt 0.5394 0.7958
vt 0.5480 0.7952
vt 0.5549 0.7588
vt 0.5513 0.7586
vt 0.5585 0.7591
vt 0.5335 0.7598
vt 0.5298 0.7606
vt 0.5371 0.7590
vt 0.5478 0.7586
vt 0.5443 0.7586
vt 0.5621 0.7600
vt 0.5657 0.7609
vt 0.5639 0.7661
vt 0.5407 0.7588
vt 0.5959 0.1902
vt 0.6001 0.1886
vt 0.6043 0.1870
vt 0.5868 0.1991
vt 0.5874 0.1964
vt 0.5861 0.2018
vt 0.5869 0.2058
vt 0.5877 0.2098
vt 0.5522 0.1854
vt 0.5515 0.1819
vt 0.5529 0.1889
vt 0.5574 0.2016
vt 0.5544 0.1976
vt 0.5604 0.2055
vt 0.5351 0.1918
vt 0.5356 0.1889
vt 0.5337 0.2029
vt 0.5349 0.1819
vt 0.5384 0.1831
vt 0.5313 0.1806
vt 0.5272 0.1790
vt 0.5232 0.1773
vt 0.5743 0.1887
vt 0.5747 0.1916
vt 0.5740 0.1859
vt 0.5755 0.1832
vt 0.5771 0.1805
vt 0.5827 0.1744
vt 0.5844 0.1785
vt 0.5810 0.1703
vt 0.5311 0.2065
vt 0.5285 0.2101
vt 0.5407 0.1992
vt 0.5879 0.1797
vt 0.5914 0.1808
vt 0.5437 0.2131
vt 0.5502 0.2154
vt 0.5504 0.1972
vt 0.5464 0.1968
vt 0.5436 0.1980
vt 0.5537 0.1933
vt 0.5476 0.1809
vt 0.5438 0.1799
vt 0.5696 0.1918
vt 0.5645 0.1920
vt 0.5411 0.1815
vt 0.5534 0.1768
vt 0.5554 0.1718
vt 0.5838 0.1958
vt 0.5801 0.1953
vt 0.5774 0.1935
vt 0.5936 0.1855
vt 0.5372 0.2011
vt 0.5370 0.1860
vt 0.5807 0.1795
vt 0.5553 0.2104
vn 0.5472 0.0173 -0.8368
vn 0.3524 0.0696 -0.9332
vn 0.4581 0.3642 -0.8109
vn 0.3435 0.5765 -0.7414
vn 0.4465 0.6822 -0.5790
vn 0.5534 0.4897 -0.6737
vn 0.7120 0.3055 -0.6322
vn 0.6148 0.5697 -0.5454
vn 0.7467 0.3678 -0.5542
vn 0.6310 -0.1347 -0.7640
vn 0.6902 -0.1793 -0.7010
vn 0.5180 -0.2801 -0.8082
vn 0.7984 0.0987 -0.5940
vn 0.7236 0.0043 -0.6902
vn 0.7725 -0.0281 -0.6344
vn 0.3959 -0.2870 -0.8723
vn 0.1011 0.1383 -0.9852
vn 0.1589 -0.2249 -0.9613
vn -0.1024 0.0538 -0.9933
vn 0.4430 -0.3158 -0.8391
vn 0.6962 0.6369 0.3310
vn 0.5692 0.8221 0.0074
vn 0.4494 0.8416 0.2997
vn 0.8035 0.5664 -0.1832
vn 0.6421 0.7229 -0.2554
vn 0.6225 0.7669 -0.1559
vn 0.5190 0.5813 0.6267
vn 0.4348 0.5515 0.7119
vn 0.2265 0.8142 0.5345
vn 0.4461 0.5502 0.7059
vn 0.6809 0.0683 0.7292
vn 0.5440 -0.1884 0.8176
vn 0.8195 -0.1569 0.5511
vn 0.4188 0.1306 0.8986
vn 0.5397 0.2434 0.8059
vn 0.4014 -0.0222 0.9156
vn 0.8989 0.3625 0.2460
vn 0.7865 0.6176 0.0082
vn 0.9207 0.2741 -0.2778
vn 0.8115 0.5243 -0.2580
vn 0.8954 0.1059 0.4326
vn -0.4159 0.2612 0.8711
vn -0.4316 0.5094 0.7444
vn -0.5137 0.4827 0.7093
vn -0.5375 0.2312 0.8110
vn -0.7989 0.0760 0.5967
vn -0.8893 0.3539 0.2897
vn -0.9330 -0.0621 0.3544
vn -0.3962 -0.3521 0.8479
vn -0.3390 -0.6993 0.6294
vn -0.1825 -0.5031 0.8447
vn -0.7588 -0.4284 0.4906
vn -0.5932 -0.2013 0.7795
vn -0.5904 -0.5854 0.5557
vn -0.2958 0.0338 0.9546
vn -0.4348 0.2121 0.8752
vn -0.3584 0.2467 0.9004
vn -0.2297 -0.0109 0.9732
vn -0.1858 0.3423 0.9210
vn -0.2009 -0.1599 0.9665
vn -0.8721 -0.2129 -0.4405
vn -0.9590 0.1519 -0.2392
vn -0.8483 0.1090 -0.5182
vn -0.6774 -0.1859 -0.7117
vn -0.3674 -0.0889 -0.9258
vn -0.2313 0.2786 -0.9321
vn -0.2234 -0.0080 -0.9747
vn -0.4912 -0.6351 -0.5961
vn -0.2165 -0.7126 -0.6673
vn -0.4733 -0.7977 -0.3737
vn -0.1780 -0.3362 -0.9248
vn -0.4393 -0.4205 -0.7938
vn -0.1513 -0.5291 -0.8350
vn -0.7960 -0.5355 -0.2821
vn -0.8997 -0.2239 -0.3747
vn -0.9675 -0.2041 -0.1490
vn -0.8380 -0.5368 -0.0978
vn -0.9815 -0.1420 0.1287
vn -0.7184 -0.6552 -0.2335
vn 0.0247 -0.9403 -0.3394
vn 0.1021 -0.6824 -0.7238
vn 0.1961 -0.8061 -0.5584
vn 0.2158 -0.9741 -0.0668
vn 0.4732 -0.8297 -0.2962
vn 0.3735 -0.9274 0.0186
vn 0.5957 -0.7934 0.1250
vn 0.8812 -0.4420 -0.1681
vn 0.7536 -0.6390 0.1541
vn 0.4558 -0.7358 0.5009
vn 0.2868 -0.8745 0.3911
vn 0.1044 -0.8048 0.5843
vn 0.1040 -0.5056 0.8565
vn -0.0080 -0.6783 0.7348
vn 0.0124 -0.9854 0.1695
vn 0.1299 -0.9829 -0.1305
vn -0.1853 -0.9108 0.3689
vn -0.4743 -0.8132 0.3372
vn -0.2853 -0.9511 0.1185
vn -0.4752 0.8746 -0.0958
vn -0.7486 0.6616 0.0427
vn -0.5793 0.8005 0.1536
vn -0.2987 0.9541 -0.0233
vn -0.3110 0.8950 0.3199
vn -0.1952 0.9797 0.0454
vn 0.0716 0.9939 0.0835
vn -0.0894 0.9214 0.3781
vn 0.2379 0.9443 0.2274
vn 0.1087 0.9377 -0.3302
vn 0.3575 0.8545 -0.3768
vn 0.2057 0.7893 -0.5786
vn 0.3337 0.9408 -0.0601
vn 0.0930 0.9849 -0.1460
vn -0.2169 0.9209 -0.3238
vn -0.3412 0.9368 -0.0778
vn 0.2354 0.4048 -0.8836
vn 0.0678 0.6405 -0.7650
vn -0.0638 0.3874 -0.9197
vn 0.6671 0.1939 -0.7193
vn 0.6202 -0.1691 -0.7660
vn 0.3136 0.7954 0.5186
vn 0.7452 0.3047 0.5932
vn 0.9287 0.3618 -0.0814
vn 0.9864 0.1466 0.0747
vn 0.9829 -0.1346 0.1254
vn 0.9714 0.0253 -0.2360
vn -0.3380 0.5582 0.7577
vn -0.7069 0.4624 0.5353
vn -0.3825 0.0353 0.9233
vn -0.9833 0.1637 -0.0802
vn -0.4928 0.1793 -0.8515
vn -0.7330 -0.4756 -0.4864
vn 0.3287 -0.8593 -0.3919
vn -0.1687 -0.9659 -0.1962
vn -0.0572 -0.8162 -0.5749
vn 0.7241 -0.6697 -0.1651
vn 0.1170 -0.9667 0.2275
vn 0.2308 -0.6569 0.7178
vn -0.0717 -0.9936 0.0875
vn -0.0436 -0.8963 0.4413
vn -0.4255 0.8761 0.2267
vn -0.5513 0.7770 -0.3038
vn -0.1510 0.9648 -0.2153
vn 0.3414 0.9190 -0.1971
vn -0.2450 0.8832 -0.3999
vn -0.0866 0.8629 -0.4978
vn 0.0671 0.0680 0.9954
vn 0.0916 0.0122 0.9957
vn -0.5168 0.0676 0.8534
vn -0.5331 0.1035 0.8397
vn -0.6340 0.1557 -0.7575
vn -0.6492 0.1872 -0.7372
vn -0.0933 0.1835 -0.9786
vn -0.0674 0.1491 -0.9865
vn 0.9678 0.0622 0.2441
vn 0.9759 0.0244 0.2167
vn 0.6630 0.0074 0.7486
vn 0.6393 0.0630 0.7664
vn -0.9215 0.1274 0.3669
vn -0.9147 0.1170 0.3867
vn -0.9594 0.1739 -0.2219
vn -0.9570 0.1572 -0.2439
vn 0.5290 0.1154 -0.8407
vn 0.5046 0.1343 -0.8528
vn 0.9123 0.0859 -0.4004
vn 0.9239 0.0924 -0.3713
vn 0.9826 -0.0194 0.1847
vn 0.6863 -0.0488 0.7257
vn -0.9011 0.0863 0.4249
vn -0.9712 0.1565 -0.1795
vn 0.4819 0.1233 -0.8675
vn 0.9051 0.0549 -0.4216
vn 0.1269 -0.0418 0.9910
vn 0.1620 -0.0072 0.9868
vn -0.4384 0.0330 0.8982
vn -0.4794 0.0179 0.8774
vn 0.9937 -0.0319 0.1077
vn 0.8851 -0.0264 -0.4647
vn 0.8324 -0.2370 -0.5009
vn 0.9419 -0.3256 -0.0832
vn -0.8287 0.0319 0.5588
vn -0.3890 0.0519 0.9198
vn -0.2543 0.2926 0.9218
vn -0.5045 -0.2863 0.8146
vn 0.4180 -0.0115 -0.9084
vn -0.2293 0.0122 -0.9733
vn -0.3395 -0.1817 -0.9229
vn 0.3511 -0.3162 -0.8813
vn 0.1354 0.0177 0.9906
vn 0.7276 -0.0192 0.6857
vn 0.6308 -0.3945 0.6682
vn -0.1103 -0.1517 0.9823
vn -0.7260 0.0253 -0.6873
vn -0.9924 0.0251 -0.1201
vn -0.8672 -0.4919 -0.0770
vn -0.6116 -0.2407 -0.7537
vn 0.2733 -0.6590 -0.7007
vn -0.4653 -0.4562 -0.7586
vn -0.3421 -0.5924 -0.7294
vn 0.2845 -0.7187 -0.6345
vn -0.0289 0.7859 0.6177
vn 0.7112 0.4745 0.5187
vn 0.8303 0.3023 0.4682
vn 0.1608 0.7428 0.6499
vn -0.8683 -0.0636 -0.4920
vn -0.9036 0.4176 -0.0961
vn -0.9539 0.2378 -0.1833
vn -0.8531 -0.1671 -0.4942
vn -0.2406 -0.4400 0.8652
vn 0.3307 -0.8343 0.4411
vn 0.4022 -0.8105 0.4259
vn -0.1712 -0.5126 0.8414
vn 0.1219 0.7646 0.6329
vn -0.0028 0.9875 -0.1574
vn 0.2716 0.9468 -0.1725
vn 0.1580 0.7866 0.5970
vn -0.6752 0.1843 -0.7142
vn -0.7084 0.1182 -0.6958
vn -0.1561 0.1102 -0.9816
vn -0.1214 0.1804 -0.9761
vn -0.2947 -0.8217 -0.4879
vn -0.4634 -0.8664 0.1858
vn -0.4783 -0.8526 0.2103
vn -0.3509 -0.8635 -0.3622
vn -0.4090 0.7927 0.4520
vn -0.1756 0.7601 0.6256
vn -0.2509 0.7882 0.5619
vn -0.6495 0.6941 0.3104
vn -0.3431 -0.6715 -0.6568
vn -0.3393 -0.9359 0.0945
vn -0.3540 -0.9214 0.1602
vn -0.2382 -0.8138 -0.5301
vn 0.3210 0.4113 -0.8531
vn 0.0321 -0.2817 -0.9590
vn -0.0196 -0.4080 -0.9128
vn 0.3371 0.3852 -0.8591
vn -0.1788 -0.6304 0.7554
vn 0.0445 0.1243 0.9913
vn -0.0653 0.0836 0.9944
vn -0.2765 -0.6235 0.7313
vn -0.1647 0.4483 -0.8786
vn -0.2697 -0.1162 -0.9559
vn -0.0713 -0.2357 -0.9692
vn 0.1541 0.4698 -0.8692
vn 0.2116 0.8087 0.5488
vn 0.4008 0.8898 -0.2182
vn 0.4187 0.8752 -0.2424
vn 0.2292 0.8220 0.5214
vn -0.4160 -0.5208 0.7455
vn -0.1395 0.2089 0.9679
vn -0.1903 0.1446 0.9710
vn -0.4497 -0.5615 0.6946
vn 0.4868 0.5491 -0.6793
vn -0.0304 0.9731 -0.2285
vn -0.3032 0.8414 -0.4474
vn 0.2072 0.5671 -0.7971
vn 0.9884 -0.0828 0.1270
vn 0.8374 -0.4549 -0.3032
vn 0.7784 -0.5456 -0.3105
vn 0.9800 -0.1586 0.1203
vn 0.0640 0.5600 -0.8260
vn -0.4686 0.7573 -0.4550
vn -0.4991 0.7459 -0.4411
vn 0.0001 0.5829 -0.8125
vn 0.8373 -0.4918 -0.2388
vn 0.6509 0.0278 -0.7586
vn 0.6323 0.0611 -0.7723
vn 0.8508 -0.4684 -0.2382
vn -0.4502 0.8224 0.3479
vn -0.5461 0.2437 0.8015
vn -0.5835 0.1321 0.8013
vn -0.6295 0.7595 0.1640
vn 0.6944 -0.6660 -0.2725
vn 0.7383 -0.1419 -0.6594
vn 0.6739 -0.1019 -0.7317
vn 0.7234 -0.6439 -0.2492
vn -0.0717 -0.4757 0.8767
vn 0.5449 -0.7007 0.4606
vn 0.6027 -0.6824 0.4136
vn 0.0068 -0.5067 0.8621
vn -0.7648 0.6326 0.1219
vn -0.6338 0.1017 0.7667
vn -0.6007 0.0392 0.7985
vn -0.7853 0.6036 0.1377
vn 0.3939 0.8889 0.2340
vn -0.3446 0.7984 0.4938
vn 0.9556 0.1892 -0.2260
vn -0.5345 0.8408 -0.0856
vn -0.6710 0.1789 -0.7195
vn 0.0612 0.7680 0.6375
vn -0.9848 0.1078 -0.1363
vn 0.7104 -0.0209 0.7035
vn 0.8941 0.0288 -0.4469
vn 0.4581 0.0699 -0.8862
vn -0.8820 0.0697 0.4660
vn 0.9887 -0.0113 0.1495
vn 0.5354 0.1005 -0.8386
vn 0.9276 0.0820 -0.3646
vn -0.0613 0.1291 -0.9897
vn -0.9282 0.1197 0.3523
vn -0.9555 0.1415 -0.2587
vn -0.5505 0.1003 0.8288
vn 0.9651 0.0607 0.2548
vn 0.6265 0.0638 0.7768
vn -0.6276 0.1375 -0.7663
vn 0.0499 0.0711 0.9962
vn -0.1538 0.6584 -0.7368
vn -0.2900 0.6067 -0.7401
vn -0.6647 0.4747 -0.5769
vn 0.5008 0.8358 -0.2249
vn 0.5357 0.7466 -0.3944
vn 0.4775 0.8704 -0.1197
vn 0.4180 0.9075 0.0413
vn 0.3137 0.8982 0.3079
vn -0.4151 0.7259 0.5484
vn -0.1856 0.7910 0.5830
vn -0.5923 0.6755 0.4392
vn -0.8816 0.4434 -0.1619
vn -0.9110 0.4074 0.0637
vn -0.1453 -0.7498 0.6455
vn -0.0667 -0.5980 0.7987
vn -0.3556 -0.9174 -0.1786
vn 0.2489 -0.3230 0.9131
vn 0.0589 -0.1729 0.9832
vn 0.3958 -0.4987 0.7711
vn 0.6417 -0.5023 0.5796
vn 0.8677 -0.4321 0.2459
vn 0.8872 -0.2188 -0.4061
vn 0.9079 -0.0357 -0.4177
vn 0.7359 -0.4920 -0.4652
vn 0.5443 -0.5584 -0.6260
vn 0.3831 -0.5966 -0.7052
vn -0.0132 -0.6244 -0.7810
vn 0.1344 -0.4591 -0.8782
vn -0.1055 -0.7456 -0.6580
vn -0.2219 -0.8522 -0.4738
vn -0.7185 -0.6815 0.1390
vn -0.0760 -0.2587 -0.9630
vn -0.1817 0.0146 -0.9832
vn -0.9718 0.1834 0.1484
vn -0.9693 -0.1301 0.2084
vn -0.8541 -0.4613 0.2405
vn -0.7736 0.5794 0.2565
vn 0.0179 0.7529 0.6578
vn 0.2038 0.4926 0.8461
vn 0.9343 -0.3139 -0.1691
vn 0.1762 0.0699 0.9819
vn 0.1306 0.8635 0.4872
vn 0.6732 0.6235 -0.3976
vn 0.8014 0.4550 -0.3882
vn 0.8788 0.2252 -0.4207
vn -0.1885 0.2639 -0.9459
vn -0.5582 -0.8296 -0.0133
vn -0.0205 -0.4091 0.9123
vn 0.2821 -0.4920 -0.8236
usemtl None
s 1
f 1/1/1 155/2/2 206/3/3
f 3/4/4 252/5/5 306/6/6
f 5/7/7 202/8/8 143/9/9
f 7/10/10 245/11/11 296/12/12
f 5/7/7 139/13/13 191/14/14
f 7/10/10 120/15/15 245/11/11
f 1/1/1 182/16/16 155/2/2
f 2/17/17 280/18/18 119/19/19
f 7/10/10 296/12/12 175/20/20
f 13/21/21 127/22/22 179/23/23
f 16/24/24 114/25/25 116/26/26
f 13/27/21 179/28/23 275/29/27
f 17/30/28 313/31/29 150/32/30
f 20/33/31 145/34/32 190/35/33
f 17/30/28 138/36/34 196/37/35
f 20/33/31 238/38/36 145/34/32
f 13/21/21 201/39/37 228/40/38
f 16/24/24 102/41/39 131/42/40
f 20/43/31 190/44/33 300/45/41
f 25/46/42 135/47/43 100/48/44
f 25/46/42 100/48/44 157/49/45
f 27/50/46 205/51/47 253/52/48
f 30/53/49 265/54/50 99/55/51
f 27/50/46 251/56/52 312/57/53
f 30/53/49 159/58/54 265/54/50
f 25/46/42 237/59/55 216/60/56
f 34/61/57 215/62/58 212/63/59
f 30/53/49 99/55/51 290/64/60
f 35/65/61 193/66/62 243/67/63
f 35/65/61 243/67/63 185/68/64
f 37/69/65 130/70/66 288/71/67
f 39/72/68 236/73/69 181/74/70
f 37/69/65 178/75/71 278/76/72
f 39/77/68 277/78/73 236/79/69
f 35/65/61 299/80/74 115/81/75
f 42/82/76 113/83/77 239/84/78
f 39/72/68 181/74/70 284/85/79
f 43/86/80 283/87/81 293/88/82
f 44/89/83 241/90/84 266/91/85
f 45/92/86 292/93/87 98/94/88
f 45/95/86 209/96/89 111/97/90
f 46/98/91 261/99/92 153/100/93
f 44/101/83 151/102/94 214/103/95
f 31/104/96 268/105/97 189/106/98
f 47/107/99 195/108/100 192/109/101
f 48/110/102 240/111/103 276/112/104
f 49/113/105 304/114/106 199/115/107
f 50/116/108 118/117/109 230/118/110
f 49/119/105 298/120/111 165/121/112
f 48/122/102 108/123/113 227/124/114
f 3/4/4 314/125/115 255/126/116
f 2/17/17 119/19/19 158/127/117
f 1/1/1 206/3/3 307/128/118
f 1/1/1 307/128/118 194/129/119
f 5/7/7 143/9/9 139/13/13
f 1/1/1 194/129/119 182/16/16
f 13/21/21 228/40/38 127/22/22
f 16/24/24 131/42/40 114/25/25
f 17/30/28 286/130/120 313/31/29
f 13/27/21 275/29/27 200/131/121
f 17/30/28 150/32/30 138/36/34
f 13/21/21 200/132/121 201/39/37
f 16/24/24 96/133/122 102/41/39
f 24/134/123 285/135/124 316/136/125
f 25/46/42 216/60/56 135/47/43
f 34/61/57 212/63/59 97/137/126
f 27/50/46 259/138/127 205/51/47
f 25/46/42 157/49/45 309/139/128
f 27/50/46 253/52/48 251/56/52
f 25/46/42 309/139/128 237/59/55
f 35/65/61 115/81/75 193/66/62
f 42/82/76 239/84/78 156/140/129
f 37/69/65 294/141/130 130/70/66
f 35/65/61 185/68/64 287/142/131
f 37/69/65 288/71/67 178/75/71
f 35/65/61 287/142/131 299/80/74
f 44/89/83 214/143/95 137/144/132
f 43/145/80 269/146/133 164/147/134
f 43/86/80 164/148/134 283/87/81
f 44/89/83 137/144/132 241/90/84
f 45/92/86 305/149/135 292/93/87
f 44/101/83 266/150/85 204/151/136
f 45/95/86 98/152/88 209/96/89
f 46/98/91 270/153/137 261/99/92
f 44/101/83 204/151/136 151/102/94
f 43/145/80 308/154/138 269/146/133
f 46/98/91 153/100/93 254/155/139
f 48/110/102 227/156/114 234/157/140
f 47/107/99 161/158/141 195/108/100
f 48/110/102 234/157/140 240/111/103
f 48/122/102 276/159/104 177/160/142
f 49/119/105 199/161/107 298/120/111
f 50/116/108 311/162/143 118/117/109
f 48/122/102 177/160/142 108/123/113
f 47/163/99 171/164/144 161/165/141
f 50/116/108 230/118/110 211/166/145
f 354/167/146 95/168/147 53/169/148 152/170/149
f 353/171/150 315/172/151 57/173/152 170/174/153
f 352/175/154 129/176/155 52/177/156 263/178/157
f 351/179/158 248/180/159 56/181/160 257/182/161
f 350/183/162 273/184/163 60/185/164 272/186/165
f 349/187/166 226/188/167 52/177/156 129/176/155
f 348/189/168 148/190/169 56/181/160 248/180/159
f 347/191/170 103/192/171 60/185/164 273/184/163
f 346/193/172 224/194/173 63/195/174 301/196/175
f 345/197/176 180/198/177 66/199/178 295/200/179
f 344/201/180 297/202/181 68/203/182 169/204/183
f 343/205/184 117/206/185 70/207/186 220/208/187
f 342/209/188 233/210/189 67/211/190 229/212/191
f 341/213/192 142/214/193 69/215/194 112/216/195
f 340/217/196 271/218/197 71/219/198 223/220/199
f 339/221/200 101/222/201 74/223/202 267/224/203
f 338/225/204 163/226/205 77/227/206 260/228/207
f 337/229/208 310/230/209 78/231/210 262/232/211
f 336/233/212 317/234/213 80/235/214 128/236/215
f 335/237/216 122/238/217 65/239/218 207/240/219
f 334/241/220 167/242/221 84/243/222 104/244/223
f 333/245/224 256/246/225 75/247/226 250/248/227
f 332/249/228 147/250/229 83/251/230 235/252/231
f 331/253/232 106/254/233 85/255/234 274/256/235
f 330/257/236 160/258/237 81/259/238 126/260/239
f 329/261/240 203/262/241 82/263/242 134/264/243
f 328/265/244 136/266/245 86/267/246 213/268/247
f 327/269/248 105/270/249 87/271/250 210/272/251
f 326/273/252 184/274/253 88/275/254 144/276/255
f 325/277/256 110/278/257 72/279/258 188/280/259
f 324/281/260 166/282/261 90/283/262 247/284/263
f 323/285/264 141/286/265 91/287/266 183/288/267
f 322/289/268 264/290/269 79/291/270 187/292/271
f 321/293/272 125/294/273 89/295/274 133/296/275
f 320/297/276 302/298/277 92/299/278 146/300/279
f 319/301/280 246/302/281 93/303/282 121/304/283
f 166/282/261 319/301/280 121/304/283 90/283/262
f 88/275/254 187/292/271 319/301/280 166/282/261
f 187/292/271 79/291/270 246/302/281 319/301/280
f 246/302/281 320/297/276 146/300/279 93/303/282
f 79/291/270 262/232/211 320/297/276 246/302/281
f 262/232/211 78/231/210 302/298/277 320/297/276
f 310/305/209 321/293/272 133/296/275 78/306/210
f 67/307/190 295/308/179 321/293/272 310/305/209
f 295/308/179 66/309/178 125/294/273 321/293/272
f 184/274/253 322/289/268 187/292/271 88/275/254
f 73/310/284 162/311/285 322/289/268 184/274/253
f 162/311/285 68/312/182 264/290/269 322/289/268
f 302/313/277 323/285/264 183/288/267 92/314/278
f 78/306/210 133/296/275 323/285/264 302/313/277
f 133/296/275 89/295/274 141/286/265 323/285/264
f 141/286/265 324/281/260 247/284/263 91/287/266
f 89/295/274 144/276/255 324/281/260 141/286/265
f 144/276/255 88/275/254 166/282/261 324/281/260
f 101/222/201 325/277/256 188/280/259 74/223/202
f 73/315/284 168/316/286 325/277/256 101/222/201
f 168/316/286 66/199/178 110/278/257 325/277/256
f 125/294/273 326/273/252 144/276/255 89/295/274
f 66/309/178 168/317/286 326/273/252 125/294/273
f 168/317/286 73/310/284 184/274/253 326/273/252
f 167/318/221 327/269/248 210/272/251 84/319/222
f 83/320/230 126/260/239 327/269/248 167/318/221
f 126/260/239 81/259/238 105/270/249 327/269/248
f 105/270/249 328/265/244 213/268/247 87/271/250
f 81/259/238 128/236/215 328/265/244 105/270/249
f 128/236/215 80/235/214 136/266/245 328/265/244
f 317/234/213 329/261/240 134/264/243 80/235/214
f 76/321/287 94/322/288 329/261/240 317/234/213
f 94/322/288 70/323/186 203/262/241 329/261/240
f 147/324/229 330/257/236 126/260/239 83/320/230
f 69/325/194 169/326/183 330/257/236 147/324/229
f 169/326/183 68/327/182 160/258/237 330/257/236
f 136/266/245 331/253/232 274/256/235 86/267/246
f 80/235/214 134/264/243 331/253/232 136/266/245
f 134/264/243 82/263/242 106/254/233 331/253/232
f 203/262/241 332/249/228 235/252/231 82/263/242
f 70/323/186 112/328/195 332/249/228 203/262/241
f 112/328/195 69/329/194 147/250/229 332/249/228
f 163/226/205 333/245/224 250/248/227 77/227/206
f 76/330/287 107/331/289 333/245/224 163/226/205
f 107/331/289 68/332/182 256/246/225 333/245/224
f 106/254/233 334/241/220 104/244/223 85/255/234
f 82/263/242 235/252/231 334/241/220 106/254/233
f 235/252/231 83/251/230 167/242/221 334/241/220
f 315/172/151 335/237/216 207/240/219 57/173/152
f 56/333/160 148/334/169 335/237/216 315/172/151
f 148/334/169 64/335/290 122/238/217 335/237/216
f 160/258/237 336/233/212 128/236/215 81/259/238
f 68/327/182 107/336/289 336/233/212 160/258/237
f 107/336/289 76/321/287 317/234/213 336/233/212
f 264/290/269 337/229/208 262/232/211 79/291/270
f 68/312/182 229/337/191 337/229/208 264/290/269
f 229/337/191 67/338/190 310/230/209 337/229/208
f 271/339/197 338/225/204 260/228/207 71/340/198
f 70/341/186 94/342/288 338/225/204 271/339/197
f 94/342/288 76/330/287 163/226/205 338/225/204
f 256/246/225 339/221/200 267/224/203 75/247/226
f 68/332/182 162/343/285 339/221/200 256/246/225
f 162/343/285 73/315/284 101/222/201 339/221/200
f 110/278/257 340/217/196 223/220/199 72/279/258
f 66/199/178 220/208/187 340/217/196 110/278/257
f 220/208/187 70/207/186 271/218/197 340/217/196
f 117/206/185 341/213/192 112/216/195 70/207/186
f 65/239/218 122/238/217 341/213/192 117/206/185
f 122/238/217 64/335/290 142/214/193 341/213/192
f 297/202/181 342/209/188 229/212/191 68/203/182
f 63/195/174 224/194/173 342/209/188 297/202/181
f 224/194/173 62/344/291 233/210/189 342/209/188
f 180/198/177 343/205/184 220/208/187 66/199/178
f 61/345/292 218/346/293 343/205/184 180/198/177
f 218/346/293 65/239/218 117/206/185 343/205/184
f 142/347/193 344/201/180 169/204/183 69/348/194
f 64/349/290 281/350/294 344/201/180 142/347/193
f 281/350/294 63/195/174 297/202/181 344/201/180
f 233/210/189 345/197/176 295/200/179 67/211/190
f 62/344/291 176/351/295 345/197/176 233/210/189
f 176/351/295 61/345/292 180/198/177 345/197/176
f 95/168/147 346/193/172 301/196/175 53/169/148
f 52/177/156 226/188/167 346/193/172 95/168/147
f 226/188/167 62/344/291 224/194/173 346/193/172
f 207/240/219 347/191/170 273/184/163 57/173/152
f 65/239/218 218/346/293 347/191/170 207/240/219
f 218/346/293 61/345/292 103/192/171 347/191/170
f 301/196/175 348/189/168 248/180/159 53/169/148
f 63/195/174 281/350/294 348/189/168 301/196/175
f 281/350/294 64/349/290 148/190/169 348/189/168
f 103/192/171 349/187/166 129/176/155 60/185/164
f 61/345/292 176/351/295 349/187/166 103/192/171
f 176/351/295 62/344/291 226/188/167 349/187/166
f 219/352/296 350/183/162 272/186/165 59/353/297
f 58/354/298 170/174/153 350/183/162 219/352/296
f 170/174/153 57/173/152 273/184/163 350/183/162
f 198/355/299 351/179/158 257/182/161 55/356/300
f 54/357/301 152/170/149 351/179/158 198/355/299
f 152/170/149 53/169/148 248/180/159 351/179/158
f 282/358/302 352/175/154 263/178/157 51/359/303
f 59/353/297 272/186/165 352/175/154 282/358/302
f 272/186/165 60/185/164 129/176/155 352/175/154
f 123/360/304 353/171/150 170/174/153 58/354/298
f 55/361/300 257/362/161 353/171/150 123/360/304
f 257/362/161 56/333/160 315/172/151 353/171/150
f 149/363/305 354/167/146 152/170/149 54/357/301
f 51/359/303 263/178/157 354/167/146 149/363/305
f 263/178/157 52/177/156 95/168/147 354/167/146
f 211/166/145 255/126/116 38/364/306
f 211/166/145 230/118/110 255/126/116
f 230/118/110 3/4/4 255/126/116
f 161/165/141 231/365/307 36/366/308
f 161/165/141 171/164/144 231/365/307
f 171/164/144 38/364/306 231/365/307
f 108/123/113 211/166/145 38/364/306
f 108/123/113 177/160/142 211/166/145
f 177/160/142 50/116/108 211/166/145
f 118/117/109 221/367/309 4/368/310
f 118/117/109 311/162/143 221/367/309
f 311/162/143 14/369/311 221/367/309
f 298/120/111 279/370/312 14/369/311
f 298/120/111 199/161/107 279/370/312
f 199/161/107 15/371/313 279/370/312
f 177/160/142 165/121/112 50/116/108
f 177/160/142 276/159/104 165/121/112
f 276/159/104 49/119/105 165/121/112
f 240/111/103 172/372/314 18/373/315
f 240/111/103 234/157/140 172/372/314
f 234/157/140 26/374/316 172/372/314
f 195/108/100 242/375/317 28/376/318
f 195/108/100 161/158/141 242/375/317
f 161/158/141 36/377/308 242/375/317
f 234/157/140 192/109/101 26/374/316
f 234/157/140 227/156/114 192/109/101
f 227/156/114 47/107/99 192/109/101
f 254/155/139 217/378/319 31/104/96
f 254/155/139 153/100/93 217/378/319
f 153/100/93 32/379/320 217/378/319
f 269/146/133 189/106/98 41/380/321
f 269/146/133 308/154/138 189/106/98
f 308/154/138 31/104/96 189/106/98
f 151/102/94 254/155/139 31/104/96
f 151/102/94 204/151/136 254/155/139
f 204/151/136 46/98/91 254/155/139
f 261/99/92 132/381/322 23/382/323
f 261/99/92 270/153/137 132/381/322
f 270/153/137 21/383/324 132/381/322
f 209/96/89 291/384/325 21/383/324
f 209/96/89 98/152/88 291/384/325
f 98/152/88 22/385/326 291/384/325
f 204/151/136 111/97/90 46/98/91
f 204/151/136 266/150/85 111/97/90
f 266/150/85 45/95/86 111/97/90
f 292/93/87 225/386/327 10/387/328
f 292/93/87 305/149/135 225/386/327
f 305/149/135 8/388/329 225/386/327
f 241/90/84 197/389/330 8/388/329
f 241/90/84 137/144/132 197/389/330
f 137/144/132 9/390/331 197/389/330
f 283/87/81 124/391/332 11/392/333
f 283/87/81 164/148/134 124/391/332
f 164/148/134 40/393/334 124/391/332
f 164/147/134 289/394/335 40/395/334
f 164/147/134 269/146/133 289/394/335
f 269/146/133 41/380/321 289/394/335
f 137/144/132 293/88/82 9/390/331
f 137/144/132 214/143/95 293/88/82
f 214/143/95 43/86/80 293/88/82
f 299/80/74 284/85/79 33/396/336
f 299/80/74 287/142/131 284/85/79
f 287/142/131 39/72/68 284/85/79
f 178/75/71 222/397/337 11/392/333
f 178/75/71 288/71/67 222/397/337
f 288/71/67 12/398/338 222/397/337
f 287/142/131 278/399/72 39/72/68
f 287/142/131 185/68/64 278/399/72
f 185/68/64 37/400/65 278/399/72
f 130/70/66 231/365/307 38/364/306
f 130/70/66 294/141/130 231/365/307
f 294/141/130 36/366/308 231/365/307
f 156/140/129 154/401/339 28/376/318
f 156/140/129 239/84/78 154/401/339
f 239/84/78 29/402/340 154/401/339
f 193/66/62 156/140/129 28/376/318
f 193/66/62 115/81/75 156/140/129
f 115/81/75 42/82/76 156/140/129
f 237/59/55 290/64/60 23/382/323
f 237/59/55 309/139/128 290/64/60
f 309/139/128 30/53/49 290/64/60
f 251/56/52 258/403/341 33/396/336
f 251/56/52 253/52/48 258/403/341
f 253/52/48 29/402/340 258/403/341
f 309/139/128 312/57/53 30/53/49
f 309/139/128 157/49/45 312/57/53
f 157/49/45 27/50/46 312/57/53
f 205/51/47 318/404/342 28/376/318
f 205/51/47 259/138/127 318/404/342
f 259/138/127 26/374/316 318/404/342
f 97/137/126 249/405/343 18/373/315
f 97/137/126 212/63/59 249/405/343
f 212/63/59 19/406/344 249/405/343
f 135/47/43 97/137/126 18/373/315
f 135/47/43 216/60/56 97/137/126
f 216/60/56 34/61/57 97/137/126
f 316/136/125 208/407/345 10/387/328
f 316/136/125 285/135/124 208/407/345
f 285/135/124 22/408/326 208/407/345
f 102/41/39 316/136/125 10/387/328
f 102/41/39 96/133/122 316/136/125
f 96/133/122 24/134/123 316/136/125
f 201/39/37 300/45/41 24/134/123
f 201/39/37 200/132/121 300/45/41
f 200/132/121 20/43/31 300/45/41
f 138/36/34 140/409/346 23/382/323
f 138/36/34 150/32/30 140/409/346
f 150/32/30 19/406/344 140/409/346
f 200/131/121 196/37/35 20/33/31
f 200/131/121 275/29/27 196/37/35
f 275/29/27 17/30/28 196/37/35
f 313/31/29 303/410/347 18/373/315
f 313/31/29 286/130/120 303/410/347
f 286/130/120 15/411/313 303/410/347
f 114/25/25 244/412/348 4/368/310
f 114/25/25 131/42/40 244/412/348
f 131/42/40 6/413/349 244/412/348
f 127/22/22 116/26/26 14/369/311
f 127/22/22 228/40/38 116/26/26
f 228/40/38 16/24/24 116/26/26
f 182/16/16 175/20/20 11/392/333
f 182/16/16 194/129/119 175/20/20
f 194/129/119 7/10/10 175/20/20
f 139/13/13 232/414/350 10/387/328
f 139/13/13 143/9/9 232/414/350
f 143/9/9 6/413/349 232/414/350
f 194/129/119 191/14/14 7/10/10
f 194/129/119 307/128/118 191/14/14
f 307/128/118 5/7/7 191/14/14
f 307/128/118 306/6/6 5/7/7
f 307/128/118 206/3/3 306/6/6
f 206/3/3 3/4/4 306/6/6
f 158/127/117 109/415/351 38/364/306
f 158/127/117 119/19/19 109/415/351
f 119/19/19 12/398/338 109/415/351
f 255/126/116 158/127/117 38/364/306
f 255/126/116 314/125/115 158/127/117
f 314/125/115 2/17/17 158/127/117
f 227/124/114 171/164/144 47/163/99
f 227/124/114 108/123/113 171/164/144
f 108/123/113 38/364/306 171/164/144
f 165/121/112 311/162/143 50/116/108
f 165/121/112 298/120/111 311/162/143
f 298/120/111 14/369/311 311/162/143
f 230/118/110 252/5/5 3/4/4
f 230/118/110 118/117/109 252/5/5
f 118/117/109 4/368/310 252/5/5
f 199/115/107 303/410/347 15/411/313
f 199/115/107 304/114/106 303/410/347
f 304/114/106 18/373/315 303/410/347
f 276/112/104 304/114/106 49/113/105
f 276/112/104 240/111/103 304/114/106
f 240/111/103 18/373/315 304/114/106
f 192/109/101 318/404/342 26/374/316
f 192/109/101 195/108/100 318/404/342
f 195/108/100 28/376/318 318/404/342
f 189/106/98 174/416/352 41/380/321
f 189/106/98 268/105/97 174/416/352
f 268/105/97 33/396/336 174/416/352
f 214/103/95 308/154/138 43/145/80
f 214/103/95 151/102/94 308/154/138
f 151/102/94 31/104/96 308/154/138
f 153/100/93 186/417/353 32/379/320
f 153/100/93 261/99/92 186/417/353
f 261/99/92 23/382/323 186/417/353
f 111/97/90 270/153/137 46/98/91
f 111/97/90 209/96/89 270/153/137
f 209/96/89 21/383/324 270/153/137
f 98/94/88 208/407/345 22/408/326
f 98/94/88 292/93/87 208/407/345
f 292/93/87 10/387/328 208/407/345
f 266/91/85 305/149/135 45/92/86
f 266/91/85 241/90/84 305/149/135
f 241/90/84 8/388/329 305/149/135
f 293/88/82 173/418/354 9/390/331
f 293/88/82 283/87/81 173/418/354
f 283/87/81 11/392/333 173/418/354
f 284/85/79 174/416/352 33/396/336
f 284/85/79 181/74/70 174/416/352
f 181/74/70 41/380/321 174/416/352
f 239/84/78 258/403/341 29/402/340
f 239/84/78 113/83/77 258/403/341
f 113/83/77 33/396/336 258/403/341
f 115/81/75 113/83/77 42/82/76
f 115/81/75 299/80/74 113/83/77
f 299/80/74 33/396/336 113/83/77
f 236/79/69 124/391/332 40/393/334
f 236/79/69 277/78/73 124/391/332
f 277/78/73 11/392/333 124/391/332
f 278/76/72 277/78/73 39/77/68
f 278/76/72 178/75/71 277/78/73
f 178/75/71 11/392/333 277/78/73
f 181/74/70 289/394/335 41/380/321
f 181/74/70 236/73/69 289/394/335
f 236/73/69 40/395/334 289/394/335
f 288/71/67 109/415/351 12/398/338
f 288/71/67 130/70/66 109/415/351
f 130/70/66 38/364/306 109/415/351
f 185/68/64 294/419/130 37/400/65
f 185/68/64 243/67/63 294/419/130
f 243/67/63 36/377/308 294/419/130
f 243/67/63 242/375/317 36/377/308
f 243/67/63 193/66/62 242/375/317
f 193/66/62 28/376/318 242/375/317
f 290/64/60 186/417/353 23/382/323
f 290/64/60 99/55/51 186/417/353
f 99/55/51 32/379/320 186/417/353
f 212/63/59 140/409/346 19/406/344
f 212/63/59 215/62/58 140/409/346
f 215/62/58 23/382/323 140/409/346
f 216/60/56 215/62/58 34/61/57
f 216/60/56 237/59/55 215/62/58
f 237/59/55 23/382/323 215/62/58
f 265/54/50 268/105/97 31/104/96
f 265/54/50 159/58/54 268/105/97
f 159/58/54 33/396/336 268/105/97
f 312/57/53 159/58/54 30/53/49
f 312/57/53 251/56/52 159/58/54
f 251/56/52 33/396/336 159/58/54
f 99/55/51 217/378/319 32/379/320
f 99/55/51 265/54/50 217/378/319
f 265/54/50 31/104/96 217/378/319
f 253/52/48 154/401/339 29/402/340
f 253/52/48 205/51/47 154/401/339
f 205/51/47 28/376/318 154/401/339
f 157/49/45 259/138/127 27/50/46
f 157/49/45 100/48/44 259/138/127
f 100/48/44 26/374/316 259/138/127
f 100/48/44 172/372/314 26/374/316
f 100/48/44 135/47/43 172/372/314
f 135/47/43 18/373/315 172/372/314
f 300/45/41 285/135/124 24/134/123
f 300/45/41 190/44/33 285/135/124
f 190/44/33 22/408/326 285/135/124
f 131/42/40 232/414/350 6/413/349
f 131/42/40 102/41/39 232/414/350
f 102/41/39 10/387/328 232/414/350
f 228/40/38 96/133/122 16/24/24
f 228/40/38 201/39/37 96/133/122
f 201/39/37 24/134/123 96/133/122
f 145/34/32 132/381/322 21/383/324
f 145/34/32 238/38/36 132/381/322
f 238/38/36 23/382/323 132/381/322
f 196/37/35 238/38/36 20/33/31
f 196/37/35 138/36/34 238/38/36
f 138/36/34 23/382/323 238/38/36
f 190/35/33 291/384/325 22/385/326
f 190/35/33 145/34/32 291/384/325
f 145/34/32 21/383/324 291/384/325
f 150/32/30 249/405/343 19/406/344
f 150/32/30 313/31/29 249/405/343
f 313/31/29 18/373/315 249/405/343
f 275/29/27 286/130/120 17/30/28
f 275/29/27 179/28/23 286/130/120
f 179/28/23 15/411/313 286/130/120
f 116/26/26 221/367/309 14/369/311
f 116/26/26 114/25/25 221/367/309
f 114/25/25 4/368/310 221/367/309
f 179/23/23 279/370/312 15/371/313
f 179/23/23 127/22/22 279/370/312
f 127/22/22 14/369/311 279/370/312
f 175/20/20 173/418/354 11/392/333
f 175/20/20 296/12/12 173/418/354
f 296/12/12 9/390/331 173/418/354
f 119/19/19 222/397/337 12/398/338
f 119/19/19 280/18/18 222/397/337
f 280/18/18 11/392/333 222/397/337
f 155/2/2 280/18/18 2/17/17
f 155/2/2 182/16/16 280/18/18
f 182/16/16 11/392/333 280/18/18
f 245/11/11 225/386/327 8/388/329
f 245/11/11 120/15/15 225/386/327
f 120/15/15 10/387/328 225/386/327
f 191/14/14 120/15/15 7/10/10
f 191/14/14 139/13/13 120/15/15
f 139/13/13 10/387/328 120/15/15
f 296/12/12 197/389/330 9/390/331
f 296/12/12 245/11/11 197/389/330
f 245/11/11 8/388/329 197/389/330
f 143/9/9 244/412/348 6/413/349
f 143/9/9 202/8/8 244/412/348
f 202/8/8 4/368/310 244/412/348
f 306/6/6 202/8/8 5/7/7
f 306/6/6 252/5/5 202/8/8
f 252/5/5 4/368/310 202/8/8
f 206/3/3 314/125/115 3/4/4
f 206/3/3 155/2/2 314/125/115
f 155/2/2 2/17/17 314/125/115
