# Blender v2.78 (sub 0) OBJ File: ''
# www.blender.org
mtllib Apple_Tree_NoLeaves_m_06.mtl
o Apple_Tree_NoLeaves_m_06
v 0.120279 0.043883 0.174874
v 0.052858 0.469513 0.134253
v -0.143416 0.459886 0.133193
v -0.127084 0.042095 0.174796
v -0.203524 0.041542 -0.060511
v -0.203640 0.455039 -0.053226
v -0.045973 0.467726 -0.167401
v -0.003403 0.042989 -0.205889
v 0.196719 0.044436 -0.060436
v 0.111695 0.480413 -0.052062
v -0.106219 1.403551 -0.025397
v -0.110218 1.265656 0.124247
v -0.299479 1.371512 0.117770
v -0.366588 1.339027 -0.050644
v -0.241782 1.365787 -0.141714
v -0.224881 1.595807 0.108924
v -0.039594 1.745071 0.331114
v 0.053893 1.669008 0.283550
v -0.678441 2.359412 0.076165
v -0.719177 2.206768 -0.056335
v -0.612865 2.358731 -0.126238
v -0.472070 2.350545 -0.044693
v 0.028181 1.612678 0.358873
v -0.608517 3.682382 0.003868
v -0.544584 3.687297 0.056252
v -0.519548 2.362826 0.084161
v -0.568417 3.685561 0.129454
v -0.648617 3.679202 0.127156
v -0.705087 2.555083 -0.037724
v -0.670246 3.688131 0.050301
v -0.967242 2.755621 -0.051355
v -1.004596 2.699316 0.013572
v -0.900413 5.134406 0.125933
v -0.912332 5.132003 0.088281
v -0.882079 5.138065 0.068244
v -0.847287 5.057840 0.121033
v -0.802840 6.180725 0.110773
v -0.819826 6.181331 0.111894
v -0.970031 2.679981 -0.103474
v -1.041655 2.667653 -0.059827
v -1.666347 3.187469 -0.256593
v -1.623013 3.183631 -0.283738
v -1.609872 3.227584 -0.253284
v -1.640361 3.200885 -0.214993
v -1.932786 4.009211 -0.387280
v -1.947369 4.031394 -0.403787
v -1.930787 4.036879 -0.403228
v -1.929342 4.002302 -0.408187
v -0.825548 6.181577 0.094067
v -0.811152 6.181006 0.084863
v -0.064091 1.650815 0.378039
v 0.360574 2.280615 0.717512
v 0.282237 2.289783 0.729432
v 0.265695 2.312587 0.648421
v 0.361503 2.276816 0.641341
v 0.635457 3.245334 0.824911
v 0.636008 3.249560 0.859356
v 0.591714 3.260357 0.827714
v 0.601020 3.252400 0.865142
v 0.875813 3.952423 1.063140
v 0.881668 3.979494 1.054999
v 0.891668 3.951641 1.043811
v 0.897765 3.968730 1.064439
v 0.105649 1.942495 0.559842
v -0.542614 2.996858 0.106677
v 0.369187 2.276927 0.678755
v -0.304916 1.858977 -0.050905
v -0.354287 1.344181 0.028900
v -0.567426 3.774549 0.097627
v -0.595746 3.000831 -0.062712
v 0.322442 2.284927 0.731042
v 0.501027 2.762419 0.794523
v -0.059664 1.703016 0.357469
v -0.808245 6.209205 0.111484
v 0.096813 0.476176 0.045878
v -0.811347 2.593704 -0.039937
v -0.520569 2.349643 -0.094216
v -0.036786 0.873742 0.118155
v -0.120043 0.042265 -0.156017
v -0.182505 1.491478 0.240593
v -1.322109 2.928742 -0.095328
v -1.007935 2.669301 -0.087009
v -0.694983 4.333202 0.125654
v -1.796196 3.648978 -0.336655
v -0.485190 2.356614 0.023251
v 0.777474 3.646515 0.966338
v -1.816418 3.634589 -0.312759
v 0.041845 0.474820 -0.122092
v -0.643054 3.684936 0.021859
v 0.894314 3.981751 1.070393
v -0.685203 4.334149 0.095557
v -0.420409 1.838133 -0.138570
v -0.269851 0.879318 -0.051080
v -0.202242 0.208459 -0.058528
v 0.428571 2.778676 0.740905
v -1.613105 3.206566 -0.271453
v -0.870340 5.728045 0.118626
v -0.869410 5.140584 0.092224
v 0.887075 3.986693 1.066177
v -0.017014 0.214945 -0.192866
v 0.189825 1.918979 0.542932
v -0.708299 2.233630 0.013218
v 0.613179 3.252952 0.823404
v 0.593172 3.257080 0.846775
v -0.881129 5.138294 0.129051
v 0.748571 3.657864 0.947140
v -1.960927 4.103485 -0.414974
v -0.172221 1.376988 -0.104929
v 0.618920 3.250874 0.865158
v -0.878637 5.727001 0.092532
v -0.190411 1.277218 0.136082
v -1.940285 4.048882 -0.399978
v -0.496198 1.837870 0.088860
v -0.131491 0.210937 0.159567
v -0.909152 5.132533 0.108036
v 0.009210 0.911807 -0.049167
v 0.902538 3.981519 1.060312
v -0.188064 0.456249 0.044647
v 0.009423 1.713897 0.302307
v -0.003403 0.042989 0.203039
v 0.912212 4.030660 1.077893
v 0.777201 3.646269 0.943412
v -0.665374 3.683148 0.090474
v -0.709922 2.512619 0.024503
v -0.608517 3.682381 0.134611
v 0.265817 2.302974 0.689598
v -0.311296 1.351104 -0.106325
v -0.061827 1.445809 0.225690
v 0.097462 0.218953 0.159976
v 0.106333 1.998257 0.491751
v 0.499980 2.754896 0.738016
v -0.215994 0.883073 0.115740
v -0.963634 2.720420 -0.082006
v -1.806892 3.622670 -0.355342
v -0.819858 6.209906 0.102951
v -0.508801 2.997771 0.002844
v -0.868881 2.452063 -0.050230
v -0.131811 1.621026 0.208178
v -0.673561 2.511591 -0.087653
v -1.354638 2.908220 -0.151805
v -0.133790 0.460633 -0.122734
v -0.667968 3.054730 0.004359
v -1.833121 3.627754 -0.338375
v -1.285291 2.968535 -0.145939
v 0.048859 1.635771 0.318319
v -1.623310 3.216784 -0.230927
v -0.572877 3.685159 0.025084
v -0.845313 5.731199 0.117277
v -0.794568 4.412417 0.072948
v -0.983827 2.731985 -0.013533
v 0.185325 0.044160 0.065934
v -0.815422 6.209639 0.089146
v -0.020228 1.624889 0.373481
v -1.656691 3.193218 -0.232851
v -0.898448 5.134734 0.074327
v 0.754032 3.649634 0.970960
v 0.113237 0.043713 -0.155986
v -1.946216 4.043120 -0.410122
v -0.670400 2.233042 -0.103939
v -0.130667 0.897076 -0.152345
v -0.080495 1.296285 0.054479
v -0.857612 5.729650 0.078588
v -1.646487 3.183001 -0.273377
v -0.748422 4.418654 0.041155
v -0.538163 1.791252 -0.054033
v -0.168114 1.550618 0.045827
v 0.312563 2.294974 0.637311
v -0.192130 0.041818 0.065863
v -0.803809 6.208937 0.097678
v -1.296943 2.908982 -0.186583
v -0.045279 0.464699 0.149058
v 0.203159 1.944013 0.468279
v -1.947650 4.046562 -0.400221
v 0.168213 0.221431 -0.057981
v -0.275195 1.532480 0.125337
v -0.784855 2.496384 -0.110202
v 0.443876 2.766861 0.803164
v -1.938851 4.045441 -0.409880
v -0.650456 2.999356 0.105283
v 0.638927 3.246746 0.841787
v -0.584901 2.355297 0.095134
v 0.895299 3.986461 1.056096
v -0.378056 1.921655 0.086491
v -1.028128 2.680865 -0.018536
v -0.776760 4.414843 0.129008
v -0.834611 2.507357 0.048318
v -0.030949 1.518888 0.125711
v 0.762633 3.652419 0.943214
v 0.766006 3.647722 0.970711
v 0.473172 2.764451 0.804083
v 0.430552 2.774014 0.772543
v 0.779635 3.645743 0.954507
v 0.749004 3.654398 0.959419
v 0.204478 1.928065 0.503824
v 0.155364 1.974700 0.473717
v 0.463554 2.766975 0.734221
v 0.506175 2.757413 0.765760
v -0.166932 1.562773 0.228681
v -0.125765 1.459704 0.238982
v 0.098006 1.973807 0.527578
v -0.331778 1.894569 0.021338
v -0.438505 1.884737 0.099406
v 0.147119 1.927172 0.557684
v -0.876520 5.727267 0.106254
v -0.849431 5.730680 0.097258
v -0.869033 5.728210 0.082702
v -0.802808 6.294207 0.100060
v -1.821216 3.623750 -0.348813
v -1.799494 3.636235 -0.347801
v -1.342543 2.916692 -0.119800
v -1.301751 2.952172 -0.116349
v -1.805098 3.643245 -0.322753
v -1.826819 3.630762 -0.323765
v -0.793368 2.550809 -0.081609
v -0.856480 2.473945 0.005583
v -1.286947 2.940547 -0.170028
v -0.827211 2.467490 -0.087664
v -0.666705 3.029543 0.057578
v -1.327740 2.905068 -0.173479
v -0.208306 0.887170 -0.112996
v -0.856918 5.729737 0.120809
v -0.773953 4.415225 0.052471
v -0.747947 4.418769 0.134331
v -0.725107 4.421549 0.063698
v -0.790025 4.413035 0.102315
v -0.822636 2.557263 0.011638
v -0.517426 2.997538 0.057594
v -0.636187 3.030366 -0.036131
v -0.597324 2.995384 0.114520
v -0.547944 2.996715 -0.037111
v -0.486099 1.812321 -0.105979
v -0.036614 1.475828 0.171405
v -0.354496 1.847692 -0.103987
v -0.526865 1.808566 0.021066
v -0.077782 1.578897 0.161104
v -0.126043 0.876894 0.130936
v -0.053028 0.906982 -0.111999
v -0.256289 0.881048 0.036452
v -0.000420 0.892922 0.038910
v 0.086308 0.218563 -0.140162
v -0.184194 0.209091 0.056121
v 0.150165 0.220799 0.056657
v -0.120337 0.211327 -0.140463
v -0.017015 0.214945 0.178016
vt 0.3085 0.7711
vt 0.3089 0.7743
vt 0.3073 0.7744
vt 0.3067 0.7714
vt 0.3194 0.7722
vt 0.3183 0.7751
vt 0.3168 0.7746
vt 0.3177 0.7715
vt 0.3122 0.7708
vt 0.3121 0.7741
vt 0.3105 0.7741
vt 0.3104 0.7708
vt 0.3049 0.7718
vt 0.3057 0.7746
vt 0.3041 0.7749
vt 0.3031 0.7722
vt 0.3159 0.7712
vt 0.3152 0.7744
vt 0.3137 0.7741
vt 0.3140 0.7708
vt 0.3117 0.7808
vt 0.3104 0.7805
vt 0.3062 0.7815
vt 0.3048 0.7816
vt 0.3145 0.7812
vt 0.3131 0.7810
vt 0.3090 0.7809
vt 0.3091 0.7876
vt 0.3079 0.7883
vt 0.3076 0.7814
vt 0.3235 0.7948
vt 0.3246 0.7956
vt 0.3245 0.7980
vt 0.3234 0.7975
vt 0.3064 0.7956
vt 0.3076 0.7959
vt 0.3074 0.8035
vt 0.3062 0.8030
vt 0.3134 0.7955
vt 0.3146 0.7957
vt 0.3142 0.8031
vt 0.3131 0.8029
vt 0.3214 0.7940
vt 0.3224 0.7939
vt 0.3223 0.7970
vt 0.3215 0.7968
vt 0.3159 0.7958
vt 0.3171 0.7958
vt 0.3168 0.8028
vt 0.3155 0.8030
vt 0.3129 0.8126
vt 0.3138 0.8127
vt 0.3133 0.8223
vt 0.3127 0.8223
vt 0.3094 0.8128
vt 0.3102 0.8126
vt 0.3109 0.8223
vt 0.3104 0.8224
vt 0.3145 0.8133
vt 0.3152 0.8138
vt 0.3145 0.8223
vt 0.3139 0.8223
vt 0.3112 0.8125
vt 0.3120 0.8124
vt 0.3121 0.8222
vt 0.3115 0.8223
vt 0.3299 0.8314
vt 0.3289 0.8308
vt 0.3291 0.8282
vt 0.3299 0.8284
vt 0.3102 0.8335
vt 0.3107 0.8334
vt 0.3116 0.8444
vt 0.3113 0.8444
vt 0.3127 0.8334
vt 0.3133 0.8334
vt 0.3132 0.8444
vt 0.3127 0.8444
vt 0.3111 0.8334
vt 0.3116 0.8334
vt 0.3122 0.8445
vt 0.3119 0.8444
vt 0.3137 0.8333
vt 0.3142 0.8333
vt 0.3138 0.8443
vt 0.3135 0.8443
vt 0.3126 0.8528
vt 0.3128 0.8528
vt 0.3133 0.8612
vt 0.3132 0.8612
vt 0.3173 0.7818
vt 0.3162 0.7886
vt 0.3150 0.7883
vt 0.3159 0.7815
vt 0.3276 0.8222
vt 0.3271 0.8219
vt 0.3276 0.8157
vt 0.3280 0.8160
vt 0.3079 0.8135
vt 0.3086 0.8130
vt 0.3098 0.8224
vt 0.3091 0.8225
vt 0.3267 0.8320
vt 0.3259 0.8317
vt 0.3267 0.8280
vt 0.3273 0.8284
vt 0.3286 0.8223
vt 0.3281 0.8225
vt 0.3283 0.8162
vt 0.3288 0.8160
vt 0.3319 0.8318
vt 0.3309 0.8319
vt 0.3306 0.8286
vt 0.3313 0.8283
vt 0.3283 0.8316
vt 0.3276 0.8324
vt 0.3278 0.8289
vt 0.3285 0.8285
vt 0.3305 0.8085
vt 0.3302 0.8086
vt 0.3303 0.8011
vt 0.3304 0.8011
vt 0.3300 0.8085
vt 0.3296 0.8084
vt 0.3301 0.8011
vt 0.3302 0.8011
vt 0.3298 0.8222
vt 0.3292 0.8220
vt 0.3292 0.8158
vt 0.3297 0.8160
vt 0.3309 0.8221
vt 0.3304 0.8224
vt 0.3302 0.8161
vt 0.3306 0.8159
vt 0.3253 0.7838
vt 0.3254 0.7838
vt 0.3254 0.7839
vt 0.3255 0.7840
vt 0.3253 0.7840
vt 0.3294 0.8086
vt 0.3291 0.8087
vt 0.3299 0.8011
vt 0.3300 0.8011
vt 0.3289 0.8085
vt 0.3286 0.8083
vt 0.3296 0.8009
vt 0.3298 0.8010
vt 0.3255 0.7820
vt 0.3252 0.7820
vt 0.3252 0.7819
vt 0.3255 0.7819
vt 0.3137 0.8528
vt 0.3139 0.8527
vt 0.3140 0.8612
vt 0.3139 0.8612
vt 0.3131 0.8528
vt 0.3135 0.8528
vt 0.3138 0.8612
vt 0.3135 0.8612
vt 0.3121 0.8528
vt 0.3124 0.8528
vt 0.3131 0.8612
vt 0.3130 0.8612
vt 0.3262 0.8035
vt 0.3270 0.8037
vt 0.3260 0.8100
vt 0.3254 0.8097
vt 0.3088 0.7963
vt 0.3085 0.8032
vt 0.3111 0.7960
vt 0.3123 0.7953
vt 0.3120 0.8027
vt 0.3108 0.8028
vt 0.3247 0.8034
vt 0.3255 0.8033
vt 0.3248 0.8095
vt 0.3241 0.8093
vt 0.3277 0.7944
vt 0.3288 0.7948
vt 0.3279 0.7974
vt 0.3271 0.7973
vt 0.3257 0.7948
vt 0.3267 0.7940
vt 0.3262 0.7971
vt 0.3253 0.7975
vt 0.3210 0.8167
vt 0.3214 0.8164
vt 0.3215 0.8239
vt 0.3213 0.8240
vt 0.3221 0.8165
vt 0.3228 0.8166
vt 0.3222 0.8240
vt 0.3219 0.8239
vt 0.3229 0.8033
vt 0.3239 0.8036
vt 0.3233 0.8091
vt 0.3223 0.8090
vt 0.3212 0.8031
vt 0.3219 0.8030
vt 0.3214 0.8090
vt 0.3208 0.8093
vt 0.3219 0.8298
vt 0.3221 0.8298
vt 0.3215 0.8354
vt 0.3214 0.8354
vt 0.3210 0.8297
vt 0.3212 0.8296
vt 0.3209 0.8354
vt 0.3208 0.8354
vt 0.3232 0.8167
vt 0.3238 0.8168
vt 0.3227 0.8241
vt 0.3224 0.8241
vt 0.3242 0.8170
vt 0.3246 0.8171
vt 0.3232 0.8243
vt 0.3230 0.8242
vt 0.3256 0.7871
vt 0.3256 0.7872
vt 0.3254 0.7872
vt 0.3253 0.7870
vt 0.3255 0.7871
vt 0.3252 0.7872
vt 0.3223 0.8298
vt 0.3225 0.8299
vt 0.3218 0.8355
vt 0.3216 0.8354
vt 0.3215 0.8297
vt 0.3217 0.8298
vt 0.3213 0.8355
vt 0.3211 0.8354
vt 0.3252 0.7873
vt 0.3254 0.7873
vt 0.3256 0.7873
vt 0.3209 0.8298
vt 0.3207 0.8354
vt 0.3210 0.8241
vt 0.3205 0.8031
vt 0.3202 0.8096
vt 0.3207 0.7967
vt 0.3206 0.8169
vt 0.3248 0.7932
vt 0.3260 0.7921
vt 0.3272 0.7909
vt 0.3284 0.7916
vt 0.3296 0.7922
vt 0.3099 0.7968
vt 0.3096 0.8029
vt 0.3102 0.7906
vt 0.3114 0.7893
vt 0.3126 0.7879
vt 0.3091 0.7894
vt 0.3119 0.8529
vt 0.3128 0.8613
vt 0.3110 0.8445
vt 0.3257 0.7820
vt 0.3257 0.7819
vt 0.3256 0.7821
vt 0.3255 0.7821
vt 0.3253 0.7821
vt 0.3252 0.7839
vt 0.3252 0.7840
vt 0.3255 0.7839
vt 0.3255 0.7838
vt 0.3315 0.8219
vt 0.3311 0.8157
vt 0.3319 0.8280
vt 0.3309 0.8083
vt 0.3306 0.8010
vt 0.3287 0.8334
vt 0.3281 0.8346
vt 0.3274 0.8358
vt 0.3329 0.8317
vt 0.3339 0.8353
vt 0.3326 0.8353
vt 0.3313 0.8352
vt 0.3262 0.8356
vt 0.3250 0.8353
vt 0.3071 0.8141
vt 0.3085 0.8226
vt 0.3057 0.8057
vt 0.3065 0.8046
vt 0.3198 0.7756
vt 0.3186 0.7822
vt 0.3174 0.7888
vt 0.3122 0.8334
vt 0.3097 0.8335
vt 0.3300 0.8343
vt 0.3151 0.8042
vt 0.3159 0.8053
vt 0.3205 0.7941
vt 0.3202 0.7915
vt 0.3213 0.7912
vt 0.3225 0.7909
vt 0.3138 0.7881
vt 0.3052 0.7953
vt 0.3050 0.8024
vt 0.3054 0.7883
vt 0.3067 0.7883
vt 0.3237 0.7921
vt 0.3102 0.7869
vt 0.3114 0.7874
vt 0.3164 0.7680
vt 0.3144 0.7675
vt 0.3185 0.7685
vt 0.3041 0.7688
vt 0.3022 0.7694
vt 0.3061 0.7683
vt 0.3123 0.7675
vt 0.3102 0.7675
vt 0.3204 0.7694
vt 0.3223 0.7703
vt 0.3210 0.7729
vt 0.3081 0.7679
vn -0.0048 0.1173 0.9931
vn -0.0048 0.0793 0.9968
vn -0.5834 -0.0033 0.8122
vn -0.5864 0.0710 0.8069
vn -0.5866 0.0374 -0.8090
vn -0.5819 -0.0279 -0.8128
vn 0.0088 0.0706 -0.9975
vn 0.0018 0.1010 -0.9949
vn 0.9328 0.1931 0.3044
vn 0.9284 0.2141 0.3037
vn 0.5778 0.1740 0.7975
vn 0.5766 0.1767 0.7977
vn -0.9511 0.0186 0.3082
vn -0.9482 -0.0731 0.3092
vn -0.9465 -0.0717 -0.3147
vn -0.9502 0.0200 -0.3108
vn 0.5792 0.1475 -0.8017
vn 0.5790 0.1515 -0.8011
vn 0.9281 0.2163 -0.3030
vn 0.9325 0.1946 -0.3042
vn 0.9372 0.2044 0.2827
vn 0.5749 0.1310 0.8077
vn -0.9316 -0.1645 0.3242
vn -0.9347 -0.1703 -0.3119
vn 0.5824 0.1547 -0.7980
vn 0.9187 0.2197 -0.3282
vn -0.0157 0.0139 0.9998
vn -0.1096 -0.2158 0.9703
vn -0.6327 -0.1935 0.7499
vn -0.5807 -0.0906 0.8090
vn 0.2766 0.7139 -0.6433
vn -0.4358 0.8741 -0.2147
vn -0.5882 0.6984 -0.4077
vn 0.0880 0.6028 -0.7930
vn -0.8490 -0.3281 0.4141
vn -0.5078 -0.1649 0.8456
vn -0.3941 -0.1179 0.9115
vn -0.7736 -0.3732 0.5121
vn 0.5577 0.2110 -0.8028
vn 0.0299 0.0186 -0.9994
vn 0.0521 0.0409 -0.9978
vn 0.5397 0.1459 -0.8291
vn 0.9391 -0.3403 -0.0487
vn 0.8178 0.2154 -0.5337
vn 0.7663 0.1267 -0.6299
vn 0.8916 -0.4523 -0.0242
vn -0.4968 -0.1948 -0.8457
vn -0.8851 -0.3560 -0.2996
vn -0.8564 -0.4296 -0.2864
vn -0.4334 -0.2024 -0.8782
vn 0.5842 0.0927 -0.8063
vn 0.0154 0.1055 -0.9943
vn 0.0668 0.0896 -0.9937
vn 0.6582 0.1370 -0.7402
vn -0.0189 -0.0309 0.9993
vn 0.6037 -0.0011 0.7972
vn 0.6387 0.0325 0.7688
vn -0.0005 -0.0126 0.9999
vn -0.6200 0.0902 -0.7794
vn -0.9438 0.0529 -0.3262
vn -0.9436 -0.0690 -0.3237
vn -0.6023 -0.0022 -0.7983
vn 0.9463 0.0328 0.3216
vn 0.9606 0.0744 -0.2679
vn 0.9720 0.1142 -0.2052
vn 0.9357 0.1709 0.3085
vn 0.3400 0.5776 0.7422
vn 0.5758 0.8161 0.0499
vn 0.6238 0.7803 0.0458
vn 0.3599 0.6099 0.7060
vn -0.9432 -0.1621 0.2899
vn -0.5963 -0.1027 0.7962
vn -0.6146 -0.0292 0.7883
vn -0.9518 -0.0543 0.3019
vn 0.8056 0.1901 -0.5611
vn 0.1614 0.0769 -0.9839
vn 0.2670 0.0476 -0.9625
vn 0.8630 0.0408 -0.5036
vn 0.0630 0.0182 0.9978
vn 0.6514 0.1378 0.7461
vn 0.8787 0.1732 0.4449
vn 0.0319 0.0042 0.9995
vn -0.5658 -0.0697 -0.8216
vn -0.9379 -0.1484 -0.3137
vn -0.9531 -0.0495 -0.2985
vn -0.5581 -0.0153 -0.8296
vn 0.0545 0.0126 0.9984
vn 0.8771 -0.0424 0.4785
vn 0.8494 -0.0583 0.5244
vn 0.2923 0.1452 0.9453
vn -0.5747 -0.0987 -0.8124
vn -0.5493 -0.1573 -0.8207
vn 0.0274 0.0249 -0.9993
vn 0.0069 0.0307 -0.9995
vn -0.3617 -0.6820 -0.6357
vn -0.6392 -0.7684 -0.0301
vn -0.8340 -0.5416 -0.1054
vn -0.4833 -0.5326 -0.6948
vn -0.9745 0.0245 0.2229
vn -0.6018 -0.0107 0.7986
vn -0.6038 -0.0627 0.7947
vn -0.9647 -0.0875 0.2485
vn -0.4142 -0.2949 -0.8611
vn -0.7971 -0.5608 -0.2240
vn -0.6695 -0.7386 -0.0791
vn -0.3764 -0.5292 -0.7604
vn 0.5246 0.4167 -0.7424
vn 0.1286 -0.1825 -0.9748
vn 0.0619 -0.2148 -0.9747
vn 0.6274 0.2908 -0.7224
vn -0.6773 -0.4634 0.5714
vn -0.2224 0.0150 0.9748
vn -0.1756 0.0875 0.9806
vn -0.6400 -0.5253 0.5608
vn 0.3555 0.5722 -0.7390
vn -0.0391 0.0887 -0.9953
vn 0.1095 0.0308 -0.9935
vn 0.5423 0.5019 -0.6738
vn -0.8111 -0.1666 0.5606
vn -0.1806 0.1467 0.9726
vn -0.1494 0.1567 0.9763
vn -0.6087 0.0698 0.7903
vn 0.5956 0.3685 0.7138
vn 0.9292 0.3667 0.0460
vn 0.9376 0.3466 0.0276
vn 0.3598 0.3769 0.8535
vn 0.2576 0.6586 0.7070
vn 0.5978 0.8014 -0.0226
vn 0.8175 0.5756 0.0206
vn 0.4207 0.5304 0.7360
vn -0.6280 -0.5363 0.5639
vn -0.2746 0.0795 0.9583
vn -0.2920 0.0730 0.9536
vn -0.7410 -0.3652 0.5635
vn -0.9534 -0.2753 -0.1234
vn -0.2934 0.9418 -0.1638
vn 0.4630 0.1009 -0.8806
vn 0.7359 0.1784 -0.6531
vn 0.1045 -0.1084 -0.9886
vn 0.0947 -0.1014 -0.9903
vn -0.5657 -0.3185 -0.7606
vn -0.9358 -0.3256 -0.1353
vn -0.4162 -0.1720 -0.8929
vn 0.0916 0.9958 -0.0010
vn 0.9514 0.0317 -0.3062
vn -0.5437 0.0548 -0.8375
vn -0.9492 0.0828 -0.3035
vn -0.9422 0.1212 -0.3125
vn -0.3133 0.2033 -0.9276
vn 0.9208 -0.0569 -0.3860
vn 0.3615 -0.0078 -0.9323
vn 0.3808 -0.0123 -0.9246
vn -0.9503 0.0822 0.3003
vn -0.5982 0.0601 0.7991
vn -0.5814 0.0868 0.8090
vn -0.9280 0.2158 0.3037
vn 0.0276 -0.4888 0.8720
vn 0.5662 -0.5925 0.5730
vn 0.6428 -0.4223 0.6391
vn 0.0998 -0.3244 0.9406
vn -0.0223 0.0331 0.9992
vn -0.0274 -0.0151 0.9995
vn 0.8879 0.3623 0.2834
vn 0.8756 0.3456 -0.3376
vn 0.9283 0.2037 -0.3109
vn 0.9290 0.1668 0.3304
vn -0.9005 0.3409 0.2699
vn -0.5861 -0.1248 0.8005
vn -0.5321 -0.0568 0.8448
vn -0.9130 0.2958 0.2809
vn -0.1464 -0.5195 0.8418
vn 0.5395 -0.6072 0.5833
vn 0.5230 -0.6594 0.5401
vn -0.0568 -0.5549 0.8300
vn -0.7976 0.3842 0.4650
vn -0.5975 -0.1627 0.7852
vn -0.6157 -0.1561 0.7724
vn -0.8822 0.3739 0.2860
vn 0.9623 -0.2715 0.0177
vn 0.6848 -0.0561 -0.7265
vn 0.6667 -0.0301 -0.7447
vn 0.9552 -0.2959 0.0027
vn 0.0099 0.1876 -0.9822
vn -0.7245 0.3615 -0.5869
vn -0.7099 0.3983 -0.5808
vn 0.0105 0.2297 -0.9732
vn 0.0545 0.4808 -0.8752
vn -0.6247 0.6129 -0.4838
vn -0.6928 0.4808 -0.5375
vn 0.0401 0.3190 -0.9469
vn 0.8948 -0.4465 -0.0013
vn 0.7207 0.0435 -0.6919
vn 0.7275 -0.0467 -0.6845
vn 0.9308 -0.3643 0.0317
vn -0.9142 0.2796 0.2932
vn -0.5310 -0.0296 0.8468
vn -0.5113 -0.0435 0.8583
vn -0.7822 0.2861 0.5535
vn 0.9402 -0.3406 0.0059
vn 0.6746 -0.0126 -0.7381
vn 0.6816 0.0003 -0.7318
vn 0.9412 -0.0755 -0.3292
vn -0.9232 0.2715 0.2721
vn -0.5358 0.0579 0.8424
vn -0.5481 0.0360 0.8356
vn -0.9208 0.2752 0.2764
vn 0.1343 -0.1768 0.9750
vn 0.6993 -0.2924 0.6523
vn 0.6925 -0.3535 0.6289
vn 0.1362 -0.2341 0.9626
vn 0.6986 -0.4100 0.5864
vn 0.3456 0.8933 0.2873
vn -0.0308 -0.1493 0.9883
vn 0.1524 -0.3225 0.9342
vn 0.6829 -0.4206 0.5972
vn -0.0074 0.3056 -0.9521
vn -0.7092 0.4575 -0.5365
vn -0.7092 0.4974 -0.4997
vn 0.2091 0.3566 -0.9106
vn 0.2449 0.7545 0.6089
vn -0.4095 0.1740 0.8956
vn 0.6021 -0.1875 0.7761
vn 0.5434 0.2298 0.8074
vn 0.5511 0.0790 0.8307
vn 0.7469 0.6289 -0.2160
vn 0.8411 0.2267 -0.4911
vn -0.5904 0.7262 -0.3523
vn -0.1979 0.3086 -0.9304
vn -0.5150 0.3947 0.7609
vn -0.9119 -0.2657 -0.3129
vn 0.9659 0.2214 -0.1342
vn 0.9936 0.0048 0.1132
vn 0.5831 0.1919 -0.7894
vn -0.8991 -0.2522 0.3579
vn 0.5869 0.1393 -0.7976
vn 0.9379 0.1803 -0.2964
vn 0.0176 0.1020 -0.9946
vn -0.9491 0.0386 0.3127
vn -0.9498 0.0374 -0.3105
vn -0.5728 0.0841 0.8154
vn 0.9356 0.1797 0.3039
vn 0.5873 0.1693 0.7915
vn -0.5826 0.0494 -0.8113
vn 0.0050 0.1211 0.9926
usemtl None
s 1
f 244/1/1 171/2/2 3/3/3 114/4/4
f 243/5/5 141/6/6 7/7/7 100/8/8
f 242/9/9 75/10/10 2/11/11 129/12/12
f 241/13/13 118/14/14 6/15/15 94/16/16
f 240/17/17 88/18/18 10/19/19 174/20/20
f 239/21/21 78/22/22 2/11/11 75/10/10
f 238/23/23 93/24/24 6/15/15 118/14/14
f 237/25/25 116/26/26 10/19/19 88/18/18
f 236/27/27 111/28/28 13/29/29 132/30/30
f 235/31/31 138/32/32 17/33/33 119/34/34
f 234/35/35 113/36/36 19/37/37 102/38/38
f 233/39/39 92/40/40 21/41/41 77/42/42
f 232/43/43 187/44/44 18/45/45 145/46/46
f 231/47/47 165/48/48 20/49/49 159/50/50
f 230/51/51 70/52/52 24/53/53 147/54/54
f 229/55/55 65/56/56 27/57/57 125/58/58
f 228/59/59 142/60/60 30/61/61 89/62/62
f 227/63/63 136/64/64 25/65/65 69/66/66
f 226/67/67 76/68/68 31/69/69 150/70/70
f 225/71/71 185/72/72 33/73/73 115/74/74
f 224/75/75 164/76/76 35/77/77 98/78/78
f 223/79/79 83/80/80 36/81/81 105/82/82
f 222/83/83 149/84/84 34/85/85 155/86/86
f 27/57/57 69/66/66 83/80/80
f 221/87/87 148/88/88 37/89/89 74/90/90
f 220/91/91 127/92/92 15/93/93 160/94/94
f 219/95/95 140/96/96 41/97/97 163/98/98
f 218/99/99 179/100/100 28/101/101 123/102/102
f 217/103/103 137/104/104 40/105/105 82/106/106
f 216/107/107 170/108/108 42/109/109 96/110/110
f 215/111/111 186/112/112 32/113/113 184/114/114
f 214/115/115 176/116/116 39/117/117 133/118/118
f 213/119/119 87/120/120 45/121/121 173/122/122
f 212/123/123 84/124/124 47/125/125 112/126/126
f 211/127/127 144/128/128 43/129/129 146/130/130
f 210/131/131 81/132/132 44/133/133 154/134/134
f 46/135/135 173/136/122 107/137/136
f 47/138/125 178/139/137 107/137/136
f 209/140/138 134/141/139 48/142/140 178/143/137
f 208/144/141 143/145/142 46/146/135 158/147/143
f 207/148/144 74/149/90 37/150/89 169/151/145
f 206/152/146 110/153/147 49/154/148 152/155/149
f 205/156/150 162/157/151 50/158/152 169/159/145
f 204/160/153 97/161/154 38/162/155 135/163/156
f 203/164/157 101/165/158 52/166/159 71/167/160
f 202/168/161 181/169/162 19/37/37 113/36/36
f 201/170/163 67/171/164 22/172/165 85/173/166
f 200/174/167 64/175/168 53/176/169 126/177/170
f 199/178/171 128/179/172 23/180/173 153/181/174
f 198/182/175 80/183/176 51/184/177 73/185/178
f 197/186/179 131/187/180 56/188/181 180/189/182
f 196/190/183 95/191/184 58/192/185 103/193/186
f 195/194/187 130/195/188 54/196/189 167/197/190
f 194/198/191 172/199/192 55/200/193 66/201/194
f 193/202/195 156/203/196 60/204/197 99/205/198
f 192/206/199 122/207/200 62/208/201 117/209/202
f 191/210/203 177/211/204 59/212/205 104/213/206
f 190/214/207 72/215/208 57/216/209 109/217/210
f 63/218/211 117/219/202 121/220/212
f 60/221/197 90/222/213 99/223/198
f 189/224/214 86/225/215 63/226/211 90/227/213
f 188/228/216 106/229/217 61/230/218 182/231/219
f 122/207/200 188/228/216 182/231/219 62/208/201
f 56/188/181 103/193/186 188/228/216 122/207/200
f 103/193/186 58/192/185 106/229/217 188/228/216
f 156/203/196 189/224/214 90/227/213 60/204/197
f 59/212/205 109/217/210 189/224/214 156/203/196
f 109/217/210 57/216/209 86/225/215 189/224/214
f 99/223/198 121/220/212 61/232/218
f 99/223/198 90/222/213 121/220/212
f 90/222/213 63/218/211 121/220/212
f 121/220/212 182/233/219 61/232/218
f 121/220/212 117/219/202 182/233/219
f 117/219/202 62/234/201 182/233/219
f 177/211/204 190/214/207 109/217/210 59/212/205
f 53/176/169 71/167/160 190/214/207 177/211/204
f 71/167/160 52/166/159 72/215/208 190/214/207
f 95/191/184 191/210/203 104/213/206 58/192/185
f 54/196/189 126/177/170 191/210/203 95/191/184
f 126/177/170 53/176/169 177/211/204 191/210/203
f 86/235/215 192/206/199 117/209/202 63/236/211
f 57/237/209 180/189/182 192/206/199 86/235/215
f 180/189/182 56/188/181 122/207/200 192/206/199
f 106/229/217 193/202/195 99/205/198 61/230/218
f 58/192/185 104/213/206 193/202/195 106/229/217
f 104/213/206 59/212/205 156/203/196 193/202/195
f 101/238/158 194/198/191 66/201/194 52/239/159
f 23/240/173 145/46/46 194/198/191 101/238/158
f 145/46/46 18/45/45 172/199/192 194/198/191
f 172/199/192 195/194/187 167/197/190 55/200/193
f 18/45/45 119/34/34 195/194/187 172/199/192
f 119/34/34 17/33/33 130/195/188 195/194/187
f 131/187/180 196/190/183 103/193/186 56/188/181
f 55/200/193 167/197/190 196/190/183 131/187/180
f 167/197/190 54/196/189 95/191/184 196/190/183
f 72/241/208 197/186/179 180/189/182 57/237/209
f 52/239/159 66/201/194 197/186/179 72/241/208
f 66/201/194 55/200/193 131/187/180 197/186/179
f 138/32/32 198/182/175 73/185/178 17/33/33
f 16/242/220 175/243/221 198/182/175 138/32/32
f 175/243/221 13/244/29 80/183/176 198/182/175
f 80/183/176 199/178/171 153/181/174 51/184/177
f 13/244/29 111/245/28 199/178/171 80/183/176
f 111/245/28 12/246/222 128/179/172 199/178/171
f 130/195/188 200/174/167 126/177/170 54/196/189
f 17/33/33 73/185/178 200/174/167 130/195/188
f 73/185/178 51/184/177 64/175/168 200/174/167
f 183/247/223 201/170/163 85/173/166 26/248/224
f 16/249/220 166/250/225 201/170/163 183/247/223
f 166/250/225 11/251/226 67/171/164 201/170/163
f 175/252/221 202/168/161 113/36/36 13/29/29
f 16/249/220 183/247/223 202/168/161 175/252/221
f 183/247/223 26/248/224 181/169/162 202/168/161
f 64/175/168 203/164/157 71/167/160 53/176/169
f 51/184/177 153/181/174 203/164/157 64/175/168
f 153/181/174 23/180/173 101/165/158 203/164/157
f 110/253/147 204/160/153 135/163/156 49/254/148
f 34/255/85 115/74/74 204/160/153 110/253/147
f 115/74/74 33/73/73 97/161/154 204/160/153
f 148/88/88 205/156/150 169/159/145 37/89/89
f 36/81/81 98/78/78 205/156/150 148/88/88
f 98/78/78 35/77/77 162/157/151 205/156/150
f 162/157/151 206/152/146 152/155/149 50/158/152
f 35/77/77 155/86/86 206/152/146 162/157/151
f 155/86/86 34/85/85 110/153/147 206/152/146
f 152/256/149 207/148/144 169/151/145 50/257/152
f 49/258/148 135/259/156 207/148/144 152/256/149
f 135/259/156 38/260/155 74/149/90 207/148/144
f 134/141/139 208/144/141 158/147/143 48/142/140
f 42/109/109 163/98/98 208/144/141 134/141/139
f 163/98/98 41/97/97 143/145/142 208/144/141
f 84/124/124 209/140/138 178/143/137 47/125/125
f 43/129/129 96/110/110 209/140/138 84/124/124
f 96/110/110 42/109/109 134/141/139 209/140/138
f 107/137/136 158/261/143 46/135/135
f 107/137/136 178/139/137 158/261/143
f 178/139/137 48/262/140 158/261/143
f 107/137/136 112/263/126 47/138/125
f 107/137/136 173/136/122 112/263/126
f 173/136/122 45/264/121 112/263/126
f 140/265/96 210/131/131 154/134/134 41/266/97
f 40/267/105 184/114/114 210/131/131 140/265/96
f 184/114/114 32/113/113 81/132/132 210/131/131
f 81/132/132 211/127/127 146/130/130 44/133/133
f 32/113/113 150/70/70 211/127/127 81/132/132
f 150/70/70 31/69/69 144/128/128 211/127/127
f 87/120/120 212/123/123 112/126/126 45/121/121
f 44/133/133 146/130/130 212/123/123 87/120/120
f 146/130/130 43/129/129 84/124/124 212/123/123
f 143/268/142 213/119/119 173/122/122 46/269/135
f 41/266/97 154/134/134 213/119/119 143/268/142
f 154/134/134 44/133/133 87/120/120 213/119/119
f 76/68/68 214/115/115 133/118/118 31/69/69
f 29/270/227 139/271/228 214/115/115 76/68/68
f 139/271/228 21/272/41 176/116/116 214/115/115
f 137/273/104 215/111/111 184/114/114 40/267/105
f 20/274/49 102/275/38 215/111/111 137/273/104
f 102/275/38 19/276/37 186/112/112 215/111/111
f 144/128/128 216/107/107 96/110/110 43/129/129
f 31/69/69 133/118/118 216/107/107 144/128/128
f 133/118/118 39/117/117 170/108/108 216/107/107
f 176/116/116 217/103/103 82/106/106 39/117/117
f 21/272/41 159/277/50 217/103/103 176/116/116
f 159/277/50 20/278/49 137/104/104 217/103/103
f 142/279/60 218/99/99 123/102/102 30/280/61
f 29/281/227 124/282/229 218/99/99 142/279/60
f 124/282/229 19/37/37 179/100/100 218/99/99
f 170/108/108 219/95/95 163/98/98 42/109/109
f 39/117/117 82/106/106 219/95/95 170/108/108
f 82/106/106 40/105/105 140/96/96 219/95/95
f 141/6/6 220/91/91 160/94/94 7/7/7
f 6/283/15 93/284/24 220/91/91 141/6/6
f 93/284/24 14/285/230 127/92/92 220/91/91
f 97/161/154 221/87/87 74/90/90 38/162/155
f 33/73/73 105/82/82 221/87/87 97/161/154
f 105/82/82 36/81/81 148/88/88 221/87/87
f 83/80/80 91/286/231 36/81/81
f 83/80/80 69/66/66 91/286/231
f 69/66/66 25/65/65 91/286/231
f 164/76/76 222/83/83 155/86/86 35/77/77
f 24/53/53 89/62/62 222/83/83 164/76/76
f 89/62/62 30/61/61 149/84/84 222/83/83
f 185/72/72 223/79/79 105/82/82 33/73/73
f 28/101/101 125/58/58 223/79/79 185/72/72
f 125/58/58 27/57/57 83/80/80 223/79/79
f 91/286/231 224/75/75 98/78/78 36/81/81
f 25/65/65 147/54/54 224/75/75 91/286/231
f 147/54/54 24/53/53 164/76/76 224/75/75
f 149/287/84 225/71/71 115/74/74 34/255/85
f 30/280/61 123/102/102 225/71/71 149/287/84
f 123/102/102 28/101/101 185/72/72 225/71/71
f 186/112/112 226/67/67 150/70/70 32/113/113
f 19/276/37 124/288/229 226/67/67 186/112/112
f 124/288/229 29/270/227 76/68/68 226/67/67
f 65/56/56 227/63/63 69/66/66 27/57/57
f 26/248/224 85/173/166 227/63/63 65/56/56
f 85/173/166 22/172/165 136/64/64 227/63/63
f 70/52/52 228/59/59 89/62/62 24/53/53
f 21/41/41 139/289/228 228/59/59 70/52/52
f 139/289/228 29/290/227 142/60/60 228/59/59
f 179/100/100 229/55/55 125/58/58 28/101/101
f 19/37/37 181/169/162 229/55/55 179/100/100
f 181/169/162 26/248/224 65/56/56 229/55/55
f 136/64/64 230/51/51 147/54/54 25/65/65
f 22/172/165 77/42/42 230/51/51 136/64/64
f 77/42/42 21/41/41 70/52/52 230/51/51
f 92/40/40 231/47/47 159/50/50 21/41/41
f 15/93/93 127/92/92 231/47/47 92/40/40
f 127/92/92 14/285/230 165/48/48 231/47/47
f 128/291/172 232/43/43 145/46/46 23/240/173
f 12/292/222 161/293/232 232/43/43 128/291/172
f 161/293/232 11/294/226 187/44/44 232/43/43
f 67/171/164 233/39/39 77/42/42 22/172/165
f 11/251/226 108/295/233 233/39/39 67/171/164
f 108/295/233 15/93/93 92/40/40 233/39/39
f 165/296/48 234/35/35 102/38/38 20/297/49
f 14/298/230 68/299/234 234/35/35 165/296/48
f 68/299/234 13/29/29 113/36/36 234/35/35
f 187/44/44 235/31/31 119/34/34 18/45/45
f 11/294/226 166/300/225 235/31/31 187/44/44
f 166/300/225 16/242/220 138/32/32 235/31/31
f 171/2/2 236/27/27 132/30/30 3/3/3
f 2/11/11 78/22/22 236/27/27 171/2/2
f 78/22/22 12/301/222 111/28/28 236/27/27
f 160/94/94 237/25/25 88/18/18 7/7/7
f 15/93/93 108/295/233 237/25/25 160/94/94
f 108/295/233 11/251/226 116/26/26 237/25/25
f 132/30/30 238/23/23 118/14/14 3/3/3
f 13/29/29 68/299/234 238/23/23 132/30/30
f 68/299/234 14/298/230 93/24/24 238/23/23
f 116/26/26 239/21/21 75/10/10 10/19/19
f 11/251/226 161/302/232 239/21/21 116/26/26
f 161/302/232 12/301/222 78/22/22 239/21/21
f 157/303/235 240/17/17 174/20/20 9/304/236
f 8/305/237 100/8/8 240/17/17 157/303/235
f 100/8/8 7/7/7 88/18/18 240/17/17
f 168/306/238 241/13/13 94/16/16 5/307/239
f 4/308/240 114/4/4 241/13/13 168/306/238
f 114/4/4 3/3/3 118/14/14 241/13/13
f 151/309/241 242/9/9 129/12/12 1/310/242
f 9/304/236 174/20/20 242/9/9 151/309/241
f 174/20/20 10/19/19 75/10/10 242/9/9
f 79/311/243 243/5/5 100/8/8 8/305/237
f 5/312/239 94/313/16 243/5/5 79/311/243
f 94/313/16 6/283/15 141/6/6 243/5/5
f 120/314/244 244/1/1 114/4/4 4/308/240
f 1/310/242 129/12/12 244/1/1 120/314/244
f 129/12/12 2/11/11 171/2/2 244/1/1
