# Blender v2.78 (sub 0) OBJ File: ''
# www.blender.org
mtllib Apple_Tree_m_06.mtl
o Apple_Tree_m_06
v 1.088274 3.746794 -0.247279
v 0.998459 3.058223 -0.372098
v 0.339315 3.518752 -0.254794
v 0.072880 4.120851 0.022100
v 0.783792 4.311017 -0.111902
v 0.631168 4.734373 0.177142
v 1.643496 4.167738 -0.041344
v 1.839774 4.445487 0.413848
v 1.945350 3.787769 0.276073
v 1.288684 4.809701 0.434123
v 1.677836 3.027637 -0.029167
v 0.982426 2.644796 -0.206500
v 0.268240 4.981474 0.990279
v -0.162366 4.365918 0.452212
v -0.278035 4.311662 0.979056
v 0.508439 4.922306 0.535403
v 0.197349 4.742736 1.505907
v -0.357349 3.721770 1.460483
v 0.110258 4.382063 1.815089
v 1.020568 5.072815 1.388731
v 1.422737 4.784232 1.623495
v 1.501539 4.992093 1.090513
v 0.809710 4.314450 2.100877
v 1.117890 5.084661 0.814948
v 0.164705 3.101485 2.144952
v -0.390309 2.802395 1.426420
v 0.373794 2.442231 1.930322
v -0.010978 2.019757 1.036736
v 0.550921 2.051356 1.632154
v 1.026465 3.098832 2.238859
v 1.928141 2.980747 1.917317
v 1.500835 3.661752 2.186870
v 1.199424 2.244569 1.588808
v 0.084079 3.856859 1.971553
v 0.677214 1.903497 0.634928
v 0.071310 2.058561 0.326596
v 0.889126 2.189980 0.086420
v 0.081828 2.772566 -0.066425
v 1.600545 2.242862 0.622431
v 1.966684 2.712519 0.547246
v 1.831880 2.551404 1.112796
v 0.588874 1.870674 1.201058
v 2.087742 3.145011 0.843681
v 2.217114 3.835849 0.995619
v 1.924783 4.549746 1.076906
v 1.767152 3.979822 1.753663
v -0.377966 2.461642 0.632428
v -0.512732 3.098879 0.752546
v -0.494957 3.760645 0.812333
v -0.320730 3.528617 0.106951
v -0.963548 2.955467 -0.511309
v -1.557379 2.734670 -0.043645
v -2.187391 3.070746 -0.924188
v -2.114610 3.683516 -1.490177
v -1.082683 3.380545 -1.195776
v -0.965665 3.875931 -1.588819
v -0.150435 3.373105 -0.449055
v 0.506349 3.899433 -0.477762
v 0.245518 3.622850 0.287741
v 0.191014 4.023412 -1.383540
v -0.562020 3.124204 0.680181
v -1.711575 2.987419 0.523710
v -1.299254 5.253944 -1.731805
v -2.313413 4.458183 -1.791023
v -2.484519 5.298755 -1.662055
v -1.058292 4.476460 -1.814008
v -1.540072 6.047134 -1.490266
v -2.985401 6.144645 -1.049488
v -1.814850 6.545399 -1.068746
v -0.205531 5.789295 -1.327281
v 0.171246 5.981444 -0.594984
v 0.462592 5.154525 -0.974607
v -0.893324 6.800887 -0.388951
v -0.051771 4.825710 -1.634086
v -2.503834 6.821603 0.089183
v -3.452667 5.921476 -0.164201
v -2.654288 6.585569 0.925531
v -3.351500 5.124144 0.674582
v -2.709973 6.111391 1.445487
v -1.273169 6.938943 0.940533
v -0.189114 6.209732 1.513666
v -0.288621 6.816688 0.703337
v -1.564553 5.862841 1.838270
v -2.147988 6.771648 -0.588216
v -2.415564 4.338474 1.283887
v -3.347943 3.962436 0.456550
v -2.056340 3.458929 0.958153
v -3.123738 3.244918 -0.372146
v -1.027027 4.007156 1.776654
v -0.253199 3.869584 1.443840
v -0.527493 4.854864 1.689706
v -2.606123 5.268079 1.449328
v 0.139114 4.412477 1.203083
v 0.480922 4.686768 0.527094
v 0.682098 4.955534 -0.302705
v 0.275956 6.066589 0.499749
v -3.775677 4.599761 -0.089099
v -3.662384 4.914615 -0.809053
v -3.062363 5.040433 -1.335059
v -3.061997 3.892173 -1.244642
v 0.124063 0.028750 0.175699
v 0.066894 0.407310 0.131445
v -0.136323 0.416708 0.131601
v -0.122575 0.004308 0.175053
v -0.203869 0.031714 -0.061528
v -0.199834 0.427267 -0.056187
v -0.039667 0.436545 -0.171758
v -0.001830 0.033795 -0.208513
v 0.202492 0.025519 -0.062580
v 0.127317 0.416386 -0.058540
v -0.082354 1.301655 -0.038692
v -0.091713 1.180975 0.118142
v -0.289132 1.305213 0.111945
v -0.351714 1.242535 -0.062652
v -0.236552 1.339052 -0.145916
v -0.208453 1.509906 0.100395
v -0.027279 1.701536 0.331140
v 0.083661 1.574895 0.281796
v -0.666390 2.253891 0.052068
v -0.697972 2.120221 -0.068106
v -0.607098 2.298365 -0.134975
v -0.464069 2.271733 -0.058922
v 0.064152 1.489733 0.360031
v -0.569211 3.483674 -0.008412
v -0.517385 3.491619 0.034688
v -0.513988 2.259870 0.059377
v -0.540274 3.477880 0.091639
v -0.609578 3.493811 0.103937
v -0.695457 2.449918 -0.050709
v -0.622075 3.527802 0.046124
v -0.978549 2.646734 -0.073446
v -1.005566 2.631308 -0.029474
v -0.978422 2.574903 -0.106251
v -1.034877 2.614286 -0.078325
v -1.641607 3.058771 -0.267712
v -1.629887 3.027540 -0.282556
v -1.627201 3.071295 -0.260677
v -1.623128 3.071343 -0.239209
v -0.042405 1.566172 0.379391
v 0.402210 2.049808 0.721671
v 0.298321 2.103077 0.727431
v 0.289111 2.117401 0.646203
v 0.409325 2.038168 0.642541
v 0.427002 5.419381 0.593550
v -2.921783 4.108964 0.864077
v 1.697634 4.807135 1.083734
v 0.323335 4.607738 0.914800
v 0.205742 5.480372 -1.159810
v -3.099323 5.942832 0.769253
v 0.830928 5.038760 0.681430
v -2.241964 6.090039 1.654415
v 0.000900 0.015120 0.202413
v -0.013304 0.195934 -0.196165
v -0.158540 1.317353 -0.112680
v 1.665464 2.559719 0.265415
v -3.111141 4.502997 -1.311852
v -1.628727 3.047687 -0.273572
v -0.125376 0.869534 -0.156591
v -0.811954 2.483890 -0.058332
v 0.903471 3.672100 2.246468
v -0.452113 2.762714 0.685381
v 0.242345 4.548066 0.275940
v -1.865517 3.169664 0.688419
v 1.837084 2.506905 0.555378
v 1.005288 2.832679 -0.292129
v 1.056623 4.585451 0.114122
v -0.091521 3.704644 0.961179
v 0.032723 3.634725 -0.958109
v -1.012101 3.647975 -1.439400
v 0.695358 2.725223 2.119550
v 1.084964 5.113647 1.081236
v -3.642602 4.853904 0.242939
v 0.629264 4.369670 -0.422631
v -0.933978 5.358985 1.840628
v 1.660916 4.722418 0.748726
v -3.621994 4.220675 0.159888
v -1.827272 4.858122 -1.810392
v -0.236822 2.392029 1.246246
v 2.036526 3.467932 0.523137
v -1.713152 4.467625 -1.829252
v -0.828678 2.418413 0.013826
v -0.122711 4.291832 1.472153
v -0.143146 2.933793 1.828377
v -0.375801 4.256448 -1.685193
v -2.744268 4.703485 -1.581304
v -0.854468 2.382579 -0.065119
v -0.989492 4.128113 -1.698668
v -2.243575 3.852081 1.172554
v 1.062281 3.381633 -0.320697
v 0.245068 1.785726 0.555597
v -2.688827 6.310077 1.252578
v -0.507741 6.314900 -0.944063
v -3.102287 6.291384 0.377270
v 0.108318 4.452378 -1.562075
v -2.334749 6.400376 -1.111093
v -1.024108 2.624879 -0.051186
v -0.147046 3.815244 0.021171
v -0.484513 1.750314 0.074270
v 0.116381 0.028991 -0.157493
v 0.318447 1.893506 1.103816
v -0.118718 1.562328 0.204534
v 1.151297 2.040579 0.642658
v -1.636892 3.040030 -0.277974
v 0.214803 6.053528 -0.083894
v -1.639513 6.848008 -0.493504
v 1.885726 2.823941 0.311761
v -0.522950 3.484933 0.064687
v -1.043477 3.140113 -0.860235
v -1.976486 6.668190 -0.833768
v -0.539431 3.485870 0.007634
v 1.990539 2.829117 1.041055
v -0.526208 3.447019 0.797098
v 0.985769 2.019824 1.068516
v 1.922007 2.625552 0.796111
v 0.386779 4.412259 1.958364
v -2.527562 4.880766 1.375656
v -0.288005 1.767869 -0.064483
v 0.546441 4.223629 -0.005991
v 0.074139 3.436759 -0.048524
v 1.408316 3.446182 -0.195570
v 2.103532 3.826456 0.600402
v 0.564067 2.927471 -0.282061
v -2.407813 4.895738 -1.747164
v -1.397088 5.652369 -1.645718
v 0.146884 4.532962 1.701879
v -0.089596 5.284875 -1.502479
v 0.256156 2.750273 2.080652
v 1.861144 3.460310 0.125537
v -0.182424 0.422326 0.042312
v 0.009639 1.517539 0.374656
v -3.459921 5.553840 0.254766
v -0.496987 4.649745 -1.754923
v 1.913384 4.137026 0.324712
v 0.733359 3.653622 -0.280396
v -1.894721 6.951776 0.508416
v -2.652838 3.290143 0.332213
v 0.651371 5.077866 1.192575
v 1.705824 4.666683 1.389981
v 0.534801 5.492148 0.126318
v 1.882507 2.699396 1.519380
v -2.743124 5.705555 -1.420401
v 0.360117 5.571024 -0.791091
v -0.258609 2.234276 0.821331
v 0.419269 2.036641 0.681987
v -1.321168 2.875890 -0.169623
v 0.177841 0.183792 -0.061887
v -3.417777 4.338140 -1.025735
v 0.614037 1.878441 0.964435
v 0.105511 0.183924 0.158926
v 0.029425 1.648629 0.301523
v 0.588648 5.052135 -0.683520
v -0.407780 3.218590 1.469319
v -0.068714 4.237184 0.214997
v -1.277405 3.259492 0.949372
v 1.899911 4.277386 1.409837
v 1.218503 3.947539 2.176626
v 0.470269 2.411070 -0.026893
v 0.898215 4.799175 0.275286
v 1.307127 5.067940 1.242041
v 0.425977 3.935225 -0.901982
v -2.222379 3.366884 -1.233033
v 0.040907 5.288970 1.401548
v -1.207139 2.991910 0.628939
v 0.604363 4.942544 1.483806
v -0.410874 4.027713 0.905742
v 0.372418 4.480247 0.099545
v -1.177045 4.855855 -1.807805
v 0.138366 1.924964 0.499562
v 1.708370 3.335758 2.125910
v 0.188818 0.028672 0.064933
v 0.436349 4.615387 -1.170113
v -1.285845 4.870117 1.879158
v 1.747575 4.359754 0.174121
v -1.632185 3.066787 -0.251505
v -1.498513 3.667458 1.397060
v 0.082656 1.523597 0.318042
v -0.207959 0.831873 0.112774
v -0.620333 5.064106 -1.703901
v -1.130646 6.437683 -1.050882
v -0.358201 4.289321 1.583957
v 0.371702 4.046348 2.077944
v -0.698343 2.402075 0.004589
v -0.178958 2.242893 0.448352
v -0.244008 6.392028 -0.503974
v 0.096500 4.131978 1.891342
v 1.569021 4.418446 1.706256
v -0.415208 1.799858 -0.144868
v -0.030410 3.482107 -0.115169
v -0.128827 0.433162 -0.125787
v -3.382465 5.023386 -1.100948
v -0.514950 6.849199 0.266042
v 0.280214 2.117587 0.686936
v -1.008200 2.590897 -0.095346
v -0.301586 1.291235 -0.113901
v -2.963315 5.161835 1.126439
v -0.570398 3.139262 -0.454463
v -0.622112 3.514654 0.078889
v 1.734266 2.370699 0.902502
v -0.785082 2.410985 -0.115638
v -0.303837 3.182932 0.081309
v -0.552481 3.365805 -0.874469
v 0.912772 4.789183 1.753163
v -2.306401 2.878202 -0.225507
v 0.801311 2.357080 1.863211
v -1.939900 5.267239 -1.732198
v 0.383018 3.738092 -0.102175
v 1.336454 3.054841 -0.264128
v 0.487482 3.652587 2.202744
v -0.113099 4.131432 1.665845
v 1.593555 2.596078 1.826239
v -0.041970 2.587692 1.713302
v 0.258142 1.821258 0.477873
v 0.937170 4.033281 -0.203388
v -0.080254 4.530810 1.235644
v 1.825349 3.961781 0.080045
v -0.172637 3.164403 0.009207
v 0.659527 3.263844 -0.334266
v 1.202341 4.989153 0.643701
v -0.340449 4.057397 1.202981
v -0.477896 3.718729 1.098987
v -0.854645 5.973470 -1.411068
v 0.111644 0.410892 0.040909
v -2.619772 3.724939 -1.393666
v -0.224067 6.640069 1.111806
v -2.810795 5.195227 -1.514694
v -0.556362 3.871498 1.605762
v -0.636418 2.923082 0.082624
v -1.636671 2.845053 0.265222
v 2.076405 3.051006 1.380869
v -0.119168 0.035287 -0.156792
v -2.973824 4.633810 0.965090
v -2.092994 6.414237 1.433736
v -0.479014 2.265077 0.003421
v -0.059129 1.200706 0.044305
v -0.415437 3.640005 -1.305604
v 2.052776 3.866817 1.410570
v -0.125781 0.171633 0.158724
v 0.478296 5.531732 -0.394818
v -3.534504 4.055808 -0.657558
v -0.261620 1.455650 0.117940
v 0.350628 2.078130 0.734448
v -0.690330 2.137865 -0.005184
v 0.058114 2.360023 0.126431
v -0.585056 2.940984 -0.070907
v -0.575297 3.483231 0.103105
v -0.795298 3.489996 1.309316
v 1.901345 4.506737 0.722111
v 2.179574 3.468680 0.959246
v 0.939349 2.459921 -0.092682
v 1.468650 4.514920 0.152091
v -3.691350 5.241108 -0.140780
v 0.350433 1.940835 0.447536
v -0.598733 3.506099 0.013661
v 0.559149 4.458186 -0.855492
v 0.580572 4.818361 0.334074
v -1.233577 2.814795 -0.253985
v 1.946842 3.115211 0.380556
v 1.333791 5.056219 0.933482
v 0.901055 4.935061 0.487695
v 0.585162 3.113690 2.242365
v -0.364351 4.040415 0.601707
v -0.391180 5.543471 1.676392
v 1.307910 3.443574 2.241538
v 1.490585 4.923168 1.356772
v 0.213298 3.948369 0.742672
v -3.593915 3.951807 -0.262857
v 0.145706 4.676066 0.487873
v -3.630382 5.463545 -0.537326
v -0.285068 3.943336 0.261327
v 0.025490 4.713192 0.718456
v 0.685444 4.554917 0.044221
v -0.077290 4.076632 1.330286
v -1.644576 4.092302 -1.698472
v -0.836540 6.147179 1.741538
v -3.430980 5.580756 -0.932316
v -0.765256 4.476038 1.802990
v -0.722370 6.678837 1.332028
v -1.333103 2.872429 -0.139224
v -0.685759 6.918002 0.800026
v -1.719945 6.920697 -0.068533
v -2.073245 5.676533 -1.608484
v -0.128176 3.765522 1.785425
v -0.188649 0.016015 0.065070
v 2.131772 3.402268 1.477871
v 1.619231 3.789540 2.025452
v 0.601406 2.666428 -0.183182
v -1.325121 2.816312 -0.195026
v -0.505194 2.933623 -0.010904
v -1.044344 2.837722 0.286209
v -3.413317 4.474545 0.552578
v -0.177172 1.207717 0.130730
v 1.420939 2.189640 1.075601
v -0.656715 2.164350 -0.112663
v -2.308873 6.805532 -0.317054
v -0.005004 1.420704 0.117222
v -0.198006 6.509370 0.077512
v 2.101060 4.211745 1.036523
v 1.692664 3.648319 -0.079814
v -0.990506 2.642718 -0.048402
v 1.275183 2.197170 0.316606
v 0.126837 6.161633 1.036355
v -2.657079 5.697206 1.465494
v -1.658738 3.194600 -1.083930
v 0.436195 2.098414 0.179594
v -0.156984 3.344894 1.828510
v 0.511395 4.654497 1.807068
v -0.043592 1.642571 0.358137
v -1.914950 2.850849 -0.488413
v -2.682927 3.076230 -0.699430
v 0.266424 4.955309 -1.335579
v 1.172858 4.612237 1.863044
v -2.175640 5.531015 1.676856
v 1.146809 2.650675 1.989565
v 1.229691 4.945647 1.552902
v -0.167136 1.418406 0.238828
v 1.372054 3.943515 -0.166197
v 0.282069 2.015039 1.399745
v -0.047631 4.664651 0.977759
v 1.232213 4.291518 -0.083458
v -1.116520 6.976658 0.309234
v 0.394865 4.197453 -0.080897
v -0.020344 0.799373 0.113824
v 0.052592 0.426696 -0.127199
v 1.454462 4.920854 0.791537
v -0.576804 2.250051 0.069767
v -2.713773 3.407149 -1.092208
v -3.122465 5.547831 -1.227441
v -1.993368 6.810042 0.988840
v 0.288198 1.899768 0.776985
v -1.390230 6.528144 1.455561
v -3.035571 6.452531 -0.039023
v 0.720266 5.082101 0.912739
v -0.519122 1.693640 -0.066063
v -2.290076 6.096116 -1.361903
v -0.454617 3.917004 -1.559779
v -0.300972 2.930593 0.319193
v -0.434972 2.605881 1.006974
v -0.201185 0.195652 -0.059936
v -2.255115 4.044667 -1.666820
v 0.139969 1.851518 0.569177
v 0.856365 1.995655 1.363692
v -3.754381 4.732541 -0.438697
v 0.348855 2.076098 0.634475
v -3.181953 3.557167 -0.877785
v -1.357858 2.860040 -0.175629
v -0.340846 1.260096 0.019299
v -0.514615 2.285444 -0.104932
v -0.974598 2.608736 -0.092562
v 1.328620 2.526959 0.019569
v 1.621707 4.630692 0.413453
v -1.493427 3.788835 -1.555174
v -0.446774 3.646336 0.472616
v -0.035029 1.341649 0.222864
v 0.237708 3.617625 -0.519937
v 0.118805 2.228065 1.521619
v 0.385570 4.977837 0.751487
v -2.860940 6.531159 -0.462549
v 1.300105 2.764409 -0.168376
v -1.716118 4.200513 1.599322
v -0.710034 5.532027 -1.583278
v -0.500539 3.369415 1.123012
v 0.157107 3.807092 -0.136229
v -1.944555 5.003941 1.658897
v -2.786259 3.670940 0.679990
v -0.152783 4.723393 1.496769
v 0.115852 3.538755 2.060002
v 0.623101 4.818215 0.117131
v -1.412409 6.687689 -0.831144
v -2.602064 6.762819 0.521562
v -0.008718 2.003988 0.635603
v -3.029639 5.720858 1.103998
v -0.506527 2.970086 1.098289
v 2.018836 2.899544 0.654019
v 1.336711 4.196472 1.975512
v 0.005602 5.959527 -0.950245
v -1.707508 6.361479 -1.243413
v -0.665898 2.425265 -0.097720
v 0.574604 1.953458 1.421972
v 0.029212 0.828331 -0.058946
v -0.034597 0.411141 0.146324
v -0.717791 2.960462 0.015088
v 1.913741 3.488289 1.857536
v -0.223760 2.590079 0.295484
v 1.599648 2.394659 1.367578
v -1.624020 3.074444 -0.247103
v -0.146768 1.450013 0.034157
v 2.058162 4.183533 0.666834
v -0.538587 2.911922 0.075128
v -2.340979 3.023513 0.155170
v -0.261420 0.816367 -0.058857
v -0.649864 2.995255 -0.000926
v -0.033296 6.531613 0.644196
v 0.793823 1.997328 0.338020
v -0.434823 3.282270 0.396371
v 0.407249 4.082847 0.398821
v -2.561853 6.560695 -0.773453
v -1.658151 3.478448 -1.350924
v -1.527276 2.963551 -0.733129
v 0.221064 5.465417 1.072860
v -0.068422 3.384956 0.477601
v 0.196756 3.156325 -0.210526
v -0.336602 3.546693 1.181995
v 0.819987 2.117188 1.659622
v 0.483974 2.194990 1.754622
v 0.230454 4.902835 1.247768
v 1.498971 2.984929 2.138661
v -0.241454 4.358731 0.726400
v -3.302917 3.594373 0.082161
v 0.534139 3.924597 -0.206429
v -0.366284 1.825891 0.070581
v -2.732937 4.163646 -1.546510
v -3.303380 6.072990 -0.598926
v 0.261043 1.796378 0.515255
v 0.198735 1.877685 0.482533
v -0.153244 1.499533 0.226016
v -0.104375 1.370669 0.236719
v 0.129729 1.895355 0.535850
v -0.317301 1.798092 0.006055
v -0.427336 1.793489 0.083457
v 0.192037 1.814048 0.568571
v -1.347356 2.867925 -0.155336
v -1.325930 2.877180 -0.151829
v -0.794904 2.451377 -0.092134
v -0.845188 2.396556 -0.020497
v -1.321270 2.844411 -0.184415
v -0.819729 2.392218 -0.096097
v -0.649581 2.961992 0.044025
v -1.342695 2.835155 -0.187922
v -0.201663 0.843799 -0.118440
v -0.820362 2.455715 -0.016535
v -0.514678 2.922479 0.034280
v -0.621157 2.971357 -0.041684
v -0.588404 2.913350 0.085545
v -0.541298 2.935689 -0.047152
v -0.473854 1.746223 -0.114292
v -0.009699 1.372011 0.165708
v -0.344225 1.785829 -0.113163
v -0.510417 1.713939 0.007381
v -0.058569 1.500875 0.155005
v -0.114058 0.815420 0.127109
v -0.040752 0.852592 -0.118549
v -0.247588 0.823198 0.030757
v 0.018173 0.810469 0.031327
v 0.092671 0.189729 -0.143281
v -0.180191 0.183063 0.054812
v 0.158523 0.183956 0.053888
v -0.117902 0.197370 -0.142122
v -0.010018 0.176816 0.176365
vt 0.4617 0.1872
vt 0.4640 0.1859
vt 0.4644 0.1894
vt 0.4671 0.1916
vt 0.4661 0.1940
vt 0.4637 0.1919
vt 0.4603 0.1921
vt 0.4627 0.1943
vt 0.4590 0.1937
vt 0.4566 0.1859
vt 0.4541 0.1859
vt 0.4557 0.1832
vt 0.4563 0.1919
vt 0.4585 0.1890
vt 0.4545 0.1887
vt 0.4618 0.1829
vt 0.4663 0.1846
vt 0.4642 0.1815
vt 0.4677 0.1827
vt 0.4593 0.1822
vt 0.4535 0.2072
vt 0.4586 0.2045
vt 0.4594 0.2085
vt 0.4560 0.1997
vt 0.4606 0.1980
vt 0.4599 0.2007
vt 0.4217 0.1669
vt 0.4273 0.1693
vt 0.4215 0.1708
vt 0.4213 0.1748
vt 0.4252 0.1784
vt 0.4214 0.1773
vt 0.4098 0.1732
vt 0.4094 0.1769
vt 0.4053 0.1752
vt 0.4187 0.1789
vt 0.4155 0.1740
vt 0.4129 0.1781
vt 0.4514 0.2014
vt 0.4548 0.2034
vt 0.4542 0.1956
vt 0.4569 0.1975
vt 0.4418 0.2012
vt 0.4420 0.1966
vt 0.4456 0.1984
vt 0.4237 0.1883
vt 0.4264 0.1851
vt 0.4271 0.1886
vt 0.4238 0.1905
vt 0.4239 0.1928
vt 0.4280 0.1952
vt 0.4240 0.1948
vt 0.4176 0.1911
vt 0.4150 0.1929
vt 0.4154 0.1900
vt 0.4211 0.1960
vt 0.4208 0.1919
vt 0.4180 0.1952
vt 0.4198 0.1857
vt 0.4231 0.1860
vt 0.4225 0.1838
vt 0.4193 0.1834
vt 0.4220 0.1819
vt 0.4168 0.1871
vt 0.4268 0.2071
vt 0.4295 0.2024
vt 0.4324 0.2063
vt 0.4273 0.2113
vt 0.4741 0.1766
vt 0.4739 0.1834
vt 0.4716 0.1787
vt 0.4149 0.2109
vt 0.4105 0.2105
vt 0.4132 0.2069
vt 0.4681 0.1775
vt 0.4698 0.1717
vt 0.4655 0.1669
vt 0.4638 0.1727
vt 0.4621 0.1686
vt 0.4226 0.2032
vt 0.4259 0.2040
vt 0.4251 0.2008
vt 0.4217 0.2000
vt 0.4245 0.1988
vt 0.4166 0.2050
vt 0.4511 0.1693
vt 0.4566 0.1739
vt 0.4530 0.1749
vt 0.4451 0.1765
vt 0.4484 0.1812
vt 0.4435 0.1808
vt 0.4418 0.1851
vt 0.4471 0.1883
vt 0.4420 0.1885
vt 0.3979 0.1846
vt 0.4035 0.1826
vt 0.4032 0.1867
vt 0.4086 0.1888
vt 0.4123 0.1860
vt 0.4109 0.1889
vt 0.3979 0.1943
vt 0.4051 0.1945
vt 0.4003 0.1981
vt 0.4124 0.1947
vt 0.4154 0.1970
vt 0.4119 0.1988
vt 0.4399 0.1956
vt 0.4360 0.1966
vt 0.4352 0.1922
vt 0.4404 0.1862
vt 0.4348 0.1840
vt 0.4390 0.1819
vt 0.4376 0.1776
vt 0.4333 0.1797
vt 0.4353 0.1747
vt 0.4705 0.1975
vt 0.4678 0.1970
vt 0.4688 0.1946
vt 0.4727 0.2084
vt 0.4683 0.2051
vt 0.4716 0.2030
vt 0.4805 0.2033
vt 0.4771 0.1968
vt 0.4823 0.1995
vt 0.4667 0.1881
vt 0.4703 0.1909
vt 0.4700 0.1874
vt 0.4610 0.1896
vt 0.4592 0.1865
vt 0.4272 0.1733
vt 0.4157 0.1700
vt 0.4477 0.2042
vt 0.4527 0.1977
vt 0.4494 0.1956
vt 0.4458 0.1938
vt 0.4509 0.1936
vt 0.4258 0.1829
vt 0.4272 0.1908
vt 0.4207 0.1897
vt 0.4286 0.1992
vt 0.4780 0.1818
vt 0.4209 0.2090
vt 0.4481 0.1729
vt 0.4500 0.1785
vt 0.4027 0.2019
vt 0.4071 0.2024
vt 0.4044 0.2060
vt 0.4549 0.1698
vt 0.4467 0.1855
vt 0.3979 0.1894
vt 0.4032 0.1916
vt 0.3994 0.1810
vt 0.4088 0.1847
vt 0.4076 0.1983
vt 0.4105 0.1918
vt 0.4402 0.1909
vt 0.4355 0.1875
vt 0.4390 0.2006
vt 0.4766 0.2059
vt 0.4755 0.2004
vt 0.4690 0.2091
vt 0.4672 0.1997
vt 0.4842 0.1956
vt 0.4789 0.1929
vt 0.4830 0.1913
vt 0.4721 0.1939
vt 0.4617 0.1872
vt 0.4640 0.1859
vt 0.4644 0.1894
vt 0.4671 0.1916
vt 0.4661 0.1940
vt 0.4637 0.1919
vt 0.4603 0.1921
vt 0.4627 0.1943
vt 0.4590 0.1937
vt 0.4566 0.1859
vt 0.4541 0.1859
vt 0.4557 0.1832
vt 0.4563 0.1919
vt 0.4585 0.1890
vt 0.4545 0.1887
vt 0.4618 0.1829
vt 0.4663 0.1846
vt 0.4642 0.1815
vt 0.4677 0.1827
vt 0.4593 0.1822
vt 0.4535 0.2072
vt 0.4586 0.2045
vt 0.4594 0.2085
vt 0.4560 0.1997
vt 0.4606 0.1980
vt 0.4599 0.2007
vt 0.4217 0.1669
vt 0.4273 0.1693
vt 0.4215 0.1708
vt 0.4213 0.1748
vt 0.4252 0.1784
vt 0.4214 0.1773
vt 0.4098 0.1732
vt 0.4094 0.1769
vt 0.4053 0.1752
vt 0.4187 0.1789
vt 0.4155 0.1740
vt 0.4129 0.1781
vt 0.4514 0.2014
vt 0.4548 0.2034
vt 0.4542 0.1956
vt 0.4569 0.1975
vt 0.4418 0.2012
vt 0.4420 0.1966
vt 0.4456 0.1984
vt 0.4237 0.1883
vt 0.4264 0.1851
vt 0.4271 0.1886
vt 0.4238 0.1905
vt 0.4239 0.1928
vt 0.4280 0.1952
vt 0.4240 0.1948
vt 0.4176 0.1911
vt 0.4150 0.1929
vt 0.4154 0.1900
vt 0.4211 0.1960
vt 0.4208 0.1919
vt 0.4180 0.1952
vt 0.4198 0.1857
vt 0.4231 0.1860
vt 0.4225 0.1838
vt 0.4193 0.1834
vt 0.4220 0.1819
vt 0.4168 0.1871
vt 0.4268 0.2071
vt 0.4295 0.2024
vt 0.4324 0.2063
vt 0.4273 0.2113
vt 0.4741 0.1766
vt 0.4739 0.1834
vt 0.4716 0.1787
vt 0.4149 0.2109
vt 0.4105 0.2105
vt 0.4132 0.2069
vt 0.4681 0.1775
vt 0.4698 0.1717
vt 0.4655 0.1669
vt 0.4638 0.1727
vt 0.4621 0.1686
vt 0.4226 0.2032
vt 0.4259 0.2040
vt 0.4251 0.2008
vt 0.4217 0.2000
vt 0.4245 0.1988
vt 0.4166 0.2050
vt 0.4511 0.1693
vt 0.4566 0.1739
vt 0.4530 0.1749
vt 0.4451 0.1765
vt 0.4484 0.1812
vt 0.4435 0.1808
vt 0.4418 0.1851
vt 0.4471 0.1883
vt 0.4420 0.1885
vt 0.3979 0.1846
vt 0.4035 0.1826
vt 0.4032 0.1867
vt 0.4086 0.1888
vt 0.4123 0.1860
vt 0.4109 0.1889
vt 0.3979 0.1943
vt 0.4051 0.1945
vt 0.4003 0.1981
vt 0.4124 0.1947
vt 0.4154 0.1970
vt 0.4119 0.1988
vt 0.4399 0.1956
vt 0.4360 0.1966
vt 0.4352 0.1922
vt 0.4404 0.1862
vt 0.4348 0.1840
vt 0.4390 0.1819
vt 0.4376 0.1776
vt 0.4333 0.1797
vt 0.4353 0.1747
vt 0.4705 0.1975
vt 0.4678 0.1970
vt 0.4688 0.1946
vt 0.4727 0.2084
vt 0.4683 0.2051
vt 0.4716 0.2030
vt 0.4805 0.2033
vt 0.4771 0.1968
vt 0.4823 0.1995
vt 0.4667 0.1881
vt 0.4703 0.1909
vt 0.4700 0.1874
vt 0.4610 0.1896
vt 0.4592 0.1865
vt 0.4272 0.1733
vt 0.4157 0.1700
vt 0.4477 0.2042
vt 0.4527 0.1977
vt 0.4494 0.1956
vt 0.4458 0.1938
vt 0.4509 0.1936
vt 0.4258 0.1829
vt 0.4272 0.1908
vt 0.4207 0.1897
vt 0.4286 0.1992
vt 0.4780 0.1818
vt 0.4209 0.2090
vt 0.4481 0.1729
vt 0.4500 0.1785
vt 0.4027 0.2019
vt 0.4071 0.2024
vt 0.4044 0.2060
vt 0.4549 0.1698
vt 0.4467 0.1855
vt 0.3979 0.1894
vt 0.4032 0.1916
vt 0.3994 0.1810
vt 0.4088 0.1847
vt 0.4076 0.1983
vt 0.4105 0.1918
vt 0.4402 0.1909
vt 0.4355 0.1875
vt 0.4390 0.2006
vt 0.4766 0.2059
vt 0.4755 0.2004
vt 0.4690 0.2091
vt 0.4672 0.1997
vt 0.4842 0.1956
vt 0.4789 0.1929
vt 0.4830 0.1913
vt 0.4721 0.1939
vt 0.3085 0.7711
vt 0.3089 0.7743
vt 0.3073 0.7744
vt 0.3067 0.7714
vt 0.3194 0.7722
vt 0.3183 0.7751
vt 0.3168 0.7746
vt 0.3177 0.7715
vt 0.3122 0.7708
vt 0.3121 0.7741
vt 0.3105 0.7741
vt 0.3104 0.7708
vt 0.3049 0.7718
vt 0.3057 0.7746
vt 0.3041 0.7749
vt 0.3031 0.7722
vt 0.3159 0.7712
vt 0.3152 0.7744
vt 0.3137 0.7741
vt 0.3140 0.7708
vt 0.3117 0.7808
vt 0.3104 0.7805
vt 0.3062 0.7815
vt 0.3048 0.7816
vt 0.3145 0.7812
vt 0.3131 0.7810
vt 0.3090 0.7809
vt 0.3091 0.7876
vt 0.3079 0.7883
vt 0.3076 0.7814
vt 0.3235 0.7948
vt 0.3246 0.7956
vt 0.3245 0.7980
vt 0.3234 0.7975
vt 0.3064 0.7956
vt 0.3076 0.7959
vt 0.3074 0.8035
vt 0.3062 0.8030
vt 0.3134 0.7955
vt 0.3146 0.7957
vt 0.3142 0.8031
vt 0.3131 0.8029
vt 0.3214 0.7940
vt 0.3224 0.7939
vt 0.3223 0.7970
vt 0.3215 0.7968
vt 0.3159 0.7958
vt 0.3171 0.7958
vt 0.3168 0.8028
vt 0.3155 0.8030
vt 0.3129 0.8126
vt 0.3138 0.8127
vt 0.3133 0.8223
vt 0.3127 0.8223
vt 0.3094 0.8128
vt 0.3102 0.8126
vt 0.3109 0.8223
vt 0.3104 0.8224
vt 0.3145 0.8133
vt 0.3152 0.8138
vt 0.3145 0.8223
vt 0.3139 0.8223
vt 0.3112 0.8125
vt 0.3120 0.8124
vt 0.3121 0.8222
vt 0.3115 0.8223
vt 0.3299 0.8314
vt 0.3289 0.8308
vt 0.3291 0.8282
vt 0.3299 0.8284
vt 0.3173 0.7818
vt 0.3162 0.7886
vt 0.3150 0.7883
vt 0.3159 0.7815
vt 0.3276 0.8222
vt 0.3271 0.8219
vt 0.3276 0.8157
vt 0.3280 0.8160
vt 0.3079 0.8135
vt 0.3086 0.8130
vt 0.3098 0.8224
vt 0.3091 0.8225
vt 0.3267 0.8320
vt 0.3259 0.8317
vt 0.3267 0.8280
vt 0.3273 0.8284
vt 0.3286 0.8223
vt 0.3281 0.8225
vt 0.3283 0.8162
vt 0.3288 0.8160
vt 0.3319 0.8318
vt 0.3309 0.8319
vt 0.3306 0.8286
vt 0.3313 0.8283
vt 0.3283 0.8316
vt 0.3276 0.8324
vt 0.3278 0.8289
vt 0.3285 0.8285
vt 0.3298 0.8222
vt 0.3292 0.8220
vt 0.3292 0.8158
vt 0.3297 0.8160
vt 0.3309 0.8221
vt 0.3304 0.8224
vt 0.3302 0.8161
vt 0.3306 0.8159
vt 0.3262 0.8035
vt 0.3270 0.8037
vt 0.3260 0.8100
vt 0.3254 0.8097
vt 0.3088 0.7963
vt 0.3085 0.8032
vt 0.3111 0.7960
vt 0.3123 0.7953
vt 0.3120 0.8027
vt 0.3108 0.8028
vt 0.3247 0.8034
vt 0.3255 0.8033
vt 0.3248 0.8095
vt 0.3241 0.8093
vt 0.3277 0.7944
vt 0.3288 0.7948
vt 0.3279 0.7974
vt 0.3271 0.7973
vt 0.3257 0.7948
vt 0.3267 0.7940
vt 0.3262 0.7971
vt 0.3253 0.7975
vt 0.3229 0.8033
vt 0.3239 0.8036
vt 0.3233 0.8091
vt 0.3223 0.8090
vt 0.3212 0.8031
vt 0.3219 0.8030
vt 0.3214 0.8090
vt 0.3208 0.8093
vt 0.3205 0.8031
vt 0.3202 0.8096
vt 0.3207 0.7967
vt 0.3248 0.7932
vt 0.3260 0.7921
vt 0.3272 0.7909
vt 0.3284 0.7916
vt 0.3296 0.7922
vt 0.3099 0.7968
vt 0.3096 0.8029
vt 0.3102 0.7906
vt 0.3114 0.7893
vt 0.3126 0.7879
vt 0.3091 0.7894
vt 0.3315 0.8219
vt 0.3311 0.8157
vt 0.3319 0.8280
vt 0.3287 0.8334
vt 0.3281 0.8346
vt 0.3274 0.8358
vt 0.3329 0.8317
vt 0.3339 0.8353
vt 0.3326 0.8353
vt 0.3313 0.8352
vt 0.3262 0.8356
vt 0.3250 0.8353
vt 0.3071 0.8141
vt 0.3085 0.8226
vt 0.3057 0.8057
vt 0.3065 0.8046
vt 0.3198 0.7756
vt 0.3186 0.7822
vt 0.3174 0.7888
vt 0.3300 0.8343
vt 0.3151 0.8042
vt 0.3159 0.8053
vt 0.3205 0.7941
vt 0.3202 0.7915
vt 0.3213 0.7912
vt 0.3225 0.7909
vt 0.3138 0.7881
vt 0.3052 0.7953
vt 0.3050 0.8024
vt 0.3054 0.7883
vt 0.3067 0.7883
vt 0.3237 0.7921
vt 0.3102 0.7869
vt 0.3114 0.7874
vt 0.3164 0.7680
vt 0.3144 0.7675
vt 0.3185 0.7685
vt 0.3041 0.7688
vt 0.3022 0.7694
vt 0.3061 0.7683
vt 0.3123 0.7675
vt 0.3102 0.7675
vt 0.3204 0.7694
vt 0.3223 0.7703
vt 0.3210 0.7729
vt 0.3081 0.7679
vt 0.4736 0.1902
vt 0.4778 0.1886
vt 0.4819 0.1870
vt 0.4645 0.1991
vt 0.4651 0.1964
vt 0.4638 0.2018
vt 0.4646 0.2058
vt 0.4653 0.2098
vt 0.4298 0.1854
vt 0.4291 0.1819
vt 0.4305 0.1889
vt 0.4351 0.2016
vt 0.4321 0.1976
vt 0.4380 0.2055
vt 0.4128 0.1918
vt 0.4132 0.1889
vt 0.4114 0.2029
vt 0.4125 0.1819
vt 0.4160 0.1831
vt 0.4090 0.1806
vt 0.4050 0.1790
vt 0.4009 0.1773
vt 0.4520 0.1887
vt 0.4523 0.1916
vt 0.4516 0.1859
vt 0.4532 0.1832
vt 0.4548 0.1805
vt 0.4603 0.1744
vt 0.4620 0.1785
vt 0.4586 0.1703
vt 0.4087 0.2065
vt 0.4061 0.2101
vt 0.4183 0.1992
vt 0.4656 0.1797
vt 0.4691 0.1808
vt 0.4214 0.2131
vt 0.4278 0.2154
vt 0.4280 0.1972
vt 0.4240 0.1968
vt 0.4211 0.1980
vt 0.4313 0.1933
vt 0.4253 0.1809
vt 0.4215 0.1799
vt 0.4473 0.1918
vt 0.4422 0.1920
vt 0.4187 0.1815
vt 0.4311 0.1768
vt 0.4330 0.1718
vt 0.4614 0.1958
vt 0.4578 0.1953
vt 0.4550 0.1935
vt 0.4714 0.1855
vt 0.4148 0.2011
vt 0.4146 0.1860
vt 0.4584 0.1795
vt 0.4329 0.2104
vt 0.4736 0.1902
vt 0.4778 0.1886
vt 0.4819 0.1870
vt 0.4645 0.1991
vt 0.4651 0.1964
vt 0.4638 0.2018
vt 0.4646 0.2058
vt 0.4653 0.2098
vt 0.4298 0.1854
vt 0.4291 0.1819
vt 0.4305 0.1889
vt 0.4351 0.2016
vt 0.4321 0.1976
vt 0.4380 0.2055
vt 0.4128 0.1918
vt 0.4132 0.1889
vt 0.4114 0.2029
vt 0.4125 0.1819
vt 0.4160 0.1831
vt 0.4090 0.1806
vt 0.4050 0.1790
vt 0.4009 0.1773
vt 0.4520 0.1887
vt 0.4523 0.1916
vt 0.4516 0.1859
vt 0.4532 0.1832
vt 0.4548 0.1805
vt 0.4603 0.1744
vt 0.4620 0.1785
vt 0.4586 0.1703
vt 0.4087 0.2065
vt 0.4061 0.2101
vt 0.4183 0.1992
vt 0.4656 0.1797
vt 0.4691 0.1808
vt 0.4214 0.2131
vt 0.4278 0.2154
vt 0.4280 0.1972
vt 0.4240 0.1968
vt 0.4211 0.1980
vt 0.4313 0.1933
vt 0.4253 0.1809
vt 0.4215 0.1799
vt 0.4473 0.1918
vt 0.4422 0.1920
vt 0.4187 0.1815
vt 0.4311 0.1768
vt 0.4330 0.1718
vt 0.4614 0.1958
vt 0.4578 0.1953
vt 0.4550 0.1935
vt 0.4714 0.1855
vt 0.4148 0.2011
vt 0.4146 0.1860
vt 0.4584 0.1795
vt 0.4329 0.2104
vn 0.1416 0.1661 -0.9759
vn 0.1657 0.1455 -0.9754
vn -0.0434 0.1784 -0.9830
vn -0.2520 0.1118 -0.9612
vn -0.3551 0.2490 -0.9011
vn -0.1589 0.2575 -0.9531
vn -0.0398 0.4399 -0.8971
vn -0.2787 0.4027 -0.8719
vn -0.0746 0.5587 -0.8260
vn 0.4673 0.3386 -0.8167
vn 0.6365 0.5055 -0.5825
vn 0.7871 0.1425 -0.6002
vn 0.1502 0.6487 -0.7461
vn 0.1555 0.4640 -0.8721
vn 0.3040 0.6723 -0.6749
vn 0.3723 0.0524 -0.9266
vn 0.0930 -0.1099 -0.9896
vn 0.4258 -0.1238 -0.8963
vn 0.1049 -0.3715 -0.9225
vn 0.5679 0.0166 -0.8229
vn -0.4921 0.8703 -0.0184
vn -0.6724 0.6954 -0.2536
vn -0.7774 0.6268 0.0534
vn -0.2840 0.8366 -0.4685
vn -0.4715 0.6424 -0.6042
vn -0.5085 0.6946 -0.5088
vn -0.5503 0.7851 0.2841
vn -0.5699 0.6822 0.4581
vn -0.8199 0.4418 0.3641
vn -0.6065 0.5903 0.5326
vn 0.0025 0.9242 0.3820
vn 0.2304 0.7801 0.5817
vn 0.3068 0.9288 0.2081
vn -0.2479 0.6716 0.6982
vn -0.2474 0.8295 0.5007
vn -0.0265 0.7009 0.7128
vn -0.1379 0.9821 -0.1281
vn -0.3642 0.8812 -0.3014
vn 0.0445 0.8560 -0.5150
vn -0.2737 0.8020 -0.5309
vn 0.0576 0.9983 0.0101
vn -0.4719 -0.0909 0.8770
vn -0.7617 0.0518 0.6458
vn -0.7288 -0.2163 0.6496
vn -0.3701 -0.3967 0.8400
vn -0.2752 -0.5779 0.7683
vn -0.5545 -0.6323 0.5410
vn -0.2027 -0.6577 0.7255
vn 0.0743 -0.2246 0.9716
vn 0.2675 -0.3605 0.8936
vn 0.1451 -0.0038 0.9894
vn 0.1537 -0.5990 0.7858
vn 0.0258 -0.4410 0.8971
vn 0.1859 -0.5637 0.8048
vn -0.2392 0.1384 0.9611
vn -0.5500 0.1306 0.8249
vn -0.5871 0.2042 0.7833
vn -0.3480 0.2548 0.9022
vn -0.5975 0.2618 0.7579
vn -0.0202 0.1174 0.9929
vn 0.1462 -0.9814 -0.1242
vn -0.1910 -0.9797 -0.0617
vn -0.1120 -0.9385 -0.3267
vn 0.1734 -0.8959 -0.4091
vn 0.1655 -0.6889 -0.7057
vn -0.1759 -0.4807 -0.8591
vn 0.1210 -0.5510 -0.8257
vn 0.5690 -0.8013 -0.1848
vn 0.7518 -0.6014 -0.2705
vn 0.6996 -0.7066 0.1062
vn 0.4489 -0.5617 -0.6949
vn 0.4277 -0.7697 -0.4740
vn 0.6011 -0.5475 -0.5821
vn 0.3631 -0.9254 0.1090
vn 0.1573 -0.9874 -0.0156
vn 0.1000 -0.9819 0.1609
vn 0.3582 -0.9000 0.2482
vn -0.0030 -0.9231 0.3845
vn 0.4548 -0.8725 0.1786
vn 0.9672 -0.2106 -0.1421
vn 0.9097 -0.1010 -0.4029
vn 0.9306 -0.0987 -0.3525
vn 0.9932 0.1157 0.0135
vn 0.9079 0.3200 -0.2708
vn 0.9209 0.3687 0.1262
vn 0.8228 0.5575 0.1105
vn 0.6164 0.7361 -0.2798
vn 0.7214 0.6926 0.0005
vn 0.7272 0.5186 0.4497
vn 0.7884 0.3644 0.4956
vn 0.6942 0.3681 0.6185
vn 0.4423 0.4201 0.7924
vn 0.6044 0.3923 0.6935
vn 0.9572 -0.0018 0.2894
vn 0.9819 -0.1493 -0.1163
vn 0.7470 -0.3171 0.5843
vn 0.4324 -0.6844 0.5870
vn 0.7727 -0.5924 0.2279
vn -0.9039 -0.3500 -0.2458
vn -0.7958 -0.6044 0.0381
vn -0.9299 -0.3470 0.1218
vn -0.9836 -0.0944 -0.1534
vn -0.9824 0.0398 0.1823
vn -0.9976 0.0309 -0.0614
vn -0.9761 0.2089 -0.0595
vn -0.9630 0.1803 0.2001
vn -0.9338 0.3567 0.0293
vn -0.8041 0.0510 -0.5923
vn -0.6036 0.2828 -0.7454
vn -0.4895 0.0505 -0.8705
vn -0.9073 0.3563 -0.2230
vn -0.9482 0.1514 -0.2794
vn -0.8398 -0.2049 -0.5028
vn -0.9556 -0.1621 -0.2462
vn -0.1369 0.0350 -0.9900
vn -0.3751 -0.1106 -0.9204
vn -0.2108 -0.2493 -0.9452
vn 0.0401 0.2627 -0.9641
vn 0.2321 0.1778 -0.9563
vn -0.7978 0.5352 0.2775
vn -0.2070 0.9622 0.1772
vn -0.0593 0.9296 -0.3639
vn 0.1185 0.9563 -0.2674
vn 0.3715 0.9076 -0.1955
vn 0.2757 0.8369 -0.4728
vn -0.7561 0.1693 0.6321
vn -0.6327 -0.4920 0.5980
vn -0.1071 -0.1326 0.9854
vn -0.2443 -0.9579 0.1507
vn -0.1113 -0.7031 -0.7024
vn 0.3514 -0.9315 -0.0945
vn 0.9328 0.0450 -0.3577
vn 0.9204 -0.3887 0.0420
vn 0.9706 -0.1851 -0.1537
vn 0.7677 0.6093 -0.1985
vn 0.8587 0.2674 0.4372
vn 0.6091 0.3823 0.6949
vn 0.9440 -0.3118 0.1079
vn 0.7915 0.2112 0.5735
vn -0.9858 -0.1085 0.1284
vn -0.7433 -0.5232 -0.4169
vn -0.9254 -0.1172 -0.3604
vn -0.8173 0.3440 -0.4623
vn -0.7734 -0.2355 -0.5886
vn -0.6881 -0.1962 -0.6986
vn 0.3203 -0.8774 -0.3572
vn 0.1938 -0.9596 -0.2041
vn 0.0857 -0.8800 -0.4671
vn -0.1330 -0.8263 -0.5473
vn -0.1463 -0.6662 -0.7313
vn 0.0504 -0.7588 -0.6494
vn 0.1691 -0.7475 -0.6424
vn 0.0214 -0.6304 -0.7760
vn 0.0937 -0.6249 -0.7751
vn 0.4662 -0.8514 -0.2405
vn 0.6218 -0.7630 -0.1764
vn 0.6061 -0.7948 -0.0293
vn 0.2751 -0.7468 -0.6056
vn 0.3436 -0.8323 -0.4349
vn 0.4689 -0.7916 -0.3919
vn 0.4204 -0.9061 -0.0473
vn -0.0290 -0.9989 0.0367
vn 0.2040 -0.9554 0.2137
vn -0.1567 -0.9172 0.3664
vn 0.5085 -0.8610 -0.0121
vn 0.0596 0.2187 -0.9740
vn -0.0411 0.1121 -0.9928
vn -0.0593 0.2158 -0.9746
vn 0.0619 -0.1365 -0.9887
vn -0.0001 -0.3782 -0.9257
vn -0.0143 -0.1440 -0.9895
vn 0.0622 0.3162 -0.9466
vn 0.0394 0.5213 -0.8525
vn -0.2080 0.5226 -0.8268
vn 0.0181 0.6594 -0.7516
vn 0.4257 0.5219 -0.7392
vn 0.6194 0.6267 -0.4730
vn 0.7055 0.4050 -0.5816
vn 0.2099 0.7333 -0.6466
vn 0.2079 0.5528 -0.8069
vn 0.3705 0.7464 -0.5528
vn 0.1672 0.2297 -0.9588
vn 0.0570 0.1232 -0.9907
vn 0.2229 -0.2558 -0.9407
vn 0.0514 -0.3515 -0.9348
vn 0.4383 0.3258 -0.8377
vn -0.3641 0.9290 -0.0660
vn -0.5421 0.8054 -0.2399
vn -0.6935 0.7204 0.0012
vn -0.4823 0.8595 0.1693
vn -0.5610 0.7170 0.4138
vn -0.8543 0.3537 0.3809
vn -0.5958 0.6080 0.5247
vn -0.0244 0.9364 0.3500
vn 0.1530 0.7563 0.6361
vn 0.1928 0.9621 0.1927
vn -0.2020 0.6683 0.7159
vn -0.2162 0.8662 0.4505
vn -0.0827 0.6641 0.7431
vn -0.0518 0.9886 -0.1411
vn -0.2504 0.9459 -0.2062
vn -0.1785 0.9211 -0.3460
vn 0.0016 0.9571 -0.2897
vn -0.1178 0.8641 -0.4894
vn 0.0759 0.9939 -0.0797
vn -0.4859 -0.2754 0.8295
vn -0.6305 -0.1911 0.7523
vn -0.5624 -0.3303 0.7580
vn -0.4337 -0.4702 0.7686
vn -0.3344 -0.6816 0.6508
vn -0.4543 -0.7453 0.4881
vn -0.2656 -0.7573 0.5967
vn -0.0329 -0.3962 0.9176
vn 0.3081 -0.4499 0.8382
vn 0.2798 -0.0786 0.9568
vn -0.0810 -0.7852 0.6139
vn -0.2409 -0.6297 0.7386
vn 0.0847 -0.7589 0.6456
vn -0.3504 -0.1553 0.9236
vn -0.4865 -0.2390 0.8404
vn -0.5054 -0.1825 0.8433
vn -0.3185 -0.0930 0.9434
vn -0.5549 -0.0526 0.8302
vn -0.1185 -0.0760 0.9900
vn 0.7890 -0.1913 0.5839
vn 0.7167 -0.5500 0.4288
vn 0.8055 -0.4027 0.4347
vn 0.9400 -0.0769 0.3323
vn 0.9523 -0.2436 0.1840
vn 0.9746 -0.0301 0.2220
vn 0.9948 0.0964 -0.0341
vn 0.9454 -0.1068 -0.3079
vn 0.9482 0.1859 -0.2576
vn 0.9006 0.4105 -0.1430
vn 0.9510 0.2973 0.0849
vn 0.8875 0.4584 0.0465
vn 0.6502 0.7249 -0.2274
vn 0.7805 0.6241 -0.0367
vn 0.8866 0.0863 0.4545
vn 0.9006 -0.0961 0.4240
vn 0.5587 0.3592 0.7476
vn 0.1350 0.3652 0.9211
vn 0.4054 0.0314 0.9136
vn -0.9882 -0.0791 0.1313
vn -0.8994 0.0690 0.4315
vn -0.9635 0.2269 0.1423
vn -0.8909 0.0261 -0.4534
vn -0.7807 0.3185 -0.5376
vn -0.6743 0.0598 -0.7360
vn -0.5984 0.0562 -0.7992
vn -0.5989 0.2395 -0.7642
vn -0.5264 0.1197 -0.8418
vn -0.5987 -0.3590 -0.7160
vn -0.3292 -0.5064 -0.7970
vn -0.3776 -0.6544 -0.6552
vn -0.5240 -0.0080 -0.8517
vn -0.6176 -0.0612 -0.7841
vn -0.8766 -0.3390 -0.3416
vn -0.9850 -0.0424 -0.1671
vn -0.0828 -0.9530 -0.2913
vn -0.3777 -0.8533 -0.3596
vn -0.3050 -0.9504 0.0609
vn 0.2590 -0.8042 -0.5350
vn 0.4465 -0.8407 -0.3064
vn -0.1286 0.3568 -0.9253
vn 0.1889 0.3394 -0.9215
vn 0.1839 0.0186 -0.9828
vn 0.4218 0.1446 -0.8951
vn 0.7236 0.1979 -0.6613
vn 0.5553 -0.0930 -0.8264
vn -0.3508 0.8269 -0.4395
vn -0.8003 0.5419 0.2565
vn -0.1474 0.9859 0.0795
vn -0.6862 -0.1484 0.7121
vn -0.4950 -0.5868 0.6408
vn -0.3683 -0.3057 0.8780
vn 0.9113 -0.2861 0.2961
vn 0.5578 -0.0785 0.8263
vn 0.7494 -0.2948 0.5928
vn 0.9850 -0.1677 -0.0403
vn 0.9402 0.1309 0.3146
vn 0.7895 0.6010 -0.1245
vn 0.7236 0.0158 0.6900
vn 0.8656 0.3528 0.3554
vn -0.9363 0.3036 -0.1764
vn -0.8908 -0.2789 0.3588
vn -0.7674 -0.1841 -0.6141
vn -0.4589 -0.2344 -0.8570
vn -0.9065 -0.4210 -0.0316
vn -0.6896 -0.5525 -0.4682
vn -0.0052 0.1306 0.9914
vn 0.0050 0.0893 0.9960
vn -0.5742 0.0055 0.8187
vn -0.5770 0.0826 0.8126
vn -0.5863 0.0409 -0.8090
vn -0.5767 -0.0288 -0.8164
vn 0.0051 0.0686 -0.9976
vn 0.0011 0.1011 -0.9949
vn 0.9326 0.1941 0.3044
vn 0.9283 0.2162 0.3026
vn 0.5828 0.1836 0.7916
vn 0.5751 0.1879 0.7962
vn -0.9451 0.0270 0.3255
vn -0.9457 -0.0687 0.3176
vn -0.9468 -0.0713 -0.3138
vn -0.9534 0.0270 -0.3006
vn 0.5745 0.1417 -0.8061
vn 0.5691 0.1467 -0.8091
vn 0.9269 0.2142 -0.3082
vn 0.9326 0.1902 -0.3066
vn 0.9368 0.2069 0.2820
vn 0.5806 0.1365 0.8027
vn -0.9322 -0.1635 0.3230
vn -0.9307 -0.1711 -0.3234
vn 0.5662 0.1499 -0.8105
vn 0.9161 0.2168 -0.3372
vn -0.0063 0.0192 0.9998
vn -0.1472 -0.2328 0.9613
vn -0.6401 -0.1894 0.7446
vn -0.5796 -0.0880 0.8101
vn 0.3308 0.6480 -0.6860
vn -0.4420 0.8457 -0.2989
vn -0.5551 0.7346 -0.3902
vn 0.2327 0.5479 -0.8035
vn -0.8573 -0.3270 0.3977
vn -0.5157 -0.1562 0.8424
vn -0.4072 -0.1173 0.9058
vn -0.8003 -0.3700 0.4719
vn 0.5540 0.2109 -0.8054
vn 0.0415 0.0216 -0.9989
vn 0.0409 0.0462 -0.9981
vn 0.5283 0.1411 -0.8372
vn 0.9319 -0.3520 -0.0874
vn 0.8128 0.1985 -0.5477
vn 0.7502 0.1164 -0.6509
vn 0.8879 -0.4410 -0.1308
vn -0.4548 -0.1809 -0.8720
vn -0.8742 -0.3437 -0.3430
vn -0.8464 -0.4166 -0.3317
vn -0.4102 -0.1991 -0.8900
vn 0.5765 0.0856 -0.8126
vn -0.0241 0.1124 -0.9934
vn -0.1148 0.1158 -0.9866
vn 0.6270 0.0772 -0.7752
vn 0.0569 -0.0293 0.9980
vn 0.5786 -0.0107 0.8156
vn 0.5993 -0.0245 0.8001
vn 0.0903 -0.0326 0.9954
vn -0.6646 0.1147 -0.7383
vn -0.9481 0.0877 -0.3058
vn -0.9588 0.0741 -0.2742
vn -0.7172 0.1014 -0.6895
vn 0.9280 0.0140 0.3724
vn 0.9588 0.0585 -0.2778
vn 0.9660 0.0398 -0.2553
vn 0.9383 -0.0038 0.3457
vn 0.3490 0.6042 0.7163
vn 0.5401 0.8416 0.0110
vn 0.6518 0.7389 -0.1711
vn 0.4788 0.7012 0.5283
vn -0.5525 -0.0991 -0.8276
vn -0.4997 -0.1467 -0.8537
vn 0.0441 0.0269 -0.9987
vn 0.0056 0.0277 -0.9996
vn -0.6104 -0.6880 0.3924
vn -0.5979 -0.5966 0.5354
vn -0.5850 -0.5697 0.5773
vn -0.5839 -0.5872 0.5606
vn -0.9700 0.0491 0.2382
vn -0.5475 -0.0039 0.8368
vn -0.6829 0.0034 0.7305
vn -0.9862 0.0408 0.1607
vn -0.4477 -0.3432 -0.8257
vn -0.8021 -0.5617 -0.2030
vn -0.6801 -0.6579 0.3235
vn -0.6340 -0.7140 -0.2969
vn 0.4605 0.3458 -0.8175
vn -0.1736 -0.5432 -0.8215
vn -0.4642 -0.8018 -0.3763
vn 0.4672 0.3495 -0.8122
vn -0.7123 -0.4549 0.5345
vn -0.2576 0.0271 0.9659
vn -0.1416 0.1737 0.9746
vn -0.6499 -0.5193 0.5549
vn 0.3054 0.6100 -0.7312
vn -0.0794 0.0788 -0.9937
vn -0.0204 -0.0401 -0.9990
vn 0.4875 0.4520 -0.7470
vn 0.4644 0.8293 0.3107
vn 0.5838 0.7052 -0.4024
vn 0.5730 0.6622 -0.4829
vn 0.5230 0.8466 0.0991
vn -0.5919 -0.5512 0.5881
vn -0.1730 0.2254 0.9588
vn -0.1481 0.2693 0.9516
vn -0.5843 -0.5529 0.5941
vn -0.1719 -0.4558 0.8734
vn 0.4174 -0.6643 0.6200
vn 0.2731 -0.6321 0.7252
vn -0.1701 -0.4478 0.8778
vn -0.0241 0.0546 0.9982
vn -0.0127 -0.0011 0.9999
vn 0.8731 0.3748 0.3117
vn 0.8802 0.3567 -0.3130
vn 0.9356 0.2090 -0.2844
vn 0.9051 0.1736 0.3883
vn -0.8661 0.3570 0.3499
vn -0.6162 -0.1106 0.7798
vn -0.5700 -0.1488 0.8081
vn -0.8667 0.3682 0.3366
vn -0.2447 -0.5127 0.8229
vn 0.4714 -0.6644 0.5799
vn 0.4555 -0.7109 0.5359
vn -0.2026 -0.5172 0.8316
vn -0.8080 0.3632 0.4640
vn -0.6212 -0.1576 0.7676
vn -0.6211 -0.1571 0.7678
vn -0.8669 0.3081 0.3920
vn 0.2424 0.4753 -0.8458
vn -0.4844 0.7247 -0.4901
vn -0.5099 0.7231 -0.4660
vn 0.2606 0.4564 -0.8508
vn 0.8622 -0.5007 -0.0770
vn 0.7192 0.0371 -0.6938
vn 0.7909 -0.0891 -0.6055
vn 0.7959 -0.5915 0.1286
vn 0.2374 0.8313 0.5025
vn -0.4230 0.1973 0.8844
vn 0.5771 -0.2206 0.7863
vn 0.5251 0.2512 0.8132
vn 0.5300 0.0970 0.8424
vn 0.7464 0.6143 -0.2559
vn 0.8411 0.2179 -0.4950
vn -0.6234 0.7507 -0.2190
vn -0.2665 0.3393 -0.9022
vn -0.5085 0.3654 0.7797
vn -0.9057 -0.2513 -0.3415
vn 0.9932 -0.0037 0.1165
vn 0.5712 0.1917 -0.7981
vn -0.8998 -0.2500 0.3577
vn 0.5870 0.1329 -0.7986
vn 0.9392 0.1752 -0.2953
vn 0.0235 0.1022 -0.9945
vn -0.9373 0.0466 0.3455
vn -0.9600 0.0445 -0.2763
vn -0.5643 0.0953 0.8201
vn 0.9353 0.1796 0.3049
vn 0.5654 0.1800 0.8049
vn -0.5838 0.0534 -0.8101
vn -0.0156 0.1342 0.9908
vn -0.6469 -0.7626 -0.0065
vn -0.7007 -0.6242 0.3456
vn -0.6967 -0.4183 0.5828
vn -0.1602 -0.3856 -0.9086
vn -0.0933 -0.5333 -0.8408
vn -0.2355 -0.1225 -0.9641
vn -0.2819 0.0900 -0.9552
vn -0.2901 0.2282 -0.9294
vn -0.7717 0.5827 -0.2547
vn -0.5396 0.5860 -0.6045
vn -0.8801 0.4676 0.0818
vn -0.7497 -0.1354 0.6478
vn -0.8209 0.0500 0.5689
vn 0.5585 0.7145 0.4215
vn 0.5355 0.8442 0.0248
vn 0.4094 -0.0235 0.9120
vn 0.5592 0.7739 -0.2974
vn 0.2763 0.8996 -0.3383
vn 0.7480 0.6131 -0.2542
vn 0.8347 0.4430 -0.3273
vn 0.8699 0.2507 -0.4248
vn 0.8135 -0.4691 -0.3438
vn 0.6073 -0.4417 -0.6604
vn 0.8874 -0.4557 -0.0699
vn 0.8317 -0.5491 0.0825
vn 0.7773 -0.5831 0.2362
vn 0.5226 -0.6878 0.5038
vn 0.3617 -0.8510 0.3807
vn 0.6137 -0.4210 0.6679
vn 0.5074 -0.1117 0.8544
vn -0.1099 0.2179 0.9698
vn 0.0055 -0.8374 0.5466
vn -0.2069 -0.8177 0.5372
vn -0.8228 0.1428 0.5501
vn -0.6040 0.3540 0.7140
vn -0.2721 0.3447 0.8984
vn -0.8874 0.2876 0.3603
vn -0.2314 0.7057 -0.6696
vn -0.0362 0.7715 -0.6352
vn 0.8631 -0.0135 -0.5048
vn 0.1236 0.8439 -0.5220
vn -0.3983 0.3595 -0.8439
vn 0.0142 -0.4910 -0.8710
vn 0.0571 -0.4748 -0.8782
vn 0.1996 -0.5095 -0.8370
vn -0.3710 -0.8390 0.3980
vn 0.1775 0.0408 0.9833
vn 0.4246 0.8795 -0.2150
vn 0.6161 -0.7328 0.2888
vn -0.4922 -0.2962 -0.8185
vn -0.4739 -0.4279 -0.7696
vn -0.4274 -0.7296 -0.5339
vn -0.5933 0.5176 -0.6165
vn -0.4635 0.4375 -0.7705
vn -0.7387 0.5428 -0.3996
vn -0.8532 0.5033 -0.1371
vn -0.8758 0.4712 0.1043
vn -0.9035 0.0079 0.4285
vn -0.8858 0.1897 0.4236
vn -0.8622 -0.2807 0.4217
vn -0.5177 -0.8452 -0.1332
vn -0.5655 -0.7962 0.2149
vn 0.5365 0.0290 0.8434
vn 0.4002 0.2477 0.8823
vn 0.7955 -0.5871 0.1500
vn 0.2761 0.5105 0.8143
vn -0.0072 0.4126 0.9109
vn 0.4977 0.5719 0.6521
vn 0.5693 0.7354 0.3675
vn 0.5781 0.8158 -0.0157
vn 0.4973 0.7648 -0.4095
vn 0.3268 0.7746 -0.5415
vn 0.7435 0.5517 -0.3780
vn 0.8640 0.2433 -0.4409
vn 0.8910 0.0369 -0.4526
vn 0.8116 -0.2736 -0.5162
vn 0.6611 -0.2212 -0.7170
vn 0.9058 -0.3479 -0.2419
vn 0.8800 -0.4729 0.0444
vn 0.3824 -0.7933 0.4738
vn 0.4182 -0.4384 -0.7956
vn 0.1100 -0.4887 -0.8655
vn -0.3940 -0.8039 0.4455
vn -0.0943 -0.7990 0.5939
vn 0.2387 -0.7602 0.6043
vn -0.7488 -0.5454 0.3765
vn -0.7999 0.3279 0.5026
vn -0.6228 0.4418 0.6457
vn 0.5537 0.7468 -0.3684
vn -0.3296 0.4698 0.8190
vn -0.8890 0.3610 0.2819
vn -0.4019 0.5745 -0.7130
vn -0.1828 0.7180 -0.6716
vn 0.1080 0.7669 -0.6326
vn -0.1632 -0.4204 -0.8926
vn 0.5770 -0.7695 0.2737
vn 0.2393 0.3352 0.9112
vn 0.8372 -0.0690 -0.5426
usemtl None
s 1
f 1/1/1 189/2/2 234/3/3
f 3/4/4 462/5/5 509/6/6
f 5/7/7 421/8/8 371/9/9
f 7/10/10 273/11/11 315/12/12
f 5/7/7 166/13/13 419/14/14
f 7/10/10 350/15/15 273/11/11
f 1/1/1 220/16/16 189/2/2
f 2/17/17 307/18/18 165/19/19
f 7/10/10 315/12/12 398/20/20
f 13/21/21 370/22/22 418/23/23
f 16/24/24 162/25/25 367/26/26
f 13/27/21 418/28/23 505/29/27
f 17/30/28 182/31/29 225/32/30
f 20/33/31 414/34/32 259/35/33
f 17/30/28 406/36/34 264/37/35
f 20/33/31 302/38/36 414/34/32
f 13/21/21 432/39/37 456/40/38
f 16/24/24 359/41/39 355/42/40
f 20/43/31 259/44/33 171/45/41
f 25/46/42 405/47/43 183/48/44
f 25/46/42 183/48/44 227/49/45
f 27/50/46 455/51/47 504/52/48
f 30/53/49 506/54/50 363/55/51
f 27/50/46 304/56/52 170/57/53
f 30/53/49 413/58/54 506/54/50
f 25/46/42 308/59/55 466/60/56
f 34/61/57 281/62/58 285/63/59
f 30/53/49 363/55/51 160/64/60
f 35/65/61 429/66/62 352/67/63
f 35/65/61 352/67/63 493/68/64
f 37/69/65 257/70/66 349/71/67
f 39/72/68 164/73/69 298/74/70
f 37/69/65 449/75/71 400/76/72
f 39/77/68 155/78/73 164/79/69
f 35/65/61 213/80/74 248/81/75
f 42/82/76 441/83/77 478/84/78
f 39/72/68 298/74/70 392/85/79
f 43/86/80 357/87/81 179/88/82
f 44/89/83 487/90/84 397/91/85
f 45/92/86 175/93/87 146/94/88
f 45/95/86 238/96/89 255/97/90
f 46/98/91 474/99/92 385/100/93
f 44/101/83 384/102/94 348/103/95
f 31/104/96 310/105/97 240/106/98
f 47/107/99 243/108/100 437/109/101
f 48/110/102 461/111/103 212/112/104
f 49/113/105 320/114/106 265/115/107
f 50/116/108 197/117/109 288/118/110
f 49/119/105 361/120/111 452/121/112
f 48/122/102 436/123/113 161/124/114
f 3/4/4 317/125/115 501/126/116
f 2/17/17 165/19/19 222/127/117
f 1/1/1 234/3/3 313/128/118
f 1/1/1 313/128/118 416/129/119
f 5/7/7 371/9/9 166/13/13
f 1/1/1 416/129/119 220/16/16
f 13/21/21 456/40/38 370/22/22
f 16/24/24 355/42/40 162/25/25
f 17/30/28 314/130/120 182/31/29
f 13/27/21 505/29/27 237/131/121
f 17/30/28 225/32/30 406/36/34
f 13/21/21 237/132/121 432/39/37
f 16/24/24 150/133/122 359/41/39
f 24/134/123 358/135/124 318/136/125
f 25/46/42 466/60/56 405/47/43
f 34/61/57 285/63/59 382/137/126
f 27/50/46 311/138/127 455/51/47
f 25/46/42 227/49/45 360/139/128
f 27/50/46 504/52/48 304/56/52
f 25/46/42 360/139/128 308/59/55
f 35/65/61 248/81/75 429/66/62
f 42/82/76 478/84/78 200/140/129
f 37/69/65 404/141/130 257/70/66
f 35/65/61 493/68/64 202/142/131
f 37/69/65 349/71/67 449/75/71
f 35/65/61 202/142/131 213/80/74
f 44/89/83 348/143/95 221/144/132
f 43/145/80 211/146/133 473/147/134
f 43/86/80 473/148/134 357/87/81
f 44/89/83 221/144/132 487/90/84
f 45/92/86 347/149/135 175/93/87
f 44/101/83 397/150/85 336/151/136
f 45/95/86 146/152/88 238/96/89
f 46/98/91 286/153/137 474/99/92
f 44/101/83 336/151/136 384/102/94
f 43/145/80 329/154/138 211/146/133
f 46/98/91 385/100/93 482/155/139
f 48/110/102 161/156/114 472/157/140
f 47/107/99 283/158/141 243/108/100
f 48/110/102 472/157/140 461/111/103
f 48/122/102 212/159/104 494/160/142
f 49/119/105 265/161/107 361/120/111
f 50/116/108 369/162/143 197/117/109
f 48/122/102 494/160/142 436/123/113
f 47/163/99 483/164/144 283/165/141
f 50/116/108 288/118/110 316/166/145
f 51/167/146 356/168/147 498/169/148
f 53/170/149 261/171/150 403/172/151
f 55/173/152 497/174/153 169/175/154
f 57/176/155 454/177/156 219/178/157
f 55/173/152 335/179/158 301/180/159
f 57/176/155 168/181/160 454/177/156
f 51/167/146 481/182/161 356/168/147
f 52/183/162 389/184/163 328/185/164
f 57/176/155 219/178/157 300/186/165
f 63/187/166 177/188/167 305/189/168
f 66/190/169 373/191/170 180/192/171
f 63/193/166 305/194/168 224/195/172
f 67/196/173 434/197/174 476/198/175
f 70/199/176 475/200/177 148/201/178
f 67/196/173 279/202/179 321/203/180
f 70/199/176 192/204/181 475/200/177
f 63/187/166 278/205/182 267/206/183
f 66/190/169 184/207/184 187/208/185
f 70/209/176 148/210/178 226/211/186
f 75/212/187 457/213/188 431/214/189
f 75/212/187 431/214/189 469/215/190
f 77/216/191 149/217/192 191/218/193
f 80/219/194 377/220/195 379/221/196
f 77/216/191 332/222/197 428/223/198
f 80/219/194 430/224/199 377/220/195
f 75/212/187 380/225/200 394/226/201
f 84/227/202 205/228/203 209/229/204
f 80/219/194 379/221/196 420/230/205
f 85/231/206 331/232/207 145/233/208
f 85/231/206 145/233/208 188/234/209
f 87/235/210 236/236/211 163/237/212
f 89/238/213 326/239/214 376/240/215
f 87/235/210 254/241/216 275/242/217
f 89/243/213 346/244/218 326/245/214
f 85/231/206 463/246/219 216/247/220
f 92/248/221 412/249/222 402/250/223
f 89/238/213 376/240/215 272/251/224
f 93/252/225 167/253/226 365/254/227
f 94/255/228 218/256/229 467/257/230
f 95/258/231 354/259/232 251/260/233
f 95/261/231 338/262/234 239/263/235
f 96/264/236 396/265/237 492/266/238
f 94/267/228 499/268/239 147/269/240
f 81/270/241 374/271/242 362/272/243
f 97/273/244 172/274/245 351/275/246
f 98/276/247 375/277/248 290/278/249
f 99/279/250 427/280/251 325/281/252
f 100/282/253 323/283/254 426/284/255
f 99/285/250 185/286/256 156/287/257
f 98/288/247 339/289/258 442/290/259
f 53/170/149 408/291/260 409/292/261
f 52/183/162 328/185/164 303/293/262
f 51/167/146 498/169/148 208/294/263
f 51/167/146 208/294/263 296/295/264
f 55/173/152 169/175/154 335/179/158
f 51/167/146 296/295/264 481/182/161
f 63/187/166 267/206/183 177/188/167
f 66/190/169 187/208/185 373/191/170
f 67/196/173 381/296/265 434/197/174
f 63/193/166 224/195/172 460/297/266
f 67/196/173 476/198/175 279/202/179
f 63/187/166 460/298/266 278/205/182
f 66/190/169 232/299/267 184/207/184
f 74/300/268 410/301/269 194/302/270
f 75/212/187 394/226/201 457/213/188
f 84/227/202 209/229/204 496/303/271
f 77/216/191 193/304/272 149/217/192
f 75/212/187 469/215/190 235/305/273
f 77/216/191 191/218/193 332/222/197
f 75/212/187 235/305/273 380/225/200
f 85/231/206 216/247/220 331/232/207
f 92/248/221 402/250/223 295/306/274
f 87/235/210 464/307/275 236/236/211
f 85/231/206 188/234/209 459/308/276
f 87/235/210 163/237/212 254/241/216
f 85/231/206 459/308/276 463/246/219
f 94/255/228 147/309/240 495/310/277
f 93/311/225 465/312/278 372/313/279
f 93/252/225 372/314/279 167/253/226
f 94/255/228 495/310/277 218/256/229
f 95/258/231 173/315/280 354/259/232
f 94/267/228 467/316/230 144/317/281
f 95/261/231 251/318/233 338/262/234
f 96/264/236 204/319/282 396/265/237
f 94/267/228 144/317/281 499/268/239
f 93/311/225 262/320/283 465/312/278
f 96/264/236 492/266/238 401/321/284
f 98/276/247 442/322/259 368/323/285
f 97/273/244 176/324/286 172/274/245
f 98/276/247 368/323/285 375/277/248
f 98/288/247 290/325/249 247/326/287
f 99/285/250 325/327/252 185/286/256
f 100/282/253 511/328/288 323/283/254
f 98/288/247 247/326/287 339/289/258
f 97/329/244 366/330/289 176/331/286
f 100/282/253 426/284/255 444/332/290
f 548/333/291 480/334/292 103/335/293 337/336/294
f 547/337/295 289/338/296 107/339/297 153/340/298
f 546/341/299 322/342/300 102/343/301 249/344/302
f 545/345/303 229/346/304 106/347/305 438/348/306
f 544/349/307 423/350/308 110/351/309 246/352/310
f 543/353/311 422/354/312 102/343/301 322/342/300
f 542/355/313 490/356/314 106/347/305 229/346/304
f 541/357/315 479/358/316 110/351/309 423/350/308
f 540/359/317 391/360/318 113/361/319 277/362/320
f 539/363/321 201/364/322 117/365/323 250/366/324
f 538/367/325 198/368/326 119/369/327 342/370/328
f 537/371/329 287/372/330 121/373/331 447/374/332
f 536/375/333 395/376/334 118/377/335 276/378/336
f 535/379/337 433/380/338 120/381/339 393/382/340
f 534/383/341 344/384/342 124/385/343 210/386/344
f 533/387/345 488/388/346 127/389/347 345/390/348
f 532/391/349 491/392/350 130/393/351 353/394/352
f 531/395/353 388/396/354 125/397/355 207/398/356
f 530/399/357 159/400/358 131/401/359 399/402/360
f 529/403/361 294/404/362 115/405/363 158/406/364
f 528/407/365 445/408/366 135/409/367 203/410/368
f 527/411/369 327/412/370 128/413/371 297/414/372
f 526/415/373 186/416/374 134/417/375 293/418/376
f 525/419/377 387/420/378 136/421/379 157/422/380
f 524/423/381 181/424/382 132/425/383 196/426/384
f 523/427/385 299/428/386 133/429/387 448/430/388
f 522/431/389 245/432/390 137/433/391 485/434/392
f 521/435/393 378/436/394 138/437/395 274/438/396
f 520/439/397 190/440/398 140/441/399 341/442/400
f 519/443/401 425/444/402 119/369/327 198/368/326
f 518/445/403 217/446/404 122/447/405 333/448/406
f 517/449/407 440/450/408 141/451/409 292/452/410
f 516/453/411 453/454/412 123/455/413 230/456/414
f 515/457/415 415/458/416 139/459/417 407/460/418
f 514/461/419 268/462/420 142/463/421 443/464/422
f 513/465/423 312/466/424 143/467/425 244/468/426
f 190/469/398 513/465/423 244/468/426 140/470/399
f 123/471/413 276/378/336 513/465/423 190/469/398
f 276/378/336 118/377/335 312/466/424 513/465/423
f 312/466/424 514/461/419 443/464/422 143/467/425
f 118/377/335 250/366/324 514/461/419 312/466/424
f 250/366/324 117/365/323 268/462/420 514/461/419
f 201/364/322 515/457/415 407/460/418 117/365/323
f 116/472/427 340/473/428 515/457/415 201/364/322
f 340/473/428 113/474/319 415/458/416 515/457/415
f 415/458/416 516/453/411 230/456/414 139/459/417
f 113/474/319 391/475/318 516/453/411 415/458/416
f 391/475/318 112/476/429 453/454/412 516/453/411
f 268/462/420 517/449/407 292/452/410 142/463/421
f 117/365/323 407/460/418 517/449/407 268/462/420
f 407/460/418 139/459/417 440/450/408 517/449/407
f 510/477/430 518/445/403 333/448/406 126/478/431
f 116/479/427 486/480/432 518/445/403 510/477/430
f 486/480/432 111/481/433 217/446/404 518/445/403
f 340/482/428 519/443/401 198/368/326 113/361/319
f 116/479/427 510/477/430 519/443/401 340/482/428
f 510/477/430 126/478/431 425/444/402 519/443/401
f 440/450/408 520/439/397 341/442/400 141/451/409
f 139/459/417 230/456/414 520/439/397 440/450/408
f 230/456/414 123/455/413 190/440/398 520/439/397
f 445/483/366 521/435/393 274/438/396 135/484/367
f 134/485/375 196/426/384 521/435/393 445/483/366
f 196/426/384 132/425/383 378/436/394 521/435/393
f 378/436/394 522/431/389 485/434/392 138/437/395
f 132/425/383 399/402/360 522/431/389 378/436/394
f 399/402/360 131/401/359 245/432/390 522/431/389
f 159/400/358 523/427/385 448/430/388 131/401/359
f 129/486/434 477/487/435 523/427/385 159/400/358
f 477/487/435 121/488/331 299/428/386 523/427/385
f 186/489/374 524/423/381 196/426/384 134/485/375
f 120/490/339 342/491/328 524/423/381 186/489/374
f 342/491/328 119/492/327 181/424/382 524/423/381
f 245/432/390 525/419/377 157/422/380 137/433/391
f 131/401/359 448/430/388 525/419/377 245/432/390
f 448/430/388 133/429/387 387/420/378 525/419/377
f 299/428/386 526/415/373 293/418/376 133/429/387
f 121/488/331 393/493/340 526/415/373 299/428/386
f 393/493/340 120/494/339 186/416/374 526/415/373
f 491/495/350 527/411/369 297/414/372 130/496/351
f 129/497/434 282/498/436 527/411/369 491/495/350
f 282/498/436 119/369/327 327/412/370 527/411/369
f 387/420/378 528/407/365 203/410/368 136/421/379
f 133/429/387 293/418/376 528/407/365 387/420/378
f 293/418/376 134/417/375 445/408/366 528/407/365
f 289/338/296 529/403/361 158/406/364 107/339/297
f 106/499/305 490/500/314 529/403/361 289/338/296
f 490/500/314 114/501/437 294/404/362 529/403/361
f 181/424/382 530/399/357 399/402/360 132/425/383
f 119/492/327 282/502/436 530/399/357 181/424/382
f 282/502/436 129/486/434 159/400/358 530/399/357
f 488/388/346 531/395/353 207/398/356 127/389/347
f 126/478/431 333/448/406 531/395/353 488/388/346
f 333/448/406 122/447/405 388/396/354 531/395/353
f 344/384/342 532/391/349 353/394/352 124/385/343
f 121/373/331 477/503/435 532/391/349 344/384/342
f 477/503/435 129/504/434 491/392/350 532/391/349
f 327/412/370 533/387/345 345/390/348 128/413/371
f 119/369/327 425/444/402 533/387/345 327/412/370
f 425/444/402 126/478/431 488/388/346 533/387/345
f 388/396/354 534/383/341 210/386/344 125/397/355
f 122/447/405 447/374/332 534/383/341 388/396/354
f 447/374/332 121/373/331 344/384/342 534/383/341
f 287/372/330 535/379/337 393/382/340 121/373/331
f 115/405/363 294/404/362 535/379/337 287/372/330
f 294/404/362 114/501/437 433/380/338 535/379/337
f 453/505/412 536/375/333 276/378/336 123/471/413
f 112/506/429 334/507/438 536/375/333 453/505/412
f 334/507/438 111/508/433 395/376/334 536/375/333
f 217/446/404 537/371/329 447/374/332 122/447/405
f 111/481/433 154/509/439 537/371/329 217/446/404
f 154/509/439 115/405/363 287/372/330 537/371/329
f 433/510/338 538/367/325 342/370/328 120/511/339
f 114/512/437 446/513/440 538/367/325 433/510/338
f 446/513/440 113/361/319 198/368/326 538/367/325
f 395/376/334 539/363/321 250/366/324 118/377/335
f 111/508/433 486/514/432 539/363/321 395/376/334
f 486/514/432 116/472/427 201/364/322 539/363/321
f 480/334/292 540/359/317 277/362/320 103/335/293
f 102/343/301 422/354/312 540/359/317 480/334/292
f 422/354/312 112/515/429 391/360/318 540/359/317
f 158/406/364 541/357/315 423/350/308 107/339/297
f 115/405/363 154/509/439 541/357/315 158/406/364
f 154/509/439 111/481/433 479/358/316 541/357/315
f 277/362/320 542/355/313 229/346/304 103/335/293
f 113/361/319 446/513/440 542/355/313 277/362/320
f 446/513/440 114/512/437 490/356/314 542/355/313
f 479/358/316 543/353/311 322/342/300 110/351/309
f 111/481/433 334/516/438 543/353/311 479/358/316
f 334/516/438 112/515/429 422/354/312 543/353/311
f 199/517/441 544/349/307 246/352/310 109/518/442
f 108/519/443 153/340/298 544/349/307 199/517/441
f 153/340/298 107/339/297 423/350/308 544/349/307
f 383/520/444 545/345/303 438/348/306 105/521/445
f 104/522/446 337/336/294 545/345/303 383/520/444
f 337/336/294 103/335/293 229/346/304 545/345/303
f 270/523/447 546/341/299 249/344/302 101/524/448
f 109/518/442 246/352/310 546/341/299 270/523/447
f 246/352/310 110/351/309 322/342/300 546/341/299
f 330/525/449 547/337/295 153/340/298 108/519/443
f 105/526/445 438/527/306 547/337/295 330/525/449
f 438/527/306 106/499/305 289/338/296 547/337/295
f 152/528/450 548/333/291 337/336/294 104/522/446
f 101/524/448 249/344/302 548/333/291 152/528/450
f 249/344/302 102/343/301 480/334/292 548/333/291
f 444/332/290 409/292/261 88/529/451
f 444/332/290 426/284/255 409/292/261
f 426/284/255 53/170/149 409/292/261
f 176/331/286 508/530/452 86/531/453
f 176/331/286 366/330/289 508/530/452
f 366/330/289 88/529/451 508/530/452
f 339/289/258 444/332/290 88/529/451
f 339/289/258 247/326/287 444/332/290
f 247/326/287 100/282/253 444/332/290
f 323/283/254 439/532/454 54/533/455
f 323/283/254 511/328/288 439/532/454
f 511/328/288 64/534/456 439/532/454
f 185/286/256 223/535/457 64/534/456
f 185/286/256 325/327/252 223/535/457
f 325/327/252 65/536/458 223/535/457
f 247/326/287 156/287/257 100/282/253
f 247/326/287 290/325/249 156/287/257
f 290/325/249 99/285/250 156/287/257
f 375/277/248 512/537/459 68/538/460
f 375/277/248 368/323/285 512/537/459
f 368/323/285 76/539/461 512/537/459
f 172/274/245 390/540/462 78/541/463
f 172/274/245 176/324/286 390/540/462
f 176/324/286 86/542/453 390/540/462
f 368/323/285 351/275/246 76/539/461
f 368/323/285 442/322/259 351/275/246
f 442/322/259 97/273/244 351/275/246
f 401/321/284 324/543/464 81/270/241
f 401/321/284 492/266/238 324/543/464
f 492/266/238 82/544/465 324/543/464
f 465/312/278 362/272/243 91/545/466
f 465/312/278 262/320/283 362/272/243
f 262/320/283 81/270/241 362/272/243
f 499/268/239 401/321/284 81/270/241
f 499/268/239 144/317/281 401/321/284
f 144/317/281 96/264/236 401/321/284
f 396/265/237 284/546/467 73/547/468
f 396/265/237 204/319/282 284/546/467
f 204/319/282 71/548/469 284/546/467
f 338/262/234 242/549/470 71/548/469
f 338/262/234 251/318/233 242/549/470
f 251/318/233 72/550/471 242/549/470
f 144/317/281 239/263/235 96/264/236
f 144/317/281 467/316/230 239/263/235
f 467/316/230 95/261/231 239/263/235
f 354/259/232 260/551/472 60/552/473
f 354/259/232 173/315/280 260/551/472
f 173/315/280 58/553/474 260/551/472
f 218/256/229 306/554/475 58/553/474
f 218/256/229 495/310/277 306/554/475
f 495/310/277 59/555/476 306/554/475
f 167/253/226 502/556/477 61/557/478
f 167/253/226 372/314/279 502/556/477
f 372/314/279 90/558/479 502/556/477
f 372/313/279 280/559/480 90/560/479
f 372/313/279 465/312/278 280/559/480
f 465/312/278 91/545/466 280/559/480
f 495/310/277 365/254/227 59/555/476
f 495/310/277 147/309/240 365/254/227
f 147/309/240 93/252/225 365/254/227
f 463/246/219 272/251/224 83/561/481
f 463/246/219 459/308/276 272/251/224
f 459/308/276 89/238/213 272/251/224
f 254/241/216 263/562/482 61/557/478
f 254/241/216 163/237/212 263/562/482
f 163/237/212 62/563/483 263/562/482
f 459/308/276 275/564/217 89/238/213
f 459/308/276 188/234/209 275/564/217
f 188/234/209 87/565/210 275/564/217
f 236/236/211 508/530/452 88/529/451
f 236/236/211 464/307/275 508/530/452
f 464/307/275 86/531/453 508/530/452
f 295/306/274 471/566/484 78/541/463
f 295/306/274 402/250/223 471/566/484
f 402/250/223 79/567/485 471/566/484
f 331/232/207 295/306/274 78/541/463
f 331/232/207 216/247/220 295/306/274
f 216/247/220 92/248/221 295/306/274
f 380/225/200 420/230/205 73/547/468
f 380/225/200 235/305/273 420/230/205
f 235/305/273 80/219/194 420/230/205
f 332/222/197 151/568/486 83/561/481
f 332/222/197 191/218/193 151/568/486
f 191/218/193 79/567/485 151/568/486
f 235/305/273 428/223/198 80/219/194
f 235/305/273 469/215/190 428/223/198
f 469/215/190 77/216/191 428/223/198
f 149/217/192 231/569/487 78/541/463
f 149/217/192 193/304/272 231/569/487
f 193/304/272 76/539/461 231/569/487
f 496/303/271 195/570/488 68/538/460
f 496/303/271 209/229/204 195/570/488
f 209/229/204 69/571/489 195/570/488
f 457/213/188 496/303/271 68/538/460
f 457/213/188 394/226/201 496/303/271
f 394/226/201 84/227/202 496/303/271
f 194/302/270 271/572/490 60/552/473
f 194/302/270 410/301/269 271/572/490
f 410/301/269 72/573/471 271/572/490
f 184/207/184 194/302/270 60/552/473
f 184/207/184 232/299/267 194/302/270
f 232/299/267 74/300/268 194/302/270
f 278/205/182 226/211/186 74/300/268
f 278/205/182 460/298/266 226/211/186
f 460/298/266 70/209/176 226/211/186
f 279/202/179 468/574/491 73/547/468
f 279/202/179 476/198/175 468/574/491
f 476/198/175 69/571/489 468/574/491
f 460/297/266 321/203/180 70/199/176
f 460/297/266 224/195/172 321/203/180
f 224/195/172 67/196/173 321/203/180
f 434/197/174 241/575/492 68/538/460
f 434/197/174 381/296/265 241/575/492
f 381/296/265 65/576/458 241/575/492
f 373/191/170 451/577/493 54/533/455
f 373/191/170 187/208/185 451/577/493
f 187/208/185 56/578/494 451/577/493
f 177/188/167 180/192/171 64/534/456
f 177/188/167 267/206/183 180/192/171
f 267/206/183 66/190/169 180/192/171
f 481/182/161 300/186/165 61/557/478
f 481/182/161 296/295/264 300/186/165
f 296/295/264 57/176/155 300/186/165
f 335/179/158 435/579/495 60/552/473
f 335/179/158 169/175/154 435/579/495
f 169/175/154 56/578/494 435/579/495
f 296/295/264 301/180/159 57/176/155
f 296/295/264 208/294/263 301/180/159
f 208/294/263 55/173/152 301/180/159
f 208/294/263 403/172/151 55/173/152
f 208/294/263 498/169/148 403/172/151
f 498/169/148 53/170/149 403/172/151
f 303/293/262 489/580/496 88/529/451
f 303/293/262 328/185/164 489/580/496
f 328/185/164 62/563/483 489/580/496
f 409/292/261 303/293/262 88/529/451
f 409/292/261 408/291/260 303/293/262
f 408/291/260 52/183/162 303/293/262
f 442/290/259 366/330/289 97/329/244
f 442/290/259 339/289/258 366/330/289
f 339/289/258 88/529/451 366/330/289
f 156/287/257 511/328/288 100/282/253
f 156/287/257 185/286/256 511/328/288
f 185/286/256 64/534/456 511/328/288
f 426/284/255 261/171/150 53/170/149
f 426/284/255 323/283/254 261/171/150
f 323/283/254 54/533/455 261/171/150
f 325/281/252 241/575/492 65/576/458
f 325/281/252 427/280/251 241/575/492
f 427/280/251 68/538/460 241/575/492
f 290/278/249 427/280/251 99/279/250
f 290/278/249 375/277/248 427/280/251
f 375/277/248 68/538/460 427/280/251
f 351/275/246 231/569/487 76/539/461
f 351/275/246 172/274/245 231/569/487
f 172/274/245 78/541/463 231/569/487
f 362/272/243 174/581/497 91/545/466
f 362/272/243 374/271/242 174/581/497
f 374/271/242 83/561/481 174/581/497
f 147/269/240 262/320/283 93/311/225
f 147/269/240 499/268/239 262/320/283
f 499/268/239 81/270/241 262/320/283
f 492/266/238 291/582/498 82/544/465
f 492/266/238 396/265/237 291/582/498
f 396/265/237 73/547/468 291/582/498
f 239/263/235 204/319/282 96/264/236
f 239/263/235 338/262/234 204/319/282
f 338/262/234 71/548/469 204/319/282
f 251/260/233 271/572/490 72/573/471
f 251/260/233 354/259/232 271/572/490
f 354/259/232 60/552/473 271/572/490
f 467/257/230 173/315/280 95/258/231
f 467/257/230 218/256/229 173/315/280
f 218/256/229 58/553/474 173/315/280
f 365/254/227 500/583/499 59/555/476
f 365/254/227 167/253/226 500/583/499
f 167/253/226 61/557/478 500/583/499
f 272/251/224 174/581/497 83/561/481
f 272/251/224 376/240/215 174/581/497
f 376/240/215 91/545/466 174/581/497
f 402/250/223 151/568/486 79/567/485
f 402/250/223 412/249/222 151/568/486
f 412/249/222 83/561/481 151/568/486
f 216/247/220 412/249/222 92/248/221
f 216/247/220 463/246/219 412/249/222
f 463/246/219 83/561/481 412/249/222
f 326/245/214 502/556/477 90/558/479
f 326/245/214 346/244/218 502/556/477
f 346/244/218 61/557/478 502/556/477
f 275/242/217 346/244/218 89/243/213
f 275/242/217 254/241/216 346/244/218
f 254/241/216 61/557/478 346/244/218
f 376/240/215 280/559/480 91/545/466
f 376/240/215 326/239/214 280/559/480
f 326/239/214 90/560/479 280/559/480
f 163/237/212 489/580/496 62/563/483
f 163/237/212 236/236/211 489/580/496
f 236/236/211 88/529/451 489/580/496
f 188/234/209 464/584/275 87/565/210
f 188/234/209 145/233/208 464/584/275
f 145/233/208 86/542/453 464/584/275
f 145/233/208 390/540/462 86/542/453
f 145/233/208 331/232/207 390/540/462
f 331/232/207 78/541/463 390/540/462
f 420/230/205 291/582/498 73/547/468
f 420/230/205 379/221/196 291/582/498
f 379/221/196 82/544/465 291/582/498
f 209/229/204 468/574/491 69/571/489
f 209/229/204 205/228/203 468/574/491
f 205/228/203 73/547/468 468/574/491
f 394/226/201 205/228/203 84/227/202
f 394/226/201 380/225/200 205/228/203
f 380/225/200 73/547/468 205/228/203
f 377/220/195 374/271/242 81/270/241
f 377/220/195 430/224/199 374/271/242
f 430/224/199 83/561/481 374/271/242
f 428/223/198 430/224/199 80/219/194
f 428/223/198 332/222/197 430/224/199
f 332/222/197 83/561/481 430/224/199
f 379/221/196 324/543/464 82/544/465
f 379/221/196 377/220/195 324/543/464
f 377/220/195 81/270/241 324/543/464
f 191/218/193 471/566/484 79/567/485
f 191/218/193 149/217/192 471/566/484
f 149/217/192 78/541/463 471/566/484
f 469/215/190 193/304/272 77/216/191
f 469/215/190 431/214/189 193/304/272
f 431/214/189 76/539/461 193/304/272
f 431/214/189 512/537/459 76/539/461
f 431/214/189 457/213/188 512/537/459
f 457/213/188 68/538/460 512/537/459
f 226/211/186 410/301/269 74/300/268
f 226/211/186 148/210/178 410/301/269
f 148/210/178 72/573/471 410/301/269
f 187/208/185 435/579/495 56/578/494
f 187/208/185 184/207/184 435/579/495
f 184/207/184 60/552/473 435/579/495
f 267/206/183 232/299/267 66/190/169
f 267/206/183 278/205/182 232/299/267
f 278/205/182 74/300/268 232/299/267
f 475/200/177 284/546/467 71/548/469
f 475/200/177 192/204/181 284/546/467
f 192/204/181 73/547/468 284/546/467
f 321/203/180 192/204/181 70/199/176
f 321/203/180 279/202/179 192/204/181
f 279/202/179 73/547/468 192/204/181
f 148/201/178 242/549/470 72/550/471
f 148/201/178 475/200/177 242/549/470
f 475/200/177 71/548/469 242/549/470
f 476/198/175 195/570/488 69/571/489
f 476/198/175 434/197/174 195/570/488
f 434/197/174 68/538/460 195/570/488
f 224/195/172 381/296/265 67/196/173
f 224/195/172 305/194/168 381/296/265
f 305/194/168 65/576/458 381/296/265
f 180/192/171 439/532/454 64/534/456
f 180/192/171 373/191/170 439/532/454
f 373/191/170 54/533/455 439/532/454
f 305/189/168 223/535/457 65/536/458
f 305/189/168 177/188/167 223/535/457
f 177/188/167 64/534/456 223/535/457
f 300/186/165 500/583/499 61/557/478
f 300/186/165 219/178/157 500/583/499
f 219/178/157 59/555/476 500/583/499
f 328/185/164 263/562/482 62/563/483
f 328/185/164 389/184/163 263/562/482
f 389/184/163 61/557/478 263/562/482
f 356/168/147 389/184/163 52/183/162
f 356/168/147 481/182/161 389/184/163
f 481/182/161 61/557/478 389/184/163
f 454/177/156 260/551/472 58/553/474
f 454/177/156 168/181/160 260/551/472
f 168/181/160 60/552/473 260/551/472
f 301/180/159 168/181/160 57/176/155
f 301/180/159 335/179/158 168/181/160
f 335/179/158 60/552/473 168/181/160
f 219/178/157 306/554/475 59/555/476
f 219/178/157 454/177/156 306/554/475
f 454/177/156 58/553/474 306/554/475
f 169/175/154 451/577/493 56/578/494
f 169/175/154 497/174/153 451/577/493
f 497/174/153 54/533/455 451/577/493
f 403/172/151 497/174/153 55/173/152
f 403/172/151 261/171/150 497/174/153
f 261/171/150 54/533/455 497/174/153
f 498/169/148 408/291/260 53/170/149
f 498/169/148 356/168/147 408/291/260
f 356/168/147 52/183/162 408/291/260
f 316/166/145 501/126/116 38/585/500
f 316/166/145 288/118/110 501/126/116
f 288/118/110 3/4/4 501/126/116
f 283/165/141 343/586/501 36/587/502
f 283/165/141 483/164/144 343/586/501
f 483/164/144 38/585/500 343/586/501
f 436/123/113 316/166/145 38/585/500
f 436/123/113 494/160/142 316/166/145
f 494/160/142 50/116/108 316/166/145
f 197/117/109 253/588/503 4/589/504
f 197/117/109 369/162/143 253/588/503
f 369/162/143 14/590/505 253/588/503
f 361/120/111 507/591/506 14/590/505
f 361/120/111 265/161/107 507/591/506
f 265/161/107 15/592/507 507/591/506
f 494/160/142 452/121/112 50/116/108
f 494/160/142 212/159/104 452/121/112
f 212/159/104 49/119/105 452/121/112
f 461/111/103 252/593/508 18/594/509
f 461/111/103 472/157/140 252/593/508
f 472/157/140 26/595/510 252/593/508
f 243/108/100 470/596/511 28/597/512
f 243/108/100 283/158/141 470/596/511
f 283/158/141 36/598/502 470/596/511
f 472/157/140 437/109/101 26/595/510
f 472/157/140 161/156/114 437/109/101
f 161/156/114 47/107/99 437/109/101
f 482/155/139 269/599/513 31/104/96
f 482/155/139 385/100/93 269/599/513
f 385/100/93 32/600/514 269/599/513
f 211/146/133 240/106/98 41/601/515
f 211/146/133 329/154/138 240/106/98
f 329/154/138 31/104/96 240/106/98
f 384/102/94 482/155/139 31/104/96
f 384/102/94 336/151/136 482/155/139
f 336/151/136 46/98/91 482/155/139
f 474/99/92 411/602/516 23/603/517
f 474/99/92 286/153/137 411/602/516
f 286/153/137 21/604/518 411/602/516
f 238/96/89 364/605/519 21/604/518
f 238/96/89 146/152/88 364/605/519
f 146/152/88 22/606/520 364/605/519
f 336/151/136 255/97/90 46/98/91
f 336/151/136 397/150/85 255/97/90
f 397/150/85 45/95/86 255/97/90
f 175/93/87 450/607/521 10/608/522
f 175/93/87 347/149/135 450/607/521
f 347/149/135 8/609/523 450/607/521
f 487/90/84 233/610/524 8/609/523
f 487/90/84 221/144/132 233/610/524
f 221/144/132 9/611/525 233/610/524
f 357/87/81 206/612/526 11/613/527
f 357/87/81 473/148/134 206/612/526
f 473/148/134 40/614/528 206/612/526
f 473/147/134 214/615/529 40/616/528
f 473/147/134 211/146/133 214/615/529
f 211/146/133 41/601/515 214/615/529
f 221/144/132 179/88/82 9/611/525
f 221/144/132 348/143/95 179/88/82
f 348/143/95 43/86/80 179/88/82
f 213/80/74 392/85/79 33/617/530
f 213/80/74 202/142/131 392/85/79
f 202/142/131 39/72/68 392/85/79
f 449/75/71 458/618/531 11/613/527
f 449/75/71 349/71/67 458/618/531
f 349/71/67 12/619/532 458/618/531
f 202/142/131 400/620/72 39/72/68
f 202/142/131 493/68/64 400/620/72
f 493/68/64 37/621/65 400/620/72
f 257/70/66 343/586/501 38/585/500
f 257/70/66 404/141/130 343/586/501
f 404/141/130 36/587/502 343/586/501
f 200/140/129 417/622/533 28/597/512
f 200/140/129 478/84/78 417/622/533
f 478/84/78 29/623/534 417/622/533
f 429/66/62 200/140/129 28/597/512
f 429/66/62 248/81/75 200/140/129
f 248/81/75 42/82/76 200/140/129
f 308/59/55 160/64/60 23/603/517
f 308/59/55 360/139/128 160/64/60
f 360/139/128 30/53/49 160/64/60
f 304/56/52 503/624/535 33/617/530
f 304/56/52 504/52/48 503/624/535
f 504/52/48 29/623/534 503/624/535
f 360/139/128 170/57/53 30/53/49
f 360/139/128 227/49/45 170/57/53
f 227/49/45 27/50/46 170/57/53
f 455/51/47 178/625/536 28/597/512
f 455/51/47 311/138/127 178/625/536
f 311/138/127 26/595/510 178/625/536
f 382/137/126 309/626/537 18/594/509
f 382/137/126 285/63/59 309/626/537
f 285/63/59 19/627/538 309/626/537
f 405/47/43 382/137/126 18/594/509
f 405/47/43 466/60/56 382/137/126
f 466/60/56 34/61/57 382/137/126
f 318/136/125 424/628/539 10/608/522
f 318/136/125 358/135/124 424/628/539
f 358/135/124 22/629/520 424/628/539
f 359/41/39 318/136/125 10/608/522
f 359/41/39 150/133/122 318/136/125
f 150/133/122 24/134/123 318/136/125
f 432/39/37 171/45/41 24/134/123
f 432/39/37 237/132/121 171/45/41
f 237/132/121 20/43/31 171/45/41
f 406/36/34 215/630/540 23/603/517
f 406/36/34 225/32/30 215/630/540
f 225/32/30 19/627/538 215/630/540
f 237/131/121 264/37/35 20/33/31
f 237/131/121 505/29/27 264/37/35
f 505/29/27 17/30/28 264/37/35
f 182/31/29 319/631/541 18/594/509
f 182/31/29 314/130/120 319/631/541
f 314/130/120 15/632/507 319/631/541
f 162/25/25 266/633/542 4/589/504
f 162/25/25 355/42/40 266/633/542
f 355/42/40 6/634/543 266/633/542
f 370/22/22 367/26/26 14/590/505
f 370/22/22 456/40/38 367/26/26
f 456/40/38 16/24/24 367/26/26
f 220/16/16 398/20/20 11/613/527
f 220/16/16 416/129/119 398/20/20
f 416/129/119 7/10/10 398/20/20
f 166/13/13 258/635/544 10/608/522
f 166/13/13 371/9/9 258/635/544
f 371/9/9 6/634/543 258/635/544
f 416/129/119 419/14/14 7/10/10
f 416/129/119 313/128/118 419/14/14
f 313/128/118 5/7/7 419/14/14
f 313/128/118 509/6/6 5/7/7
f 313/128/118 234/3/3 509/6/6
f 234/3/3 3/4/4 509/6/6
f 222/127/117 386/636/545 38/585/500
f 222/127/117 165/19/19 386/636/545
f 165/19/19 12/619/532 386/636/545
f 501/126/116 222/127/117 38/585/500
f 501/126/116 317/125/115 222/127/117
f 317/125/115 2/17/17 222/127/117
f 161/124/114 483/164/144 47/163/99
f 161/124/114 436/123/113 483/164/144
f 436/123/113 38/585/500 483/164/144
f 452/121/112 369/162/143 50/116/108
f 452/121/112 361/120/111 369/162/143
f 361/120/111 14/590/505 369/162/143
f 288/118/110 462/5/5 3/4/4
f 288/118/110 197/117/109 462/5/5
f 197/117/109 4/589/504 462/5/5
f 265/115/107 319/631/541 15/632/507
f 265/115/107 320/114/106 319/631/541
f 320/114/106 18/594/509 319/631/541
f 212/112/104 320/114/106 49/113/105
f 212/112/104 461/111/103 320/114/106
f 461/111/103 18/594/509 320/114/106
f 437/109/101 178/625/536 26/595/510
f 437/109/101 243/108/100 178/625/536
f 243/108/100 28/597/512 178/625/536
f 240/106/98 484/637/546 41/601/515
f 240/106/98 310/105/97 484/637/546
f 310/105/97 33/617/530 484/637/546
f 348/103/95 329/154/138 43/145/80
f 348/103/95 384/102/94 329/154/138
f 384/102/94 31/104/96 329/154/138
f 385/100/93 256/638/547 32/600/514
f 385/100/93 474/99/92 256/638/547
f 474/99/92 23/603/517 256/638/547
f 255/97/90 286/153/137 46/98/91
f 255/97/90 238/96/89 286/153/137
f 238/96/89 21/604/518 286/153/137
f 146/94/88 424/628/539 22/629/520
f 146/94/88 175/93/87 424/628/539
f 175/93/87 10/608/522 424/628/539
f 397/91/85 347/149/135 45/92/86
f 397/91/85 487/90/84 347/149/135
f 487/90/84 8/609/523 347/149/135
f 179/88/82 228/639/548 9/611/525
f 179/88/82 357/87/81 228/639/548
f 357/87/81 11/613/527 228/639/548
f 392/85/79 484/637/546 33/617/530
f 392/85/79 298/74/70 484/637/546
f 298/74/70 41/601/515 484/637/546
f 478/84/78 503/624/535 29/623/534
f 478/84/78 441/83/77 503/624/535
f 441/83/77 33/617/530 503/624/535
f 248/81/75 441/83/77 42/82/76
f 248/81/75 213/80/74 441/83/77
f 213/80/74 33/617/530 441/83/77
f 164/79/69 206/612/526 40/614/528
f 164/79/69 155/78/73 206/612/526
f 155/78/73 11/613/527 206/612/526
f 400/76/72 155/78/73 39/77/68
f 400/76/72 449/75/71 155/78/73
f 449/75/71 11/613/527 155/78/73
f 298/74/70 214/615/529 41/601/515
f 298/74/70 164/73/69 214/615/529
f 164/73/69 40/616/528 214/615/529
f 349/71/67 386/636/545 12/619/532
f 349/71/67 257/70/66 386/636/545
f 257/70/66 38/585/500 386/636/545
f 493/68/64 404/640/130 37/621/65
f 493/68/64 352/67/63 404/640/130
f 352/67/63 36/598/502 404/640/130
f 352/67/63 470/596/511 36/598/502
f 352/67/63 429/66/62 470/596/511
f 429/66/62 28/597/512 470/596/511
f 160/64/60 256/638/547 23/603/517
f 160/64/60 363/55/51 256/638/547
f 363/55/51 32/600/514 256/638/547
f 285/63/59 215/630/540 19/627/538
f 285/63/59 281/62/58 215/630/540
f 281/62/58 23/603/517 215/630/540
f 466/60/56 281/62/58 34/61/57
f 466/60/56 308/59/55 281/62/58
f 308/59/55 23/603/517 281/62/58
f 506/54/50 310/105/97 31/104/96
f 506/54/50 413/58/54 310/105/97
f 413/58/54 33/617/530 310/105/97
f 170/57/53 413/58/54 30/53/49
f 170/57/53 304/56/52 413/58/54
f 304/56/52 33/617/530 413/58/54
f 363/55/51 269/599/513 32/600/514
f 363/55/51 506/54/50 269/599/513
f 506/54/50 31/104/96 269/599/513
f 504/52/48 417/622/533 29/623/534
f 504/52/48 455/51/47 417/622/533
f 455/51/47 28/597/512 417/622/533
f 227/49/45 311/138/127 27/50/46
f 227/49/45 183/48/44 311/138/127
f 183/48/44 26/595/510 311/138/127
f 183/48/44 252/593/508 26/595/510
f 183/48/44 405/47/43 252/593/508
f 405/47/43 18/594/509 252/593/508
f 171/45/41 358/135/124 24/134/123
f 171/45/41 259/44/33 358/135/124
f 259/44/33 22/629/520 358/135/124
f 355/42/40 258/635/544 6/634/543
f 355/42/40 359/41/39 258/635/544
f 359/41/39 10/608/522 258/635/544
f 456/40/38 150/133/122 16/24/24
f 456/40/38 432/39/37 150/133/122
f 432/39/37 24/134/123 150/133/122
f 414/34/32 411/602/516 21/604/518
f 414/34/32 302/38/36 411/602/516
f 302/38/36 23/603/517 411/602/516
f 264/37/35 302/38/36 20/33/31
f 264/37/35 406/36/34 302/38/36
f 406/36/34 23/603/517 302/38/36
f 259/35/33 364/605/519 22/606/520
f 259/35/33 414/34/32 364/605/519
f 414/34/32 21/604/518 364/605/519
f 225/32/30 309/626/537 19/627/538
f 225/32/30 182/31/29 309/626/537
f 182/31/29 18/594/509 309/626/537
f 505/29/27 314/130/120 17/30/28
f 505/29/27 418/28/23 314/130/120
f 418/28/23 15/632/507 314/130/120
f 367/26/26 253/588/503 14/590/505
f 367/26/26 162/25/25 253/588/503
f 162/25/25 4/589/504 253/588/503
f 418/23/23 507/591/506 15/592/507
f 418/23/23 370/22/22 507/591/506
f 370/22/22 14/590/505 507/591/506
f 398/20/20 228/639/548 11/613/527
f 398/20/20 315/12/12 228/639/548
f 315/12/12 9/611/525 228/639/548
f 165/19/19 458/618/531 12/619/532
f 165/19/19 307/18/18 458/618/531
f 307/18/18 11/613/527 458/618/531
f 189/2/2 307/18/18 2/17/17
f 189/2/2 220/16/16 307/18/18
f 220/16/16 11/613/527 307/18/18
f 273/11/11 450/607/521 8/609/523
f 273/11/11 350/15/15 450/607/521
f 350/15/15 10/608/522 450/607/521
f 419/14/14 350/15/15 7/10/10
f 419/14/14 166/13/13 350/15/15
f 166/13/13 10/608/522 350/15/15
f 315/12/12 233/610/524 9/611/525
f 315/12/12 273/11/11 233/610/524
f 273/11/11 8/609/523 233/610/524
f 371/9/9 266/633/542 6/634/543
f 371/9/9 421/8/8 266/633/542
f 421/8/8 4/589/504 266/633/542
f 509/6/6 421/8/8 5/7/7
f 509/6/6 462/5/5 421/8/8
f 462/5/5 4/589/504 421/8/8
f 234/3/3 317/125/115 3/4/4
f 234/3/3 189/2/2 317/125/115
f 189/2/2 2/17/17 317/125/115
