# Blender v2.78 (sub 0) OBJ File: ''
# www.blender.org
mtllib Apple_Tree_NoLeaves_crk_m_02.mtl
o Apple_Tree_NoLeaves_crk_m_02
v 0.897263 0.076150 0.902878
v 0.860332 0.084186 0.964016
v 1.272072 0.070524 1.409401
v 1.302489 0.068378 1.367860
v 0.873857 -0.001561 0.914343
v 1.307148 0.014797 1.379982
v 1.253679 0.020039 1.407383
v 1.620932 0.013258 2.191154
v 1.596940 0.011863 2.169697
v 1.610119 0.023933 2.194881
v 1.609745 0.026541 2.161353
v 0.824350 0.020041 0.988689
v 0.153612 0.054750 0.199732
v 0.145821 0.509740 0.173779
v -0.072140 0.505597 0.193956
v -0.121844 0.053928 0.213659
v -0.220125 0.053628 -0.044389
v -0.158273 0.503323 -0.008138
v 0.006722 0.506131 -0.153244
v -0.005074 0.054270 -0.217877
v 0.225862 0.054942 -0.066763
v 0.194643 0.509969 -0.040610
v 0.190421 1.125992 0.032023
v 0.167347 1.129537 0.196347
v 0.006314 1.149181 0.223651
v -0.071305 1.139701 0.077053
v 0.043417 1.132179 -0.041999
v 0.211378 2.013257 0.035971
v 0.198792 1.916374 0.184781
v 0.058088 2.056490 0.175933
v -0.053238 1.934727 0.090191
v 0.055015 2.022209 -0.024213
v 0.223595 2.465041 -0.400716
v 0.293014 2.474627 -0.375011
v 0.210647 2.172589 0.117793
v 0.291643 2.515931 -0.315039
v 0.219477 2.518393 -0.295005
v 0.018414 2.192287 0.042073
v 0.182515 2.502203 -0.350414
v 0.437434 2.080653 0.331870
v 0.346696 2.133578 0.345760
v -0.416502 2.201629 0.111067
v -0.423355 2.142787 0.194180
v 0.193727 3.111696 -0.731100
v 0.174232 3.104489 -0.762044
v 0.198906 3.098105 -0.786537
v 0.235230 3.060573 -0.723026
v 0.116361 3.984119 -0.920941
v 0.105809 3.984352 -0.917411
v -0.404447 2.113226 0.065497
v -0.463523 2.085546 0.130175
v -1.139215 2.471877 -0.024562
v -1.098510 2.468918 -0.062218
v -1.082997 2.521064 -0.037444
v -1.103579 2.495199 0.014186
v -1.370495 3.140178 -0.208627
v -1.387704 3.157855 -0.226722
v -1.370603 3.164662 -0.230002
v -1.370981 3.130445 -0.230796
v 0.099958 3.983130 -0.927467
v 0.107668 3.982459 -0.935066
v 0.409522 2.177538 0.292234
v 0.438666 2.110918 0.242635
v 0.449384 2.100376 0.290188
v -0.024307 1.136118 0.007458
v -1.124656 2.482640 -0.000745
v 0.152432 0.250526 0.190506
v 0.021817 2.162758 0.099752
v -0.113413 0.806088 0.036131
v 1.459135 0.046422 1.819960
v -1.121737 2.466755 -0.046542
v -0.104473 0.247196 0.207343
v 0.188259 1.563118 0.041105
v -1.294620 2.830597 -0.132448
v -0.029025 1.960748 0.147155
v -0.435123 2.092093 0.092561
v 0.218396 2.791280 -0.525419
v 1.643330 0.016180 2.267223
v -0.758820 2.260240 0.013247
v 0.213133 3.110527 -0.733999
v 0.216368 0.251320 -0.059452
v 0.827010 0.048005 0.965419
v 0.332940 2.078160 0.159491
v 1.014259 0.019615 1.157000
v 1.484362 0.015386 1.805118
v 0.181112 3.108460 -0.744716
v 0.193022 1.126800 0.116192
v 0.303156 2.166693 0.221249
v 0.146751 3.584995 -0.845419
v 1.077968 0.001087 1.106074
v -1.255528 2.855389 -0.140445
v -0.418790 2.179501 0.157899
v 0.832977 0.009010 0.942811
v 0.297005 2.530738 -0.372592
v 0.244669 2.318920 -0.086193
v 0.159818 2.251715 -0.203486
v 0.100964 4.010849 -0.935607
v 0.223444 0.054846 0.075778
v -0.001131 0.248575 -0.197455
v -1.378679 3.175425 -0.226474
v -1.379122 3.170700 -0.236707
v -0.446612 2.109879 0.169463
v 0.216373 3.101019 -0.770060
v 0.278473 2.728666 -0.541073
v 0.110452 0.508363 -0.113318
v -1.386603 3.167844 -0.235279
v -0.407301 2.161714 0.080997
v -0.134431 0.053949 -0.158495
v 1.309248 0.041436 1.370756
v -0.771172 2.289604 0.116173
v 1.287715 0.074637 1.388240
v 0.100067 4.011673 -0.927058
v -0.032150 0.808842 0.208821
v -0.158183 2.070518 0.040014
v 0.277763 2.742959 -0.516108
v 0.260398 2.466664 -0.393039
v 1.620570 0.023688 2.205828
v 0.436553 2.143857 0.272152
v -0.199580 0.245977 -0.032402
v 1.080401 0.076039 1.088432
v 0.108889 4.011349 -0.932380
v 0.032241 1.589771 0.209130
v 0.107992 4.012175 -0.923831
v 0.024200 0.800943 -0.095168
v -1.087494 2.495889 -0.054273
v 0.224450 2.105843 0.280112
v 0.038527 0.507709 0.202860
v 0.443061 2.134902 0.324750
v 0.150436 3.579744 -0.879756
v 0.188089 2.773089 -0.566760
v 0.156480 2.151820 0.147849
v 0.059164 1.572506 -0.020586
v 0.868639 0.079529 0.915566
v 0.118651 2.322937 -0.138623
v 0.149350 2.298515 -0.056923
v 1.479775 0.046400 1.797373
v -1.271124 2.842070 -0.108635
v 0.145383 1.996193 -0.026050
v 0.195732 2.512231 -0.319582
v 0.123096 1.127838 -0.018048
v 0.190407 0.800225 -0.003321
v -0.045024 1.145796 0.157199
v 0.225646 2.132189 0.071476
v -0.809574 2.249159 0.064650
v -0.203727 0.053778 0.096983
v 0.172263 1.543530 0.184256
v 1.625294 0.019106 2.204282
v 0.399197 2.112653 0.346557
v 0.197925 2.481622 -0.378877
v 1.279979 0.012231 1.394074
v 0.247665 2.251670 -0.168227
v 0.140403 1.950946 0.205660
v 0.089409 1.140037 0.224274
v 0.257436 2.520357 -0.299776
v -0.017160 1.947533 0.037108
v 1.451004 0.015735 1.817776
v -0.132688 0.503911 0.100445
v -0.177834 2.096726 0.195691
v 1.619573 0.012334 2.207856
v 0.129671 0.054606 -0.171550
v 0.188746 0.510415 0.070803
v 0.386367 2.156133 0.328521
v 0.155346 0.805214 0.184378
v -0.088264 0.504362 -0.095048
v -1.090413 2.511773 -0.008477
v 1.258446 0.045433 1.411557
v -0.175702 2.172834 0.100233
v -0.041196 1.560495 0.085098
v 0.874606 0.040533 0.892958
v -0.756229 2.331480 0.047798
v -1.399303 3.222994 -0.246071
v 1.050821 0.085269 1.153442
v 0.184292 3.100712 -0.777895
v 0.222465 2.755586 -0.603791
v 0.032193 2.147553 -0.002723
v 0.826884 0.041456 0.901324
v 0.320248 2.027860 0.259350
v 1.614849 0.016916 2.209403
v 0.017476 0.054339 0.241646
v -1.269783 2.824281 -0.154906
v 0.167492 3.583571 -0.853269
v 0.214643 1.932418 0.124113
v -1.386160 3.172570 -0.225046
v -0.225673 2.029783 0.117185
v 0.135286 3.582026 -0.864806
v 0.332741 2.044859 0.205381
v 0.257656 2.144420 0.254720
v 0.254844 2.286816 -0.127004
v 0.322522 2.127868 0.182600
v 0.139262 3.583692 -0.853996
v 0.160721 3.581476 -0.867629
v 0.141465 3.580552 -0.874527
v 0.095566 4.095502 -0.943212
v -1.284049 2.825355 -0.145551
v -1.260676 2.840178 -0.150332
v -0.793589 2.266789 0.096275
v -0.761694 2.316010 0.086199
v -1.261478 2.850813 -0.122666
v -1.284851 2.835990 -0.117885
v -0.163534 2.127396 0.061673
v -0.205162 2.057534 0.164889
v -0.754308 2.298453 0.024659
v -0.193412 2.041865 0.071808
v 0.127735 2.312879 -0.093367
v -0.786204 2.249232 0.034735
v -0.056033 0.803422 -0.041731
v 0.158518 3.584616 -0.847098
v 0.201574 2.763045 -0.588734
v 0.246438 2.789576 -0.528899
v 0.249201 2.758543 -0.591628
v 0.199177 2.783335 -0.543597
v -0.175284 2.143066 0.154753
v 0.267875 2.061410 0.277501
v 0.133865 2.289008 -0.176558
v 0.198129 2.310454 -0.063994
v 0.205580 2.244601 -0.192529
v -0.000371 1.565163 0.023702
v 0.104940 1.567245 0.209014
v 0.129111 1.569781 -0.001253
v -0.015593 1.576881 0.153137
v 0.192644 1.550350 0.114404
v 0.063731 0.807387 0.213233
v 0.115277 0.800117 -0.063970
v -0.087786 0.807868 0.129668
v 0.189202 0.802518 0.093641
v 0.119732 0.250104 -0.147610
v -0.173046 0.246312 0.095869
v 0.206297 0.251203 0.071121
v -0.114786 0.247093 -0.132368
v 0.025420 0.248881 0.221527
v 1.484712 0.030875 1.799520
v 1.452426 0.031097 1.820593
v 1.027974 0.053801 1.160897
v 1.044205 0.003468 1.132575
v 1.469629 0.049432 1.808394
v 1.467510 0.012540 1.811719
v 1.083751 0.037204 1.091578
v 1.067520 0.087538 1.119900
vt 0.5932 0.8106
vt 0.5941 0.8109
vt 0.5939 0.8185
vt 0.5933 0.8183
vt 0.5912 0.8106
vt 0.5922 0.8103
vt 0.5927 0.8180
vt 0.5920 0.8183
vt 0.5952 0.8292
vt 0.5956 0.8294
vt 0.5944 0.8399
vt 0.5942 0.8398
vt 0.5934 0.8290
vt 0.5938 0.8291
vt 0.5937 0.8397
vt 0.5935 0.8397
vt 0.5972 0.8109
vt 0.5983 0.8114
vt 0.5969 0.8189
vt 0.5961 0.8185
vt 0.5951 0.8107
vt 0.5962 0.8104
vt 0.5953 0.8182
vt 0.5946 0.8183
vt 0.5639 0.8284
vt 0.5639 0.8285
vt 0.5638 0.8285
vt 0.5637 0.8287
vt 0.5637 0.8285
vt 0.5942 0.8290
vt 0.5947 0.8289
vt 0.5941 0.8397
vt 0.5939 0.8397
vt 0.5926 0.8291
vt 0.5931 0.8289
vt 0.5934 0.8397
vt 0.5932 0.8398
vt 0.6855 0.8080
vt 0.6856 0.8103
vt 0.6836 0.8099
vt 0.6814 0.8080
vt 0.6834 0.8080
vt 0.6816 0.8099
vt 0.5414 0.7646
vt 0.5420 0.7703
vt 0.5391 0.7704
vt 0.5381 0.7647
vt 0.5607 0.7654
vt 0.5594 0.7709
vt 0.5566 0.7704
vt 0.5575 0.7648
vt 0.5479 0.7644
vt 0.5479 0.7702
vt 0.5449 0.7703
vt 0.5446 0.7644
vt 0.5349 0.7653
vt 0.5363 0.7707
vt 0.5335 0.7711
vt 0.5317 0.7658
vt 0.5543 0.7646
vt 0.5537 0.7703
vt 0.5509 0.7702
vt 0.5511 0.7644
vt 0.5479 0.7827
vt 0.5453 0.7828
vt 0.5379 0.7833
vt 0.5353 0.7835
vt 0.5530 0.7827
vt 0.5505 0.7826
vt 0.5428 0.7829
vt 0.5437 0.7955
vt 0.5416 0.7957
vt 0.5403 0.7831
vt 0.5480 0.8045
vt 0.5500 0.8049
vt 0.5498 0.8148
vt 0.5480 0.8139
vt 0.5400 0.8054
vt 0.5421 0.8058
vt 0.5425 0.8159
vt 0.5406 0.8149
vt 0.5519 0.8051
vt 0.5539 0.8054
vt 0.5534 0.8154
vt 0.5516 0.8151
vt 0.5440 0.8049
vt 0.5459 0.8041
vt 0.5461 0.8129
vt 0.5443 0.8144
vt 0.5560 0.8053
vt 0.5580 0.8052
vt 0.5573 0.8142
vt 0.5553 0.8148
vt 0.5515 0.8212
vt 0.5529 0.8213
vt 0.5523 0.8272
vt 0.5515 0.8273
vt 0.5459 0.8209
vt 0.5473 0.8213
vt 0.5489 0.8273
vt 0.5480 0.8274
vt 0.5425 0.8236
vt 0.5438 0.8230
vt 0.5455 0.8283
vt 0.5448 0.8289
vt 0.5990 0.7998
vt 0.6004 0.8007
vt 0.5997 0.8039
vt 0.5984 0.8033
vt 0.5725 0.8009
vt 0.5743 0.8007
vt 0.5750 0.8057
vt 0.5736 0.8056
vt 0.5488 0.8358
vt 0.5495 0.8354
vt 0.5518 0.8434
vt 0.5514 0.8436
vt 0.5524 0.8352
vt 0.5531 0.8352
vt 0.5540 0.8432
vt 0.5533 0.8432
vt 0.5501 0.8353
vt 0.5508 0.8352
vt 0.5526 0.8431
vt 0.5522 0.8433
vt 0.5477 0.8365
vt 0.5482 0.8361
vt 0.5510 0.8439
vt 0.5506 0.8441
vt 0.5497 0.8273
vt 0.5555 0.8534
vt 0.5558 0.8533
vt 0.5589 0.8635
vt 0.5588 0.8636
vt 0.5580 0.7833
vt 0.5566 0.7957
vt 0.5545 0.7953
vt 0.5555 0.7829
vt 0.5788 0.8150
vt 0.5796 0.8156
vt 0.5793 0.8252
vt 0.5786 0.8248
vt 0.5442 0.8218
vt 0.5446 0.8205
vt 0.5471 0.8275
vt 0.5463 0.8279
vt 0.5787 0.8001
vt 0.5798 0.8012
vt 0.5800 0.8060
vt 0.5789 0.8052
vt 0.5768 0.8149
vt 0.5779 0.8144
vt 0.5780 0.8244
vt 0.5773 0.8248
vt 0.5694 0.8021
vt 0.5707 0.8011
vt 0.5722 0.8056
vt 0.5711 0.8063
vt 0.5759 0.7999
vt 0.5775 0.7990
vt 0.5778 0.8043
vt 0.5764 0.8050
vt 0.5756 0.8338
vt 0.5760 0.8336
vt 0.5769 0.8425
vt 0.5768 0.8425
vt 0.5764 0.8337
vt 0.5769 0.8338
vt 0.5772 0.8425
vt 0.5770 0.8425
vt 0.5747 0.8153
vt 0.5758 0.8154
vt 0.5766 0.8251
vt 0.5758 0.8249
vt 0.5727 0.8157
vt 0.5736 0.8152
vt 0.5750 0.8247
vt 0.5743 0.8251
vt 0.5646 0.8231
vt 0.5647 0.8231
vt 0.5647 0.8232
vt 0.5649 0.8234
vt 0.5647 0.8234
vt 0.5773 0.8336
vt 0.5777 0.8334
vt 0.5775 0.8424
vt 0.5774 0.8425
vt 0.5781 0.8336
vt 0.5785 0.8339
vt 0.5777 0.8426
vt 0.5776 0.8425
vt 0.5641 0.8323
vt 0.5640 0.8323
vt 0.5639 0.8322
vt 0.5641 0.8322
vt 0.5544 0.8540
vt 0.5547 0.8539
vt 0.5583 0.8638
vt 0.5581 0.8638
vt 0.5562 0.8533
vt 0.5567 0.8533
vt 0.5593 0.8634
vt 0.5591 0.8634
vt 0.5549 0.8537
vt 0.5552 0.8535
vt 0.5586 0.8636
vt 0.5584 0.8637
vt 0.5932 0.7996
vt 0.5947 0.8004
vt 0.5943 0.8033
vt 0.5931 0.8029
vt 0.5487 0.8212
vt 0.5502 0.8211
vt 0.5506 0.8273
vt 0.5961 0.7997
vt 0.5976 0.7990
vt 0.5971 0.8027
vt 0.5957 0.8030
vt 0.5902 0.7993
vt 0.5918 0.7988
vt 0.5918 0.8025
vt 0.5904 0.8030
vt 0.6568 0.7681
vt 0.6651 0.7678
vt 0.6647 0.7755
vt 0.6568 0.7867
vt 0.6568 0.7774
vt 0.6647 0.7848
vt 0.6727 0.7829
vt 0.6730 0.7752
vt 0.6734 0.7675
vt 0.5886 0.7998
vt 0.5891 0.8034
vt 0.5882 0.7963
vt 0.5900 0.7957
vt 0.5918 0.7950
vt 0.5950 0.7975
vt 0.5965 0.7964
vt 0.5981 0.7953
vt 0.5457 0.8154
vt 0.5477 0.8151
vt 0.5934 0.7962
vt 0.5540 0.8541
vt 0.5579 0.8639
vt 0.5502 0.8443
vt 0.5642 0.8323
vt 0.5643 0.8322
vt 0.5642 0.8324
vt 0.5641 0.8324
vt 0.5640 0.8324
vt 0.5646 0.8233
vt 0.5646 0.8235
vt 0.5649 0.8232
vt 0.5649 0.8231
vt 0.5719 0.8162
vt 0.5737 0.8255
vt 0.5700 0.8070
vt 0.5752 0.8340
vt 0.5766 0.8426
vt 0.5736 0.7957
vt 0.5754 0.7947
vt 0.5772 0.7938
vt 0.5681 0.8031
vt 0.5661 0.7993
vt 0.5676 0.7979
vt 0.5692 0.7965
vt 0.5784 0.7951
vt 0.5797 0.7964
vt 0.5421 0.8177
vt 0.5421 0.8156
vt 0.5421 0.8135
vt 0.5621 0.7713
vt 0.5604 0.7837
vt 0.5588 0.7961
vt 0.5516 0.8352
vt 0.5472 0.8368
vt 0.5441 0.8294
vt 0.5714 0.7961
vt 0.5996 0.7964
vt 0.6011 0.7975
vt 0.5412 0.8242
vt 0.5383 0.8190
vt 0.5402 0.8184
vt 0.5439 0.8145
vt 0.5458 0.7953
vt 0.5501 0.7950
vt 0.5523 0.7952
vt 0.5379 0.8049
vt 0.5387 0.8140
vt 0.5372 0.7959
vt 0.5394 0.7958
vt 0.5480 0.7952
vt 0.5549 0.7588
vt 0.5513 0.7586
vt 0.5585 0.7591
vt 0.5335 0.7598
vt 0.5298 0.7606
vt 0.5371 0.7590
vt 0.5478 0.7586
vt 0.5443 0.7586
vt 0.5621 0.7600
vt 0.5657 0.7609
vt 0.5639 0.7661
vt 0.5407 0.7588
vt 0.6817 0.8118
vt 0.6837 0.8122
vt 0.6857 0.8126
vt 0.5921 0.8292
vt 0.5930 0.8399
vt 0.5913 0.8186
vt 0.5638 0.8284
vt 0.5636 0.8284
vt 0.5638 0.8287
vt 0.5639 0.8287
vt 0.5943 0.8033
vt 0.5957 0.8030
vt 0.5971 0.8027
vt 0.5984 0.8033
vt 0.5997 0.8039
vt 0.5902 0.8110
vt 0.5891 0.8034
vt 0.5904 0.8030
vt 0.5918 0.8025
vt 0.5931 0.8029
vn 0.1118 0.9901 -0.0849
vn -0.3515 0.8691 0.3479
vn -0.4404 0.8400 0.3168
vn 0.1174 0.9930 -0.0148
vn 0.7243 -0.1849 -0.6642
vn 0.5995 0.5854 -0.5458
vn 0.6758 0.6188 -0.4006
vn 0.8598 -0.0579 -0.5074
vn -0.0137 -0.9999 0.0059
vn 0.6663 -0.7014 -0.2532
vn 0.6914 -0.6821 -0.2381
vn -0.1998 -0.9676 0.1546
vn 0.0463 0.9980 0.0429
vn -0.5498 0.7860 0.2827
vn -0.5807 0.7611 0.2890
vn 0.2742 0.9614 0.0225
vn -0.1371 -0.9790 0.1508
vn 0.4224 -0.8278 -0.3691
vn 0.5912 -0.7403 -0.3199
vn -0.0699 -0.9951 0.0698
vn -0.6573 0.3939 0.6425
vn -0.6207 -0.4655 0.6309
vn -0.6544 -0.5870 0.4766
vn -0.7897 0.2978 0.5364
vn 0.9068 0.3473 -0.2388
vn 0.3573 -0.0260 0.9336
vn -0.8667 -0.2345 0.4402
vn -0.8868 0.2298 0.4011
vn -0.7130 -0.6248 0.3181
vn -0.7052 -0.6452 0.2938
vn 0.9348 0.0286 -0.3541
vn 0.6864 0.6895 -0.2312
vn 0.6664 0.7201 -0.1932
vn 0.0975 -0.8326 -0.5452
vn -0.6746 -0.7340 -0.0776
vn -0.7536 0.0690 -0.6537
vn 0.3538 0.5604 -0.7489
vn 0.1777 -0.0591 -0.9823
vn -0.2707 0.8506 -0.4509
vn 0.0669 0.0708 0.9952
vn 0.0917 0.0124 0.9957
vn -0.5172 0.0690 0.8531
vn -0.5328 0.1074 0.8394
vn -0.6338 0.1571 -0.7574
vn -0.6493 0.1871 -0.7371
vn -0.0934 0.1844 -0.9784
vn -0.0671 0.1518 -0.9861
vn 0.9675 0.0647 0.2443
vn 0.9759 0.0246 0.2169
vn 0.6631 0.0087 0.7485
vn 0.6390 0.0673 0.7662
vn -0.9213 0.1295 0.3668
vn -0.9147 0.1171 0.3868
vn -0.9592 0.1749 -0.2222
vn -0.9565 0.1602 -0.2437
vn 0.5291 0.1169 -0.8405
vn 0.5047 0.1343 -0.8528
vn 0.9119 0.0871 -0.4010
vn 0.9237 0.0958 -0.3709
vn 0.9826 -0.0203 0.1845
vn 0.6864 -0.0498 0.7256
vn -0.9012 0.0861 0.4248
vn -0.9710 0.1579 -0.1793
vn 0.4816 0.1244 -0.8675
vn 0.9050 0.0557 -0.4217
vn 0.1271 -0.0436 0.9909
vn 0.1624 -0.0075 0.9867
vn -0.4373 0.0332 0.8987
vn -0.4793 0.0174 0.8775
vn 0.9938 -0.0289 0.1076
vn 0.8846 -0.0238 -0.4658
vn 0.8293 -0.2387 -0.5053
vn 0.9391 -0.3314 -0.0910
vn -0.8311 0.0344 0.5551
vn -0.3905 0.0523 0.9191
vn -0.2548 0.2902 0.9224
vn -0.5042 -0.2928 0.8124
vn 0.4189 -0.0093 -0.9080
vn -0.2264 0.0140 -0.9739
vn -0.3335 -0.1835 -0.9247
vn 0.3525 -0.3202 -0.8793
vn 0.1388 0.0196 0.9901
vn 0.7282 -0.0152 0.6852
vn 0.6282 -0.3996 0.6676
vn -0.1106 -0.1562 0.9815
vn -0.7259 0.0273 -0.6872
vn -0.9924 0.0288 -0.1199
vn -0.8625 -0.4999 -0.0784
vn -0.6057 -0.2460 -0.7567
vn 0.2875 -0.6429 -0.7099
vn -0.4473 -0.4663 -0.7632
vn -0.2734 -0.5725 -0.7730
vn 0.3866 -0.5868 -0.7115
vn -0.0154 0.7715 0.6360
vn 0.7314 0.4571 0.5062
vn 0.8204 0.3492 0.4528
vn 0.2176 0.6791 0.7010
vn -0.8727 -0.0904 -0.4798
vn -0.9282 0.3643 -0.0762
vn -0.9928 0.1033 -0.0613
vn -0.8359 -0.2732 -0.4760
vn -0.2381 -0.4565 0.8573
vn 0.2988 -0.8500 0.4339
vn 0.5616 -0.6032 0.5663
vn 0.0575 -0.1039 0.9929
vn 0.1211 0.7651 0.6325
vn -0.0024 0.9871 -0.1602
vn 0.2706 0.9471 -0.1724
vn 0.1579 0.7870 0.5964
vn -0.8320 0.3107 0.4596
vn -0.3270 0.5575 0.7631
vn -0.3462 0.3481 0.8712
vn -0.8574 0.1432 0.4944
vn 0.6086 -0.3666 -0.7037
vn -0.1115 -0.5138 -0.8506
vn 0.0585 -0.3236 -0.9444
vn 0.7906 -0.1268 -0.5991
vn 0.3614 0.5676 0.7397
vn 0.8651 0.3675 0.3415
vn 0.9813 0.1844 0.0559
vn 0.2461 0.3524 0.9029
vn -0.7661 -0.3571 -0.5344
vn -0.9979 -0.0446 -0.0478
vn -0.9893 -0.1048 -0.1019
vn -0.7096 -0.2824 -0.6455
vn 0.9996 0.0267 0.0031
vn 0.2873 0.2301 0.9298
vn 0.9288 0.1884 0.3190
vn 0.9502 0.1711 0.2606
vn 0.4824 0.2988 0.8234
vn -0.6751 0.1856 -0.7140
vn -0.7085 0.1187 -0.6957
vn -0.1562 0.1115 -0.9814
vn -0.1213 0.1826 -0.9757
vn -0.3336 -0.7994 -0.4996
vn -0.5285 -0.8323 0.1673
vn -0.8097 -0.5765 0.1099
vn -0.5350 -0.6470 -0.5432
vn -0.4452 0.7644 0.4663
vn -0.1754 0.7506 0.6370
vn -0.2878 0.7000 0.6536
vn -0.7552 0.5161 0.4041
vn -0.3332 -0.6797 -0.6535
vn -0.3234 -0.9417 0.0925
vn -0.3539 -0.9215 0.1602
vn -0.2379 -0.8136 -0.5305
vn 0.3555 0.3915 -0.8488
vn 0.0212 -0.2960 -0.9550
vn -0.0555 -0.3446 -0.9371
vn 0.5134 0.2246 -0.8282
vn -0.1696 -0.6417 0.7479
vn 0.0436 0.1175 0.9921
vn -0.0648 0.0782 0.9948
vn -0.2746 -0.6265 0.7294
vn -0.1609 0.4473 -0.8798
vn -0.2681 -0.1186 -0.9561
vn -0.0763 -0.2413 -0.9674
vn 0.1511 0.4666 -0.8715
vn -0.7121 -0.0429 0.7007
vn -0.0376 0.3194 0.9469
vn 0.0140 0.3329 0.9429
vn -0.4794 0.2366 0.8451
vn 0.7062 0.4740 0.5260
vn 0.9238 0.3522 -0.1500
vn 0.9322 0.3209 -0.1677
vn 0.4836 0.5091 0.7120
vn 0.2530 0.7917 0.5560
vn 0.4682 0.8587 -0.2086
vn 0.7791 0.5996 -0.1828
vn 0.4858 0.6669 0.5650
vn -0.4553 -0.4981 0.7380
vn -0.1483 0.1941 0.9697
vn -0.1670 0.2187 0.9614
vn -0.6242 -0.2870 0.7267
vn -0.9691 -0.2370 0.0681
vn -0.3003 0.9145 -0.2710
vn 0.3353 -0.0376 -0.9414
vn 0.6525 0.0781 -0.7538
vn -0.0334 -0.2538 -0.9667
vn -0.0376 -0.2444 -0.9690
vn -0.6703 -0.4183 -0.6129
vn -0.9483 -0.3109 0.0642
vn -0.5468 -0.2781 -0.7897
vn -0.0933 0.9858 -0.1398
vn 0.8454 0.0984 -0.5250
vn -0.6984 -0.1829 -0.6920
vn -0.9902 -0.1010 -0.0964
vn -0.9902 -0.0984 -0.0988
vn -0.5268 -0.0755 -0.8467
vn 0.8401 0.0014 -0.5424
vn 0.1455 -0.1461 -0.9785
vn 0.1582 -0.1119 -0.9810
vn -0.8601 0.0240 0.5096
vn -0.3481 0.1605 0.9236
vn -0.3565 0.1343 0.9246
vn -0.8594 0.0714 0.5063
vn 0.5243 0.5720 -0.6308
vn 0.0839 0.9894 -0.1185
vn 0.3043 0.9522 0.0281
vn 0.7585 0.5455 -0.3566
vn 0.9923 -0.0658 0.1047
vn 0.8538 -0.4175 -0.3110
vn 0.8511 -0.3792 -0.3631
vn -0.3593 0.8424 0.4015
vn -0.5084 0.2712 0.8173
vn -0.3349 0.2480 0.9090
vn -0.0071 0.7415 0.6709
vn 0.6544 -0.7034 -0.2775
vn 0.7405 -0.1253 -0.6603
vn 0.7829 -0.0675 -0.6184
vn 0.9319 -0.3389 -0.1297
vn 0.7571 0.3881 0.5256
vn 0.3798 0.8961 0.2297
vn -0.3460 0.7975 0.4942
vn 0.9525 0.1912 -0.2372
vn -0.5270 0.8467 -0.0730
vn -0.6680 0.1800 -0.7221
vn 0.0625 0.7651 0.6408
vn -0.9849 0.1084 -0.1350
vn 0.9076 -0.1658 -0.3857
vn 0.7105 -0.0207 0.7034
vn 0.8943 0.0294 -0.4465
vn 0.4577 0.0704 -0.8863
vn -0.8820 0.0698 0.4660
vn 0.9888 -0.0114 0.1491
vn 0.5357 0.1037 -0.8381
vn 0.9272 0.0867 -0.3643
vn -0.0611 0.1338 -0.9891
vn -0.9277 0.1228 0.3526
vn -0.9547 0.1462 -0.2591
vn -0.5509 0.1051 0.8279
vn 0.9649 0.0639 0.2549
vn 0.6259 0.0685 0.7769
vn -0.6272 0.1407 -0.7661
vn 0.0503 0.0743 0.9960
vn -0.4501 0.8741 0.1825
vn -0.9043 0.3689 0.2148
vn -0.8030 -0.3713 0.4662
usemtl None
s 1
f 238/1/1 172/2/2 3/3/3 111/4/4
f 237/5/5 120/6/6 4/7/7 109/8/8
f 236/9/9 85/10/10 8/11/11 159/12/12
f 235/13/13 70/14/14 10/15/15 117/16/16
f 234/17/17 90/18/18 6/19/19 150/20/20
f 233/21/21 84/22/22 7/23/23 166/24/24
f 8/25/11 147/26/25 78/27/26
f 10/28/15 178/29/27 78/27/26
f 232/30/28 156/31/29 9/32/30 178/33/27
f 231/34/31 136/35/32 11/36/33 147/37/25
f 5/38/34 93/39/35 176/40/36
f 1/41/37 169/42/38 133/43/39
f 230/44/40 127/45/41 15/46/42 72/47/43
f 229/48/44 164/49/45 19/50/46 99/51/47
f 228/52/48 161/53/49 14/54/50 67/55/51
f 227/56/52 157/57/53 18/58/54 119/59/55
f 226/60/56 105/61/57 22/62/58 81/63/59
f 225/64/60 163/65/61 14/54/50 161/53/49
f 224/66/62 69/67/63 18/58/54 157/57/53
f 223/68/64 141/69/65 22/62/58 105/61/57
f 222/70/66 153/71/67 25/72/68 113/73/69
f 221/74/70 73/75/71 28/76/72 182/77/73
f 220/78/74 122/79/75 30/80/76 75/81/77
f 219/82/78 132/83/79 32/84/80 138/85/81
f 218/86/82 146/87/83 29/88/84 152/89/85
f 217/90/86 168/91/87 31/92/88 155/93/89
f 216/94/90 96/95/91 33/96/92 116/97/93
f 215/98/94 95/99/95 36/100/96 154/101/97
f 214/102/98 134/103/99 39/104/100 149/105/101
f 213/106/102 177/107/103 40/108/104 148/109/105
f 212/110/106 167/111/107 42/112/108 92/113/109
f 211/114/110 77/115/111 44/116/112 86/117/113
f 210/118/114 174/119/115 46/120/116 103/121/117
f 209/122/118 115/123/119 47/124/120 80/125/121
f 208/126/122 130/127/123 45/128/124 173/129/125
f 36/100/96 94/130/126 115/123/119
f 207/131/127 181/132/128 48/133/129 123/134/130
f 206/135/131 65/136/132 27/137/133 124/138/134
f 205/139/135 144/140/136 52/141/137 71/142/138
f 204/143/139 135/144/140 37/145/141 139/146/142
f 203/147/143 184/148/144 51/149/145 76/150/146
f 202/151/147 79/152/148 53/153/149 125/154/150
f 201/155/151 158/156/152 43/157/153 102/158/154
f 200/159/155 114/160/156 50/161/157 107/162/158
f 199/163/159 137/164/160 56/165/161 183/166/162
f 198/167/163 91/168/164 58/169/165 100/170/166
f 197/171/167 170/172/168 54/173/169 165/174/170
f 196/175/171 110/176/172 55/177/173 66/178/174
f 57/179/175 183/180/162 171/181/176
f 58/182/165 101/183/177 171/181/176
f 195/184/178 180/185/179 59/186/180 101/187/177
f 194/188/181 74/189/182 57/190/175 106/191/183
f 193/192/184 123/193/130 48/194/129 121/195/185
f 192/196/186 185/197/187 60/198/188 97/199/189
f 191/200/190 129/201/191 61/202/192 121/203/185
f 190/204/193 89/205/194 49/206/195 112/207/196
f 189/208/197 88/209/198 62/210/199 118/211/200
f 188/212/201 151/213/202 34/214/203 94/130/126
f 187/215/204 126/216/205 41/217/206 162/218/207
f 186/219/208 83/220/209 63/221/210 64/222/211
f 40/223/104 64/224/211 128/225/212
f 41/226/206 148/227/105 162/228/207
f 162/228/207 128/225/212 62/229/199
f 162/228/207 148/227/105 128/225/212
f 148/227/105 40/223/104 128/225/212
f 128/225/212 118/230/200 62/229/199
f 128/225/212 64/224/211 118/230/200
f 64/224/211 63/231/210 118/230/200
f 177/232/103 186/219/208 64/222/211 40/233/104
f 29/234/84 182/235/73 186/219/208 177/232/103
f 182/235/73 28/236/72 83/220/209 186/219/208
f 88/209/198 187/215/204 162/218/207 62/210/199
f 35/237/213 131/238/214 187/215/204 88/209/198
f 131/238/214 30/239/76 126/216/205 187/215/204
f 95/99/95 188/212/201 94/130/126 36/100/96
f 35/240/213 143/241/215 188/212/201 95/99/95
f 143/241/215 28/76/72 151/213/202 188/212/201
f 83/220/209 189/208/197 118/211/200 63/221/210
f 28/236/72 143/242/215 189/208/197 83/220/209
f 143/242/215 35/237/213 88/209/198 189/208/197
f 185/197/187 190/204/193 112/207/196 60/198/188
f 45/128/124 86/117/113 190/204/193 185/197/187
f 86/117/113 44/116/112 89/205/194 190/204/193
f 181/132/128 191/200/190 121/203/185 48/133/129
f 47/124/120 103/121/117 191/200/190 181/132/128
f 103/121/117 46/120/116 129/201/191 191/200/190
f 129/243/191 192/196/186 97/199/189 61/244/192
f 46/245/116 173/129/125 192/196/186 129/243/191
f 173/129/125 45/128/124 185/197/187 192/196/186
f 97/246/189 193/192/184 121/195/185 61/247/192
f 60/248/188 112/249/196 193/192/184 97/246/189
f 112/249/196 49/250/195 123/193/130 193/192/184
f 180/185/179 194/188/181 106/191/183 59/186/180
f 53/153/149 71/142/138 194/188/181 180/185/179
f 71/142/138 52/141/137 74/189/182 194/188/181
f 91/168/164 195/184/178 101/187/177 58/169/165
f 54/173/169 125/154/150 195/184/178 91/168/164
f 125/154/150 53/153/149 180/185/179 195/184/178
f 171/181/176 106/251/183 57/179/175
f 171/181/176 101/183/177 106/251/183
f 101/183/177 59/252/180 106/251/183
f 171/181/176 100/253/166 58/182/165
f 171/181/176 183/180/162 100/253/166
f 183/180/162 56/254/161 100/253/166
f 144/255/136 196/175/171 66/178/174 52/256/137
f 51/257/145 102/158/154 196/175/171 144/255/136
f 102/158/154 43/157/153 110/176/172 196/175/171
f 110/176/172 197/171/167 165/174/170 55/177/173
f 43/157/153 92/113/109 197/171/167 110/176/172
f 92/113/109 42/112/108 170/172/168 197/171/167
f 137/164/160 198/167/163 100/170/166 56/165/161
f 55/177/173 165/174/170 198/167/163 137/164/160
f 165/174/170 54/173/169 91/168/164 198/167/163
f 74/258/182 199/163/159 183/166/162 57/259/175
f 52/256/137 66/178/174 199/163/159 74/258/182
f 66/178/174 55/177/173 137/164/160 199/163/159
f 167/111/107 200/159/155 107/162/158 42/112/108
f 38/260/216 175/261/217 200/159/155 167/111/107
f 175/261/217 32/262/80 114/160/156 200/159/155
f 184/263/144 201/155/151 102/158/154 51/257/145
f 31/264/88 75/265/77 201/155/151 184/263/144
f 75/265/77 30/266/76 158/156/152 201/155/151
f 170/172/168 202/151/147 125/154/150 54/173/169
f 42/112/108 107/162/158 202/151/147 170/172/168
f 107/162/158 50/161/157 79/152/148 202/151/147
f 114/160/156 203/147/143 76/150/146 50/161/157
f 32/262/80 155/267/89 203/147/143 114/160/156
f 155/267/89 31/268/88 184/148/144 203/147/143
f 134/103/99 204/143/139 139/146/142 39/104/100
f 38/269/216 68/270/218 204/143/139 134/103/99
f 68/270/218 30/271/76 135/144/140 204/143/139
f 79/152/148 205/139/135 71/142/138 53/153/149
f 50/161/157 76/150/146 205/139/135 79/152/148
f 76/150/146 51/149/145 144/140/136 205/139/135
f 164/49/45 206/135/131 124/138/134 19/50/46
f 18/272/54 69/273/63 206/135/131 164/49/45
f 69/273/63 26/274/219 65/136/132 206/135/131
f 89/205/194 207/131/127 123/134/130 49/206/195
f 44/116/112 80/125/121 207/131/127 89/205/194
f 80/125/121 47/124/120 181/132/128 207/131/127
f 115/123/119 104/275/220 47/124/120
f 115/123/119 94/130/126 104/275/220
f 94/130/126 34/214/203 104/275/220
f 174/276/115 208/126/122 173/129/125 46/245/116
f 33/277/92 149/105/101 208/126/122 174/276/115
f 149/105/101 39/104/100 130/127/123 208/126/122
f 77/115/111 209/122/118 80/125/121 44/116/112
f 37/145/141 154/101/97 209/122/118 77/115/111
f 154/101/97 36/100/96 115/123/119 209/122/118
f 104/275/220 210/118/114 103/121/117 47/124/120
f 34/214/203 116/97/93 210/118/114 104/275/220
f 116/97/93 33/96/92 174/119/115 210/118/114
f 130/127/123 211/114/110 86/117/113 45/128/124
f 39/104/100 139/146/142 211/114/110 130/127/123
f 139/146/142 37/145/141 77/115/111 211/114/110
f 158/156/152 212/110/106 92/113/109 43/157/153
f 30/266/76 68/278/218 212/110/106 158/156/152
f 68/278/218 38/260/216 167/111/107 212/110/106
f 126/216/205 213/106/102 148/109/105 41/217/206
f 30/239/76 152/279/85 213/106/102 126/216/205
f 152/279/85 29/280/84 177/107/103 213/106/102
f 96/281/91 214/102/98 149/105/101 33/277/92
f 32/282/80 175/283/217 214/102/98 96/281/91
f 175/283/217 38/269/216 134/103/99 214/102/98
f 135/144/140 215/98/94 154/101/97 37/145/141
f 30/271/76 131/284/214 215/98/94 135/144/140
f 131/284/214 35/240/213 95/99/95 215/98/94
f 151/213/202 216/94/90 116/97/93 34/214/203
f 28/76/72 138/85/81 216/94/90 151/213/202
f 138/85/81 32/84/80 96/95/91 216/94/90
f 132/83/79 217/90/86 155/93/89 32/84/80
f 27/137/133 65/136/132 217/90/86 132/83/79
f 65/136/132 26/274/219 168/91/87 217/90/86
f 122/79/75 218/86/82 152/89/85 30/80/76
f 25/72/68 153/71/67 218/86/82 122/79/75
f 153/71/67 24/285/221 146/87/83 218/86/82
f 73/75/71 219/82/78 138/85/81 28/76/72
f 23/286/222 140/287/223 219/82/78 73/75/71
f 140/287/223 27/137/133 132/83/79 219/82/78
f 168/288/87 220/78/74 75/81/77 31/289/88
f 26/290/219 142/291/224 220/78/74 168/288/87
f 142/291/224 25/72/68 122/79/75 220/78/74
f 146/87/83 221/74/70 182/77/73 29/88/84
f 24/285/221 87/292/225 221/74/70 146/87/83
f 87/292/225 23/286/222 73/75/71 221/74/70
f 127/45/41 222/70/66 113/73/69 15/46/42
f 14/54/50 163/65/61 222/70/66 127/45/41
f 163/65/61 24/285/221 153/71/67 222/70/66
f 124/138/134 223/68/64 105/61/57 19/50/46
f 27/137/133 140/287/223 223/68/64 124/138/134
f 140/287/223 23/286/222 141/69/65 223/68/64
f 113/73/69 224/66/62 157/57/53 15/46/42
f 25/72/68 142/291/224 224/66/62 113/73/69
f 142/291/224 26/290/219 69/67/63 224/66/62
f 141/69/65 225/64/60 161/53/49 22/62/58
f 23/286/222 87/292/225 225/64/60 141/69/65
f 87/292/225 24/285/221 163/65/61 225/64/60
f 160/293/226 226/60/56 81/63/59 21/294/227
f 20/295/228 99/51/47 226/60/56 160/293/226
f 99/51/47 19/50/46 105/61/57 226/60/56
f 145/296/229 227/56/52 119/59/55 17/297/230
f 16/298/231 72/47/43 227/56/52 145/296/229
f 72/47/43 15/46/42 157/57/53 227/56/52
f 98/299/232 228/52/48 67/55/51 13/300/233
f 21/294/227 81/63/59 228/52/48 98/299/232
f 81/63/59 22/62/58 161/53/49 228/52/48
f 108/301/234 229/48/44 99/51/47 20/295/228
f 17/302/230 119/303/55 229/48/44 108/301/234
f 119/303/55 18/272/54 164/49/45 229/48/44
f 179/304/235 230/44/40 72/47/43 16/298/231
f 13/300/233 67/55/51 230/44/40 179/304/235
f 67/55/51 14/54/50 127/45/41 230/44/40
f 133/43/39 176/40/36 2/305/236
f 133/43/39 169/42/38 176/40/36
f 169/42/38 5/38/34 176/40/36
f 176/40/36 82/306/237 2/305/236
f 176/40/36 93/39/35 82/306/237
f 93/39/35 12/307/238 82/306/237
f 85/308/10 231/34/31 147/37/25 8/309/11
f 6/310/19 109/8/8 231/34/31 85/308/10
f 109/8/8 4/7/7 136/35/32 231/34/31
f 70/14/14 232/30/28 178/33/27 10/15/15
f 3/3/3 166/24/24 232/30/28 70/14/14
f 166/24/24 7/23/23 156/31/29 232/30/28
f 78/27/26 159/311/12 8/25/11
f 78/27/26 178/29/27 159/311/12
f 178/29/27 9/312/30 159/311/12
f 78/27/26 117/313/16 10/28/15
f 78/27/26 147/26/25 117/313/16
f 147/26/25 11/314/33 117/313/16
f 172/2/2 233/21/21 166/24/24 3/3/3
f 2/315/236 82/316/237 233/21/21 172/2/2
f 82/316/237 12/317/238 84/22/22 233/21/21
f 84/22/22 234/17/17 150/20/20 7/23/23
f 12/317/238 93/318/35 234/17/17 84/22/22
f 93/318/35 5/319/34 90/18/18 234/17/17
f 136/35/32 235/13/13 117/16/16 11/36/33
f 4/7/7 111/4/4 235/13/13 136/35/32
f 111/4/4 3/3/3 70/14/14 235/13/13
f 156/31/29 236/9/9 159/12/12 9/32/30
f 7/23/23 150/20/20 236/9/9 156/31/29
f 150/20/20 6/19/19 85/10/10 236/9/9
f 90/320/18 237/5/5 109/8/8 6/310/19
f 5/321/34 169/322/38 237/5/5 90/320/18
f 169/322/38 1/323/37 120/6/6 237/5/5
f 120/6/6 238/1/1 111/4/4 4/7/7
f 1/323/37 133/324/39 238/1/1 120/6/6
f 133/324/39 2/315/236 172/2/2 238/1/1
