# Blender v2.78 (sub 0) OBJ File: ''
# www.blender.org
mtllib Apple_Tree_NoLeaves_s_01.mtl
o Apple_Tree_NoLeaves_s_01
v 0.002988 0.022961 -0.049418
v 0.031403 0.254985 -0.052872
v 0.067378 0.255055 -0.016959
v 0.050442 0.022961 -0.001964
v 0.002988 0.022961 0.045490
v 0.031392 0.254820 0.018952
v -0.004595 0.254641 -0.016970
v -0.044465 0.022961 -0.001964
v 0.071155 0.753693 -0.027977
v 0.100687 0.753823 0.000585
v 0.071063 0.751849 0.029204
v 0.041397 0.750521 0.000538
v 0.075785 1.213634 -0.007792
v 0.117164 1.188558 0.018708
v 0.076199 1.210160 0.045590
v 0.031621 1.198081 0.018147
v 0.081979 1.274483 0.024894
v -0.067773 1.371759 0.037973
v -0.080718 1.356692 0.055203
v -0.097477 1.351050 0.036831
v -0.082688 1.362135 0.018634
v 0.269953 1.310224 0.039627
v -0.212948 1.511666 0.091154
v -0.189599 1.521240 0.048527
v -0.188551 1.543243 0.079682
v -0.203845 1.518433 0.107482
v 0.268701 1.343915 0.030267
v 0.565027 1.633851 -0.039117
v 0.557868 1.649744 -0.045533
v 0.278115 1.326018 0.007323
v 0.564003 1.637402 -0.059431
v 0.688502 1.874196 -0.083435
v -0.399032 1.782868 0.296915
v -0.396467 1.756214 0.289121
v -0.221215 1.561496 0.078243
v -0.410403 1.783262 0.290898
v -0.123671 1.726678 -0.064507
v -0.107570 1.719489 -0.062657
v -0.081348 1.910415 -0.136504
v -0.116533 1.714429 -0.074115
v -0.527873 1.979034 0.404129
v -0.210483 1.567494 0.082013
v -0.199505 1.504257 0.066326
v 0.052436 0.495785 -0.041041
v -0.477628 1.889448 0.361871
v 0.058948 0.116749 -0.009986
v 0.166551 1.256090 0.045267
v -0.097908 1.828226 -0.107028
v -0.292062 1.623818 0.187727
v 0.073986 0.990633 -0.018488
v 0.052374 0.494833 0.021953
v -0.413543 1.793960 0.309332
v -0.178059 1.526602 0.053145
v 0.105398 1.191587 0.002228
v -0.074022 1.367974 0.026863
v 0.032771 0.022961 0.027819
v -0.117780 1.735767 -0.076016
v 0.088366 0.752961 0.017321
v 0.015196 0.116749 0.033766
v 0.639366 1.772214 -0.074038
v 0.080002 1.258683 0.038405
v -0.006305 1.289645 0.049427
v 0.272559 1.336434 0.016933
v 0.177630 1.252609 0.033463
v 0.073989 0.988119 0.037427
v 0.053785 0.751982 -0.016146
v -0.294971 1.655463 0.191076
v 0.639714 1.770841 -0.065698
v 0.282061 1.320659 0.021467
v -0.314236 1.658684 0.185376
v -0.296766 1.621501 0.182630
v -0.204389 1.537143 0.058278
v 0.004973 1.314985 0.029302
v -0.143153 1.439384 0.038151
v 0.044086 1.197118 0.034047
v -0.197933 1.527619 0.100844
v -0.220220 1.527383 0.112808
v -0.029230 1.286234 0.026391
v 0.052419 0.255020 -0.037944
v 0.413472 1.487201 -0.005233
v -0.140130 1.432996 0.073770
v 0.043503 0.988938 0.009511
v -0.028557 0.116749 -0.009986
v -0.146195 1.621547 0.005115
v -0.420645 1.793779 0.305013
v -0.112239 1.738827 -0.068981
v -0.128460 1.447891 0.056782
v -0.007340 1.293954 0.004231
v 0.032771 0.022961 -0.031746
v -0.090306 1.352844 0.047458
v 0.422370 1.472381 -0.024019
v -0.223639 1.535649 0.088293
v 0.088422 0.754048 -0.016111
v -0.478137 1.893326 0.357788
v 0.274344 1.332114 0.037456
v 0.636945 1.777401 -0.068412
v 0.079703 1.260830 0.007505
v 0.104216 0.987535 0.009230
v -0.091459 1.356041 0.026186
v 0.052413 0.254938 0.004024
v 0.020447 0.493849 -0.009599
v -0.473893 1.893477 0.360535
v 0.113718 1.199919 0.034989
v 0.573027 1.661719 -0.044308
v -0.095122 1.823135 -0.110960
v -0.153028 1.425906 0.057720
v 0.053729 0.750895 0.017287
v 0.010376 0.254813 -0.037950
v -0.414911 1.800135 0.303092
v 0.572435 1.663858 -0.056805
v 0.043942 1.199000 0.002204
v 0.010370 0.254731 0.004019
v -0.091391 1.825112 -0.106283
v 0.015196 0.116749 -0.053738
v 0.576750 1.654063 -0.052816
v 0.173547 1.267245 0.002607
v -0.026794 0.022961 -0.031746
v -0.107924 1.731259 -0.074885
v -0.157313 1.614014 -0.009989
v -0.167966 1.629284 0.002577
v 0.169360 1.293577 0.030332
v -0.026794 0.022961 0.027819
v 0.424404 1.466949 0.002302
v -0.072869 1.364777 0.048135
v 0.084304 0.496243 -0.009534
v 0.056118 0.989955 -0.006895
v 0.417307 1.481007 -0.016229
v -0.150219 1.616691 -0.002912
v -0.164197 1.621659 -0.004541
v -0.157059 1.626495 0.005156
v -0.313142 1.647816 0.189402
v -0.304415 1.658681 0.187392
v -0.298247 1.647742 0.196694
v 0.424326 1.468004 -0.011391
v 0.170482 1.282226 0.014445
v 0.182605 1.260890 0.015494
v 0.418613 1.477520 0.000670
v 0.171539 1.278954 0.040849
v 0.000251 1.305899 0.014938
v -0.133101 1.441118 0.066776
v -0.147511 1.428224 0.067326
v -0.134874 1.444865 0.045885
v -0.149284 1.431970 0.046435
v -0.019202 1.286510 0.039738
v -0.019809 1.289037 0.013230
v 0.000858 1.303372 0.041446
v 0.091729 0.987658 0.025735
v 0.056120 0.988481 0.025900
v 0.091727 0.989132 -0.007060
v 0.033682 0.494755 -0.028047
v 0.071099 0.495600 0.008937
v 0.033645 0.494196 0.008899
v 0.071135 0.496158 -0.028009
v -0.010466 0.116749 -0.035647
v 0.040857 0.116749 0.015675
v -0.010466 0.116749 0.015675
v 0.040857 0.116749 -0.035647
vt 0.5532 0.7751
vt 0.5541 0.7842
vt 0.5518 0.7844
vt 0.5504 0.7754
vt 0.5644 0.7746
vt 0.5634 0.7840
vt 0.5611 0.7837
vt 0.5617 0.7742
vt 0.5699 0.7758
vt 0.5680 0.7849
vt 0.5657 0.7843
vt 0.5672 0.7750
vt 0.5589 0.7745
vt 0.5588 0.7838
vt 0.5564 0.7840
vt 0.5561 0.7748
vt 0.5534 0.8050
vt 0.5555 0.8049
vt 0.5546 0.8258
vt 0.5526 0.8259
vt 0.5621 0.8050
vt 0.5642 0.8053
vt 0.5628 0.8263
vt 0.5608 0.8260
vt 0.5664 0.8057
vt 0.5686 0.8061
vt 0.5669 0.8269
vt 0.5648 0.8266
vt 0.5577 0.8048
vt 0.5599 0.8047
vt 0.5587 0.8256
vt 0.5567 0.8257
vt 0.5517 0.8439
vt 0.5509 0.8620
vt 0.5490 0.8617
vt 0.5498 0.8438
vt 0.5596 0.8442
vt 0.5584 0.8624
vt 0.5565 0.8623
vt 0.5576 0.8440
vt 0.5636 0.8446
vt 0.5624 0.8626
vt 0.5604 0.8625
vt 0.5616 0.8444
vt 0.5923 0.8173
vt 0.5938 0.8179
vt 0.5920 0.8248
vt 0.5908 0.8248
vt 0.5865 0.8167
vt 0.5878 0.8176
vt 0.5871 0.8248
vt 0.5860 0.8246
vt 0.5371 0.8513
vt 0.5357 0.8500
vt 0.5373 0.8430
vt 0.5893 0.8171
vt 0.5907 0.8166
vt 0.5896 0.8248
vt 0.5884 0.8248
vt 0.5854 0.8321
vt 0.5867 0.8321
vt 0.5862 0.8395
vt 0.5849 0.8396
vt 0.5830 0.8320
vt 0.5842 0.8320
vt 0.5836 0.8397
vt 0.5824 0.8398
vt 0.5877 0.8323
vt 0.5886 0.8324
vt 0.5877 0.8400
vt 0.5870 0.8397
vt 0.5899 0.8326
vt 0.5911 0.8328
vt 0.5901 0.8408
vt 0.5889 0.8404
vt 0.5835 0.8163
vt 0.5852 0.8159
vt 0.5848 0.8243
vt 0.5836 0.8241
vt 0.5391 0.8425
vt 0.5375 0.8347
vt 0.5390 0.8346
vt 0.5396 0.8164
vt 0.5384 0.8167
vt 0.5393 0.7986
vt 0.5401 0.7981
vt 0.5462 0.8421
vt 0.5446 0.8428
vt 0.5442 0.8343
vt 0.5459 0.8343
vt 0.5428 0.8424
vt 0.5409 0.8420
vt 0.5406 0.8346
vt 0.5424 0.8345
vt 0.5449 0.8163
vt 0.5439 0.7983
vt 0.5449 0.7986
vt 0.5463 0.8165
vt 0.5439 0.7839
vt 0.5428 0.7981
vt 0.5418 0.7979
vt 0.5429 0.7836
vt 0.5409 0.7976
vt 0.5419 0.7833
vt 0.5739 0.8235
vt 0.5748 0.8235
vt 0.5748 0.8392
vt 0.5741 0.8392
vt 0.5840 0.8410
vt 0.5757 0.8240
vt 0.5766 0.8245
vt 0.5761 0.8394
vt 0.5755 0.8393
vt 0.5710 0.8075
vt 0.5717 0.8078
vt 0.5721 0.8233
vt 0.5812 0.7839
vt 0.5821 0.7837
vt 0.5822 0.7960
vt 0.5776 0.8239
vt 0.5786 0.8234
vt 0.5776 0.8392
vt 0.5768 0.8393
vt 0.5819 0.7741
vt 0.5830 0.7740
vt 0.5831 0.7835
vt 0.5796 0.7741
vt 0.5807 0.7742
vt 0.5803 0.7837
vt 0.5840 0.7739
vt 0.5850 0.7739
vt 0.5847 0.7834
vt 0.5839 0.7835
vt 0.5794 0.7836
vt 0.5813 0.7958
vt 0.5832 0.7958
vt 0.5733 0.8391
vt 0.5741 0.8537
vt 0.5755 0.8539
vt 0.5749 0.8537
vt 0.5421 0.8162
vt 0.5435 0.8162
vt 0.5556 0.8440
vt 0.5546 0.8623
vt 0.5527 0.8623
vt 0.5537 0.8440
vt 0.5408 0.8161
vt 0.5750 0.8683
vt 0.5763 0.8537
vt 0.5839 0.7957
vt 0.5832 0.8080
vt 0.5829 0.7645
vt 0.5841 0.7645
vt 0.5853 0.7644
vt 0.5785 0.7741
vt 0.5776 0.7646
vt 0.5789 0.7645
vt 0.5803 0.7644
vt 0.5816 0.7645
vt 0.5771 0.8095
vt 0.5784 0.8085
vt 0.5797 0.8075
vt 0.5729 0.8236
vt 0.5725 0.8081
vt 0.5749 0.8078
vt 0.5760 0.8087
vt 0.5853 0.8409
vt 0.5844 0.8423
vt 0.5737 0.8080
vt 0.5411 0.7839
vt 0.5429 0.7691
vt 0.5477 0.8344
vt 0.5451 0.8513
vt 0.5431 0.8504
vt 0.5412 0.8495
vt 0.5477 0.8415
vt 0.5477 0.8486
vt 0.5464 0.8499
vt 0.5391 0.8504
vt 0.5818 0.8168
vt 0.5824 0.8239
vt 0.5812 0.8097
vt 0.5834 0.8086
vt 0.5856 0.8075
vt 0.5818 0.8319
vt 0.5812 0.8399
vt 0.5885 0.8103
vt 0.5902 0.8094
vt 0.5919 0.8084
vt 0.5359 0.8418
vt 0.5343 0.8488
vt 0.5871 0.8089
vt 0.5938 0.8097
vt 0.5956 0.8110
vt 0.5656 0.8448
vt 0.5643 0.8626
vt 0.5506 0.8259
vt 0.5703 0.7854
vt 0.5512 0.8052
vt 0.5590 0.7651
vt 0.5557 0.7656
vt 0.5622 0.7646
vt 0.5718 0.7667
vt 0.5687 0.7656
vt 0.5748 0.7678
vt 0.5725 0.7766
vt 0.5655 0.7651
vt 0.5524 0.7660
vt 0.5490 0.7664
vn 0.7039 -0.0873 -0.7049
vn 0.7037 -0.0478 -0.7089
vn 0.9977 -0.0655 -0.0148
vn 0.9977 -0.0677 -0.0039
vn -0.6956 0.1806 0.6954
vn -0.7032 0.1101 0.7025
vn -0.9903 0.1382 -0.0142
vn -0.9842 0.1768 -0.0089
vn 0.7097 0.0075 0.7045
vn 0.7085 -0.0352 0.7048
vn 0.0070 0.0469 0.9989
vn 0.0054 0.1236 0.9923
vn -0.7014 0.0858 -0.7076
vn -0.6991 0.0940 -0.7089
vn 0.0062 0.0263 -0.9996
vn 0.0004 -0.0119 -0.9999
vn 0.7024 -0.0197 -0.7115
vn 0.0036 0.0488 -0.9988
vn 0.0112 0.0428 -0.9990
vn 0.6951 0.0021 -0.7189
vn -0.7019 0.0428 0.7110
vn 0.0026 -0.0213 0.9998
vn 0.0125 -0.0339 0.9993
vn -0.6914 0.0058 0.7224
vn 0.7020 -0.0696 0.7088
vn 0.9978 -0.0661 -0.0028
vn 0.9993 -0.0380 -0.0011
vn 0.6960 -0.0529 0.7161
vn -0.6994 0.0924 -0.7087
vn -0.9955 0.0952 -0.0014
vn -0.9989 0.0479 0.0012
vn -0.6909 0.0613 -0.7204
vn 0.6583 0.0100 -0.7527
vn 0.5710 -0.2011 -0.7959
vn 0.9191 -0.3940 -0.0041
vn 0.9981 -0.0431 -0.0432
vn -0.6503 -0.0387 0.7586
vn -0.5569 -0.2248 0.7996
vn -0.9331 -0.3582 -0.0299
vn -0.9997 -0.0231 -0.0009
vn 0.6740 -0.0580 0.7365
vn 0.4663 -0.3409 0.8163
vn -0.0236 -0.0683 0.9974
vn -0.0122 -0.0462 0.9989
vn 0.3630 0.4285 0.8274
vn 0.5574 0.8271 0.0717
vn 0.7103 0.7025 0.0446
vn 0.5326 0.3823 0.7551
vn -0.5466 -0.3750 -0.7487
vn -0.7509 -0.6577 -0.0596
vn -0.7571 -0.6511 -0.0540
vn -0.6129 -0.3964 -0.6835
vn 0.2131 -0.2509 0.9443
vn -0.5173 -0.5248 0.6760
vn -0.0408 -0.0717 0.9966
vn 0.0055 -0.1675 0.9858
vn -0.5119 -0.5892 0.6251
vn -0.7167 -0.3553 -0.6001
vn -0.8091 -0.5870 -0.0273
vn -0.8231 -0.5672 -0.0280
vn -0.7778 -0.3539 -0.5194
vn 0.5822 0.5090 -0.6340
vn -0.1804 0.0710 -0.9810
vn -0.3079 -0.2331 -0.9224
vn 0.9043 0.0511 -0.4239
vn -0.4958 -0.5848 0.6420
vn 0.1884 -0.1778 0.9659
vn 0.2997 -0.2418 0.9229
vn -0.3991 -0.7188 0.5692
vn 0.6563 0.2809 0.7003
vn 0.8335 0.5347 0.1391
vn 0.8260 0.3307 0.4565
vn 0.7206 0.1687 0.6725
vn 0.3357 0.5895 -0.7347
vn -0.0751 0.1254 -0.9893
vn -0.1228 0.1124 -0.9860
vn 0.4484 0.5859 -0.6750
vn -0.1212 0.3519 0.9281
vn 0.4694 -0.5565 0.6855
vn -0.0578 0.2882 0.9558
vn -0.0765 0.3070 0.9486
vn 0.6218 -0.4050 0.6703
vn 0.6786 -0.3877 0.6238
vn -0.1603 0.2867 0.9445
vn 0.5232 -0.6926 -0.4966
vn 0.1320 0.0031 -0.9912
vn 0.1478 -0.2384 -0.9598
vn 0.6230 -0.7452 -0.2379
vn -0.2213 0.6434 -0.7328
vn -0.3358 0.9222 0.1921
vn -0.5309 0.7957 0.2917
vn -0.4812 0.5699 -0.6661
vn 0.7052 -0.6807 -0.1983
vn 0.8475 -0.5123 -0.1391
vn 0.6329 -0.1643 0.7566
vn 0.2269 -0.3542 -0.9072
vn -0.6960 0.3401 -0.6324
vn 0.2260 -0.1829 -0.9568
vn -0.7114 0.6553 0.2538
vn -0.8157 0.5098 0.2735
vn 0.6852 -0.0174 0.7281
vn 0.8204 0.5026 0.2727
vn 0.8423 0.4794 0.2463
vn 0.3966 -0.2365 0.8870
vn -0.7754 -0.1690 -0.6084
vn 0.3190 0.7872 -0.5277
vn -0.5626 0.2678 -0.7822
vn -0.5678 0.2186 -0.7936
vn 0.3733 0.6540 -0.6580
vn -0.6945 -0.6874 0.2124
vn -0.8329 0.4947 0.2481
vn 0.0782 0.4013 0.9126
vn -0.8421 0.3548 0.4063
vn -0.8631 -0.3510 -0.3631
vn -0.3130 -0.6879 0.6548
vn -0.8777 -0.4657 -0.1130
vn 0.1245 0.6181 0.7761
vn 0.8689 0.0532 0.4922
vn 0.9253 -0.0888 0.3687
vn -0.7892 -0.0695 -0.6102
vn -0.8286 0.5558 0.0673
vn -0.8106 -0.0318 -0.5847
vn 0.8430 -0.4741 -0.2540
vn -0.0283 -0.5181 -0.8548
vn 0.0618 -0.5132 -0.8560
vn 0.8075 -0.3488 -0.4758
vn -0.0124 -0.2844 -0.9586
vn 0.9069 0.0609 0.4170
vn -0.4528 -0.5829 0.6747
vn -0.4605 0.2262 -0.8584
vn 0.8600 0.4644 0.2114
vn -0.6331 0.4432 -0.6346
vn 0.1511 -0.3190 -0.9356
vn -0.6503 0.0212 -0.7594
vn -0.5589 -0.1214 -0.8203
vn -0.0003 0.0471 -0.9989
vn 0.0048 0.0354 -0.9994
vn -0.6753 0.6911 0.2575
vn -0.4666 0.7883 0.4010
vn 0.1490 0.9378 -0.3137
vn -0.7632 0.2977 -0.5735
vn 0.3158 0.9360 0.1558
vn -0.8532 -0.3094 -0.4200
vn 0.1977 -0.4847 0.8520
vn 0.4404 0.8892 -0.1241
vn 0.0786 0.5583 -0.8259
vn 0.1439 0.9843 0.1021
vn 0.5984 -0.7748 0.2039
vn 0.0801 0.3719 0.9248
vn -0.7185 0.0823 -0.6906
vn -0.0460 -0.0236 -0.9987
vn -0.9824 0.1850 0.0265
vn 0.6926 0.0195 0.7210
vn -0.0416 0.1452 0.9885
vn 0.9970 -0.0714 0.0309
vn -0.6960 0.1968 0.6905
vn 0.7003 -0.1038 -0.7063
usemtl None
s 1
f 157/1/1 79/2/2 3/3/3 46/4/4
f 156/5/5 112/6/6 7/7/7 83/8/8
f 155/9/9 100/10/10 6/11/11 59/12/12
f 154/13/13 108/14/14 2/15/15 114/16/16
f 153/17/17 44/18/18 9/19/19 93/20/20
f 152/21/21 51/22/22 11/23/23 107/24/24
f 151/25/25 125/26/26 10/27/27 58/28/28
f 150/29/29 101/30/30 12/31/31 66/32/32
f 149/33/33 54/34/34 14/35/35 98/36/36
f 148/37/37 75/38/38 16/39/39 82/40/40
f 147/41/41 103/42/42 15/43/43 65/44/44
f 146/45/45 73/46/46 18/47/47 124/48/48
f 145/49/49 78/50/50 20/51/51 99/52/52
f 15/53/43 103/54/42 47/55/53
f 144/56/54 62/57/55 19/58/56 90/59/57
f 143/60/58 106/61/59 23/62/60 43/63/61
f 142/64/62 74/65/63 24/66/64 53/67/65
f 141/68/66 81/69/67 26/70/68 77/71/69
f 140/72/70 87/73/71 25/74/72 76/75/73
f 139/76/74 88/77/75 21/78/76 55/79/77
f 138/80/78 47/55/53 22/81/79 95/82/80
f 137/83/81 123/84/82 28/85/83 104/86/84
f 136/87/85 116/88/86 30/89/87 69/90/88
f 135/91/89 121/92/90 27/93/91 63/94/92
f 134/95/93 115/96/94 28/97/83 123/98/82
f 28/97/83 115/96/94 68/99/95
f 31/100/96 110/101/97 60/102/98
f 29/103/99 104/86/84 96/104/100
f 133/105/101 67/106/102 33/107/103 52/108/104
f 24/66/64 43/63/61 72/109/105
f 132/110/106 70/111/107 36/112/108 109/113/109
f 23/114/60 77/115/69 71/116/110
f 37/117/111 86/118/112 48/119/113
f 131/120/114 71/121/110 34/122/115 85/123/116
f 130/124/117 84/125/118 38/126/119 86/118/112
f 129/127/120 120/128/121 37/117/111 57/129/122
f 128/130/123 119/131/124 40/132/125 118/133/126
f 40/134/125 57/129/122 105/135/127
f 38/126/119 118/133/126 113/136/128
f 34/137/115 52/108/104 45/138/129
f 36/112/108 85/123/116 94/139/130
f 33/107/103 109/113/109 102/140/131
f 127/141/132 110/101/97 31/100/96 91/142/133
f 126/143/134 111/144/135 13/145/136 50/146/137
f 66/32/32 126/143/134 50/146/137 9/19/19
f 12/31/31 82/40/40 126/143/134 66/32/32
f 82/40/40 16/39/39 111/144/135 126/143/134
f 63/94/92 127/141/132 91/142/133 30/89/87
f 27/93/91 80/147/138 127/141/132 63/94/92
f 80/147/138 29/103/99 110/101/97 127/141/132
f 102/140/131 94/139/130 41/148/139
f 102/140/131 109/113/109 94/139/130
f 109/113/109 36/112/108 94/139/130
f 94/139/130 45/149/129 41/148/139
f 94/139/130 85/123/116 45/149/129
f 85/123/116 34/122/115 45/149/129
f 45/138/129 102/140/131 41/148/139
f 45/138/129 52/108/104 102/140/131
f 52/108/104 33/107/103 102/140/131
f 113/136/128 105/150/127 39/151/140
f 113/136/128 118/133/126 105/150/127
f 118/133/126 40/132/125 105/150/127
f 105/135/127 48/119/113 39/151/140
f 105/135/127 57/129/122 48/119/113
f 57/129/122 37/117/111 48/119/113
f 84/125/118 128/130/123 118/133/126 38/126/119
f 25/152/72 53/153/65 128/130/123 84/125/118
f 53/153/65 24/154/64 119/131/124 128/130/123
f 119/155/124 129/127/120 57/129/122 40/134/125
f 24/156/64 72/157/105 129/127/120 119/155/124
f 72/157/105 35/158/141 120/128/121 129/127/120
f 120/128/121 130/124/117 86/118/112 37/117/111
f 35/158/141 42/159/142 130/124/117 120/128/121
f 42/159/142 25/152/72 84/125/118 130/124/117
f 70/111/107 131/120/114 85/123/116 36/112/108
f 35/160/141 92/161/143 131/120/114 70/111/107
f 92/161/143 23/162/60 71/121/110 131/120/114
f 48/119/113 113/136/128 39/151/140
f 48/119/113 86/118/112 113/136/128
f 86/118/112 38/126/119 113/136/128
f 71/116/110 49/163/144 34/137/115
f 71/116/110 77/115/69 49/163/144
f 77/115/69 26/164/68 49/163/144
f 67/106/102 132/110/106 109/113/109 33/107/103
f 25/165/72 42/166/142 132/110/106 67/106/102
f 42/166/142 35/160/141 70/111/107 132/110/106
f 72/109/105 92/167/143 35/168/141
f 72/109/105 43/63/61 92/167/143
f 43/63/61 23/62/60 92/167/143
f 49/163/144 133/105/101 52/108/104 34/137/115
f 26/164/68 76/169/73 133/105/101 49/163/144
f 76/169/73 25/165/72 67/106/102 133/105/101
f 96/104/100 68/170/95 32/171/145
f 96/104/100 104/86/84 68/170/95
f 104/86/84 28/85/83 68/170/95
f 60/102/98 96/104/100 32/171/145
f 60/102/98 110/101/97 96/104/100
f 110/101/97 29/103/99 96/104/100
f 68/99/95 60/102/98 32/171/145
f 68/99/95 115/96/94 60/102/98
f 115/96/94 31/100/96 60/102/98
f 69/90/88 134/95/93 123/98/82 22/172/79
f 30/89/87 91/142/133 134/95/93 69/90/88
f 91/142/133 31/100/96 115/96/94 134/95/93
f 116/88/86 135/91/89 63/94/92 30/89/87
f 13/173/136 97/174/146 135/91/89 116/88/86
f 97/174/146 17/175/147 121/92/90 135/91/89
f 64/176/148 136/87/85 69/90/88 22/172/79
f 14/177/35 54/178/34 136/87/85 64/176/148
f 54/178/34 13/173/136 116/88/86 136/87/85
f 80/147/138 137/83/81 104/86/84 29/103/99
f 27/93/91 95/82/80 137/83/81 80/147/138
f 95/82/80 22/81/79 123/84/82 137/83/81
f 121/92/90 138/80/78 95/82/80 27/93/91
f 17/175/147 61/179/149 138/80/78 121/92/90
f 61/179/149 15/53/43 47/55/53 138/80/78
f 73/180/46 139/76/74 55/79/77 18/181/47
f 17/182/147 97/183/146 139/76/74 73/180/46
f 97/183/146 13/184/136 88/77/75 139/76/74
f 81/69/67 140/72/70 76/75/73 26/70/68
f 19/58/56 124/48/48 140/72/70 81/69/67
f 124/48/48 18/47/47 87/73/71 140/72/70
f 106/61/59 141/68/66 77/71/69 23/62/60
f 20/51/51 90/59/57 141/68/66 106/61/59
f 90/59/57 19/58/56 81/69/67 141/68/66
f 87/185/71 142/64/62 53/67/65 25/186/72
f 18/181/47 55/79/77 142/64/62 87/185/71
f 55/79/77 21/78/76 74/65/63 142/64/62
f 74/65/63 143/60/58 43/63/61 24/66/64
f 21/78/76 99/52/52 143/60/58 74/65/63
f 99/52/52 20/51/51 106/61/59 143/60/58
f 78/50/50 144/56/54 90/59/57 20/51/51
f 16/187/39 75/188/38 144/56/54 78/50/50
f 75/188/38 15/189/43 62/57/55 144/56/54
f 47/55/53 64/190/148 22/81/79
f 47/55/53 103/54/42 64/190/148
f 103/54/42 14/191/35 64/190/148
f 88/77/75 145/49/49 99/52/52 21/78/76
f 13/184/136 111/192/135 145/49/49 88/77/75
f 111/192/135 16/187/39 78/50/50 145/49/49
f 62/57/55 146/45/45 124/48/48 19/58/56
f 15/189/43 61/193/149 146/45/45 62/57/55
f 61/193/149 17/194/147 73/46/46 146/45/45
f 58/28/28 147/41/41 65/44/44 11/23/23
f 10/27/27 98/195/36 147/41/41 58/28/28
f 98/195/36 14/196/35 103/42/42 147/41/41
f 107/24/24 148/37/37 82/40/40 12/31/31
f 11/23/23 65/44/44 148/37/37 107/24/24
f 65/44/44 15/43/43 75/38/38 148/37/37
f 93/20/20 149/33/33 98/36/36 10/197/27
f 9/19/19 50/146/137 149/33/33 93/20/20
f 50/146/137 13/145/136 54/34/34 149/33/33
f 44/18/18 150/29/29 66/32/32 9/19/19
f 2/15/15 108/14/14 150/29/29 44/18/18
f 108/14/14 7/7/7 101/30/30 150/29/29
f 51/22/22 151/25/25 58/28/28 11/23/23
f 6/11/11 100/10/10 151/25/25 51/22/22
f 100/10/10 3/198/3 125/26/26 151/25/25
f 101/30/30 152/21/21 107/24/24 12/31/31
f 7/7/7 112/6/6 152/21/21 101/30/30
f 112/6/6 6/11/11 51/22/22 152/21/21
f 125/199/26 153/17/17 93/20/20 10/197/27
f 3/3/3 79/2/2 153/17/17 125/199/26
f 79/2/2 2/15/15 44/18/18 153/17/17
f 117/200/150 154/13/13 114/16/16 1/201/151
f 8/202/152 83/8/8 154/13/13 117/200/150
f 83/8/8 7/7/7 108/14/14 154/13/13
f 56/203/153 155/9/9 59/12/12 5/204/154
f 4/205/155 46/206/4 155/9/9 56/203/153
f 46/206/4 3/198/3 100/10/10 155/9/9
f 122/207/156 156/5/5 83/8/8 8/202/152
f 5/204/154 59/12/12 156/5/5 122/207/156
f 59/12/12 6/11/11 112/6/6 156/5/5
f 89/208/157 157/1/1 46/4/4 4/209/155
f 1/201/151 114/16/16 157/1/1 89/208/157
f 114/16/16 2/15/15 79/2/2 157/1/1
